digraph "cmake/SFML-2.5.1/include/SFML/Graphics/BlendMode.hpp"
{
 // LATEX_PDF_SIZE
  edge [fontname="Helvetica",fontsize="10",labelfontname="Helvetica",labelfontsize="10"];
  node [fontname="Helvetica",fontsize="10",shape=record];
  Node1 [label="cmake/SFML-2.5.1/include\l/SFML/Graphics/BlendMode.hpp",height=0.2,width=0.4,color="black", fillcolor="grey75", style="filled", fontcolor="black",tooltip=" "];
  Node1 -> Node2 [dir="back",color="midnightblue",fontsize="10",style="solid"];
  Node2 [label="cmake/SFML-2.5.1/include\l/SFML/Graphics/RenderStates.hpp",height=0.2,width=0.4,color="black", fillcolor="white", style="filled",URL="$_render_states_8hpp.html",tooltip=" "];
  Node2 -> Node3 [dir="back",color="midnightblue",fontsize="10",style="solid"];
  Node3 [label="cmake/SFML-2.5.1/include\l/SFML/Graphics/Drawable.hpp",height=0.2,width=0.4,color="black", fillcolor="white", style="filled",URL="$_drawable_8hpp.html",tooltip=" "];
  Node3 -> Node4 [dir="back",color="midnightblue",fontsize="10",style="solid"];
  Node4 [label="cmake/SFML-2.5.1/include\l/SFML/Graphics/Shape.hpp",height=0.2,width=0.4,color="black", fillcolor="white", style="filled",URL="$_shape_8hpp.html",tooltip=" "];
  Node4 -> Node5 [dir="back",color="midnightblue",fontsize="10",style="solid"];
  Node5 [label="cmake/SFML-2.5.1/include\l/SFML/Graphics/CircleShape.hpp",height=0.2,width=0.4,color="black", fillcolor="white", style="filled",URL="$_circle_shape_8hpp.html",tooltip=" "];
  Node5 -> Node6 [dir="back",color="midnightblue",fontsize="10",style="solid"];
  Node6 [label="cmake/SFML-2.5.1/include\l/SFML/Graphics.hpp",height=0.2,width=0.4,color="black", fillcolor="white", style="filled",URL="$_graphics_8hpp.html",tooltip=" "];
  Node6 -> Node7 [dir="back",color="midnightblue",fontsize="10",style="solid"];
  Node7 [label="cmake/SFML-2.5.1/examples\l/island/Island.cpp",height=0.2,width=0.4,color="black", fillcolor="white", style="filled",URL="$_island_8cpp.html",tooltip=" "];
  Node6 -> Node8 [dir="back",color="midnightblue",fontsize="10",style="solid"];
  Node8 [label="cmake/SFML-2.5.1/examples\l/joystick/Joystick.cpp",height=0.2,width=0.4,color="black", fillcolor="white", style="filled",URL="$_joystick_8cpp.html",tooltip=" "];
  Node6 -> Node9 [dir="back",color="midnightblue",fontsize="10",style="solid"];
  Node9 [label="cmake/SFML-2.5.1/examples\l/opengl/OpenGL.cpp",height=0.2,width=0.4,color="black", fillcolor="white", style="filled",URL="$_open_g_l_8cpp.html",tooltip=" "];
  Node6 -> Node10 [dir="back",color="midnightblue",fontsize="10",style="solid"];
  Node10 [label="cmake/SFML-2.5.1/examples\l/pong/Pong.cpp",height=0.2,width=0.4,color="black", fillcolor="white", style="filled",URL="$_pong_8cpp.html",tooltip=" "];
  Node6 -> Node11 [dir="back",color="midnightblue",fontsize="10",style="solid"];
  Node11 [label="cmake/SFML-2.5.1/examples\l/shader/Effect.hpp",height=0.2,width=0.4,color="black", fillcolor="white", style="filled",URL="$_effect_8hpp.html",tooltip=" "];
  Node11 -> Node12 [dir="back",color="midnightblue",fontsize="10",style="solid"];
  Node12 [label="cmake/SFML-2.5.1/examples\l/shader/Shader.cpp",height=0.2,width=0.4,color="black", fillcolor="white", style="filled",URL="$_shader_8cpp.html",tooltip=" "];
  Node6 -> Node13 [dir="back",color="midnightblue",fontsize="10",style="solid"];
  Node13 [label="cmake/SFML-2.5.1/examples\l/win32/Win32.cpp",height=0.2,width=0.4,color="black", fillcolor="white", style="filled",URL="$_win32_8cpp.html",tooltip=" "];
  Node4 -> Node14 [dir="back",color="midnightblue",fontsize="10",style="solid"];
  Node14 [label="cmake/SFML-2.5.1/include\l/SFML/Graphics/ConvexShape.hpp",height=0.2,width=0.4,color="black", fillcolor="white", style="filled",URL="$_convex_shape_8hpp.html",tooltip=" "];
  Node14 -> Node6 [dir="back",color="midnightblue",fontsize="10",style="solid"];
  Node4 -> Node15 [dir="back",color="midnightblue",fontsize="10",style="solid"];
  Node15 [label="cmake/SFML-2.5.1/include\l/SFML/Graphics/RectangleShape.hpp",height=0.2,width=0.4,color="black", fillcolor="white", style="filled",URL="$_rectangle_shape_8hpp.html",tooltip=" "];
  Node15 -> Node6 [dir="back",color="midnightblue",fontsize="10",style="solid"];
  Node4 -> Node6 [dir="back",color="midnightblue",fontsize="10",style="solid"];
  Node3 -> Node16 [dir="back",color="midnightblue",fontsize="10",style="solid"];
  Node16 [label="cmake/SFML-2.5.1/include\l/SFML/Graphics/Sprite.hpp",height=0.2,width=0.4,color="black", fillcolor="white", style="filled",URL="$_sprite_8hpp.html",tooltip=" "];
  Node16 -> Node6 [dir="back",color="midnightblue",fontsize="10",style="solid"];
  Node3 -> Node17 [dir="back",color="midnightblue",fontsize="10",style="solid"];
  Node17 [label="cmake/SFML-2.5.1/include\l/SFML/Graphics/Text.hpp",height=0.2,width=0.4,color="black", fillcolor="white", style="filled",URL="$_text_8hpp.html",tooltip=" "];
  Node17 -> Node6 [dir="back",color="midnightblue",fontsize="10",style="solid"];
  Node3 -> Node18 [dir="back",color="midnightblue",fontsize="10",style="solid"];
  Node18 [label="cmake/SFML-2.5.1/include\l/SFML/Graphics/VertexArray.hpp",height=0.2,width=0.4,color="black", fillcolor="white", style="filled",URL="$_vertex_array_8hpp.html",tooltip=" "];
  Node18 -> Node4 [dir="back",color="midnightblue",fontsize="10",style="solid"];
  Node18 -> Node17 [dir="back",color="midnightblue",fontsize="10",style="solid"];
  Node18 -> Node6 [dir="back",color="midnightblue",fontsize="10",style="solid"];
  Node3 -> Node19 [dir="back",color="midnightblue",fontsize="10",style="solid"];
  Node19 [label="cmake/SFML-2.5.1/include\l/SFML/Graphics/VertexBuffer.hpp",height=0.2,width=0.4,color="black", fillcolor="white", style="filled",URL="$_vertex_buffer_8hpp.html",tooltip=" "];
  Node19 -> Node6 [dir="back",color="midnightblue",fontsize="10",style="solid"];
  Node3 -> Node6 [dir="back",color="midnightblue",fontsize="10",style="solid"];
  Node2 -> Node20 [dir="back",color="midnightblue",fontsize="10",style="solid"];
  Node20 [label="cmake/SFML-2.5.1/include\l/SFML/Graphics/RenderTarget.hpp",height=0.2,width=0.4,color="black", fillcolor="white", style="filled",URL="$_render_target_8hpp.html",tooltip=" "];
  Node20 -> Node21 [dir="back",color="midnightblue",fontsize="10",style="solid"];
  Node21 [label="cmake/SFML-2.5.1/include\l/SFML/Graphics/RenderTexture.hpp",height=0.2,width=0.4,color="black", fillcolor="white", style="filled",URL="$_render_texture_8hpp.html",tooltip=" "];
  Node21 -> Node6 [dir="back",color="midnightblue",fontsize="10",style="solid"];
  Node20 -> Node22 [dir="back",color="midnightblue",fontsize="10",style="solid"];
  Node22 [label="cmake/SFML-2.5.1/include\l/SFML/Graphics/RenderWindow.hpp",height=0.2,width=0.4,color="black", fillcolor="white", style="filled",URL="$_render_window_8hpp.html",tooltip=" "];
  Node22 -> Node6 [dir="back",color="midnightblue",fontsize="10",style="solid"];
  Node20 -> Node6 [dir="back",color="midnightblue",fontsize="10",style="solid"];
  Node2 -> Node6 [dir="back",color="midnightblue",fontsize="10",style="solid"];
  Node1 -> Node20 [dir="back",color="midnightblue",fontsize="10",style="solid"];
  Node1 -> Node6 [dir="back",color="midnightblue",fontsize="10",style="solid"];
}
