digraph "includes/Factories/Button.hpp"
{
 // LATEX_PDF_SIZE
  edge [fontname="Helvetica",fontsize="10",labelfontname="Helvetica",labelfontsize="10"];
  node [fontname="Helvetica",fontsize="10",shape=record];
  Node1 [label="includes/Factories\l/Button.hpp",height=0.2,width=0.4,color="black", fillcolor="grey75", style="filled", fontcolor="black",tooltip=" "];
  Node1 -> Node2 [color="midnightblue",fontsize="10",style="solid"];
  Node2 [label="iostream",height=0.2,width=0.4,color="grey75", fillcolor="white", style="filled",tooltip=" "];
  Node1 -> Node3 [color="midnightblue",fontsize="10",style="solid"];
  Node3 [label="irrlicht.h",height=0.2,width=0.4,color="red", fillcolor="white", style="filled",URL="$irrlicht_8h.html",tooltip="Main header file of the irrlicht, the only file needed to include."];
  Node3 -> Node4 [color="midnightblue",fontsize="10",style="solid"];
  Node4 [label="IrrCompileConfig.h",height=0.2,width=0.4,color="red", fillcolor="white", style="filled",URL="$_irr_compile_config_8h.html",tooltip=" "];
  Node3 -> Node6 [color="midnightblue",fontsize="10",style="solid"];
  Node6 [label="aabbox3d.h",height=0.2,width=0.4,color="red", fillcolor="white", style="filled",URL="$aabbox3d_8h.html",tooltip=" "];
  Node3 -> Node17 [color="midnightblue",fontsize="10",style="solid"];
  Node17 [label="CDynamicMeshBuffer.h",height=0.2,width=0.4,color="black", fillcolor="white", style="filled",URL="$_c_dynamic_mesh_buffer_8h.html",tooltip=" "];
  Node17 -> Node18 [color="midnightblue",fontsize="10",style="solid"];
  Node18 [label="IDynamicMeshBuffer.h",height=0.2,width=0.4,color="red", fillcolor="white", style="filled",URL="$_i_dynamic_mesh_buffer_8h.html",tooltip=" "];
  Node17 -> Node44 [color="midnightblue",fontsize="10",style="solid"];
  Node44 [label="CVertexBuffer.h",height=0.2,width=0.4,color="red", fillcolor="white", style="filled",URL="$_c_vertex_buffer_8h.html",tooltip=" "];
  Node17 -> Node45 [color="midnightblue",fontsize="10",style="solid"];
  Node45 [label="CIndexBuffer.h",height=0.2,width=0.4,color="red", fillcolor="white", style="filled",URL="$_c_index_buffer_8h.html",tooltip=" "];
  Node3 -> Node45 [color="midnightblue",fontsize="10",style="solid"];
  Node3 -> Node46 [color="midnightblue",fontsize="10",style="solid"];
  Node46 [label="CMeshBuffer.h",height=0.2,width=0.4,color="red", fillcolor="white", style="filled",URL="$_c_mesh_buffer_8h.html",tooltip=" "];
  Node3 -> Node47 [color="midnightblue",fontsize="10",style="solid"];
  Node47 [label="coreutil.h",height=0.2,width=0.4,color="red", fillcolor="white", style="filled",URL="$coreutil_8h.html",tooltip="File containing useful basic utility functions."];
  Node3 -> Node44 [color="midnightblue",fontsize="10",style="solid"];
  Node3 -> Node25 [color="midnightblue",fontsize="10",style="solid"];
  Node25 [label="dimension2d.h",height=0.2,width=0.4,color="red", fillcolor="white", style="filled",URL="$dimension2d_8h.html",tooltip=" "];
  Node3 -> Node49 [color="midnightblue",fontsize="10",style="solid"];
  Node49 [label="ECullingTypes.h",height=0.2,width=0.4,color="red", fillcolor="white", style="filled",URL="$_e_culling_types_8h.html",tooltip=" "];
  Node3 -> Node50 [color="midnightblue",fontsize="10",style="solid"];
  Node50 [label="EDebugSceneTypes.h",height=0.2,width=0.4,color="black", fillcolor="white", style="filled",URL="$_e_debug_scene_types_8h.html",tooltip=" "];
  Node3 -> Node51 [color="midnightblue",fontsize="10",style="solid"];
  Node51 [label="EDriverFeatures.h",height=0.2,width=0.4,color="black", fillcolor="white", style="filled",URL="$_e_driver_features_8h.html",tooltip=" "];
  Node3 -> Node52 [color="midnightblue",fontsize="10",style="solid"];
  Node52 [label="EDriverTypes.h",height=0.2,width=0.4,color="black", fillcolor="white", style="filled",URL="$_e_driver_types_8h.html",tooltip=" "];
  Node3 -> Node53 [color="midnightblue",fontsize="10",style="solid"];
  Node53 [label="EGUIAlignment.h",height=0.2,width=0.4,color="black", fillcolor="white", style="filled",URL="$_e_g_u_i_alignment_8h.html",tooltip=" "];
  Node3 -> Node54 [color="midnightblue",fontsize="10",style="solid"];
  Node54 [label="EGUIElementTypes.h",height=0.2,width=0.4,color="red", fillcolor="white", style="filled",URL="$_e_g_u_i_element_types_8h.html",tooltip=" "];
  Node3 -> Node40 [color="midnightblue",fontsize="10",style="solid"];
  Node40 [label="EHardwareBufferFlags.h",height=0.2,width=0.4,color="black", fillcolor="white", style="filled",URL="$_e_hardware_buffer_flags_8h.html",tooltip=" "];
  Node3 -> Node36 [color="midnightblue",fontsize="10",style="solid"];
  Node36 [label="EMaterialFlags.h",height=0.2,width=0.4,color="black", fillcolor="white", style="filled",URL="$_e_material_flags_8h.html",tooltip=" "];
  Node3 -> Node35 [color="midnightblue",fontsize="10",style="solid"];
  Node35 [label="EMaterialTypes.h",height=0.2,width=0.4,color="black", fillcolor="white", style="filled",URL="$_e_material_types_8h.html",tooltip=" "];
  Node3 -> Node55 [color="midnightblue",fontsize="10",style="solid"];
  Node55 [label="EMeshWriterEnums.h",height=0.2,width=0.4,color="red", fillcolor="white", style="filled",URL="$_e_mesh_writer_enums_8h.html",tooltip=" "];
  Node3 -> Node56 [color="midnightblue",fontsize="10",style="solid"];
  Node56 [label="EMessageBoxFlags.h",height=0.2,width=0.4,color="black", fillcolor="white", style="filled",URL="$_e_message_box_flags_8h.html",tooltip=" "];
  Node3 -> Node57 [color="midnightblue",fontsize="10",style="solid"];
  Node57 [label="ESceneNodeAnimatorTypes.h",height=0.2,width=0.4,color="black", fillcolor="white", style="filled",URL="$_e_scene_node_animator_types_8h.html",tooltip=" "];
  Node3 -> Node58 [color="midnightblue",fontsize="10",style="solid"];
  Node58 [label="ESceneNodeTypes.h",height=0.2,width=0.4,color="red", fillcolor="white", style="filled",URL="$_e_scene_node_types_8h.html",tooltip=" "];
  Node3 -> Node59 [color="midnightblue",fontsize="10",style="solid"];
  Node59 [label="ETerrainElements.h",height=0.2,width=0.4,color="black", fillcolor="white", style="filled",URL="$_e_terrain_elements_8h.html",tooltip=" "];
  Node3 -> Node60 [color="midnightblue",fontsize="10",style="solid"];
  Node60 [label="fast_atof.h",height=0.2,width=0.4,color="red", fillcolor="white", style="filled",URL="$fast__atof_8h.html",tooltip=" "];
  Node3 -> Node34 [color="midnightblue",fontsize="10",style="solid"];
  Node34 [label="heapsort.h",height=0.2,width=0.4,color="red", fillcolor="white", style="filled",URL="$heapsort_8h.html",tooltip=" "];
  Node3 -> Node61 [color="midnightblue",fontsize="10",style="solid"];
  Node61 [label="IAnimatedMesh.h",height=0.2,width=0.4,color="red", fillcolor="white", style="filled",URL="$_i_animated_mesh_8h.html",tooltip=" "];
  Node61 -> Node6 [color="midnightblue",fontsize="10",style="solid"];
  Node3 -> Node63 [color="midnightblue",fontsize="10",style="solid"];
  Node63 [label="IAnimatedMeshMD2.h",height=0.2,width=0.4,color="black", fillcolor="white", style="filled",URL="$_i_animated_mesh_m_d2_8h.html",tooltip=" "];
  Node63 -> Node61 [color="midnightblue",fontsize="10",style="solid"];
  Node3 -> Node64 [color="midnightblue",fontsize="10",style="solid"];
  Node64 [label="IAnimatedMeshMD3.h",height=0.2,width=0.4,color="red", fillcolor="white", style="filled",URL="$_i_animated_mesh_m_d3_8h.html",tooltip=" "];
  Node64 -> Node61 [color="midnightblue",fontsize="10",style="solid"];
  Node3 -> Node80 [color="midnightblue",fontsize="10",style="solid"];
  Node80 [label="IAnimatedMeshSceneNode.h",height=0.2,width=0.4,color="red", fillcolor="white", style="filled",URL="$_i_animated_mesh_scene_node_8h.html",tooltip=" "];
  Node80 -> Node92 [color="midnightblue",fontsize="10",style="solid"];
  Node92 [label="IBoneSceneNode.h",height=0.2,width=0.4,color="red", fillcolor="white", style="filled",URL="$_i_bone_scene_node_8h.html",tooltip=" "];
  Node80 -> Node63 [color="midnightblue",fontsize="10",style="solid"];
  Node80 -> Node64 [color="midnightblue",fontsize="10",style="solid"];
  Node3 -> Node82 [color="midnightblue",fontsize="10",style="solid"];
  Node82 [label="IAttributeExchangingObject.h",height=0.2,width=0.4,color="red", fillcolor="white", style="filled",URL="$_i_attribute_exchanging_object_8h.html",tooltip=" "];
  Node3 -> Node89 [color="midnightblue",fontsize="10",style="solid"];
  Node89 [label="IAttributes.h",height=0.2,width=0.4,color="red", fillcolor="white", style="filled",URL="$_i_attributes_8h.html",tooltip=" "];
  Node89 -> Node25 [color="midnightblue",fontsize="10",style="solid"];
  Node3 -> Node93 [color="midnightblue",fontsize="10",style="solid"];
  Node93 [label="IBillboardSceneNode.h",height=0.2,width=0.4,color="red", fillcolor="white", style="filled",URL="$_i_billboard_scene_node_8h.html",tooltip=" "];
  Node3 -> Node94 [color="midnightblue",fontsize="10",style="solid"];
  Node94 [label="IBillboardTextSceneNode.h",height=0.2,width=0.4,color="black", fillcolor="white", style="filled",URL="$_i_billboard_text_scene_node_8h.html",tooltip=" "];
  Node94 -> Node93 [color="midnightblue",fontsize="10",style="solid"];
  Node3 -> Node92 [color="midnightblue",fontsize="10",style="solid"];
  Node3 -> Node95 [color="midnightblue",fontsize="10",style="solid"];
  Node95 [label="ICameraSceneNode.h",height=0.2,width=0.4,color="red", fillcolor="white", style="filled",URL="$_i_camera_scene_node_8h.html",tooltip=" "];
  Node95 -> Node84 [color="midnightblue",fontsize="10",style="solid"];
  Node84 [label="IEventReceiver.h",height=0.2,width=0.4,color="red", fillcolor="white", style="filled",URL="$_i_event_receiver_8h.html",tooltip=" "];
  Node3 -> Node96 [color="midnightblue",fontsize="10",style="solid"];
  Node96 [label="ICursorControl.h",height=0.2,width=0.4,color="red", fillcolor="white", style="filled",URL="$_i_cursor_control_8h.html",tooltip=" "];
  Node3 -> Node97 [color="midnightblue",fontsize="10",style="solid"];
  Node97 [label="IDummyTransformationScene\lNode.h",height=0.2,width=0.4,color="red", fillcolor="white", style="filled",URL="$_i_dummy_transformation_scene_node_8h.html",tooltip=" "];
  Node3 -> Node18 [color="midnightblue",fontsize="10",style="solid"];
  Node3 -> Node84 [color="midnightblue",fontsize="10",style="solid"];
  Node3 -> Node71 [color="midnightblue",fontsize="10",style="solid"];
  Node71 [label="IFileList.h",height=0.2,width=0.4,color="red", fillcolor="white", style="filled",URL="$_i_file_list_8h.html",tooltip=" "];
  Node3 -> Node66 [color="midnightblue",fontsize="10",style="solid"];
  Node66 [label="IFileSystem.h",height=0.2,width=0.4,color="red", fillcolor="white", style="filled",URL="$_i_file_system_8h.html",tooltip=" "];
  Node3 -> Node98 [color="midnightblue",fontsize="10",style="solid"];
  Node98 [label="IGeometryCreator.h",height=0.2,width=0.4,color="red", fillcolor="white", style="filled",URL="$_i_geometry_creator_8h.html",tooltip=" "];
  Node1 -> Node193 [color="midnightblue",fontsize="10",style="solid"];
  Node193 [label="Entity.hpp",height=0.2,width=0.4,color="red", fillcolor="white", style="filled",URL="$_entity_8hpp.html",tooltip=" "];
  Node193 -> Node197 [color="midnightblue",fontsize="10",style="solid"];
  Node197 [label="../components/Component.hpp",height=0.2,width=0.4,color="black", fillcolor="white", style="filled",URL="$_component_8hpp.html",tooltip=" "];
  Node1 -> Node199 [color="midnightblue",fontsize="10",style="solid"];
  Node199 [label="IScene.hpp",height=0.2,width=0.4,color="black", fillcolor="white", style="filled",URL="$_i_scene_8hpp.html",tooltip=" "];
  Node1 -> Node197 [color="midnightblue",fontsize="10",style="solid"];
  Node1 -> Node200 [color="midnightblue",fontsize="10",style="solid"];
  Node200 [label="PositionComponent.hpp",height=0.2,width=0.4,color="black", fillcolor="white", style="filled",URL="$_position_component_8hpp.html",tooltip=" "];
  Node200 -> Node197 [color="midnightblue",fontsize="10",style="solid"];
  Node1 -> Node201 [color="midnightblue",fontsize="10",style="solid"];
  Node201 [label="SizeComponent.hpp",height=0.2,width=0.4,color="black", fillcolor="white", style="filled",URL="$_size_component_8hpp.html",tooltip=" "];
  Node201 -> Node197 [color="midnightblue",fontsize="10",style="solid"];
  Node1 -> Node202 [color="midnightblue",fontsize="10",style="solid"];
  Node202 [label="TextureComponent.hpp",height=0.2,width=0.4,color="red", fillcolor="white", style="filled",URL="$_texture_component_8hpp.html",tooltip=" "];
  Node202 -> Node3 [color="midnightblue",fontsize="10",style="solid"];
  Node202 -> Node2 [color="midnightblue",fontsize="10",style="solid"];
  Node202 -> Node197 [color="midnightblue",fontsize="10",style="solid"];
}
