digraph "cmake/include/CMeshBuffer.h"
{
 // LATEX_PDF_SIZE
  edge [fontname="Helvetica",fontsize="10",labelfontname="Helvetica",labelfontsize="10"];
  node [fontname="Helvetica",fontsize="10",shape=record];
  Node1 [label="cmake/include/CMeshBuffer.h",height=0.2,width=0.4,color="black", fillcolor="grey75", style="filled", fontcolor="black",tooltip=" "];
  Node1 -> Node2 [color="midnightblue",fontsize="10",style="solid"];
  Node2 [label="irrArray.h",height=0.2,width=0.4,color="black", fillcolor="white", style="filled",URL="$irr_array_8h.html",tooltip=" "];
  Node2 -> Node3 [color="midnightblue",fontsize="10",style="solid"];
  Node3 [label="irrTypes.h",height=0.2,width=0.4,color="black", fillcolor="white", style="filled",URL="$irr_types_8h.html",tooltip=" "];
  Node3 -> Node4 [color="midnightblue",fontsize="10",style="solid"];
  Node4 [label="IrrCompileConfig.h",height=0.2,width=0.4,color="black", fillcolor="white", style="filled",URL="$_irr_compile_config_8h.html",tooltip=" "];
  Node4 -> Node5 [color="midnightblue",fontsize="10",style="solid"];
  Node5 [label="stdio.h",height=0.2,width=0.4,color="grey75", fillcolor="white", style="filled",tooltip=" "];
  Node3 -> Node6 [color="midnightblue",fontsize="10",style="solid"];
  Node6 [label="wchar.h",height=0.2,width=0.4,color="grey75", fillcolor="white", style="filled",tooltip=" "];
  Node2 -> Node7 [color="midnightblue",fontsize="10",style="solid"];
  Node7 [label="heapsort.h",height=0.2,width=0.4,color="black", fillcolor="white", style="filled",URL="$heapsort_8h.html",tooltip=" "];
  Node7 -> Node3 [color="midnightblue",fontsize="10",style="solid"];
  Node2 -> Node8 [color="midnightblue",fontsize="10",style="solid"];
  Node8 [label="irrAllocator.h",height=0.2,width=0.4,color="black", fillcolor="white", style="filled",URL="$irr_allocator_8h.html",tooltip=" "];
  Node8 -> Node3 [color="midnightblue",fontsize="10",style="solid"];
  Node8 -> Node9 [color="midnightblue",fontsize="10",style="solid"];
  Node9 [label="new",height=0.2,width=0.4,color="grey75", fillcolor="white", style="filled",tooltip=" "];
  Node8 -> Node10 [color="midnightblue",fontsize="10",style="solid"];
  Node10 [label="memory.h",height=0.2,width=0.4,color="grey75", fillcolor="white", style="filled",tooltip=" "];
  Node2 -> Node11 [color="midnightblue",fontsize="10",style="solid"];
  Node11 [label="irrMath.h",height=0.2,width=0.4,color="black", fillcolor="white", style="filled",URL="$irr_math_8h.html",tooltip=" "];
  Node11 -> Node4 [color="midnightblue",fontsize="10",style="solid"];
  Node11 -> Node3 [color="midnightblue",fontsize="10",style="solid"];
  Node11 -> Node12 [color="midnightblue",fontsize="10",style="solid"];
  Node12 [label="math.h",height=0.2,width=0.4,color="grey75", fillcolor="white", style="filled",tooltip=" "];
  Node11 -> Node13 [color="midnightblue",fontsize="10",style="solid"];
  Node13 [label="float.h",height=0.2,width=0.4,color="grey75", fillcolor="white", style="filled",tooltip=" "];
  Node11 -> Node14 [color="midnightblue",fontsize="10",style="solid"];
  Node14 [label="stdlib.h",height=0.2,width=0.4,color="grey75", fillcolor="white", style="filled",tooltip=" "];
  Node11 -> Node15 [color="midnightblue",fontsize="10",style="solid"];
  Node15 [label="limits.h",height=0.2,width=0.4,color="grey75", fillcolor="white", style="filled",tooltip=" "];
  Node1 -> Node16 [color="midnightblue",fontsize="10",style="solid"];
  Node16 [label="IMeshBuffer.h",height=0.2,width=0.4,color="black", fillcolor="white", style="filled",URL="$_i_mesh_buffer_8h.html",tooltip=" "];
  Node16 -> Node17 [color="midnightblue",fontsize="10",style="solid"];
  Node17 [label="IReferenceCounted.h",height=0.2,width=0.4,color="black", fillcolor="white", style="filled",URL="$_i_reference_counted_8h.html",tooltip=" "];
  Node17 -> Node3 [color="midnightblue",fontsize="10",style="solid"];
  Node16 -> Node18 [color="midnightblue",fontsize="10",style="solid"];
  Node18 [label="SMaterial.h",height=0.2,width=0.4,color="black", fillcolor="white", style="filled",URL="$_s_material_8h.html",tooltip=" "];
  Node18 -> Node19 [color="midnightblue",fontsize="10",style="solid"];
  Node19 [label="SColor.h",height=0.2,width=0.4,color="black", fillcolor="white", style="filled",URL="$_s_color_8h.html",tooltip=" "];
  Node19 -> Node3 [color="midnightblue",fontsize="10",style="solid"];
  Node19 -> Node11 [color="midnightblue",fontsize="10",style="solid"];
  Node18 -> Node20 [color="midnightblue",fontsize="10",style="solid"];
  Node20 [label="matrix4.h",height=0.2,width=0.4,color="black", fillcolor="white", style="filled",URL="$matrix4_8h.html",tooltip=" "];
  Node20 -> Node11 [color="midnightblue",fontsize="10",style="solid"];
  Node20 -> Node21 [color="midnightblue",fontsize="10",style="solid"];
  Node21 [label="vector3d.h",height=0.2,width=0.4,color="black", fillcolor="white", style="filled",URL="$vector3d_8h.html",tooltip=" "];
  Node21 -> Node11 [color="midnightblue",fontsize="10",style="solid"];
  Node20 -> Node22 [color="midnightblue",fontsize="10",style="solid"];
  Node22 [label="vector2d.h",height=0.2,width=0.4,color="black", fillcolor="white", style="filled",URL="$vector2d_8h.html",tooltip=" "];
  Node22 -> Node11 [color="midnightblue",fontsize="10",style="solid"];
  Node22 -> Node23 [color="midnightblue",fontsize="10",style="solid"];
  Node23 [label="dimension2d.h",height=0.2,width=0.4,color="black", fillcolor="white", style="filled",URL="$dimension2d_8h.html",tooltip=" "];
  Node23 -> Node3 [color="midnightblue",fontsize="10",style="solid"];
  Node23 -> Node11 [color="midnightblue",fontsize="10",style="solid"];
  Node20 -> Node24 [color="midnightblue",fontsize="10",style="solid"];
  Node24 [label="plane3d.h",height=0.2,width=0.4,color="black", fillcolor="white", style="filled",URL="$plane3d_8h.html",tooltip=" "];
  Node24 -> Node11 [color="midnightblue",fontsize="10",style="solid"];
  Node24 -> Node21 [color="midnightblue",fontsize="10",style="solid"];
  Node20 -> Node25 [color="midnightblue",fontsize="10",style="solid"];
  Node25 [label="aabbox3d.h",height=0.2,width=0.4,color="black", fillcolor="white", style="filled",URL="$aabbox3d_8h.html",tooltip=" "];
  Node25 -> Node11 [color="midnightblue",fontsize="10",style="solid"];
  Node25 -> Node24 [color="midnightblue",fontsize="10",style="solid"];
  Node25 -> Node26 [color="midnightblue",fontsize="10",style="solid"];
  Node26 [label="line3d.h",height=0.2,width=0.4,color="black", fillcolor="white", style="filled",URL="$line3d_8h.html",tooltip=" "];
  Node26 -> Node3 [color="midnightblue",fontsize="10",style="solid"];
  Node26 -> Node21 [color="midnightblue",fontsize="10",style="solid"];
  Node20 -> Node27 [color="midnightblue",fontsize="10",style="solid"];
  Node27 [label="rect.h",height=0.2,width=0.4,color="black", fillcolor="white", style="filled",URL="$rect_8h.html",tooltip=" "];
  Node27 -> Node3 [color="midnightblue",fontsize="10",style="solid"];
  Node27 -> Node23 [color="midnightblue",fontsize="10",style="solid"];
  Node27 -> Node28 [color="midnightblue",fontsize="10",style="solid"];
  Node28 [label="position2d.h",height=0.2,width=0.4,color="black", fillcolor="white", style="filled",URL="$position2d_8h.html",tooltip=" "];
  Node28 -> Node22 [color="midnightblue",fontsize="10",style="solid"];
  Node20 -> Node29 [color="midnightblue",fontsize="10",style="solid"];
  Node29 [label="irrString.h",height=0.2,width=0.4,color="black", fillcolor="white", style="filled",URL="$irr_string_8h.html",tooltip=" "];
  Node29 -> Node3 [color="midnightblue",fontsize="10",style="solid"];
  Node29 -> Node8 [color="midnightblue",fontsize="10",style="solid"];
  Node29 -> Node11 [color="midnightblue",fontsize="10",style="solid"];
  Node29 -> Node5 [color="midnightblue",fontsize="10",style="solid"];
  Node29 -> Node30 [color="midnightblue",fontsize="10",style="solid"];
  Node30 [label="string.h",height=0.2,width=0.4,color="grey75", fillcolor="white", style="filled",tooltip=" "];
  Node29 -> Node14 [color="midnightblue",fontsize="10",style="solid"];
  Node18 -> Node2 [color="midnightblue",fontsize="10",style="solid"];
  Node18 -> Node11 [color="midnightblue",fontsize="10",style="solid"];
  Node18 -> Node31 [color="midnightblue",fontsize="10",style="solid"];
  Node31 [label="EMaterialTypes.h",height=0.2,width=0.4,color="black", fillcolor="white", style="filled",URL="$_e_material_types_8h.html",tooltip=" "];
  Node18 -> Node32 [color="midnightblue",fontsize="10",style="solid"];
  Node32 [label="EMaterialFlags.h",height=0.2,width=0.4,color="black", fillcolor="white", style="filled",URL="$_e_material_flags_8h.html",tooltip=" "];
  Node18 -> Node33 [color="midnightblue",fontsize="10",style="solid"];
  Node33 [label="SMaterialLayer.h",height=0.2,width=0.4,color="black", fillcolor="white", style="filled",URL="$_s_material_layer_8h.html",tooltip=" "];
  Node33 -> Node20 [color="midnightblue",fontsize="10",style="solid"];
  Node33 -> Node8 [color="midnightblue",fontsize="10",style="solid"];
  Node16 -> Node25 [color="midnightblue",fontsize="10",style="solid"];
  Node16 -> Node34 [color="midnightblue",fontsize="10",style="solid"];
  Node34 [label="S3DVertex.h",height=0.2,width=0.4,color="black", fillcolor="white", style="filled",URL="$_s3_d_vertex_8h.html",tooltip=" "];
  Node34 -> Node21 [color="midnightblue",fontsize="10",style="solid"];
  Node34 -> Node22 [color="midnightblue",fontsize="10",style="solid"];
  Node34 -> Node19 [color="midnightblue",fontsize="10",style="solid"];
  Node16 -> Node35 [color="midnightblue",fontsize="10",style="solid"];
  Node35 [label="SVertexIndex.h",height=0.2,width=0.4,color="black", fillcolor="white", style="filled",URL="$_s_vertex_index_8h.html",tooltip=" "];
  Node35 -> Node3 [color="midnightblue",fontsize="10",style="solid"];
  Node16 -> Node36 [color="midnightblue",fontsize="10",style="solid"];
  Node36 [label="EHardwareBufferFlags.h",height=0.2,width=0.4,color="black", fillcolor="white", style="filled",URL="$_e_hardware_buffer_flags_8h.html",tooltip=" "];
  Node16 -> Node37 [color="midnightblue",fontsize="10",style="solid"];
  Node37 [label="EPrimitiveTypes.h",height=0.2,width=0.4,color="black", fillcolor="white", style="filled",URL="$_e_primitive_types_8h.html",tooltip=" "];
}
