digraph "includes/Factories/ECS/components/ColliderComponent.hpp"
{
 // LATEX_PDF_SIZE
  edge [fontname="Helvetica",fontsize="10",labelfontname="Helvetica",labelfontsize="10"];
  node [fontname="Helvetica",fontsize="10",shape=record];
  Node1 [label="includes/Factories\l/ECS/components/ColliderComponent.hpp",height=0.2,width=0.4,color="black", fillcolor="grey75", style="filled", fontcolor="black",tooltip=" "];
  Node1 -> Node2 [dir="back",color="midnightblue",fontsize="10",style="solid"];
  Node2 [label="includes/Factories\l/ECS/entities/Perso.hpp",height=0.2,width=0.4,color="black", fillcolor="white", style="filled",URL="$_perso_8hpp.html",tooltip=" "];
  Node2 -> Node3 [dir="back",color="midnightblue",fontsize="10",style="solid"];
  Node3 [label="includes/Scenes/GameScene.hpp",height=0.2,width=0.4,color="black", fillcolor="white", style="filled",URL="$_game_scene_8hpp.html",tooltip=" "];
  Node3 -> Node4 [dir="back",color="midnightblue",fontsize="10",style="solid"];
  Node4 [label="includes/Core/Core.hpp",height=0.2,width=0.4,color="black", fillcolor="white", style="filled",URL="$_core_8hpp.html",tooltip=" "];
  Node4 -> Node5 [dir="back",color="midnightblue",fontsize="10",style="solid"];
  Node5 [label="sources/Core/Core.cpp",height=0.2,width=0.4,color="black", fillcolor="white", style="filled",URL="$_core_8cpp.html",tooltip=" "];
  Node4 -> Node6 [dir="back",color="midnightblue",fontsize="10",style="solid"];
  Node6 [label="sources/main.cpp",height=0.2,width=0.4,color="black", fillcolor="white", style="filled",URL="$main_8cpp.html",tooltip=" "];
  Node3 -> Node7 [dir="back",color="midnightblue",fontsize="10",style="solid"];
  Node7 [label="sources/Scenes/GameScene.cpp",height=0.2,width=0.4,color="black", fillcolor="white", style="filled",URL="$_game_scene_8cpp.html",tooltip=" "];
  Node2 -> Node8 [dir="back",color="midnightblue",fontsize="10",style="solid"];
  Node8 [label="sources/Factories/ECS\l/entities/Perso.cpp",height=0.2,width=0.4,color="black", fillcolor="white", style="filled",URL="$_perso_8cpp.html",tooltip=" "];
  Node2 -> Node6 [dir="back",color="midnightblue",fontsize="10",style="solid"];
  Node1 -> Node9 [dir="back",color="midnightblue",fontsize="10",style="solid"];
  Node9 [label="includes/GameObjects\l/Block.hpp",height=0.2,width=0.4,color="black", fillcolor="white", style="filled",URL="$_block_8hpp.html",tooltip=" "];
  Node9 -> Node10 [dir="back",color="midnightblue",fontsize="10",style="solid"];
  Node10 [label="includes/GameObjects\l/Bomb.hpp",height=0.2,width=0.4,color="black", fillcolor="white", style="filled",URL="$_bomb_8hpp.html",tooltip=" "];
  Node10 -> Node2 [dir="back",color="midnightblue",fontsize="10",style="solid"];
  Node10 -> Node11 [dir="back",color="midnightblue",fontsize="10",style="solid"];
  Node11 [label="sources/GameObjects\l/Bomb.cpp",height=0.2,width=0.4,color="black", fillcolor="white", style="filled",URL="$_bomb_8cpp.html",tooltip=" "];
  Node9 -> Node12 [dir="back",color="midnightblue",fontsize="10",style="solid"];
  Node12 [label="includes/GameObjects\l/Crate.hpp",height=0.2,width=0.4,color="black", fillcolor="white", style="filled",URL="$_crate_8hpp.html",tooltip=" "];
  Node12 -> Node13 [dir="back",color="midnightblue",fontsize="10",style="solid"];
  Node13 [label="sources/GameObjects\l/Crate.cpp",height=0.2,width=0.4,color="black", fillcolor="white", style="filled",URL="$_crate_8cpp.html",tooltip=" "];
  Node12 -> Node14 [dir="back",color="midnightblue",fontsize="10",style="solid"];
  Node14 [label="sources/GameObjects\l/Map.cpp",height=0.2,width=0.4,color="black", fillcolor="white", style="filled",URL="$_map_8cpp.html",tooltip=" "];
  Node12 -> Node15 [dir="back",color="midnightblue",fontsize="10",style="solid"];
  Node15 [label="sources/Graphical/Graphical.cpp",height=0.2,width=0.4,color="black", fillcolor="white", style="filled",URL="$_graphical_8cpp.html",tooltip=" "];
  Node12 -> Node16 [dir="back",color="midnightblue",fontsize="10",style="solid"];
  Node16 [label="sources/Render/Render.cpp",height=0.2,width=0.4,color="black", fillcolor="white", style="filled",URL="$_render_8cpp.html",tooltip=" "];
  Node9 -> Node17 [dir="back",color="midnightblue",fontsize="10",style="solid"];
  Node17 [label="includes/GameObjects\l/Map.hpp",height=0.2,width=0.4,color="black", fillcolor="white", style="filled",URL="$_map_8hpp.html",tooltip=" "];
  Node17 -> Node18 [dir="back",color="midnightblue",fontsize="10",style="solid"];
  Node18 [label="includes/Factories\l/MapFactory.hpp",height=0.2,width=0.4,color="black", fillcolor="white", style="filled",URL="$_map_factory_8hpp.html",tooltip=" "];
  Node18 -> Node3 [dir="back",color="midnightblue",fontsize="10",style="solid"];
  Node18 -> Node19 [dir="back",color="midnightblue",fontsize="10",style="solid"];
  Node19 [label="sources/Factories/MapFactory.cpp",height=0.2,width=0.4,color="black", fillcolor="white", style="filled",URL="$_map_factory_8cpp.html",tooltip=" "];
  Node18 -> Node6 [dir="back",color="midnightblue",fontsize="10",style="solid"];
  Node17 -> Node20 [dir="back",color="midnightblue",fontsize="10",style="solid"];
  Node20 [label="includes/Graphical\l/Graphical.hpp",height=0.2,width=0.4,color="black", fillcolor="white", style="filled",URL="$_graphical_8hpp.html",tooltip=" "];
  Node20 -> Node4 [dir="back",color="midnightblue",fontsize="10",style="solid"];
  Node20 -> Node3 [dir="back",color="midnightblue",fontsize="10",style="solid"];
  Node20 -> Node21 [dir="back",color="midnightblue",fontsize="10",style="solid"];
  Node21 [label="includes/Scenes/Menu.hpp",height=0.2,width=0.4,color="black", fillcolor="white", style="filled",URL="$_menu_8hpp.html",tooltip=" "];
  Node21 -> Node4 [dir="back",color="midnightblue",fontsize="10",style="solid"];
  Node21 -> Node22 [dir="back",color="midnightblue",fontsize="10",style="solid"];
  Node22 [label="sources/Scenes/Menu.cpp",height=0.2,width=0.4,color="black", fillcolor="white", style="filled",URL="$_menu_8cpp.html",tooltip=" "];
  Node20 -> Node23 [dir="back",color="midnightblue",fontsize="10",style="solid"];
  Node23 [label="includes/Scenes/Options.hpp",height=0.2,width=0.4,color="black", fillcolor="white", style="filled",URL="$_options_8hpp.html",tooltip=" "];
  Node23 -> Node4 [dir="back",color="midnightblue",fontsize="10",style="solid"];
  Node23 -> Node24 [dir="back",color="midnightblue",fontsize="10",style="solid"];
  Node24 [label="sources/Scenes/Options.cpp",height=0.2,width=0.4,color="black", fillcolor="white", style="filled",URL="$_options_8cpp.html",tooltip=" "];
  Node20 -> Node25 [dir="back",color="midnightblue",fontsize="10",style="solid"];
  Node25 [label="includes/Scenes/SelectPlayer.hpp",height=0.2,width=0.4,color="black", fillcolor="white", style="filled",URL="$_select_player_8hpp.html",tooltip=" "];
  Node25 -> Node4 [dir="back",color="midnightblue",fontsize="10",style="solid"];
  Node25 -> Node26 [dir="back",color="midnightblue",fontsize="10",style="solid"];
  Node26 [label="sources/Scenes/SelectPlayer.cpp",height=0.2,width=0.4,color="black", fillcolor="white", style="filled",URL="$_select_player_8cpp.html",tooltip=" "];
  Node20 -> Node27 [dir="back",color="midnightblue",fontsize="10",style="solid"];
  Node27 [label="includes/Scenes/SelectSave.hpp",height=0.2,width=0.4,color="black", fillcolor="white", style="filled",URL="$_select_save_8hpp.html",tooltip=" "];
  Node27 -> Node4 [dir="back",color="midnightblue",fontsize="10",style="solid"];
  Node27 -> Node28 [dir="back",color="midnightblue",fontsize="10",style="solid"];
  Node28 [label="sources/Scenes/SelectSave.cpp",height=0.2,width=0.4,color="black", fillcolor="white", style="filled",URL="$_select_save_8cpp.html",tooltip=" "];
  Node20 -> Node29 [dir="back",color="midnightblue",fontsize="10",style="solid"];
  Node29 [label="includes/Scenes/Title.hpp",height=0.2,width=0.4,color="black", fillcolor="white", style="filled",URL="$_title_8hpp.html",tooltip=" "];
  Node29 -> Node4 [dir="back",color="midnightblue",fontsize="10",style="solid"];
  Node29 -> Node30 [dir="back",color="midnightblue",fontsize="10",style="solid"];
  Node30 [label="sources/Scenes/Title.cpp",height=0.2,width=0.4,color="black", fillcolor="white", style="filled",URL="$_title_8cpp.html",tooltip=" "];
  Node20 -> Node15 [dir="back",color="midnightblue",fontsize="10",style="solid"];
  Node20 -> Node6 [dir="back",color="midnightblue",fontsize="10",style="solid"];
  Node17 -> Node31 [dir="back",color="midnightblue",fontsize="10",style="solid"];
  Node31 [label="includes/Render/Render.hpp",height=0.2,width=0.4,color="black", fillcolor="white", style="filled",URL="$_render_8hpp.html",tooltip=" "];
  Node31 -> Node6 [dir="back",color="midnightblue",fontsize="10",style="solid"];
  Node31 -> Node16 [dir="back",color="midnightblue",fontsize="10",style="solid"];
  Node17 -> Node14 [dir="back",color="midnightblue",fontsize="10",style="solid"];
  Node17 -> Node6 [dir="back",color="midnightblue",fontsize="10",style="solid"];
  Node9 -> Node32 [dir="back",color="midnightblue",fontsize="10",style="solid"];
  Node32 [label="includes/GameObjects\l/Wall.hpp",height=0.2,width=0.4,color="black", fillcolor="white", style="filled",URL="$_wall_8hpp.html",tooltip=" "];
  Node32 -> Node14 [dir="back",color="midnightblue",fontsize="10",style="solid"];
  Node32 -> Node33 [dir="back",color="midnightblue",fontsize="10",style="solid"];
  Node33 [label="sources/GameObjects\l/Wall.cpp",height=0.2,width=0.4,color="black", fillcolor="white", style="filled",URL="$_wall_8cpp.html",tooltip=" "];
  Node32 -> Node15 [dir="back",color="midnightblue",fontsize="10",style="solid"];
  Node32 -> Node16 [dir="back",color="midnightblue",fontsize="10",style="solid"];
  Node9 -> Node34 [dir="back",color="midnightblue",fontsize="10",style="solid"];
  Node34 [label="sources/GameObjects\l/Block.cpp",height=0.2,width=0.4,color="black", fillcolor="white", style="filled",URL="$_block_8cpp.html",tooltip=" "];
  Node9 -> Node14 [dir="back",color="midnightblue",fontsize="10",style="solid"];
  Node1 -> Node20 [dir="back",color="midnightblue",fontsize="10",style="solid"];
  Node1 -> Node35 [dir="back",color="midnightblue",fontsize="10",style="solid"];
  Node35 [label="sources/Factories/ECS\l/components/ColliderComponent.cpp",height=0.2,width=0.4,color="black", fillcolor="white", style="filled",URL="$_collider_component_8cpp.html",tooltip=" "];
  Node1 -> Node34 [dir="back",color="midnightblue",fontsize="10",style="solid"];
}
