digraph "includes/Factories/ECS/components/Component.hpp"
{
 // LATEX_PDF_SIZE
  edge [fontname="Helvetica",fontsize="10",labelfontname="Helvetica",labelfontsize="10"];
  node [fontname="Helvetica",fontsize="10",shape=record];
  Node1 [label="includes/Factories\l/ECS/components/Component.hpp",height=0.2,width=0.4,color="black", fillcolor="grey75", style="filled", fontcolor="black",tooltip=" "];
  Node1 -> Node2 [dir="back",color="midnightblue",fontsize="10",style="solid"];
  Node2 [label="includes/Factories\l/Button.hpp",height=0.2,width=0.4,color="black", fillcolor="white", style="filled",URL="$_button_8hpp.html",tooltip=" "];
  Node2 -> Node3 [dir="back",color="midnightblue",fontsize="10",style="solid"];
  Node3 [label="includes/Scenes/Menu.hpp",height=0.2,width=0.4,color="black", fillcolor="white", style="filled",URL="$_menu_8hpp.html",tooltip=" "];
  Node3 -> Node4 [dir="back",color="midnightblue",fontsize="10",style="solid"];
  Node4 [label="includes/Core/Core.hpp",height=0.2,width=0.4,color="red", fillcolor="white", style="filled",URL="$_core_8hpp.html",tooltip=" "];
  Node4 -> Node6 [dir="back",color="midnightblue",fontsize="10",style="solid"];
  Node6 [label="sources/main.cpp",height=0.2,width=0.4,color="black", fillcolor="white", style="filled",URL="$main_8cpp.html",tooltip=" "];
  Node3 -> Node7 [dir="back",color="midnightblue",fontsize="10",style="solid"];
  Node7 [label="sources/Scenes/Menu.cpp",height=0.2,width=0.4,color="black", fillcolor="white", style="filled",URL="$_menu_8cpp.html",tooltip=" "];
  Node2 -> Node8 [dir="back",color="midnightblue",fontsize="10",style="solid"];
  Node8 [label="includes/Scenes/Options.hpp",height=0.2,width=0.4,color="black", fillcolor="white", style="filled",URL="$_options_8hpp.html",tooltip=" "];
  Node8 -> Node4 [dir="back",color="midnightblue",fontsize="10",style="solid"];
  Node8 -> Node9 [dir="back",color="midnightblue",fontsize="10",style="solid"];
  Node9 [label="sources/Scenes/Options.cpp",height=0.2,width=0.4,color="black", fillcolor="white", style="filled",URL="$_options_8cpp.html",tooltip=" "];
  Node2 -> Node10 [dir="back",color="midnightblue",fontsize="10",style="solid"];
  Node10 [label="includes/Scenes/SelectPlayer.hpp",height=0.2,width=0.4,color="black", fillcolor="white", style="filled",URL="$_select_player_8hpp.html",tooltip=" "];
  Node10 -> Node4 [dir="back",color="midnightblue",fontsize="10",style="solid"];
  Node10 -> Node11 [dir="back",color="midnightblue",fontsize="10",style="solid"];
  Node11 [label="sources/Scenes/SelectPlayer.cpp",height=0.2,width=0.4,color="black", fillcolor="white", style="filled",URL="$_select_player_8cpp.html",tooltip=" "];
  Node2 -> Node12 [dir="back",color="midnightblue",fontsize="10",style="solid"];
  Node12 [label="includes/Scenes/SelectSave.hpp",height=0.2,width=0.4,color="black", fillcolor="white", style="filled",URL="$_select_save_8hpp.html",tooltip=" "];
  Node12 -> Node4 [dir="back",color="midnightblue",fontsize="10",style="solid"];
  Node12 -> Node13 [dir="back",color="midnightblue",fontsize="10",style="solid"];
  Node13 [label="sources/Scenes/SelectSave.cpp",height=0.2,width=0.4,color="black", fillcolor="white", style="filled",URL="$_select_save_8cpp.html",tooltip=" "];
  Node2 -> Node14 [dir="back",color="midnightblue",fontsize="10",style="solid"];
  Node14 [label="includes/Scenes/Title.hpp",height=0.2,width=0.4,color="black", fillcolor="white", style="filled",URL="$_title_8hpp.html",tooltip=" "];
  Node14 -> Node4 [dir="back",color="midnightblue",fontsize="10",style="solid"];
  Node14 -> Node15 [dir="back",color="midnightblue",fontsize="10",style="solid"];
  Node15 [label="sources/Scenes/Title.cpp",height=0.2,width=0.4,color="black", fillcolor="white", style="filled",URL="$_title_8cpp.html",tooltip=" "];
  Node2 -> Node16 [dir="back",color="midnightblue",fontsize="10",style="solid"];
  Node16 [label="sources/Factories/Button.cpp",height=0.2,width=0.4,color="black", fillcolor="white", style="filled",URL="$_button_8cpp.html",tooltip=" "];
  Node1 -> Node17 [dir="back",color="midnightblue",fontsize="10",style="solid"];
  Node17 [label="includes/Factories\l/ECS/components/ActionComponent.hpp",height=0.2,width=0.4,color="black", fillcolor="white", style="filled",URL="$_action_component_8hpp.html",tooltip=" "];
  Node17 -> Node18 [dir="back",color="midnightblue",fontsize="10",style="solid"];
  Node18 [label="includes/Factories\l/ECS/entities/Perso.hpp",height=0.2,width=0.4,color="black", fillcolor="white", style="filled",URL="$_perso_8hpp.html",tooltip=" "];
  Node18 -> Node19 [dir="back",color="midnightblue",fontsize="10",style="solid"];
  Node19 [label="includes/Scenes/GameScene.hpp",height=0.2,width=0.4,color="red", fillcolor="white", style="filled",URL="$_game_scene_8hpp.html",tooltip=" "];
  Node19 -> Node4 [dir="back",color="midnightblue",fontsize="10",style="solid"];
  Node18 -> Node21 [dir="back",color="midnightblue",fontsize="10",style="solid"];
  Node21 [label="sources/Factories/ECS\l/entities/Perso.cpp",height=0.2,width=0.4,color="black", fillcolor="white", style="filled",URL="$_perso_8cpp.html",tooltip=" "];
  Node18 -> Node6 [dir="back",color="midnightblue",fontsize="10",style="solid"];
  Node17 -> Node22 [dir="back",color="midnightblue",fontsize="10",style="solid"];
  Node22 [label="includes/Graphical\l/Graphical.hpp",height=0.2,width=0.4,color="black", fillcolor="white", style="filled",URL="$_graphical_8hpp.html",tooltip=" "];
  Node22 -> Node4 [dir="back",color="midnightblue",fontsize="10",style="solid"];
  Node22 -> Node19 [dir="back",color="midnightblue",fontsize="10",style="solid"];
  Node22 -> Node3 [dir="back",color="midnightblue",fontsize="10",style="solid"];
  Node22 -> Node8 [dir="back",color="midnightblue",fontsize="10",style="solid"];
  Node22 -> Node10 [dir="back",color="midnightblue",fontsize="10",style="solid"];
  Node22 -> Node12 [dir="back",color="midnightblue",fontsize="10",style="solid"];
  Node22 -> Node14 [dir="back",color="midnightblue",fontsize="10",style="solid"];
  Node22 -> Node23 [dir="back",color="midnightblue",fontsize="10",style="solid"];
  Node23 [label="sources/Graphical/Graphical.cpp",height=0.2,width=0.4,color="black", fillcolor="white", style="filled",URL="$_graphical_8cpp.html",tooltip=" "];
  Node22 -> Node6 [dir="back",color="midnightblue",fontsize="10",style="solid"];
  Node17 -> Node24 [dir="back",color="midnightblue",fontsize="10",style="solid"];
  Node24 [label="sources/Factories/ECS\l/components/ActionComponent.cpp",height=0.2,width=0.4,color="black", fillcolor="white", style="filled",URL="$_action_component_8cpp.html",tooltip=" "];
  Node1 -> Node25 [dir="back",color="midnightblue",fontsize="10",style="solid"];
  Node25 [label="includes/Factories\l/ECS/components/ColliderComponent.hpp",height=0.2,width=0.4,color="black", fillcolor="white", style="filled",URL="$_collider_component_8hpp.html",tooltip=" "];
  Node25 -> Node18 [dir="back",color="midnightblue",fontsize="10",style="solid"];
  Node25 -> Node26 [dir="back",color="midnightblue",fontsize="10",style="solid"];
  Node26 [label="includes/GameObjects\l/Block.hpp",height=0.2,width=0.4,color="red", fillcolor="white", style="filled",URL="$_block_8hpp.html",tooltip=" "];
  Node26 -> Node39 [dir="back",color="midnightblue",fontsize="10",style="solid"];
  Node39 [label="sources/GameObjects\l/Block.cpp",height=0.2,width=0.4,color="black", fillcolor="white", style="filled",URL="$_block_8cpp.html",tooltip=" "];
  Node25 -> Node22 [dir="back",color="midnightblue",fontsize="10",style="solid"];
  Node25 -> Node40 [dir="back",color="midnightblue",fontsize="10",style="solid"];
  Node40 [label="sources/Factories/ECS\l/components/ColliderComponent.cpp",height=0.2,width=0.4,color="black", fillcolor="white", style="filled",URL="$_collider_component_8cpp.html",tooltip=" "];
  Node25 -> Node39 [dir="back",color="midnightblue",fontsize="10",style="solid"];
  Node1 -> Node41 [dir="back",color="midnightblue",fontsize="10",style="solid"];
  Node41 [label="includes/Factories\l/ECS/components/ColorComponent.hpp",height=0.2,width=0.4,color="black", fillcolor="white", style="filled",URL="$_color_component_8hpp.html",tooltip=" "];
  Node41 -> Node22 [dir="back",color="midnightblue",fontsize="10",style="solid"];
  Node41 -> Node42 [dir="back",color="midnightblue",fontsize="10",style="solid"];
  Node42 [label="sources/Factories/ECS\l/components/ColorComponent.cpp",height=0.2,width=0.4,color="black", fillcolor="white", style="filled",URL="$_color_component_8cpp.html",tooltip=" "];
  Node1 -> Node43 [dir="back",color="midnightblue",fontsize="10",style="solid"];
  Node43 [label="includes/Factories\l/ECS/components/CubeComponent.hpp",height=0.2,width=0.4,color="black", fillcolor="white", style="filled",URL="$_cube_component_8hpp.html",tooltip=" "];
  Node43 -> Node26 [dir="back",color="midnightblue",fontsize="10",style="solid"];
  Node43 -> Node22 [dir="back",color="midnightblue",fontsize="10",style="solid"];
  Node43 -> Node19 [dir="back",color="midnightblue",fontsize="10",style="solid"];
  Node43 -> Node44 [dir="back",color="midnightblue",fontsize="10",style="solid"];
  Node44 [label="sources/Factories/ECS\l/components/CubeComponent.cpp",height=0.2,width=0.4,color="black", fillcolor="white", style="filled",URL="$_cube_component_8cpp.html",tooltip=" "];
  Node1 -> Node45 [dir="back",color="midnightblue",fontsize="10",style="solid"];
  Node45 [label="includes/Factories\l/ECS/components/MeshComponent.hpp",height=0.2,width=0.4,color="black", fillcolor="white", style="filled",URL="$_mesh_component_8hpp.html",tooltip=" "];
  Node45 -> Node18 [dir="back",color="midnightblue",fontsize="10",style="solid"];
  Node45 -> Node22 [dir="back",color="midnightblue",fontsize="10",style="solid"];
  Node45 -> Node46 [dir="back",color="midnightblue",fontsize="10",style="solid"];
  Node46 [label="sources/Factories/ECS\l/components/MeshComponent.cpp",height=0.2,width=0.4,color="black", fillcolor="white", style="filled",URL="$_mesh_component_8cpp.html",tooltip=" "];
  Node1 -> Node47 [dir="back",color="midnightblue",fontsize="10",style="solid"];
  Node47 [label="includes/Factories\l/ECS/components/NameComponent.hpp",height=0.2,width=0.4,color="black", fillcolor="white", style="filled",URL="$_name_component_8hpp.html",tooltip=" "];
  Node47 -> Node18 [dir="back",color="midnightblue",fontsize="10",style="solid"];
  Node47 -> Node48 [dir="back",color="midnightblue",fontsize="10",style="solid"];
  Node48 [label="sources/Factories/ECS\l/components/NameComponent.cpp",height=0.2,width=0.4,color="black", fillcolor="white", style="filled",URL="$_name_component_8cpp.html",tooltip=" "];
  Node1 -> Node49 [dir="back",color="midnightblue",fontsize="10",style="solid"];
  Node49 [label="includes/Factories\l/ECS/components/PositionComponent.hpp",height=0.2,width=0.4,color="black", fillcolor="white", style="filled",URL="$_position_component_8hpp.html",tooltip=" "];
  Node49 -> Node2 [dir="back",color="midnightblue",fontsize="10",style="solid"];
  Node49 -> Node18 [dir="back",color="midnightblue",fontsize="10",style="solid"];
  Node49 -> Node26 [dir="back",color="midnightblue",fontsize="10",style="solid"];
  Node49 -> Node22 [dir="back",color="midnightblue",fontsize="10",style="solid"];
  Node49 -> Node50 [dir="back",color="midnightblue",fontsize="10",style="solid"];
  Node50 [label="sources/Factories/ECS\l/components/PositionComponent.cpp",height=0.2,width=0.4,color="black", fillcolor="white", style="filled",URL="$_position_component_8cpp.html",tooltip=" "];
  Node49 -> Node39 [dir="back",color="midnightblue",fontsize="10",style="solid"];
  Node49 -> Node32 [dir="back",color="midnightblue",fontsize="10",style="solid"];
  Node32 [label="sources/Render/Render.cpp",height=0.2,width=0.4,color="black", fillcolor="white", style="filled",URL="$_render_8cpp.html",tooltip=" "];
  Node1 -> Node51 [dir="back",color="midnightblue",fontsize="10",style="solid"];
  Node51 [label="includes/Factories\l/ECS/components/SizeComponent.hpp",height=0.2,width=0.4,color="black", fillcolor="white", style="filled",URL="$_size_component_8hpp.html",tooltip=" "];
  Node51 -> Node2 [dir="back",color="midnightblue",fontsize="10",style="solid"];
  Node51 -> Node22 [dir="back",color="midnightblue",fontsize="10",style="solid"];
  Node51 -> Node52 [dir="back",color="midnightblue",fontsize="10",style="solid"];
  Node52 [label="sources/Factories/ECS\l/components/SizeComponent.cpp",height=0.2,width=0.4,color="black", fillcolor="white", style="filled",URL="$_size_component_8cpp.html",tooltip=" "];
  Node1 -> Node53 [dir="back",color="midnightblue",fontsize="10",style="solid"];
  Node53 [label="includes/Factories\l/ECS/components/SpeedComponent.hpp",height=0.2,width=0.4,color="black", fillcolor="white", style="filled",URL="$_speed_component_8hpp.html",tooltip=" "];
  Node53 -> Node54 [dir="back",color="midnightblue",fontsize="10",style="solid"];
  Node54 [label="sources/Factories/ECS\l/components/SpeedComponent.cpp",height=0.2,width=0.4,color="black", fillcolor="white", style="filled",URL="$_speed_component_8cpp.html",tooltip=" "];
  Node1 -> Node55 [dir="back",color="midnightblue",fontsize="10",style="solid"];
  Node55 [label="includes/Factories\l/ECS/components/StringComponent.hpp",height=0.2,width=0.4,color="black", fillcolor="white", style="filled",URL="$_string_component_8hpp.html",tooltip=" "];
  Node55 -> Node22 [dir="back",color="midnightblue",fontsize="10",style="solid"];
  Node55 -> Node56 [dir="back",color="midnightblue",fontsize="10",style="solid"];
  Node56 [label="sources/Factories/ECS\l/components/StringComponent.cpp",height=0.2,width=0.4,color="black", fillcolor="white", style="filled",URL="$_string_component_8cpp.html",tooltip=" "];
  Node1 -> Node57 [dir="back",color="midnightblue",fontsize="10",style="solid"];
  Node57 [label="includes/Factories\l/ECS/components/TextureComponent.hpp",height=0.2,width=0.4,color="black", fillcolor="white", style="filled",URL="$_texture_component_8hpp.html",tooltip=" "];
  Node57 -> Node2 [dir="back",color="midnightblue",fontsize="10",style="solid"];
  Node57 -> Node26 [dir="back",color="midnightblue",fontsize="10",style="solid"];
  Node57 -> Node22 [dir="back",color="midnightblue",fontsize="10",style="solid"];
  Node57 -> Node58 [dir="back",color="midnightblue",fontsize="10",style="solid"];
  Node58 [label="sources/Factories/ECS\l/components/TextureComponent.cpp",height=0.2,width=0.4,color="black", fillcolor="white", style="filled",URL="$_texture_component_8cpp.html",tooltip=" "];
  Node1 -> Node59 [dir="back",color="midnightblue",fontsize="10",style="solid"];
  Node59 [label="includes/Factories\l/ECS/entities/Entity.hpp",height=0.2,width=0.4,color="black", fillcolor="white", style="filled",URL="$_entity_8hpp.html",tooltip=" "];
  Node59 -> Node2 [dir="back",color="midnightblue",fontsize="10",style="solid"];
  Node59 -> Node43 [dir="back",color="midnightblue",fontsize="10",style="solid"];
  Node59 -> Node45 [dir="back",color="midnightblue",fontsize="10",style="solid"];
  Node59 -> Node18 [dir="back",color="midnightblue",fontsize="10",style="solid"];
  Node59 -> Node60 [dir="back",color="midnightblue",fontsize="10",style="solid"];
  Node60 [label="includes/Factories\l/ECS/systems/System.hpp",height=0.2,width=0.4,color="red", fillcolor="white", style="filled",URL="$includes_2_factories_2_e_c_s_2systems_2_system_8hpp.html",tooltip=" "];
  Node59 -> Node26 [dir="back",color="midnightblue",fontsize="10",style="solid"];
  Node59 -> Node62 [dir="back",color="midnightblue",fontsize="10",style="solid"];
  Node62 [label="includes/Interfaces\l/IGraphical.hpp",height=0.2,width=0.4,color="black", fillcolor="white", style="filled",URL="$_i_graphical_8hpp.html",tooltip=" "];
  Node62 -> Node22 [dir="back",color="midnightblue",fontsize="10",style="solid"];
  Node59 -> Node19 [dir="back",color="midnightblue",fontsize="10",style="solid"];
  Node59 -> Node63 [dir="back",color="midnightblue",fontsize="10",style="solid"];
  Node63 [label="sources/Factories/ECS\l/entities/Entity.cpp",height=0.2,width=0.4,color="black", fillcolor="white", style="filled",URL="$_entity_8cpp.html",tooltip=" "];
  Node1 -> Node64 [dir="back",color="midnightblue",fontsize="10",style="solid"];
  Node64 [label="sources/Factories/ECS\l/components/Component.cpp",height=0.2,width=0.4,color="black", fillcolor="white", style="filled",URL="$_component_8cpp.html",tooltip=" "];
}
