digraph "cmake/include/EMeshWriterEnums.h"
{
 // LATEX_PDF_SIZE
  edge [fontname="Helvetica",fontsize="10",labelfontname="Helvetica",labelfontsize="10"];
  node [fontname="Helvetica",fontsize="10",shape=record];
  Node1 [label="cmake/include/EMeshWriter\lEnums.h",height=0.2,width=0.4,color="black", fillcolor="grey75", style="filled", fontcolor="black",tooltip=" "];
  Node1 -> Node2 [color="midnightblue",fontsize="10",style="solid"];
  Node2 [label="irrTypes.h",height=0.2,width=0.4,color="black", fillcolor="white", style="filled",URL="$irr_types_8h.html",tooltip=" "];
  Node2 -> Node3 [color="midnightblue",fontsize="10",style="solid"];
  Node3 [label="IrrCompileConfig.h",height=0.2,width=0.4,color="black", fillcolor="white", style="filled",URL="$_irr_compile_config_8h.html",tooltip=" "];
  Node3 -> Node4 [color="midnightblue",fontsize="10",style="solid"];
  Node4 [label="stdio.h",height=0.2,width=0.4,color="grey75", fillcolor="white", style="filled",tooltip=" "];
  Node2 -> Node5 [color="midnightblue",fontsize="10",style="solid"];
  Node5 [label="wchar.h",height=0.2,width=0.4,color="grey75", fillcolor="white", style="filled",tooltip=" "];
}
