digraph "cmake/include/EPrimitiveTypes.h"
{
 // LATEX_PDF_SIZE
  edge [fontname="Helvetica",fontsize="10",labelfontname="Helvetica",labelfontsize="10"];
  node [fontname="Helvetica",fontsize="10",shape=record];
  Node1 [label="cmake/include/EPrimitive\lTypes.h",height=0.2,width=0.4,color="black", fillcolor="grey75", style="filled", fontcolor="black",tooltip=" "];
  Node1 -> Node2 [dir="back",color="midnightblue",fontsize="10",style="solid"];
  Node2 [label="cmake/include/IMeshBuffer.h",height=0.2,width=0.4,color="black", fillcolor="white", style="filled",URL="$_i_mesh_buffer_8h.html",tooltip=" "];
  Node2 -> Node3 [dir="back",color="midnightblue",fontsize="10",style="solid"];
  Node3 [label="cmake/include/IDynamicMesh\lBuffer.h",height=0.2,width=0.4,color="black", fillcolor="white", style="filled",URL="$_i_dynamic_mesh_buffer_8h.html",tooltip=" "];
  Node3 -> Node4 [dir="back",color="midnightblue",fontsize="10",style="solid"];
  Node4 [label="cmake/include/CDynamicMesh\lBuffer.h",height=0.2,width=0.4,color="black", fillcolor="white", style="filled",URL="$_c_dynamic_mesh_buffer_8h.html",tooltip=" "];
  Node4 -> Node5 [dir="back",color="midnightblue",fontsize="10",style="solid"];
  Node5 [label="cmake/include/irrlicht.h",height=0.2,width=0.4,color="black", fillcolor="white", style="filled",URL="$irrlicht_8h.html",tooltip="Main header file of the irrlicht, the only file needed to include."];
  Node5 -> Node6 [dir="back",color="midnightblue",fontsize="10",style="solid"];
  Node6 [label="includes/Factories\l/Button.hpp",height=0.2,width=0.4,color="black", fillcolor="white", style="filled",URL="$_button_8hpp.html",tooltip=" "];
  Node6 -> Node7 [dir="back",color="midnightblue",fontsize="10",style="solid"];
  Node7 [label="includes/Scenes/Menu.hpp",height=0.2,width=0.4,color="red", fillcolor="white", style="filled",URL="$_menu_8hpp.html",tooltip=" "];
  Node7 -> Node8 [dir="back",color="midnightblue",fontsize="10",style="solid"];
  Node8 [label="includes/Core/Core.hpp",height=0.2,width=0.4,color="red", fillcolor="white", style="filled",URL="$_core_8hpp.html",tooltip=" "];
  Node6 -> Node12 [dir="back",color="midnightblue",fontsize="10",style="solid"];
  Node12 [label="includes/Scenes/Options.hpp",height=0.2,width=0.4,color="red", fillcolor="white", style="filled",URL="$_options_8hpp.html",tooltip=" "];
  Node12 -> Node8 [dir="back",color="midnightblue",fontsize="10",style="solid"];
  Node6 -> Node14 [dir="back",color="midnightblue",fontsize="10",style="solid"];
  Node14 [label="includes/Scenes/SelectPlayer.hpp",height=0.2,width=0.4,color="red", fillcolor="white", style="filled",URL="$_select_player_8hpp.html",tooltip=" "];
  Node14 -> Node8 [dir="back",color="midnightblue",fontsize="10",style="solid"];
  Node6 -> Node16 [dir="back",color="midnightblue",fontsize="10",style="solid"];
  Node16 [label="includes/Scenes/SelectSave.hpp",height=0.2,width=0.4,color="red", fillcolor="white", style="filled",URL="$_select_save_8hpp.html",tooltip=" "];
  Node16 -> Node8 [dir="back",color="midnightblue",fontsize="10",style="solid"];
  Node6 -> Node18 [dir="back",color="midnightblue",fontsize="10",style="solid"];
  Node18 [label="includes/Scenes/Title.hpp",height=0.2,width=0.4,color="red", fillcolor="white", style="filled",URL="$_title_8hpp.html",tooltip=" "];
  Node18 -> Node8 [dir="back",color="midnightblue",fontsize="10",style="solid"];
  Node6 -> Node20 [dir="back",color="midnightblue",fontsize="10",style="solid"];
  Node20 [label="sources/Factories/Button.cpp",height=0.2,width=0.4,color="black", fillcolor="white", style="filled",URL="$_button_8cpp.html",tooltip=" "];
  Node5 -> Node21 [dir="back",color="midnightblue",fontsize="10",style="solid"];
  Node21 [label="includes/Factories\l/Collision.hpp",height=0.2,width=0.4,color="black", fillcolor="white", style="filled",URL="$_collision_8hpp.html",tooltip=" "];
  Node21 -> Node22 [dir="back",color="midnightblue",fontsize="10",style="solid"];
  Node22 [label="sources/Factories/Collision.cpp",height=0.2,width=0.4,color="black", fillcolor="white", style="filled",URL="$_collision_8cpp.html",tooltip=" "];
  Node21 -> Node23 [dir="back",color="midnightblue",fontsize="10",style="solid"];
  Node23 [label="sources/Graphical/Graphical.cpp",height=0.2,width=0.4,color="black", fillcolor="white", style="filled",URL="$_graphical_8cpp.html",tooltip=" "];
  Node5 -> Node24 [dir="back",color="midnightblue",fontsize="10",style="solid"];
  Node24 [label="includes/Factories\l/ECS/components/ActionComponent.hpp",height=0.2,width=0.4,color="black", fillcolor="white", style="filled",URL="$_action_component_8hpp.html",tooltip=" "];
  Node24 -> Node25 [dir="back",color="midnightblue",fontsize="10",style="solid"];
  Node25 [label="includes/Factories\l/ECS/entities/Perso.hpp",height=0.2,width=0.4,color="red", fillcolor="white", style="filled",URL="$_perso_8hpp.html",tooltip=" "];
  Node25 -> Node26 [dir="back",color="midnightblue",fontsize="10",style="solid"];
  Node26 [label="includes/Scenes/GameScene.hpp",height=0.2,width=0.4,color="red", fillcolor="white", style="filled",URL="$_game_scene_8hpp.html",tooltip=" "];
  Node26 -> Node8 [dir="back",color="midnightblue",fontsize="10",style="solid"];
  Node24 -> Node29 [dir="back",color="midnightblue",fontsize="10",style="solid"];
  Node29 [label="includes/Graphical\l/Graphical.hpp",height=0.2,width=0.4,color="red", fillcolor="white", style="filled",URL="$_graphical_8hpp.html",tooltip=" "];
  Node29 -> Node8 [dir="back",color="midnightblue",fontsize="10",style="solid"];
  Node29 -> Node26 [dir="back",color="midnightblue",fontsize="10",style="solid"];
  Node29 -> Node7 [dir="back",color="midnightblue",fontsize="10",style="solid"];
  Node29 -> Node12 [dir="back",color="midnightblue",fontsize="10",style="solid"];
  Node29 -> Node14 [dir="back",color="midnightblue",fontsize="10",style="solid"];
  Node29 -> Node16 [dir="back",color="midnightblue",fontsize="10",style="solid"];
  Node29 -> Node18 [dir="back",color="midnightblue",fontsize="10",style="solid"];
  Node29 -> Node23 [dir="back",color="midnightblue",fontsize="10",style="solid"];
  Node24 -> Node30 [dir="back",color="midnightblue",fontsize="10",style="solid"];
  Node30 [label="sources/Factories/ECS\l/components/ActionComponent.cpp",height=0.2,width=0.4,color="black", fillcolor="white", style="filled",URL="$_action_component_8cpp.html",tooltip=" "];
  Node5 -> Node31 [dir="back",color="midnightblue",fontsize="10",style="solid"];
  Node31 [label="includes/Factories\l/ECS/components/CubeComponent.hpp",height=0.2,width=0.4,color="black", fillcolor="white", style="filled",URL="$_cube_component_8hpp.html",tooltip=" "];
  Node31 -> Node32 [dir="back",color="midnightblue",fontsize="10",style="solid"];
  Node32 [label="includes/GameObjects\l/Block.hpp",height=0.2,width=0.4,color="red", fillcolor="white", style="filled",URL="$_block_8hpp.html",tooltip=" "];
  Node31 -> Node29 [dir="back",color="midnightblue",fontsize="10",style="solid"];
  Node31 -> Node26 [dir="back",color="midnightblue",fontsize="10",style="solid"];
  Node31 -> Node46 [dir="back",color="midnightblue",fontsize="10",style="solid"];
  Node46 [label="sources/Factories/ECS\l/components/CubeComponent.cpp",height=0.2,width=0.4,color="black", fillcolor="white", style="filled",URL="$_cube_component_8cpp.html",tooltip=" "];
  Node5 -> Node47 [dir="back",color="midnightblue",fontsize="10",style="solid"];
  Node47 [label="includes/Factories\l/ECS/components/MeshComponent.hpp",height=0.2,width=0.4,color="black", fillcolor="white", style="filled",URL="$_mesh_component_8hpp.html",tooltip=" "];
  Node47 -> Node25 [dir="back",color="midnightblue",fontsize="10",style="solid"];
  Node47 -> Node29 [dir="back",color="midnightblue",fontsize="10",style="solid"];
  Node47 -> Node48 [dir="back",color="midnightblue",fontsize="10",style="solid"];
  Node48 [label="sources/Factories/ECS\l/components/MeshComponent.cpp",height=0.2,width=0.4,color="black", fillcolor="white", style="filled",URL="$_mesh_component_8cpp.html",tooltip=" "];
  Node5 -> Node49 [dir="back",color="midnightblue",fontsize="10",style="solid"];
  Node49 [label="includes/Factories\l/ECS/components/TextureComponent.hpp",height=0.2,width=0.4,color="black", fillcolor="white", style="filled",URL="$_texture_component_8hpp.html",tooltip=" "];
  Node49 -> Node6 [dir="back",color="midnightblue",fontsize="10",style="solid"];
  Node49 -> Node32 [dir="back",color="midnightblue",fontsize="10",style="solid"];
  Node49 -> Node29 [dir="back",color="midnightblue",fontsize="10",style="solid"];
  Node49 -> Node50 [dir="back",color="midnightblue",fontsize="10",style="solid"];
  Node50 [label="sources/Factories/ECS\l/components/TextureComponent.cpp",height=0.2,width=0.4,color="black", fillcolor="white", style="filled",URL="$_texture_component_8cpp.html",tooltip=" "];
  Node5 -> Node51 [dir="back",color="midnightblue",fontsize="10",style="solid"];
  Node51 [label="includes/GameObjects\l/Particuls.hpp",height=0.2,width=0.4,color="black", fillcolor="white", style="filled",URL="$_particuls_8hpp.html",tooltip=" "];
  Node51 -> Node29 [dir="back",color="midnightblue",fontsize="10",style="solid"];
  Node51 -> Node52 [dir="back",color="midnightblue",fontsize="10",style="solid"];
  Node52 [label="sources/GameObjects\l/Particuls.cpp",height=0.2,width=0.4,color="black", fillcolor="white", style="filled",URL="$_particuls_8cpp.html",tooltip=" "];
  Node51 -> Node23 [dir="back",color="midnightblue",fontsize="10",style="solid"];
  Node5 -> Node29 [dir="back",color="midnightblue",fontsize="10",style="solid"];
  Node5 -> Node53 [dir="back",color="midnightblue",fontsize="10",style="solid"];
  Node53 [label="includes/Graphical\l/handleInput.hpp",height=0.2,width=0.4,color="red", fillcolor="white", style="filled",URL="$handle_input_8hpp.html",tooltip=" "];
  Node53 -> Node29 [dir="back",color="midnightblue",fontsize="10",style="solid"];
  Node5 -> Node42 [dir="back",color="midnightblue",fontsize="10",style="solid"];
  Node42 [label="includes/Render/Render.hpp",height=0.2,width=0.4,color="red", fillcolor="white", style="filled",URL="$_render_8hpp.html",tooltip=" "];
  Node3 -> Node5 [dir="back",color="midnightblue",fontsize="10",style="solid"];
  Node3 -> Node55 [dir="back",color="midnightblue",fontsize="10",style="solid"];
  Node55 [label="cmake/include/ITerrainScene\lNode.h",height=0.2,width=0.4,color="black", fillcolor="white", style="filled",URL="$_i_terrain_scene_node_8h.html",tooltip=" "];
  Node55 -> Node5 [dir="back",color="midnightblue",fontsize="10",style="solid"];
  Node2 -> Node56 [dir="back",color="midnightblue",fontsize="10",style="solid"];
  Node56 [label="cmake/include/CMeshBuffer.h",height=0.2,width=0.4,color="black", fillcolor="white", style="filled",URL="$_c_mesh_buffer_8h.html",tooltip=" "];
  Node56 -> Node5 [dir="back",color="midnightblue",fontsize="10",style="solid"];
  Node56 -> Node57 [dir="back",color="midnightblue",fontsize="10",style="solid"];
  Node57 [label="cmake/include/SMeshBuffer.h",height=0.2,width=0.4,color="black", fillcolor="white", style="filled",URL="$_s_mesh_buffer_8h.html",tooltip=" "];
  Node57 -> Node5 [dir="back",color="midnightblue",fontsize="10",style="solid"];
  Node56 -> Node58 [dir="back",color="midnightblue",fontsize="10",style="solid"];
  Node58 [label="cmake/include/SMeshBuffer\lLightMap.h",height=0.2,width=0.4,color="black", fillcolor="white", style="filled",URL="$_s_mesh_buffer_light_map_8h.html",tooltip=" "];
  Node58 -> Node5 [dir="back",color="midnightblue",fontsize="10",style="solid"];
  Node56 -> Node59 [dir="back",color="midnightblue",fontsize="10",style="solid"];
  Node59 [label="cmake/include/SMeshBuffer\lTangents.h",height=0.2,width=0.4,color="black", fillcolor="white", style="filled",URL="$_s_mesh_buffer_tangents_8h.html",tooltip=" "];
  Node59 -> Node5 [dir="back",color="midnightblue",fontsize="10",style="solid"];
  Node2 -> Node60 [dir="back",color="midnightblue",fontsize="10",style="solid"];
  Node60 [label="cmake/include/IVideoDriver.h",height=0.2,width=0.4,color="black", fillcolor="white", style="filled",URL="$_i_video_driver_8h.html",tooltip=" "];
  Node60 -> Node61 [dir="back",color="midnightblue",fontsize="10",style="solid"];
  Node61 [label="cmake/include/IrrlichtDevice.h",height=0.2,width=0.4,color="black", fillcolor="white", style="filled",URL="$_irrlicht_device_8h.html",tooltip=" "];
  Node61 -> Node62 [dir="back",color="midnightblue",fontsize="10",style="solid"];
  Node62 [label="cmake/include/driverChoice.h",height=0.2,width=0.4,color="black", fillcolor="white", style="filled",URL="$driver_choice_8h.html",tooltip=" "];
  Node61 -> Node5 [dir="back",color="midnightblue",fontsize="10",style="solid"];
  Node60 -> Node63 [dir="back",color="midnightblue",fontsize="10",style="solid"];
  Node63 [label="cmake/include/IQ3Shader.h",height=0.2,width=0.4,color="black", fillcolor="white", style="filled",URL="$_i_q3_shader_8h.html",tooltip=" "];
  Node63 -> Node64 [dir="back",color="midnightblue",fontsize="10",style="solid"];
  Node64 [label="cmake/include/IAnimatedMesh\lMD3.h",height=0.2,width=0.4,color="red", fillcolor="white", style="filled",URL="$_i_animated_mesh_m_d3_8h.html",tooltip=" "];
  Node64 -> Node5 [dir="back",color="midnightblue",fontsize="10",style="solid"];
  Node63 -> Node68 [dir="back",color="midnightblue",fontsize="10",style="solid"];
  Node68 [label="cmake/include/IQ3LevelMesh.h",height=0.2,width=0.4,color="black", fillcolor="white", style="filled",URL="$_i_q3_level_mesh_8h.html",tooltip=" "];
  Node68 -> Node5 [dir="back",color="midnightblue",fontsize="10",style="solid"];
  Node63 -> Node5 [dir="back",color="midnightblue",fontsize="10",style="solid"];
  Node60 -> Node5 [dir="back",color="midnightblue",fontsize="10",style="solid"];
  Node60 -> Node69 [dir="back",color="midnightblue",fontsize="10",style="solid"];
  Node69 [label="cmake/include/SViewFrustum.h",height=0.2,width=0.4,color="black", fillcolor="white", style="filled",URL="$_s_view_frustum_8h.html",tooltip=" "];
  Node69 -> Node5 [dir="back",color="midnightblue",fontsize="10",style="solid"];
  Node2 -> Node70 [dir="back",color="midnightblue",fontsize="10",style="solid"];
  Node70 [label="cmake/include/IMeshManipulator.h",height=0.2,width=0.4,color="black", fillcolor="white", style="filled",URL="$_i_mesh_manipulator_8h.html",tooltip=" "];
  Node70 -> Node5 [dir="back",color="midnightblue",fontsize="10",style="solid"];
  Node2 -> Node5 [dir="back",color="midnightblue",fontsize="10",style="solid"];
  Node2 -> Node71 [dir="back",color="midnightblue",fontsize="10",style="solid"];
  Node71 [label="cmake/include/SSkinMeshBuffer.h",height=0.2,width=0.4,color="black", fillcolor="white", style="filled",URL="$_s_skin_mesh_buffer_8h.html",tooltip=" "];
  Node71 -> Node72 [dir="back",color="midnightblue",fontsize="10",style="solid"];
  Node72 [label="cmake/include/ISkinnedMesh.h",height=0.2,width=0.4,color="red", fillcolor="white", style="filled",URL="$_i_skinned_mesh_8h.html",tooltip=" "];
  Node72 -> Node5 [dir="back",color="midnightblue",fontsize="10",style="solid"];
  Node71 -> Node5 [dir="back",color="midnightblue",fontsize="10",style="solid"];
  Node2 -> Node74 [dir="back",color="midnightblue",fontsize="10",style="solid"];
  Node74 [label="cmake/include/SMesh.h",height=0.2,width=0.4,color="black", fillcolor="white", style="filled",URL="$_s_mesh_8h.html",tooltip=" "];
  Node74 -> Node5 [dir="back",color="midnightblue",fontsize="10",style="solid"];
  Node2 -> Node75 [dir="back",color="midnightblue",fontsize="10",style="solid"];
  Node75 [label="cmake/include/SSharedMesh\lBuffer.h",height=0.2,width=0.4,color="black", fillcolor="white", style="filled",URL="$_s_shared_mesh_buffer_8h.html",tooltip=" "];
  Node75 -> Node5 [dir="back",color="midnightblue",fontsize="10",style="solid"];
  Node1 -> Node76 [dir="back",color="midnightblue",fontsize="10",style="solid"];
  Node76 [label="cmake/include/IGPUProgramming\lServices.h",height=0.2,width=0.4,color="black", fillcolor="white", style="filled",URL="$_i_g_p_u_programming_services_8h.html",tooltip=" "];
  Node76 -> Node5 [dir="back",color="midnightblue",fontsize="10",style="solid"];
}
