digraph "cmake/SFML-2.5.1/include/SFML/Window/Event.hpp"
{
 // LATEX_PDF_SIZE
  edge [fontname="Helvetica",fontsize="10",labelfontname="Helvetica",labelfontsize="10"];
  node [fontname="Helvetica",fontsize="10",shape=record];
  Node1 [label="cmake/SFML-2.5.1/include\l/SFML/Window/Event.hpp",height=0.2,width=0.4,color="black", fillcolor="grey75", style="filled", fontcolor="black",tooltip=" "];
  Node1 -> Node2 [color="midnightblue",fontsize="10",style="solid"];
  Node2 [label="SFML/Config.hpp",height=0.2,width=0.4,color="black", fillcolor="white", style="filled",URL="$_config_8hpp.html",tooltip=" "];
  Node1 -> Node3 [color="midnightblue",fontsize="10",style="solid"];
  Node3 [label="SFML/Window/Joystick.hpp",height=0.2,width=0.4,color="black", fillcolor="white", style="filled",URL="$_joystick_8hpp.html",tooltip=" "];
  Node3 -> Node4 [color="midnightblue",fontsize="10",style="solid"];
  Node4 [label="SFML/Window/Export.hpp",height=0.2,width=0.4,color="black", fillcolor="white", style="filled",URL="$_window_2_export_8hpp.html",tooltip=" "];
  Node4 -> Node2 [color="midnightblue",fontsize="10",style="solid"];
  Node3 -> Node5 [color="midnightblue",fontsize="10",style="solid"];
  Node5 [label="SFML/System/String.hpp",height=0.2,width=0.4,color="black", fillcolor="white", style="filled",URL="$_string_8hpp.html",tooltip=" "];
  Node5 -> Node6 [color="midnightblue",fontsize="10",style="solid"];
  Node6 [label="SFML/System/Export.hpp",height=0.2,width=0.4,color="black", fillcolor="white", style="filled",URL="$_system_2_export_8hpp.html",tooltip=" "];
  Node6 -> Node2 [color="midnightblue",fontsize="10",style="solid"];
  Node5 -> Node7 [color="midnightblue",fontsize="10",style="solid"];
  Node7 [label="SFML/System/Utf.hpp",height=0.2,width=0.4,color="black", fillcolor="white", style="filled",URL="$_utf_8hpp.html",tooltip=" "];
  Node7 -> Node2 [color="midnightblue",fontsize="10",style="solid"];
  Node7 -> Node8 [color="midnightblue",fontsize="10",style="solid"];
  Node8 [label="algorithm",height=0.2,width=0.4,color="grey75", fillcolor="white", style="filled",tooltip=" "];
  Node7 -> Node9 [color="midnightblue",fontsize="10",style="solid"];
  Node9 [label="locale",height=0.2,width=0.4,color="grey75", fillcolor="white", style="filled",tooltip=" "];
  Node7 -> Node10 [color="midnightblue",fontsize="10",style="solid"];
  Node10 [label="string",height=0.2,width=0.4,color="grey75", fillcolor="white", style="filled",tooltip=" "];
  Node7 -> Node11 [color="midnightblue",fontsize="10",style="solid"];
  Node11 [label="cstdlib",height=0.2,width=0.4,color="grey75", fillcolor="white", style="filled",tooltip=" "];
  Node7 -> Node12 [color="midnightblue",fontsize="10",style="solid"];
  Node12 [label="SFML/System/Utf.inl",height=0.2,width=0.4,color="black", fillcolor="white", style="filled",URL="$_utf_8inl.html",tooltip=" "];
  Node5 -> Node13 [color="midnightblue",fontsize="10",style="solid"];
  Node13 [label="iterator",height=0.2,width=0.4,color="grey75", fillcolor="white", style="filled",tooltip=" "];
  Node5 -> Node9 [color="midnightblue",fontsize="10",style="solid"];
  Node5 -> Node10 [color="midnightblue",fontsize="10",style="solid"];
  Node5 -> Node14 [color="midnightblue",fontsize="10",style="solid"];
  Node14 [label="SFML/System/String.inl",height=0.2,width=0.4,color="black", fillcolor="white", style="filled",URL="$_string_8inl.html",tooltip=" "];
  Node1 -> Node15 [color="midnightblue",fontsize="10",style="solid"];
  Node15 [label="SFML/Window/Keyboard.hpp",height=0.2,width=0.4,color="black", fillcolor="white", style="filled",URL="$_keyboard_8hpp.html",tooltip=" "];
  Node15 -> Node4 [color="midnightblue",fontsize="10",style="solid"];
  Node1 -> Node16 [color="midnightblue",fontsize="10",style="solid"];
  Node16 [label="SFML/Window/Mouse.hpp",height=0.2,width=0.4,color="black", fillcolor="white", style="filled",URL="$_mouse_8hpp.html",tooltip=" "];
  Node16 -> Node4 [color="midnightblue",fontsize="10",style="solid"];
  Node16 -> Node17 [color="midnightblue",fontsize="10",style="solid"];
  Node17 [label="SFML/System/Vector2.hpp",height=0.2,width=0.4,color="black", fillcolor="white", style="filled",URL="$_vector2_8hpp.html",tooltip=" "];
  Node17 -> Node18 [color="midnightblue",fontsize="10",style="solid"];
  Node18 [label="SFML/System/Vector2.inl",height=0.2,width=0.4,color="black", fillcolor="white", style="filled",URL="$_vector2_8inl.html",tooltip=" "];
  Node1 -> Node19 [color="midnightblue",fontsize="10",style="solid"];
  Node19 [label="SFML/Window/Sensor.hpp",height=0.2,width=0.4,color="black", fillcolor="white", style="filled",URL="$_sensor_8hpp.html",tooltip=" "];
  Node19 -> Node4 [color="midnightblue",fontsize="10",style="solid"];
  Node19 -> Node20 [color="midnightblue",fontsize="10",style="solid"];
  Node20 [label="SFML/System/Vector3.hpp",height=0.2,width=0.4,color="black", fillcolor="white", style="filled",URL="$_vector3_8hpp.html",tooltip=" "];
  Node20 -> Node21 [color="midnightblue",fontsize="10",style="solid"];
  Node21 [label="SFML/System/Vector3.inl",height=0.2,width=0.4,color="black", fillcolor="white", style="filled",URL="$_vector3_8inl.html",tooltip=" "];
  Node19 -> Node22 [color="midnightblue",fontsize="10",style="solid"];
  Node22 [label="SFML/System/Time.hpp",height=0.2,width=0.4,color="black", fillcolor="white", style="filled",URL="$_time_8hpp.html",tooltip=" "];
  Node22 -> Node6 [color="midnightblue",fontsize="10",style="solid"];
}
