digraph "includes/Errors/FileError.hpp"
{
 // LATEX_PDF_SIZE
  edge [fontname="Helvetica",fontsize="10",labelfontname="Helvetica",labelfontsize="10"];
  node [fontname="Helvetica",fontsize="10",shape=record];
  Node1 [label="includes/Errors/FileError.hpp",height=0.2,width=0.4,color="black", fillcolor="grey75", style="filled", fontcolor="black",tooltip=" "];
  Node1 -> Node2 [dir="back",color="midnightblue",fontsize="10",style="solid"];
  Node2 [label="sources/Factories/MapFactory.cpp",height=0.2,width=0.4,color="black", fillcolor="white", style="filled",URL="$_map_factory_8cpp.html",tooltip=" "];
}
