digraph "cmake/SFML-2.5.1/include/SFML/Network/Ftp.hpp"
{
 // LATEX_PDF_SIZE
  edge [fontname="Helvetica",fontsize="10",labelfontname="Helvetica",labelfontsize="10"];
  node [fontname="Helvetica",fontsize="10",shape=record];
  Node1 [label="cmake/SFML-2.5.1/include\l/SFML/Network/Ftp.hpp",height=0.2,width=0.4,color="black", fillcolor="grey75", style="filled", fontcolor="black",tooltip=" "];
  Node1 -> Node2 [dir="back",color="midnightblue",fontsize="10",style="solid"];
  Node2 [label="cmake/SFML-2.5.1/include\l/SFML/Network.hpp",height=0.2,width=0.4,color="black", fillcolor="white", style="filled",URL="$_network_8hpp.html",tooltip=" "];
  Node2 -> Node3 [dir="back",color="midnightblue",fontsize="10",style="solid"];
  Node3 [label="cmake/SFML-2.5.1/examples\l/ftp/Ftp.cpp",height=0.2,width=0.4,color="black", fillcolor="white", style="filled",URL="$_ftp_8cpp.html",tooltip=" "];
  Node2 -> Node4 [dir="back",color="midnightblue",fontsize="10",style="solid"];
  Node4 [label="cmake/SFML-2.5.1/examples\l/sockets/TCP.cpp",height=0.2,width=0.4,color="black", fillcolor="white", style="filled",URL="$_t_c_p_8cpp.html",tooltip=" "];
  Node2 -> Node5 [dir="back",color="midnightblue",fontsize="10",style="solid"];
  Node5 [label="cmake/SFML-2.5.1/examples\l/sockets/UDP.cpp",height=0.2,width=0.4,color="black", fillcolor="white", style="filled",URL="$_u_d_p_8cpp.html",tooltip=" "];
  Node2 -> Node6 [dir="back",color="midnightblue",fontsize="10",style="solid"];
  Node6 [label="cmake/SFML-2.5.1/examples\l/voip/Client.cpp",height=0.2,width=0.4,color="black", fillcolor="white", style="filled",URL="$_client_8cpp.html",tooltip=" "];
  Node2 -> Node7 [dir="back",color="midnightblue",fontsize="10",style="solid"];
  Node7 [label="cmake/SFML-2.5.1/examples\l/voip/Server.cpp",height=0.2,width=0.4,color="black", fillcolor="white", style="filled",URL="$_server_8cpp.html",tooltip=" "];
}
