digraph "cmake/include/IAnimatedMesh.h"
{
 // LATEX_PDF_SIZE
  edge [fontname="Helvetica",fontsize="10",labelfontname="Helvetica",labelfontsize="10"];
  node [fontname="Helvetica",fontsize="10",shape=record];
  Node1 [label="cmake/include/IAnimatedMesh.h",height=0.2,width=0.4,color="black", fillcolor="grey75", style="filled", fontcolor="black",tooltip=" "];
  Node1 -> Node2 [dir="back",color="midnightblue",fontsize="10",style="solid"];
  Node2 [label="cmake/include/IAnimatedMesh\lMD2.h",height=0.2,width=0.4,color="black", fillcolor="white", style="filled",URL="$_i_animated_mesh_m_d2_8h.html",tooltip=" "];
  Node2 -> Node3 [dir="back",color="midnightblue",fontsize="10",style="solid"];
  Node3 [label="cmake/include/IAnimatedMesh\lSceneNode.h",height=0.2,width=0.4,color="black", fillcolor="white", style="filled",URL="$_i_animated_mesh_scene_node_8h.html",tooltip=" "];
  Node3 -> Node4 [dir="back",color="midnightblue",fontsize="10",style="solid"];
  Node4 [label="cmake/include/IParticleAnimated\lMeshSceneNodeEmitter.h",height=0.2,width=0.4,color="black", fillcolor="white", style="filled",URL="$_i_particle_animated_mesh_scene_node_emitter_8h.html",tooltip=" "];
  Node4 -> Node5 [dir="back",color="midnightblue",fontsize="10",style="solid"];
  Node5 [label="cmake/include/IParticleSystem\lSceneNode.h",height=0.2,width=0.4,color="black", fillcolor="white", style="filled",URL="$_i_particle_system_scene_node_8h.html",tooltip=" "];
  Node5 -> Node6 [dir="back",color="midnightblue",fontsize="10",style="solid"];
  Node6 [label="cmake/include/irrlicht.h",height=0.2,width=0.4,color="black", fillcolor="white", style="filled",URL="$irrlicht_8h.html",tooltip="Main header file of the irrlicht, the only file needed to include."];
  Node6 -> Node7 [dir="back",color="midnightblue",fontsize="10",style="solid"];
  Node7 [label="includes/Factories\l/Button.hpp",height=0.2,width=0.4,color="black", fillcolor="white", style="filled",URL="$_button_8hpp.html",tooltip=" "];
  Node7 -> Node8 [dir="back",color="midnightblue",fontsize="10",style="solid"];
  Node8 [label="includes/Scenes/Menu.hpp",height=0.2,width=0.4,color="black", fillcolor="white", style="filled",URL="$_menu_8hpp.html",tooltip=" "];
  Node8 -> Node9 [dir="back",color="midnightblue",fontsize="10",style="solid"];
  Node9 [label="includes/Core/Core.hpp",height=0.2,width=0.4,color="red", fillcolor="white", style="filled",URL="$_core_8hpp.html",tooltip=" "];
  Node9 -> Node11 [dir="back",color="midnightblue",fontsize="10",style="solid"];
  Node11 [label="sources/main.cpp",height=0.2,width=0.4,color="black", fillcolor="white", style="filled",URL="$main_8cpp.html",tooltip=" "];
  Node8 -> Node12 [dir="back",color="midnightblue",fontsize="10",style="solid"];
  Node12 [label="sources/Scenes/Menu.cpp",height=0.2,width=0.4,color="black", fillcolor="white", style="filled",URL="$_menu_8cpp.html",tooltip=" "];
  Node7 -> Node13 [dir="back",color="midnightblue",fontsize="10",style="solid"];
  Node13 [label="includes/Scenes/Options.hpp",height=0.2,width=0.4,color="black", fillcolor="white", style="filled",URL="$_options_8hpp.html",tooltip=" "];
  Node13 -> Node9 [dir="back",color="midnightblue",fontsize="10",style="solid"];
  Node13 -> Node14 [dir="back",color="midnightblue",fontsize="10",style="solid"];
  Node14 [label="sources/Scenes/Options.cpp",height=0.2,width=0.4,color="black", fillcolor="white", style="filled",URL="$_options_8cpp.html",tooltip=" "];
  Node7 -> Node15 [dir="back",color="midnightblue",fontsize="10",style="solid"];
  Node15 [label="includes/Scenes/SelectPlayer.hpp",height=0.2,width=0.4,color="black", fillcolor="white", style="filled",URL="$_select_player_8hpp.html",tooltip=" "];
  Node15 -> Node9 [dir="back",color="midnightblue",fontsize="10",style="solid"];
  Node15 -> Node16 [dir="back",color="midnightblue",fontsize="10",style="solid"];
  Node16 [label="sources/Scenes/SelectPlayer.cpp",height=0.2,width=0.4,color="black", fillcolor="white", style="filled",URL="$_select_player_8cpp.html",tooltip=" "];
  Node7 -> Node17 [dir="back",color="midnightblue",fontsize="10",style="solid"];
  Node17 [label="includes/Scenes/SelectSave.hpp",height=0.2,width=0.4,color="black", fillcolor="white", style="filled",URL="$_select_save_8hpp.html",tooltip=" "];
  Node17 -> Node9 [dir="back",color="midnightblue",fontsize="10",style="solid"];
  Node17 -> Node18 [dir="back",color="midnightblue",fontsize="10",style="solid"];
  Node18 [label="sources/Scenes/SelectSave.cpp",height=0.2,width=0.4,color="black", fillcolor="white", style="filled",URL="$_select_save_8cpp.html",tooltip=" "];
  Node7 -> Node19 [dir="back",color="midnightblue",fontsize="10",style="solid"];
  Node19 [label="includes/Scenes/Title.hpp",height=0.2,width=0.4,color="black", fillcolor="white", style="filled",URL="$_title_8hpp.html",tooltip=" "];
  Node19 -> Node9 [dir="back",color="midnightblue",fontsize="10",style="solid"];
  Node19 -> Node20 [dir="back",color="midnightblue",fontsize="10",style="solid"];
  Node20 [label="sources/Scenes/Title.cpp",height=0.2,width=0.4,color="black", fillcolor="white", style="filled",URL="$_title_8cpp.html",tooltip=" "];
  Node7 -> Node21 [dir="back",color="midnightblue",fontsize="10",style="solid"];
  Node21 [label="sources/Factories/Button.cpp",height=0.2,width=0.4,color="black", fillcolor="white", style="filled",URL="$_button_8cpp.html",tooltip=" "];
  Node6 -> Node22 [dir="back",color="midnightblue",fontsize="10",style="solid"];
  Node22 [label="includes/Factories\l/Collision.hpp",height=0.2,width=0.4,color="black", fillcolor="white", style="filled",URL="$_collision_8hpp.html",tooltip=" "];
  Node22 -> Node23 [dir="back",color="midnightblue",fontsize="10",style="solid"];
  Node23 [label="sources/Factories/Collision.cpp",height=0.2,width=0.4,color="black", fillcolor="white", style="filled",URL="$_collision_8cpp.html",tooltip=" "];
  Node22 -> Node24 [dir="back",color="midnightblue",fontsize="10",style="solid"];
  Node24 [label="sources/Graphical/Graphical.cpp",height=0.2,width=0.4,color="black", fillcolor="white", style="filled",URL="$_graphical_8cpp.html",tooltip=" "];
  Node6 -> Node25 [dir="back",color="midnightblue",fontsize="10",style="solid"];
  Node25 [label="includes/Factories\l/ECS/components/ActionComponent.hpp",height=0.2,width=0.4,color="black", fillcolor="white", style="filled",URL="$_action_component_8hpp.html",tooltip=" "];
  Node25 -> Node26 [dir="back",color="midnightblue",fontsize="10",style="solid"];
  Node26 [label="includes/Factories\l/ECS/entities/Perso.hpp",height=0.2,width=0.4,color="black", fillcolor="white", style="filled",URL="$_perso_8hpp.html",tooltip=" "];
  Node26 -> Node27 [dir="back",color="midnightblue",fontsize="10",style="solid"];
  Node27 [label="includes/Scenes/GameScene.hpp",height=0.2,width=0.4,color="red", fillcolor="white", style="filled",URL="$_game_scene_8hpp.html",tooltip=" "];
  Node27 -> Node9 [dir="back",color="midnightblue",fontsize="10",style="solid"];
  Node26 -> Node29 [dir="back",color="midnightblue",fontsize="10",style="solid"];
  Node29 [label="sources/Factories/ECS\l/entities/Perso.cpp",height=0.2,width=0.4,color="black", fillcolor="white", style="filled",URL="$_perso_8cpp.html",tooltip=" "];
  Node26 -> Node11 [dir="back",color="midnightblue",fontsize="10",style="solid"];
  Node25 -> Node30 [dir="back",color="midnightblue",fontsize="10",style="solid"];
  Node30 [label="includes/Graphical\l/Graphical.hpp",height=0.2,width=0.4,color="black", fillcolor="white", style="filled",URL="$_graphical_8hpp.html",tooltip=" "];
  Node30 -> Node9 [dir="back",color="midnightblue",fontsize="10",style="solid"];
  Node30 -> Node27 [dir="back",color="midnightblue",fontsize="10",style="solid"];
  Node30 -> Node8 [dir="back",color="midnightblue",fontsize="10",style="solid"];
  Node30 -> Node13 [dir="back",color="midnightblue",fontsize="10",style="solid"];
  Node30 -> Node15 [dir="back",color="midnightblue",fontsize="10",style="solid"];
  Node30 -> Node17 [dir="back",color="midnightblue",fontsize="10",style="solid"];
  Node30 -> Node19 [dir="back",color="midnightblue",fontsize="10",style="solid"];
  Node30 -> Node24 [dir="back",color="midnightblue",fontsize="10",style="solid"];
  Node30 -> Node11 [dir="back",color="midnightblue",fontsize="10",style="solid"];
  Node25 -> Node31 [dir="back",color="midnightblue",fontsize="10",style="solid"];
  Node31 [label="sources/Factories/ECS\l/components/ActionComponent.cpp",height=0.2,width=0.4,color="black", fillcolor="white", style="filled",URL="$_action_component_8cpp.html",tooltip=" "];
  Node6 -> Node32 [dir="back",color="midnightblue",fontsize="10",style="solid"];
  Node32 [label="includes/Factories\l/ECS/components/CubeComponent.hpp",height=0.2,width=0.4,color="black", fillcolor="white", style="filled",URL="$_cube_component_8hpp.html",tooltip=" "];
  Node32 -> Node33 [dir="back",color="midnightblue",fontsize="10",style="solid"];
  Node33 [label="includes/GameObjects\l/Block.hpp",height=0.2,width=0.4,color="red", fillcolor="white", style="filled",URL="$_block_8hpp.html",tooltip=" "];
  Node33 -> Node34 [dir="back",color="midnightblue",fontsize="10",style="solid"];
  Node34 [label="includes/GameObjects\l/Bomb.hpp",height=0.2,width=0.4,color="red", fillcolor="white", style="filled",URL="$_bomb_8hpp.html",tooltip=" "];
  Node34 -> Node26 [dir="back",color="midnightblue",fontsize="10",style="solid"];
  Node32 -> Node30 [dir="back",color="midnightblue",fontsize="10",style="solid"];
  Node32 -> Node27 [dir="back",color="midnightblue",fontsize="10",style="solid"];
  Node32 -> Node47 [dir="back",color="midnightblue",fontsize="10",style="solid"];
  Node47 [label="sources/Factories/ECS\l/components/CubeComponent.cpp",height=0.2,width=0.4,color="black", fillcolor="white", style="filled",URL="$_cube_component_8cpp.html",tooltip=" "];
  Node6 -> Node48 [dir="back",color="midnightblue",fontsize="10",style="solid"];
  Node48 [label="includes/Factories\l/ECS/components/MeshComponent.hpp",height=0.2,width=0.4,color="black", fillcolor="white", style="filled",URL="$_mesh_component_8hpp.html",tooltip=" "];
  Node48 -> Node26 [dir="back",color="midnightblue",fontsize="10",style="solid"];
  Node48 -> Node30 [dir="back",color="midnightblue",fontsize="10",style="solid"];
  Node48 -> Node49 [dir="back",color="midnightblue",fontsize="10",style="solid"];
  Node49 [label="sources/Factories/ECS\l/components/MeshComponent.cpp",height=0.2,width=0.4,color="black", fillcolor="white", style="filled",URL="$_mesh_component_8cpp.html",tooltip=" "];
  Node6 -> Node50 [dir="back",color="midnightblue",fontsize="10",style="solid"];
  Node50 [label="includes/Factories\l/ECS/components/TextureComponent.hpp",height=0.2,width=0.4,color="black", fillcolor="white", style="filled",URL="$_texture_component_8hpp.html",tooltip=" "];
  Node50 -> Node7 [dir="back",color="midnightblue",fontsize="10",style="solid"];
  Node50 -> Node33 [dir="back",color="midnightblue",fontsize="10",style="solid"];
  Node50 -> Node30 [dir="back",color="midnightblue",fontsize="10",style="solid"];
  Node50 -> Node51 [dir="back",color="midnightblue",fontsize="10",style="solid"];
  Node51 [label="sources/Factories/ECS\l/components/TextureComponent.cpp",height=0.2,width=0.4,color="black", fillcolor="white", style="filled",URL="$_texture_component_8cpp.html",tooltip=" "];
  Node6 -> Node52 [dir="back",color="midnightblue",fontsize="10",style="solid"];
  Node52 [label="includes/GameObjects\l/Particuls.hpp",height=0.2,width=0.4,color="black", fillcolor="white", style="filled",URL="$_particuls_8hpp.html",tooltip=" "];
  Node52 -> Node30 [dir="back",color="midnightblue",fontsize="10",style="solid"];
  Node52 -> Node53 [dir="back",color="midnightblue",fontsize="10",style="solid"];
  Node53 [label="sources/GameObjects\l/Particuls.cpp",height=0.2,width=0.4,color="black", fillcolor="white", style="filled",URL="$_particuls_8cpp.html",tooltip=" "];
  Node52 -> Node24 [dir="back",color="midnightblue",fontsize="10",style="solid"];
  Node6 -> Node30 [dir="back",color="midnightblue",fontsize="10",style="solid"];
  Node6 -> Node54 [dir="back",color="midnightblue",fontsize="10",style="solid"];
  Node54 [label="includes/Graphical\l/handleInput.hpp",height=0.2,width=0.4,color="black", fillcolor="white", style="filled",URL="$handle_input_8hpp.html",tooltip=" "];
  Node54 -> Node30 [dir="back",color="midnightblue",fontsize="10",style="solid"];
  Node54 -> Node55 [dir="back",color="midnightblue",fontsize="10",style="solid"];
  Node55 [label="sources/Graphical/handle\lInput.cpp",height=0.2,width=0.4,color="black", fillcolor="white", style="filled",URL="$handle_input_8cpp.html",tooltip=" "];
  Node6 -> Node43 [dir="back",color="midnightblue",fontsize="10",style="solid"];
  Node43 [label="includes/Render/Render.hpp",height=0.2,width=0.4,color="black", fillcolor="white", style="filled",URL="$_render_8hpp.html",tooltip=" "];
  Node43 -> Node11 [dir="back",color="midnightblue",fontsize="10",style="solid"];
  Node43 -> Node39 [dir="back",color="midnightblue",fontsize="10",style="solid"];
  Node39 [label="sources/Render/Render.cpp",height=0.2,width=0.4,color="black", fillcolor="white", style="filled",URL="$_render_8cpp.html",tooltip=" "];
  Node3 -> Node6 [dir="back",color="midnightblue",fontsize="10",style="solid"];
  Node2 -> Node6 [dir="back",color="midnightblue",fontsize="10",style="solid"];
  Node1 -> Node56 [dir="back",color="midnightblue",fontsize="10",style="solid"];
  Node56 [label="cmake/include/IAnimatedMesh\lMD3.h",height=0.2,width=0.4,color="black", fillcolor="white", style="filled",URL="$_i_animated_mesh_m_d3_8h.html",tooltip=" "];
  Node56 -> Node3 [dir="back",color="midnightblue",fontsize="10",style="solid"];
  Node56 -> Node6 [dir="back",color="midnightblue",fontsize="10",style="solid"];
  Node1 -> Node57 [dir="back",color="midnightblue",fontsize="10",style="solid"];
  Node57 [label="cmake/include/IColladaMesh\lWriter.h",height=0.2,width=0.4,color="black", fillcolor="white", style="filled",URL="$_i_collada_mesh_writer_8h.html",tooltip=" "];
  Node57 -> Node6 [dir="back",color="midnightblue",fontsize="10",style="solid"];
  Node1 -> Node58 [dir="back",color="midnightblue",fontsize="10",style="solid"];
  Node58 [label="cmake/include/IMeshManipulator.h",height=0.2,width=0.4,color="black", fillcolor="white", style="filled",URL="$_i_mesh_manipulator_8h.html",tooltip=" "];
  Node58 -> Node6 [dir="back",color="midnightblue",fontsize="10",style="solid"];
  Node1 -> Node59 [dir="back",color="midnightblue",fontsize="10",style="solid"];
  Node59 [label="cmake/include/IQ3LevelMesh.h",height=0.2,width=0.4,color="black", fillcolor="white", style="filled",URL="$_i_q3_level_mesh_8h.html",tooltip=" "];
  Node59 -> Node6 [dir="back",color="midnightblue",fontsize="10",style="solid"];
  Node1 -> Node6 [dir="back",color="midnightblue",fontsize="10",style="solid"];
  Node1 -> Node60 [dir="back",color="midnightblue",fontsize="10",style="solid"];
  Node60 [label="cmake/include/ISkinnedMesh.h",height=0.2,width=0.4,color="black", fillcolor="white", style="filled",URL="$_i_skinned_mesh_8h.html",tooltip=" "];
  Node60 -> Node61 [dir="back",color="midnightblue",fontsize="10",style="solid"];
  Node61 [label="cmake/include/ISceneManager.h",height=0.2,width=0.4,color="black", fillcolor="white", style="filled",URL="$_i_scene_manager_8h.html",tooltip=" "];
  Node61 -> Node6 [dir="back",color="midnightblue",fontsize="10",style="solid"];
  Node60 -> Node6 [dir="back",color="midnightblue",fontsize="10",style="solid"];
  Node1 -> Node62 [dir="back",color="midnightblue",fontsize="10",style="solid"];
  Node62 [label="cmake/include/SAnimatedMesh.h",height=0.2,width=0.4,color="black", fillcolor="white", style="filled",URL="$_s_animated_mesh_8h.html",tooltip=" "];
  Node62 -> Node6 [dir="back",color="midnightblue",fontsize="10",style="solid"];
}
