digraph "cmake/include/IBillboardTextSceneNode.h"
{
 // LATEX_PDF_SIZE
  edge [fontname="Helvetica",fontsize="10",labelfontname="Helvetica",labelfontsize="10"];
  node [fontname="Helvetica",fontsize="10",shape=record];
  Node1 [label="cmake/include/IBillboard\lTextSceneNode.h",height=0.2,width=0.4,color="black", fillcolor="grey75", style="filled", fontcolor="black",tooltip=" "];
  Node1 -> Node2 [dir="back",color="midnightblue",fontsize="10",style="solid"];
  Node2 [label="cmake/include/irrlicht.h",height=0.2,width=0.4,color="black", fillcolor="white", style="filled",URL="$irrlicht_8h.html",tooltip="Main header file of the irrlicht, the only file needed to include."];
  Node2 -> Node3 [dir="back",color="midnightblue",fontsize="10",style="solid"];
  Node3 [label="includes/Factories\l/Button.hpp",height=0.2,width=0.4,color="black", fillcolor="white", style="filled",URL="$_button_8hpp.html",tooltip=" "];
  Node3 -> Node4 [dir="back",color="midnightblue",fontsize="10",style="solid"];
  Node4 [label="includes/Scenes/Menu.hpp",height=0.2,width=0.4,color="black", fillcolor="white", style="filled",URL="$_menu_8hpp.html",tooltip=" "];
  Node4 -> Node5 [dir="back",color="midnightblue",fontsize="10",style="solid"];
  Node5 [label="includes/Core/Core.hpp",height=0.2,width=0.4,color="black", fillcolor="white", style="filled",URL="$_core_8hpp.html",tooltip=" "];
  Node5 -> Node6 [dir="back",color="midnightblue",fontsize="10",style="solid"];
  Node6 [label="sources/Core/Core.cpp",height=0.2,width=0.4,color="black", fillcolor="white", style="filled",URL="$_core_8cpp.html",tooltip=" "];
  Node5 -> Node7 [dir="back",color="midnightblue",fontsize="10",style="solid"];
  Node7 [label="sources/main.cpp",height=0.2,width=0.4,color="black", fillcolor="white", style="filled",URL="$main_8cpp.html",tooltip=" "];
  Node4 -> Node8 [dir="back",color="midnightblue",fontsize="10",style="solid"];
  Node8 [label="sources/Scenes/Menu.cpp",height=0.2,width=0.4,color="black", fillcolor="white", style="filled",URL="$_menu_8cpp.html",tooltip=" "];
  Node3 -> Node9 [dir="back",color="midnightblue",fontsize="10",style="solid"];
  Node9 [label="includes/Scenes/Options.hpp",height=0.2,width=0.4,color="black", fillcolor="white", style="filled",URL="$_options_8hpp.html",tooltip=" "];
  Node9 -> Node5 [dir="back",color="midnightblue",fontsize="10",style="solid"];
  Node9 -> Node10 [dir="back",color="midnightblue",fontsize="10",style="solid"];
  Node10 [label="sources/Scenes/Options.cpp",height=0.2,width=0.4,color="black", fillcolor="white", style="filled",URL="$_options_8cpp.html",tooltip=" "];
  Node3 -> Node11 [dir="back",color="midnightblue",fontsize="10",style="solid"];
  Node11 [label="includes/Scenes/SelectPlayer.hpp",height=0.2,width=0.4,color="black", fillcolor="white", style="filled",URL="$_select_player_8hpp.html",tooltip=" "];
  Node11 -> Node5 [dir="back",color="midnightblue",fontsize="10",style="solid"];
  Node11 -> Node12 [dir="back",color="midnightblue",fontsize="10",style="solid"];
  Node12 [label="sources/Scenes/SelectPlayer.cpp",height=0.2,width=0.4,color="black", fillcolor="white", style="filled",URL="$_select_player_8cpp.html",tooltip=" "];
  Node3 -> Node13 [dir="back",color="midnightblue",fontsize="10",style="solid"];
  Node13 [label="includes/Scenes/SelectSave.hpp",height=0.2,width=0.4,color="black", fillcolor="white", style="filled",URL="$_select_save_8hpp.html",tooltip=" "];
  Node13 -> Node5 [dir="back",color="midnightblue",fontsize="10",style="solid"];
  Node13 -> Node14 [dir="back",color="midnightblue",fontsize="10",style="solid"];
  Node14 [label="sources/Scenes/SelectSave.cpp",height=0.2,width=0.4,color="black", fillcolor="white", style="filled",URL="$_select_save_8cpp.html",tooltip=" "];
  Node3 -> Node15 [dir="back",color="midnightblue",fontsize="10",style="solid"];
  Node15 [label="includes/Scenes/Title.hpp",height=0.2,width=0.4,color="black", fillcolor="white", style="filled",URL="$_title_8hpp.html",tooltip=" "];
  Node15 -> Node5 [dir="back",color="midnightblue",fontsize="10",style="solid"];
  Node15 -> Node16 [dir="back",color="midnightblue",fontsize="10",style="solid"];
  Node16 [label="sources/Scenes/Title.cpp",height=0.2,width=0.4,color="black", fillcolor="white", style="filled",URL="$_title_8cpp.html",tooltip=" "];
  Node3 -> Node17 [dir="back",color="midnightblue",fontsize="10",style="solid"];
  Node17 [label="sources/Factories/Button.cpp",height=0.2,width=0.4,color="black", fillcolor="white", style="filled",URL="$_button_8cpp.html",tooltip=" "];
  Node2 -> Node18 [dir="back",color="midnightblue",fontsize="10",style="solid"];
  Node18 [label="includes/Factories\l/Collision.hpp",height=0.2,width=0.4,color="black", fillcolor="white", style="filled",URL="$_collision_8hpp.html",tooltip=" "];
  Node18 -> Node19 [dir="back",color="midnightblue",fontsize="10",style="solid"];
  Node19 [label="sources/Factories/Collision.cpp",height=0.2,width=0.4,color="black", fillcolor="white", style="filled",URL="$_collision_8cpp.html",tooltip=" "];
  Node18 -> Node20 [dir="back",color="midnightblue",fontsize="10",style="solid"];
  Node20 [label="sources/Graphical/Graphical.cpp",height=0.2,width=0.4,color="black", fillcolor="white", style="filled",URL="$_graphical_8cpp.html",tooltip=" "];
  Node2 -> Node21 [dir="back",color="midnightblue",fontsize="10",style="solid"];
  Node21 [label="includes/Factories\l/ECS/components/ActionComponent.hpp",height=0.2,width=0.4,color="black", fillcolor="white", style="filled",URL="$_action_component_8hpp.html",tooltip=" "];
  Node21 -> Node22 [dir="back",color="midnightblue",fontsize="10",style="solid"];
  Node22 [label="includes/Factories\l/ECS/entities/Perso.hpp",height=0.2,width=0.4,color="black", fillcolor="white", style="filled",URL="$_perso_8hpp.html",tooltip=" "];
  Node22 -> Node23 [dir="back",color="midnightblue",fontsize="10",style="solid"];
  Node23 [label="includes/Scenes/GameScene.hpp",height=0.2,width=0.4,color="black", fillcolor="white", style="filled",URL="$_game_scene_8hpp.html",tooltip=" "];
  Node23 -> Node5 [dir="back",color="midnightblue",fontsize="10",style="solid"];
  Node23 -> Node24 [dir="back",color="midnightblue",fontsize="10",style="solid"];
  Node24 [label="sources/Scenes/GameScene.cpp",height=0.2,width=0.4,color="black", fillcolor="white", style="filled",URL="$_game_scene_8cpp.html",tooltip=" "];
  Node22 -> Node25 [dir="back",color="midnightblue",fontsize="10",style="solid"];
  Node25 [label="sources/Factories/ECS\l/entities/Perso.cpp",height=0.2,width=0.4,color="black", fillcolor="white", style="filled",URL="$_perso_8cpp.html",tooltip=" "];
  Node22 -> Node7 [dir="back",color="midnightblue",fontsize="10",style="solid"];
  Node21 -> Node26 [dir="back",color="midnightblue",fontsize="10",style="solid"];
  Node26 [label="includes/Graphical\l/Graphical.hpp",height=0.2,width=0.4,color="black", fillcolor="white", style="filled",URL="$_graphical_8hpp.html",tooltip=" "];
  Node26 -> Node5 [dir="back",color="midnightblue",fontsize="10",style="solid"];
  Node26 -> Node23 [dir="back",color="midnightblue",fontsize="10",style="solid"];
  Node26 -> Node4 [dir="back",color="midnightblue",fontsize="10",style="solid"];
  Node26 -> Node9 [dir="back",color="midnightblue",fontsize="10",style="solid"];
  Node26 -> Node11 [dir="back",color="midnightblue",fontsize="10",style="solid"];
  Node26 -> Node13 [dir="back",color="midnightblue",fontsize="10",style="solid"];
  Node26 -> Node15 [dir="back",color="midnightblue",fontsize="10",style="solid"];
  Node26 -> Node20 [dir="back",color="midnightblue",fontsize="10",style="solid"];
  Node26 -> Node7 [dir="back",color="midnightblue",fontsize="10",style="solid"];
  Node21 -> Node27 [dir="back",color="midnightblue",fontsize="10",style="solid"];
  Node27 [label="sources/Factories/ECS\l/components/ActionComponent.cpp",height=0.2,width=0.4,color="black", fillcolor="white", style="filled",URL="$_action_component_8cpp.html",tooltip=" "];
  Node2 -> Node28 [dir="back",color="midnightblue",fontsize="10",style="solid"];
  Node28 [label="includes/Factories\l/ECS/components/CubeComponent.hpp",height=0.2,width=0.4,color="black", fillcolor="white", style="filled",URL="$_cube_component_8hpp.html",tooltip=" "];
  Node28 -> Node29 [dir="back",color="midnightblue",fontsize="10",style="solid"];
  Node29 [label="includes/GameObjects\l/Block.hpp",height=0.2,width=0.4,color="black", fillcolor="white", style="filled",URL="$_block_8hpp.html",tooltip=" "];
  Node29 -> Node30 [dir="back",color="midnightblue",fontsize="10",style="solid"];
  Node30 [label="includes/GameObjects\l/Bomb.hpp",height=0.2,width=0.4,color="black", fillcolor="white", style="filled",URL="$_bomb_8hpp.html",tooltip=" "];
  Node30 -> Node22 [dir="back",color="midnightblue",fontsize="10",style="solid"];
  Node30 -> Node31 [dir="back",color="midnightblue",fontsize="10",style="solid"];
  Node31 [label="sources/GameObjects\l/Bomb.cpp",height=0.2,width=0.4,color="black", fillcolor="white", style="filled",URL="$_bomb_8cpp.html",tooltip=" "];
  Node29 -> Node32 [dir="back",color="midnightblue",fontsize="10",style="solid"];
  Node32 [label="includes/GameObjects\l/Crate.hpp",height=0.2,width=0.4,color="black", fillcolor="white", style="filled",URL="$_crate_8hpp.html",tooltip=" "];
  Node32 -> Node33 [dir="back",color="midnightblue",fontsize="10",style="solid"];
  Node33 [label="sources/GameObjects\l/Crate.cpp",height=0.2,width=0.4,color="black", fillcolor="white", style="filled",URL="$_crate_8cpp.html",tooltip=" "];
  Node32 -> Node34 [dir="back",color="midnightblue",fontsize="10",style="solid"];
  Node34 [label="sources/GameObjects\l/Map.cpp",height=0.2,width=0.4,color="black", fillcolor="white", style="filled",URL="$_map_8cpp.html",tooltip=" "];
  Node32 -> Node20 [dir="back",color="midnightblue",fontsize="10",style="solid"];
  Node32 -> Node35 [dir="back",color="midnightblue",fontsize="10",style="solid"];
  Node35 [label="sources/Render/Render.cpp",height=0.2,width=0.4,color="black", fillcolor="white", style="filled",URL="$_render_8cpp.html",tooltip=" "];
  Node29 -> Node36 [dir="back",color="midnightblue",fontsize="10",style="solid"];
  Node36 [label="includes/GameObjects\l/Map.hpp",height=0.2,width=0.4,color="black", fillcolor="white", style="filled",URL="$_map_8hpp.html",tooltip=" "];
  Node36 -> Node37 [dir="back",color="midnightblue",fontsize="10",style="solid"];
  Node37 [label="includes/Factories\l/MapFactory.hpp",height=0.2,width=0.4,color="red", fillcolor="white", style="filled",URL="$_map_factory_8hpp.html",tooltip=" "];
  Node37 -> Node23 [dir="back",color="midnightblue",fontsize="10",style="solid"];
  Node37 -> Node7 [dir="back",color="midnightblue",fontsize="10",style="solid"];
  Node36 -> Node26 [dir="back",color="midnightblue",fontsize="10",style="solid"];
  Node36 -> Node39 [dir="back",color="midnightblue",fontsize="10",style="solid"];
  Node39 [label="includes/Render/Render.hpp",height=0.2,width=0.4,color="black", fillcolor="white", style="filled",URL="$_render_8hpp.html",tooltip=" "];
  Node39 -> Node7 [dir="back",color="midnightblue",fontsize="10",style="solid"];
  Node39 -> Node35 [dir="back",color="midnightblue",fontsize="10",style="solid"];
  Node36 -> Node34 [dir="back",color="midnightblue",fontsize="10",style="solid"];
  Node36 -> Node7 [dir="back",color="midnightblue",fontsize="10",style="solid"];
  Node29 -> Node40 [dir="back",color="midnightblue",fontsize="10",style="solid"];
  Node40 [label="includes/GameObjects\l/Wall.hpp",height=0.2,width=0.4,color="black", fillcolor="white", style="filled",URL="$_wall_8hpp.html",tooltip=" "];
  Node40 -> Node34 [dir="back",color="midnightblue",fontsize="10",style="solid"];
  Node40 -> Node41 [dir="back",color="midnightblue",fontsize="10",style="solid"];
  Node41 [label="sources/GameObjects\l/Wall.cpp",height=0.2,width=0.4,color="black", fillcolor="white", style="filled",URL="$_wall_8cpp.html",tooltip=" "];
  Node40 -> Node20 [dir="back",color="midnightblue",fontsize="10",style="solid"];
  Node40 -> Node35 [dir="back",color="midnightblue",fontsize="10",style="solid"];
  Node29 -> Node42 [dir="back",color="midnightblue",fontsize="10",style="solid"];
  Node42 [label="sources/GameObjects\l/Block.cpp",height=0.2,width=0.4,color="black", fillcolor="white", style="filled",URL="$_block_8cpp.html",tooltip=" "];
  Node29 -> Node34 [dir="back",color="midnightblue",fontsize="10",style="solid"];
  Node28 -> Node26 [dir="back",color="midnightblue",fontsize="10",style="solid"];
  Node28 -> Node23 [dir="back",color="midnightblue",fontsize="10",style="solid"];
  Node28 -> Node43 [dir="back",color="midnightblue",fontsize="10",style="solid"];
  Node43 [label="sources/Factories/ECS\l/components/CubeComponent.cpp",height=0.2,width=0.4,color="black", fillcolor="white", style="filled",URL="$_cube_component_8cpp.html",tooltip=" "];
  Node2 -> Node44 [dir="back",color="midnightblue",fontsize="10",style="solid"];
  Node44 [label="includes/Factories\l/ECS/components/MeshComponent.hpp",height=0.2,width=0.4,color="black", fillcolor="white", style="filled",URL="$_mesh_component_8hpp.html",tooltip=" "];
  Node44 -> Node22 [dir="back",color="midnightblue",fontsize="10",style="solid"];
  Node44 -> Node26 [dir="back",color="midnightblue",fontsize="10",style="solid"];
  Node44 -> Node45 [dir="back",color="midnightblue",fontsize="10",style="solid"];
  Node45 [label="sources/Factories/ECS\l/components/MeshComponent.cpp",height=0.2,width=0.4,color="black", fillcolor="white", style="filled",URL="$_mesh_component_8cpp.html",tooltip=" "];
  Node2 -> Node46 [dir="back",color="midnightblue",fontsize="10",style="solid"];
  Node46 [label="includes/Factories\l/ECS/components/TextureComponent.hpp",height=0.2,width=0.4,color="black", fillcolor="white", style="filled",URL="$_texture_component_8hpp.html",tooltip=" "];
  Node46 -> Node3 [dir="back",color="midnightblue",fontsize="10",style="solid"];
  Node46 -> Node29 [dir="back",color="midnightblue",fontsize="10",style="solid"];
  Node46 -> Node26 [dir="back",color="midnightblue",fontsize="10",style="solid"];
  Node46 -> Node47 [dir="back",color="midnightblue",fontsize="10",style="solid"];
  Node47 [label="sources/Factories/ECS\l/components/TextureComponent.cpp",height=0.2,width=0.4,color="black", fillcolor="white", style="filled",URL="$_texture_component_8cpp.html",tooltip=" "];
  Node2 -> Node48 [dir="back",color="midnightblue",fontsize="10",style="solid"];
  Node48 [label="includes/GameObjects\l/Particuls.hpp",height=0.2,width=0.4,color="black", fillcolor="white", style="filled",URL="$_particuls_8hpp.html",tooltip=" "];
  Node48 -> Node26 [dir="back",color="midnightblue",fontsize="10",style="solid"];
  Node48 -> Node49 [dir="back",color="midnightblue",fontsize="10",style="solid"];
  Node49 [label="sources/GameObjects\l/Particuls.cpp",height=0.2,width=0.4,color="black", fillcolor="white", style="filled",URL="$_particuls_8cpp.html",tooltip=" "];
  Node48 -> Node20 [dir="back",color="midnightblue",fontsize="10",style="solid"];
  Node2 -> Node26 [dir="back",color="midnightblue",fontsize="10",style="solid"];
  Node2 -> Node50 [dir="back",color="midnightblue",fontsize="10",style="solid"];
  Node50 [label="includes/Graphical\l/handleInput.hpp",height=0.2,width=0.4,color="black", fillcolor="white", style="filled",URL="$handle_input_8hpp.html",tooltip=" "];
  Node50 -> Node26 [dir="back",color="midnightblue",fontsize="10",style="solid"];
  Node50 -> Node51 [dir="back",color="midnightblue",fontsize="10",style="solid"];
  Node51 [label="sources/Graphical/handle\lInput.cpp",height=0.2,width=0.4,color="black", fillcolor="white", style="filled",URL="$handle_input_8cpp.html",tooltip=" "];
  Node2 -> Node39 [dir="back",color="midnightblue",fontsize="10",style="solid"];
}
