digraph "cmake/include/IGUIMeshViewer.h"
{
 // LATEX_PDF_SIZE
  edge [fontname="Helvetica",fontsize="10",labelfontname="Helvetica",labelfontsize="10"];
  node [fontname="Helvetica",fontsize="10",shape=record];
  Node1 [label="cmake/include/IGUIMeshViewer.h",height=0.2,width=0.4,color="black", fillcolor="grey75", style="filled", fontcolor="black",tooltip=" "];
  Node1 -> Node2 [color="midnightblue",fontsize="10",style="solid"];
  Node2 [label="IGUIElement.h",height=0.2,width=0.4,color="black", fillcolor="white", style="filled",URL="$_i_g_u_i_element_8h.html",tooltip=" "];
  Node2 -> Node3 [color="midnightblue",fontsize="10",style="solid"];
  Node3 [label="IAttributeExchangingObject.h",height=0.2,width=0.4,color="black", fillcolor="white", style="filled",URL="$_i_attribute_exchanging_object_8h.html",tooltip=" "];
  Node3 -> Node4 [color="midnightblue",fontsize="10",style="solid"];
  Node4 [label="IReferenceCounted.h",height=0.2,width=0.4,color="black", fillcolor="white", style="filled",URL="$_i_reference_counted_8h.html",tooltip=" "];
  Node4 -> Node5 [color="midnightblue",fontsize="10",style="solid"];
  Node5 [label="irrTypes.h",height=0.2,width=0.4,color="black", fillcolor="white", style="filled",URL="$irr_types_8h.html",tooltip=" "];
  Node5 -> Node6 [color="midnightblue",fontsize="10",style="solid"];
  Node6 [label="IrrCompileConfig.h",height=0.2,width=0.4,color="black", fillcolor="white", style="filled",URL="$_irr_compile_config_8h.html",tooltip=" "];
  Node6 -> Node7 [color="midnightblue",fontsize="10",style="solid"];
  Node7 [label="stdio.h",height=0.2,width=0.4,color="grey75", fillcolor="white", style="filled",tooltip=" "];
  Node5 -> Node8 [color="midnightblue",fontsize="10",style="solid"];
  Node8 [label="wchar.h",height=0.2,width=0.4,color="grey75", fillcolor="white", style="filled",tooltip=" "];
  Node2 -> Node9 [color="midnightblue",fontsize="10",style="solid"];
  Node9 [label="irrList.h",height=0.2,width=0.4,color="black", fillcolor="white", style="filled",URL="$irr_list_8h.html",tooltip=" "];
  Node9 -> Node5 [color="midnightblue",fontsize="10",style="solid"];
  Node9 -> Node10 [color="midnightblue",fontsize="10",style="solid"];
  Node10 [label="irrAllocator.h",height=0.2,width=0.4,color="black", fillcolor="white", style="filled",URL="$irr_allocator_8h.html",tooltip=" "];
  Node10 -> Node5 [color="midnightblue",fontsize="10",style="solid"];
  Node10 -> Node11 [color="midnightblue",fontsize="10",style="solid"];
  Node11 [label="new",height=0.2,width=0.4,color="grey75", fillcolor="white", style="filled",tooltip=" "];
  Node10 -> Node12 [color="midnightblue",fontsize="10",style="solid"];
  Node12 [label="memory.h",height=0.2,width=0.4,color="grey75", fillcolor="white", style="filled",tooltip=" "];
  Node9 -> Node13 [color="midnightblue",fontsize="10",style="solid"];
  Node13 [label="irrMath.h",height=0.2,width=0.4,color="black", fillcolor="white", style="filled",URL="$irr_math_8h.html",tooltip=" "];
  Node13 -> Node6 [color="midnightblue",fontsize="10",style="solid"];
  Node13 -> Node5 [color="midnightblue",fontsize="10",style="solid"];
  Node13 -> Node14 [color="midnightblue",fontsize="10",style="solid"];
  Node14 [label="math.h",height=0.2,width=0.4,color="grey75", fillcolor="white", style="filled",tooltip=" "];
  Node13 -> Node15 [color="midnightblue",fontsize="10",style="solid"];
  Node15 [label="float.h",height=0.2,width=0.4,color="grey75", fillcolor="white", style="filled",tooltip=" "];
  Node13 -> Node16 [color="midnightblue",fontsize="10",style="solid"];
  Node16 [label="stdlib.h",height=0.2,width=0.4,color="grey75", fillcolor="white", style="filled",tooltip=" "];
  Node13 -> Node17 [color="midnightblue",fontsize="10",style="solid"];
  Node17 [label="limits.h",height=0.2,width=0.4,color="grey75", fillcolor="white", style="filled",tooltip=" "];
  Node2 -> Node18 [color="midnightblue",fontsize="10",style="solid"];
  Node18 [label="rect.h",height=0.2,width=0.4,color="black", fillcolor="white", style="filled",URL="$rect_8h.html",tooltip=" "];
  Node18 -> Node5 [color="midnightblue",fontsize="10",style="solid"];
  Node18 -> Node19 [color="midnightblue",fontsize="10",style="solid"];
  Node19 [label="dimension2d.h",height=0.2,width=0.4,color="black", fillcolor="white", style="filled",URL="$dimension2d_8h.html",tooltip=" "];
  Node19 -> Node5 [color="midnightblue",fontsize="10",style="solid"];
  Node19 -> Node13 [color="midnightblue",fontsize="10",style="solid"];
  Node18 -> Node20 [color="midnightblue",fontsize="10",style="solid"];
  Node20 [label="position2d.h",height=0.2,width=0.4,color="black", fillcolor="white", style="filled",URL="$position2d_8h.html",tooltip=" "];
  Node20 -> Node21 [color="midnightblue",fontsize="10",style="solid"];
  Node21 [label="vector2d.h",height=0.2,width=0.4,color="black", fillcolor="white", style="filled",URL="$vector2d_8h.html",tooltip=" "];
  Node21 -> Node13 [color="midnightblue",fontsize="10",style="solid"];
  Node21 -> Node19 [color="midnightblue",fontsize="10",style="solid"];
  Node2 -> Node22 [color="midnightblue",fontsize="10",style="solid"];
  Node22 [label="irrString.h",height=0.2,width=0.4,color="black", fillcolor="white", style="filled",URL="$irr_string_8h.html",tooltip=" "];
  Node22 -> Node5 [color="midnightblue",fontsize="10",style="solid"];
  Node22 -> Node10 [color="midnightblue",fontsize="10",style="solid"];
  Node22 -> Node13 [color="midnightblue",fontsize="10",style="solid"];
  Node22 -> Node7 [color="midnightblue",fontsize="10",style="solid"];
  Node22 -> Node23 [color="midnightblue",fontsize="10",style="solid"];
  Node23 [label="string.h",height=0.2,width=0.4,color="grey75", fillcolor="white", style="filled",tooltip=" "];
  Node22 -> Node16 [color="midnightblue",fontsize="10",style="solid"];
  Node2 -> Node24 [color="midnightblue",fontsize="10",style="solid"];
  Node24 [label="IEventReceiver.h",height=0.2,width=0.4,color="black", fillcolor="white", style="filled",URL="$_i_event_receiver_8h.html",tooltip=" "];
  Node24 -> Node25 [color="midnightblue",fontsize="10",style="solid"];
  Node25 [label="ILogger.h",height=0.2,width=0.4,color="black", fillcolor="white", style="filled",URL="$_i_logger_8h.html",tooltip=" "];
  Node25 -> Node4 [color="midnightblue",fontsize="10",style="solid"];
  Node24 -> Node26 [color="midnightblue",fontsize="10",style="solid"];
  Node26 [label="Keycodes.h",height=0.2,width=0.4,color="black", fillcolor="white", style="filled",URL="$_keycodes_8h.html",tooltip=" "];
  Node24 -> Node22 [color="midnightblue",fontsize="10",style="solid"];
  Node2 -> Node27 [color="midnightblue",fontsize="10",style="solid"];
  Node27 [label="EGUIElementTypes.h",height=0.2,width=0.4,color="black", fillcolor="white", style="filled",URL="$_e_g_u_i_element_types_8h.html",tooltip=" "];
  Node27 -> Node5 [color="midnightblue",fontsize="10",style="solid"];
  Node2 -> Node28 [color="midnightblue",fontsize="10",style="solid"];
  Node28 [label="EGUIAlignment.h",height=0.2,width=0.4,color="black", fillcolor="white", style="filled",URL="$_e_g_u_i_alignment_8h.html",tooltip=" "];
  Node2 -> Node29 [color="midnightblue",fontsize="10",style="solid"];
  Node29 [label="IAttributes.h",height=0.2,width=0.4,color="black", fillcolor="white", style="filled",URL="$_i_attributes_8h.html",tooltip=" "];
  Node29 -> Node4 [color="midnightblue",fontsize="10",style="solid"];
  Node29 -> Node30 [color="midnightblue",fontsize="10",style="solid"];
  Node30 [label="SColor.h",height=0.2,width=0.4,color="black", fillcolor="white", style="filled",URL="$_s_color_8h.html",tooltip=" "];
  Node30 -> Node5 [color="midnightblue",fontsize="10",style="solid"];
  Node30 -> Node13 [color="midnightblue",fontsize="10",style="solid"];
  Node29 -> Node31 [color="midnightblue",fontsize="10",style="solid"];
  Node31 [label="vector3d.h",height=0.2,width=0.4,color="black", fillcolor="white", style="filled",URL="$vector3d_8h.html",tooltip=" "];
  Node31 -> Node13 [color="midnightblue",fontsize="10",style="solid"];
  Node29 -> Node21 [color="midnightblue",fontsize="10",style="solid"];
  Node29 -> Node32 [color="midnightblue",fontsize="10",style="solid"];
  Node32 [label="line2d.h",height=0.2,width=0.4,color="black", fillcolor="white", style="filled",URL="$line2d_8h.html",tooltip=" "];
  Node32 -> Node5 [color="midnightblue",fontsize="10",style="solid"];
  Node32 -> Node21 [color="midnightblue",fontsize="10",style="solid"];
  Node29 -> Node33 [color="midnightblue",fontsize="10",style="solid"];
  Node33 [label="line3d.h",height=0.2,width=0.4,color="black", fillcolor="white", style="filled",URL="$line3d_8h.html",tooltip=" "];
  Node33 -> Node5 [color="midnightblue",fontsize="10",style="solid"];
  Node33 -> Node31 [color="midnightblue",fontsize="10",style="solid"];
  Node29 -> Node34 [color="midnightblue",fontsize="10",style="solid"];
  Node34 [label="triangle3d.h",height=0.2,width=0.4,color="black", fillcolor="white", style="filled",URL="$triangle3d_8h.html",tooltip=" "];
  Node34 -> Node31 [color="midnightblue",fontsize="10",style="solid"];
  Node34 -> Node33 [color="midnightblue",fontsize="10",style="solid"];
  Node34 -> Node35 [color="midnightblue",fontsize="10",style="solid"];
  Node35 [label="plane3d.h",height=0.2,width=0.4,color="black", fillcolor="white", style="filled",URL="$plane3d_8h.html",tooltip=" "];
  Node35 -> Node13 [color="midnightblue",fontsize="10",style="solid"];
  Node35 -> Node31 [color="midnightblue",fontsize="10",style="solid"];
  Node34 -> Node36 [color="midnightblue",fontsize="10",style="solid"];
  Node36 [label="aabbox3d.h",height=0.2,width=0.4,color="black", fillcolor="white", style="filled",URL="$aabbox3d_8h.html",tooltip=" "];
  Node36 -> Node13 [color="midnightblue",fontsize="10",style="solid"];
  Node36 -> Node35 [color="midnightblue",fontsize="10",style="solid"];
  Node36 -> Node33 [color="midnightblue",fontsize="10",style="solid"];
  Node29 -> Node20 [color="midnightblue",fontsize="10",style="solid"];
  Node29 -> Node18 [color="midnightblue",fontsize="10",style="solid"];
  Node29 -> Node19 [color="midnightblue",fontsize="10",style="solid"];
  Node29 -> Node37 [color="midnightblue",fontsize="10",style="solid"];
  Node37 [label="matrix4.h",height=0.2,width=0.4,color="black", fillcolor="white", style="filled",URL="$matrix4_8h.html",tooltip=" "];
  Node37 -> Node13 [color="midnightblue",fontsize="10",style="solid"];
  Node37 -> Node31 [color="midnightblue",fontsize="10",style="solid"];
  Node37 -> Node21 [color="midnightblue",fontsize="10",style="solid"];
  Node37 -> Node35 [color="midnightblue",fontsize="10",style="solid"];
  Node37 -> Node36 [color="midnightblue",fontsize="10",style="solid"];
  Node37 -> Node18 [color="midnightblue",fontsize="10",style="solid"];
  Node37 -> Node22 [color="midnightblue",fontsize="10",style="solid"];
  Node29 -> Node38 [color="midnightblue",fontsize="10",style="solid"];
  Node38 [label="quaternion.h",height=0.2,width=0.4,color="black", fillcolor="white", style="filled",URL="$quaternion_8h.html",tooltip=" "];
  Node38 -> Node5 [color="midnightblue",fontsize="10",style="solid"];
  Node38 -> Node13 [color="midnightblue",fontsize="10",style="solid"];
  Node38 -> Node37 [color="midnightblue",fontsize="10",style="solid"];
  Node38 -> Node31 [color="midnightblue",fontsize="10",style="solid"];
  Node29 -> Node35 [color="midnightblue",fontsize="10",style="solid"];
  Node29 -> Node22 [color="midnightblue",fontsize="10",style="solid"];
  Node29 -> Node39 [color="midnightblue",fontsize="10",style="solid"];
  Node39 [label="irrArray.h",height=0.2,width=0.4,color="black", fillcolor="white", style="filled",URL="$irr_array_8h.html",tooltip=" "];
  Node39 -> Node5 [color="midnightblue",fontsize="10",style="solid"];
  Node39 -> Node40 [color="midnightblue",fontsize="10",style="solid"];
  Node40 [label="heapsort.h",height=0.2,width=0.4,color="black", fillcolor="white", style="filled",URL="$heapsort_8h.html",tooltip=" "];
  Node40 -> Node5 [color="midnightblue",fontsize="10",style="solid"];
  Node39 -> Node10 [color="midnightblue",fontsize="10",style="solid"];
  Node39 -> Node13 [color="midnightblue",fontsize="10",style="solid"];
  Node29 -> Node41 [color="midnightblue",fontsize="10",style="solid"];
  Node41 [label="IXMLReader.h",height=0.2,width=0.4,color="black", fillcolor="white", style="filled",URL="$_i_x_m_l_reader_8h.html",tooltip=" "];
  Node41 -> Node4 [color="midnightblue",fontsize="10",style="solid"];
  Node41 -> Node42 [color="midnightblue",fontsize="10",style="solid"];
  Node42 [label="irrXML.h",height=0.2,width=0.4,color="black", fillcolor="white", style="filled",URL="$irr_x_m_l_8h.html",tooltip="Header file of the irrXML, the Irrlicht XML parser."];
  Node42 -> Node7 [color="midnightblue",fontsize="10",style="solid"];
  Node42 -> Node6 [color="midnightblue",fontsize="10",style="solid"];
  Node29 -> Node43 [color="midnightblue",fontsize="10",style="solid"];
  Node43 [label="EAttributes.h",height=0.2,width=0.4,color="black", fillcolor="white", style="filled",URL="$_e_attributes_8h.html",tooltip=" "];
  Node29 -> Node44 [color="midnightblue",fontsize="10",style="solid"];
  Node44 [label="path.h",height=0.2,width=0.4,color="black", fillcolor="white", style="filled",URL="$path_8h.html",tooltip=" "];
  Node44 -> Node22 [color="midnightblue",fontsize="10",style="solid"];
}
