digraph "cmake/include/IImageLoader.h"
{
 // LATEX_PDF_SIZE
  edge [fontname="Helvetica",fontsize="10",labelfontname="Helvetica",labelfontsize="10"];
  node [fontname="Helvetica",fontsize="10",shape=record];
  Node1 [label="cmake/include/IImageLoader.h",height=0.2,width=0.4,color="black", fillcolor="grey75", style="filled", fontcolor="black",tooltip=" "];
  Node1 -> Node2 [color="midnightblue",fontsize="10",style="solid"];
  Node2 [label="IReferenceCounted.h",height=0.2,width=0.4,color="black", fillcolor="white", style="filled",URL="$_i_reference_counted_8h.html",tooltip=" "];
  Node2 -> Node3 [color="midnightblue",fontsize="10",style="solid"];
  Node3 [label="irrTypes.h",height=0.2,width=0.4,color="black", fillcolor="white", style="filled",URL="$irr_types_8h.html",tooltip=" "];
  Node3 -> Node4 [color="midnightblue",fontsize="10",style="solid"];
  Node4 [label="IrrCompileConfig.h",height=0.2,width=0.4,color="black", fillcolor="white", style="filled",URL="$_irr_compile_config_8h.html",tooltip=" "];
  Node4 -> Node5 [color="midnightblue",fontsize="10",style="solid"];
  Node5 [label="stdio.h",height=0.2,width=0.4,color="grey75", fillcolor="white", style="filled",tooltip=" "];
  Node3 -> Node6 [color="midnightblue",fontsize="10",style="solid"];
  Node6 [label="wchar.h",height=0.2,width=0.4,color="grey75", fillcolor="white", style="filled",tooltip=" "];
  Node1 -> Node7 [color="midnightblue",fontsize="10",style="solid"];
  Node7 [label="IImage.h",height=0.2,width=0.4,color="black", fillcolor="white", style="filled",URL="$_i_image_8h.html",tooltip=" "];
  Node7 -> Node2 [color="midnightblue",fontsize="10",style="solid"];
  Node7 -> Node8 [color="midnightblue",fontsize="10",style="solid"];
  Node8 [label="position2d.h",height=0.2,width=0.4,color="black", fillcolor="white", style="filled",URL="$position2d_8h.html",tooltip=" "];
  Node8 -> Node9 [color="midnightblue",fontsize="10",style="solid"];
  Node9 [label="vector2d.h",height=0.2,width=0.4,color="black", fillcolor="white", style="filled",URL="$vector2d_8h.html",tooltip=" "];
  Node9 -> Node10 [color="midnightblue",fontsize="10",style="solid"];
  Node10 [label="irrMath.h",height=0.2,width=0.4,color="black", fillcolor="white", style="filled",URL="$irr_math_8h.html",tooltip=" "];
  Node10 -> Node4 [color="midnightblue",fontsize="10",style="solid"];
  Node10 -> Node3 [color="midnightblue",fontsize="10",style="solid"];
  Node10 -> Node11 [color="midnightblue",fontsize="10",style="solid"];
  Node11 [label="math.h",height=0.2,width=0.4,color="grey75", fillcolor="white", style="filled",tooltip=" "];
  Node10 -> Node12 [color="midnightblue",fontsize="10",style="solid"];
  Node12 [label="float.h",height=0.2,width=0.4,color="grey75", fillcolor="white", style="filled",tooltip=" "];
  Node10 -> Node13 [color="midnightblue",fontsize="10",style="solid"];
  Node13 [label="stdlib.h",height=0.2,width=0.4,color="grey75", fillcolor="white", style="filled",tooltip=" "];
  Node10 -> Node14 [color="midnightblue",fontsize="10",style="solid"];
  Node14 [label="limits.h",height=0.2,width=0.4,color="grey75", fillcolor="white", style="filled",tooltip=" "];
  Node9 -> Node15 [color="midnightblue",fontsize="10",style="solid"];
  Node15 [label="dimension2d.h",height=0.2,width=0.4,color="black", fillcolor="white", style="filled",URL="$dimension2d_8h.html",tooltip=" "];
  Node15 -> Node3 [color="midnightblue",fontsize="10",style="solid"];
  Node15 -> Node10 [color="midnightblue",fontsize="10",style="solid"];
  Node7 -> Node16 [color="midnightblue",fontsize="10",style="solid"];
  Node16 [label="rect.h",height=0.2,width=0.4,color="black", fillcolor="white", style="filled",URL="$rect_8h.html",tooltip=" "];
  Node16 -> Node3 [color="midnightblue",fontsize="10",style="solid"];
  Node16 -> Node15 [color="midnightblue",fontsize="10",style="solid"];
  Node16 -> Node8 [color="midnightblue",fontsize="10",style="solid"];
  Node7 -> Node17 [color="midnightblue",fontsize="10",style="solid"];
  Node17 [label="SColor.h",height=0.2,width=0.4,color="black", fillcolor="white", style="filled",URL="$_s_color_8h.html",tooltip=" "];
  Node17 -> Node3 [color="midnightblue",fontsize="10",style="solid"];
  Node17 -> Node10 [color="midnightblue",fontsize="10",style="solid"];
  Node1 -> Node18 [color="midnightblue",fontsize="10",style="solid"];
  Node18 [label="path.h",height=0.2,width=0.4,color="black", fillcolor="white", style="filled",URL="$path_8h.html",tooltip=" "];
  Node18 -> Node19 [color="midnightblue",fontsize="10",style="solid"];
  Node19 [label="irrString.h",height=0.2,width=0.4,color="black", fillcolor="white", style="filled",URL="$irr_string_8h.html",tooltip=" "];
  Node19 -> Node3 [color="midnightblue",fontsize="10",style="solid"];
  Node19 -> Node20 [color="midnightblue",fontsize="10",style="solid"];
  Node20 [label="irrAllocator.h",height=0.2,width=0.4,color="black", fillcolor="white", style="filled",URL="$irr_allocator_8h.html",tooltip=" "];
  Node20 -> Node3 [color="midnightblue",fontsize="10",style="solid"];
  Node20 -> Node21 [color="midnightblue",fontsize="10",style="solid"];
  Node21 [label="new",height=0.2,width=0.4,color="grey75", fillcolor="white", style="filled",tooltip=" "];
  Node20 -> Node22 [color="midnightblue",fontsize="10",style="solid"];
  Node22 [label="memory.h",height=0.2,width=0.4,color="grey75", fillcolor="white", style="filled",tooltip=" "];
  Node19 -> Node10 [color="midnightblue",fontsize="10",style="solid"];
  Node19 -> Node5 [color="midnightblue",fontsize="10",style="solid"];
  Node19 -> Node23 [color="midnightblue",fontsize="10",style="solid"];
  Node23 [label="string.h",height=0.2,width=0.4,color="grey75", fillcolor="white", style="filled",tooltip=" "];
  Node19 -> Node13 [color="midnightblue",fontsize="10",style="solid"];
}
