digraph "cmake/include/IIndexBuffer.h"
{
 // LATEX_PDF_SIZE
  edge [fontname="Helvetica",fontsize="10",labelfontname="Helvetica",labelfontsize="10"];
  node [fontname="Helvetica",fontsize="10",shape=record];
  Node1 [label="cmake/include/IIndexBuffer.h",height=0.2,width=0.4,color="black", fillcolor="grey75", style="filled", fontcolor="black",tooltip=" "];
  Node1 -> Node2 [color="midnightblue",fontsize="10",style="solid"];
  Node2 [label="IReferenceCounted.h",height=0.2,width=0.4,color="black", fillcolor="white", style="filled",URL="$_i_reference_counted_8h.html",tooltip=" "];
  Node2 -> Node3 [color="midnightblue",fontsize="10",style="solid"];
  Node3 [label="irrTypes.h",height=0.2,width=0.4,color="black", fillcolor="white", style="filled",URL="$irr_types_8h.html",tooltip=" "];
  Node3 -> Node4 [color="midnightblue",fontsize="10",style="solid"];
  Node4 [label="IrrCompileConfig.h",height=0.2,width=0.4,color="black", fillcolor="white", style="filled",URL="$_irr_compile_config_8h.html",tooltip=" "];
  Node4 -> Node5 [color="midnightblue",fontsize="10",style="solid"];
  Node5 [label="stdio.h",height=0.2,width=0.4,color="grey75", fillcolor="white", style="filled",tooltip=" "];
  Node3 -> Node6 [color="midnightblue",fontsize="10",style="solid"];
  Node6 [label="wchar.h",height=0.2,width=0.4,color="grey75", fillcolor="white", style="filled",tooltip=" "];
  Node1 -> Node7 [color="midnightblue",fontsize="10",style="solid"];
  Node7 [label="irrArray.h",height=0.2,width=0.4,color="black", fillcolor="white", style="filled",URL="$irr_array_8h.html",tooltip=" "];
  Node7 -> Node3 [color="midnightblue",fontsize="10",style="solid"];
  Node7 -> Node8 [color="midnightblue",fontsize="10",style="solid"];
  Node8 [label="heapsort.h",height=0.2,width=0.4,color="black", fillcolor="white", style="filled",URL="$heapsort_8h.html",tooltip=" "];
  Node8 -> Node3 [color="midnightblue",fontsize="10",style="solid"];
  Node7 -> Node9 [color="midnightblue",fontsize="10",style="solid"];
  Node9 [label="irrAllocator.h",height=0.2,width=0.4,color="black", fillcolor="white", style="filled",URL="$irr_allocator_8h.html",tooltip=" "];
  Node9 -> Node3 [color="midnightblue",fontsize="10",style="solid"];
  Node9 -> Node10 [color="midnightblue",fontsize="10",style="solid"];
  Node10 [label="new",height=0.2,width=0.4,color="grey75", fillcolor="white", style="filled",tooltip=" "];
  Node9 -> Node11 [color="midnightblue",fontsize="10",style="solid"];
  Node11 [label="memory.h",height=0.2,width=0.4,color="grey75", fillcolor="white", style="filled",tooltip=" "];
  Node7 -> Node12 [color="midnightblue",fontsize="10",style="solid"];
  Node12 [label="irrMath.h",height=0.2,width=0.4,color="black", fillcolor="white", style="filled",URL="$irr_math_8h.html",tooltip=" "];
  Node12 -> Node4 [color="midnightblue",fontsize="10",style="solid"];
  Node12 -> Node3 [color="midnightblue",fontsize="10",style="solid"];
  Node12 -> Node13 [color="midnightblue",fontsize="10",style="solid"];
  Node13 [label="math.h",height=0.2,width=0.4,color="grey75", fillcolor="white", style="filled",tooltip=" "];
  Node12 -> Node14 [color="midnightblue",fontsize="10",style="solid"];
  Node14 [label="float.h",height=0.2,width=0.4,color="grey75", fillcolor="white", style="filled",tooltip=" "];
  Node12 -> Node15 [color="midnightblue",fontsize="10",style="solid"];
  Node15 [label="stdlib.h",height=0.2,width=0.4,color="grey75", fillcolor="white", style="filled",tooltip=" "];
  Node12 -> Node16 [color="midnightblue",fontsize="10",style="solid"];
  Node16 [label="limits.h",height=0.2,width=0.4,color="grey75", fillcolor="white", style="filled",tooltip=" "];
  Node1 -> Node17 [color="midnightblue",fontsize="10",style="solid"];
  Node17 [label="SVertexIndex.h",height=0.2,width=0.4,color="black", fillcolor="white", style="filled",URL="$_s_vertex_index_8h.html",tooltip=" "];
  Node17 -> Node3 [color="midnightblue",fontsize="10",style="solid"];
}
