digraph "cmake/SFML-2.5.1/include/SFML/Graphics/Image.hpp"
{
 // LATEX_PDF_SIZE
  edge [fontname="Helvetica",fontsize="10",labelfontname="Helvetica",labelfontsize="10"];
  node [fontname="Helvetica",fontsize="10",shape=record];
  Node1 [label="cmake/SFML-2.5.1/include\l/SFML/Graphics/Image.hpp",height=0.2,width=0.4,color="black", fillcolor="grey75", style="filled", fontcolor="black",tooltip=" "];
  Node1 -> Node2 [dir="back",color="midnightblue",fontsize="10",style="solid"];
  Node2 [label="cmake/SFML-2.5.1/include\l/SFML/Graphics/RenderWindow.hpp",height=0.2,width=0.4,color="black", fillcolor="white", style="filled",URL="$_render_window_8hpp.html",tooltip=" "];
  Node2 -> Node3 [dir="back",color="midnightblue",fontsize="10",style="solid"];
  Node3 [label="cmake/SFML-2.5.1/include\l/SFML/Graphics.hpp",height=0.2,width=0.4,color="black", fillcolor="white", style="filled",URL="$_graphics_8hpp.html",tooltip=" "];
  Node3 -> Node4 [dir="back",color="midnightblue",fontsize="10",style="solid"];
  Node4 [label="cmake/SFML-2.5.1/examples\l/island/Island.cpp",height=0.2,width=0.4,color="black", fillcolor="white", style="filled",URL="$_island_8cpp.html",tooltip=" "];
  Node3 -> Node5 [dir="back",color="midnightblue",fontsize="10",style="solid"];
  Node5 [label="cmake/SFML-2.5.1/examples\l/joystick/Joystick.cpp",height=0.2,width=0.4,color="black", fillcolor="white", style="filled",URL="$_joystick_8cpp.html",tooltip=" "];
  Node3 -> Node6 [dir="back",color="midnightblue",fontsize="10",style="solid"];
  Node6 [label="cmake/SFML-2.5.1/examples\l/opengl/OpenGL.cpp",height=0.2,width=0.4,color="black", fillcolor="white", style="filled",URL="$_open_g_l_8cpp.html",tooltip=" "];
  Node3 -> Node7 [dir="back",color="midnightblue",fontsize="10",style="solid"];
  Node7 [label="cmake/SFML-2.5.1/examples\l/pong/Pong.cpp",height=0.2,width=0.4,color="black", fillcolor="white", style="filled",URL="$_pong_8cpp.html",tooltip=" "];
  Node3 -> Node8 [dir="back",color="midnightblue",fontsize="10",style="solid"];
  Node8 [label="cmake/SFML-2.5.1/examples\l/shader/Effect.hpp",height=0.2,width=0.4,color="black", fillcolor="white", style="filled",URL="$_effect_8hpp.html",tooltip=" "];
  Node8 -> Node9 [dir="back",color="midnightblue",fontsize="10",style="solid"];
  Node9 [label="cmake/SFML-2.5.1/examples\l/shader/Shader.cpp",height=0.2,width=0.4,color="black", fillcolor="white", style="filled",URL="$_shader_8cpp.html",tooltip=" "];
  Node3 -> Node10 [dir="back",color="midnightblue",fontsize="10",style="solid"];
  Node10 [label="cmake/SFML-2.5.1/examples\l/win32/Win32.cpp",height=0.2,width=0.4,color="black", fillcolor="white", style="filled",URL="$_win32_8cpp.html",tooltip=" "];
  Node1 -> Node11 [dir="back",color="midnightblue",fontsize="10",style="solid"];
  Node11 [label="cmake/SFML-2.5.1/include\l/SFML/Graphics/Texture.hpp",height=0.2,width=0.4,color="black", fillcolor="white", style="filled",URL="$_texture_8hpp.html",tooltip=" "];
  Node11 -> Node12 [dir="back",color="midnightblue",fontsize="10",style="solid"];
  Node12 [label="cmake/SFML-2.5.1/include\l/SFML/Graphics/Font.hpp",height=0.2,width=0.4,color="black", fillcolor="white", style="filled",URL="$_font_8hpp.html",tooltip=" "];
  Node12 -> Node13 [dir="back",color="midnightblue",fontsize="10",style="solid"];
  Node13 [label="cmake/SFML-2.5.1/include\l/SFML/Graphics/Text.hpp",height=0.2,width=0.4,color="black", fillcolor="white", style="filled",URL="$_text_8hpp.html",tooltip=" "];
  Node13 -> Node3 [dir="back",color="midnightblue",fontsize="10",style="solid"];
  Node12 -> Node3 [dir="back",color="midnightblue",fontsize="10",style="solid"];
  Node11 -> Node14 [dir="back",color="midnightblue",fontsize="10",style="solid"];
  Node14 [label="cmake/SFML-2.5.1/include\l/SFML/Graphics/RenderTexture.hpp",height=0.2,width=0.4,color="black", fillcolor="white", style="filled",URL="$_render_texture_8hpp.html",tooltip=" "];
  Node14 -> Node3 [dir="back",color="midnightblue",fontsize="10",style="solid"];
  Node11 -> Node3 [dir="back",color="midnightblue",fontsize="10",style="solid"];
  Node1 -> Node3 [dir="back",color="midnightblue",fontsize="10",style="solid"];
}
