digraph "cmake/include/IrrlichtDevice.h"
{
 // LATEX_PDF_SIZE
  edge [fontname="Helvetica",fontsize="10",labelfontname="Helvetica",labelfontsize="10"];
  node [fontname="Helvetica",fontsize="10",shape=record];
  Node1 [label="cmake/include/IrrlichtDevice.h",height=0.2,width=0.4,color="black", fillcolor="grey75", style="filled", fontcolor="black",tooltip=" "];
  Node1 -> Node2 [color="midnightblue",fontsize="10",style="solid"];
  Node2 [label="IReferenceCounted.h",height=0.2,width=0.4,color="black", fillcolor="white", style="filled",URL="$_i_reference_counted_8h.html",tooltip=" "];
  Node2 -> Node3 [color="midnightblue",fontsize="10",style="solid"];
  Node3 [label="irrTypes.h",height=0.2,width=0.4,color="black", fillcolor="white", style="filled",URL="$irr_types_8h.html",tooltip=" "];
  Node3 -> Node4 [color="midnightblue",fontsize="10",style="solid"];
  Node4 [label="IrrCompileConfig.h",height=0.2,width=0.4,color="black", fillcolor="white", style="filled",URL="$_irr_compile_config_8h.html",tooltip=" "];
  Node4 -> Node5 [color="midnightblue",fontsize="10",style="solid"];
  Node5 [label="stdio.h",height=0.2,width=0.4,color="grey75", fillcolor="white", style="filled",tooltip=" "];
  Node3 -> Node6 [color="midnightblue",fontsize="10",style="solid"];
  Node6 [label="wchar.h",height=0.2,width=0.4,color="grey75", fillcolor="white", style="filled",tooltip=" "];
  Node1 -> Node7 [color="midnightblue",fontsize="10",style="solid"];
  Node7 [label="dimension2d.h",height=0.2,width=0.4,color="black", fillcolor="white", style="filled",URL="$dimension2d_8h.html",tooltip=" "];
  Node7 -> Node3 [color="midnightblue",fontsize="10",style="solid"];
  Node7 -> Node8 [color="midnightblue",fontsize="10",style="solid"];
  Node8 [label="irrMath.h",height=0.2,width=0.4,color="black", fillcolor="white", style="filled",URL="$irr_math_8h.html",tooltip=" "];
  Node8 -> Node4 [color="midnightblue",fontsize="10",style="solid"];
  Node8 -> Node3 [color="midnightblue",fontsize="10",style="solid"];
  Node8 -> Node9 [color="midnightblue",fontsize="10",style="solid"];
  Node9 [label="math.h",height=0.2,width=0.4,color="grey75", fillcolor="white", style="filled",tooltip=" "];
  Node8 -> Node10 [color="midnightblue",fontsize="10",style="solid"];
  Node10 [label="float.h",height=0.2,width=0.4,color="grey75", fillcolor="white", style="filled",tooltip=" "];
  Node8 -> Node11 [color="midnightblue",fontsize="10",style="solid"];
  Node11 [label="stdlib.h",height=0.2,width=0.4,color="grey75", fillcolor="white", style="filled",tooltip=" "];
  Node8 -> Node12 [color="midnightblue",fontsize="10",style="solid"];
  Node12 [label="limits.h",height=0.2,width=0.4,color="grey75", fillcolor="white", style="filled",tooltip=" "];
  Node1 -> Node13 [color="midnightblue",fontsize="10",style="solid"];
  Node13 [label="IVideoDriver.h",height=0.2,width=0.4,color="black", fillcolor="white", style="filled",URL="$_i_video_driver_8h.html",tooltip=" "];
  Node13 -> Node14 [color="midnightblue",fontsize="10",style="solid"];
  Node14 [label="rect.h",height=0.2,width=0.4,color="black", fillcolor="white", style="filled",URL="$rect_8h.html",tooltip=" "];
  Node14 -> Node3 [color="midnightblue",fontsize="10",style="solid"];
  Node14 -> Node7 [color="midnightblue",fontsize="10",style="solid"];
  Node14 -> Node15 [color="midnightblue",fontsize="10",style="solid"];
  Node15 [label="position2d.h",height=0.2,width=0.4,color="black", fillcolor="white", style="filled",URL="$position2d_8h.html",tooltip=" "];
  Node15 -> Node16 [color="midnightblue",fontsize="10",style="solid"];
  Node16 [label="vector2d.h",height=0.2,width=0.4,color="black", fillcolor="white", style="filled",URL="$vector2d_8h.html",tooltip=" "];
  Node16 -> Node8 [color="midnightblue",fontsize="10",style="solid"];
  Node16 -> Node7 [color="midnightblue",fontsize="10",style="solid"];
  Node13 -> Node17 [color="midnightblue",fontsize="10",style="solid"];
  Node17 [label="SColor.h",height=0.2,width=0.4,color="black", fillcolor="white", style="filled",URL="$_s_color_8h.html",tooltip=" "];
  Node17 -> Node3 [color="midnightblue",fontsize="10",style="solid"];
  Node17 -> Node8 [color="midnightblue",fontsize="10",style="solid"];
  Node13 -> Node18 [color="midnightblue",fontsize="10",style="solid"];
  Node18 [label="ITexture.h",height=0.2,width=0.4,color="black", fillcolor="white", style="filled",URL="$_i_texture_8h.html",tooltip=" "];
  Node18 -> Node2 [color="midnightblue",fontsize="10",style="solid"];
  Node18 -> Node19 [color="midnightblue",fontsize="10",style="solid"];
  Node19 [label="IImage.h",height=0.2,width=0.4,color="black", fillcolor="white", style="filled",URL="$_i_image_8h.html",tooltip=" "];
  Node19 -> Node2 [color="midnightblue",fontsize="10",style="solid"];
  Node19 -> Node15 [color="midnightblue",fontsize="10",style="solid"];
  Node19 -> Node14 [color="midnightblue",fontsize="10",style="solid"];
  Node19 -> Node17 [color="midnightblue",fontsize="10",style="solid"];
  Node18 -> Node7 [color="midnightblue",fontsize="10",style="solid"];
  Node18 -> Node20 [color="midnightblue",fontsize="10",style="solid"];
  Node20 [label="EDriverTypes.h",height=0.2,width=0.4,color="black", fillcolor="white", style="filled",URL="$_e_driver_types_8h.html",tooltip=" "];
  Node18 -> Node21 [color="midnightblue",fontsize="10",style="solid"];
  Node21 [label="path.h",height=0.2,width=0.4,color="black", fillcolor="white", style="filled",URL="$path_8h.html",tooltip=" "];
  Node21 -> Node22 [color="midnightblue",fontsize="10",style="solid"];
  Node22 [label="irrString.h",height=0.2,width=0.4,color="red", fillcolor="white", style="filled",URL="$irr_string_8h.html",tooltip=" "];
  Node22 -> Node3 [color="midnightblue",fontsize="10",style="solid"];
  Node22 -> Node23 [color="midnightblue",fontsize="10",style="solid"];
  Node23 [label="irrAllocator.h",height=0.2,width=0.4,color="red", fillcolor="white", style="filled",URL="$irr_allocator_8h.html",tooltip=" "];
  Node23 -> Node3 [color="midnightblue",fontsize="10",style="solid"];
  Node22 -> Node8 [color="midnightblue",fontsize="10",style="solid"];
  Node22 -> Node5 [color="midnightblue",fontsize="10",style="solid"];
  Node22 -> Node11 [color="midnightblue",fontsize="10",style="solid"];
  Node18 -> Node27 [color="midnightblue",fontsize="10",style="solid"];
  Node27 [label="matrix4.h",height=0.2,width=0.4,color="black", fillcolor="white", style="filled",URL="$matrix4_8h.html",tooltip=" "];
  Node27 -> Node8 [color="midnightblue",fontsize="10",style="solid"];
  Node27 -> Node28 [color="midnightblue",fontsize="10",style="solid"];
  Node28 [label="vector3d.h",height=0.2,width=0.4,color="black", fillcolor="white", style="filled",URL="$vector3d_8h.html",tooltip=" "];
  Node28 -> Node8 [color="midnightblue",fontsize="10",style="solid"];
  Node27 -> Node16 [color="midnightblue",fontsize="10",style="solid"];
  Node27 -> Node29 [color="midnightblue",fontsize="10",style="solid"];
  Node29 [label="plane3d.h",height=0.2,width=0.4,color="black", fillcolor="white", style="filled",URL="$plane3d_8h.html",tooltip=" "];
  Node29 -> Node8 [color="midnightblue",fontsize="10",style="solid"];
  Node29 -> Node28 [color="midnightblue",fontsize="10",style="solid"];
  Node27 -> Node30 [color="midnightblue",fontsize="10",style="solid"];
  Node30 [label="aabbox3d.h",height=0.2,width=0.4,color="black", fillcolor="white", style="filled",URL="$aabbox3d_8h.html",tooltip=" "];
  Node30 -> Node8 [color="midnightblue",fontsize="10",style="solid"];
  Node30 -> Node29 [color="midnightblue",fontsize="10",style="solid"];
  Node30 -> Node31 [color="midnightblue",fontsize="10",style="solid"];
  Node31 [label="line3d.h",height=0.2,width=0.4,color="black", fillcolor="white", style="filled",URL="$line3d_8h.html",tooltip=" "];
  Node31 -> Node3 [color="midnightblue",fontsize="10",style="solid"];
  Node31 -> Node28 [color="midnightblue",fontsize="10",style="solid"];
  Node27 -> Node14 [color="midnightblue",fontsize="10",style="solid"];
  Node27 -> Node22 [color="midnightblue",fontsize="10",style="solid"];
  Node13 -> Node32 [color="midnightblue",fontsize="10",style="solid"];
  Node32 [label="irrArray.h",height=0.2,width=0.4,color="black", fillcolor="white", style="filled",URL="$irr_array_8h.html",tooltip=" "];
  Node32 -> Node3 [color="midnightblue",fontsize="10",style="solid"];
  Node32 -> Node33 [color="midnightblue",fontsize="10",style="solid"];
  Node33 [label="heapsort.h",height=0.2,width=0.4,color="black", fillcolor="white", style="filled",URL="$heapsort_8h.html",tooltip=" "];
  Node33 -> Node3 [color="midnightblue",fontsize="10",style="solid"];
  Node32 -> Node23 [color="midnightblue",fontsize="10",style="solid"];
  Node32 -> Node8 [color="midnightblue",fontsize="10",style="solid"];
  Node13 -> Node27 [color="midnightblue",fontsize="10",style="solid"];
  Node13 -> Node29 [color="midnightblue",fontsize="10",style="solid"];
  Node13 -> Node7 [color="midnightblue",fontsize="10",style="solid"];
  Node13 -> Node15 [color="midnightblue",fontsize="10",style="solid"];
  Node13 -> Node34 [color="midnightblue",fontsize="10",style="solid"];
  Node34 [label="SMaterial.h",height=0.2,width=0.4,color="black", fillcolor="white", style="filled",URL="$_s_material_8h.html",tooltip=" "];
  Node34 -> Node17 [color="midnightblue",fontsize="10",style="solid"];
  Node34 -> Node27 [color="midnightblue",fontsize="10",style="solid"];
  Node34 -> Node32 [color="midnightblue",fontsize="10",style="solid"];
  Node34 -> Node8 [color="midnightblue",fontsize="10",style="solid"];
  Node34 -> Node35 [color="midnightblue",fontsize="10",style="solid"];
  Node35 [label="EMaterialTypes.h",height=0.2,width=0.4,color="black", fillcolor="white", style="filled",URL="$_e_material_types_8h.html",tooltip=" "];
  Node34 -> Node36 [color="midnightblue",fontsize="10",style="solid"];
  Node36 [label="EMaterialFlags.h",height=0.2,width=0.4,color="black", fillcolor="white", style="filled",URL="$_e_material_flags_8h.html",tooltip=" "];
  Node34 -> Node37 [color="midnightblue",fontsize="10",style="solid"];
  Node37 [label="SMaterialLayer.h",height=0.2,width=0.4,color="black", fillcolor="white", style="filled",URL="$_s_material_layer_8h.html",tooltip=" "];
  Node37 -> Node27 [color="midnightblue",fontsize="10",style="solid"];
  Node37 -> Node23 [color="midnightblue",fontsize="10",style="solid"];
  Node13 -> Node38 [color="midnightblue",fontsize="10",style="solid"];
  Node38 [label="IMeshBuffer.h",height=0.2,width=0.4,color="black", fillcolor="white", style="filled",URL="$_i_mesh_buffer_8h.html",tooltip=" "];
  Node38 -> Node2 [color="midnightblue",fontsize="10",style="solid"];
  Node38 -> Node34 [color="midnightblue",fontsize="10",style="solid"];
  Node38 -> Node30 [color="midnightblue",fontsize="10",style="solid"];
  Node38 -> Node39 [color="midnightblue",fontsize="10",style="solid"];
  Node39 [label="S3DVertex.h",height=0.2,width=0.4,color="black", fillcolor="white", style="filled",URL="$_s3_d_vertex_8h.html",tooltip=" "];
  Node39 -> Node28 [color="midnightblue",fontsize="10",style="solid"];
  Node39 -> Node16 [color="midnightblue",fontsize="10",style="solid"];
  Node39 -> Node17 [color="midnightblue",fontsize="10",style="solid"];
  Node38 -> Node40 [color="midnightblue",fontsize="10",style="solid"];
  Node40 [label="SVertexIndex.h",height=0.2,width=0.4,color="black", fillcolor="white", style="filled",URL="$_s_vertex_index_8h.html",tooltip=" "];
  Node40 -> Node3 [color="midnightblue",fontsize="10",style="solid"];
  Node38 -> Node41 [color="midnightblue",fontsize="10",style="solid"];
  Node41 [label="EHardwareBufferFlags.h",height=0.2,width=0.4,color="black", fillcolor="white", style="filled",URL="$_e_hardware_buffer_flags_8h.html",tooltip=" "];
  Node38 -> Node42 [color="midnightblue",fontsize="10",style="solid"];
  Node42 [label="EPrimitiveTypes.h",height=0.2,width=0.4,color="black", fillcolor="white", style="filled",URL="$_e_primitive_types_8h.html",tooltip=" "];
  Node13 -> Node43 [color="midnightblue",fontsize="10",style="solid"];
  Node43 [label="triangle3d.h",height=0.2,width=0.4,color="black", fillcolor="white", style="filled",URL="$triangle3d_8h.html",tooltip=" "];
  Node43 -> Node28 [color="midnightblue",fontsize="10",style="solid"];
  Node43 -> Node31 [color="midnightblue",fontsize="10",style="solid"];
  Node43 -> Node29 [color="midnightblue",fontsize="10",style="solid"];
  Node43 -> Node30 [color="midnightblue",fontsize="10",style="solid"];
  Node13 -> Node20 [color="midnightblue",fontsize="10",style="solid"];
  Node13 -> Node44 [color="midnightblue",fontsize="10",style="solid"];
  Node44 [label="EDriverFeatures.h",height=0.2,width=0.4,color="black", fillcolor="white", style="filled",URL="$_e_driver_features_8h.html",tooltip=" "];
  Node13 -> Node45 [color="midnightblue",fontsize="10",style="solid"];
  Node45 [label="SExposedVideoData.h",height=0.2,width=0.4,color="black", fillcolor="white", style="filled",URL="$_s_exposed_video_data_8h.html",tooltip=" "];
  Node1 -> Node20 [color="midnightblue",fontsize="10",style="solid"];
  Node1 -> Node46 [color="midnightblue",fontsize="10",style="solid"];
  Node46 [label="EDeviceTypes.h",height=0.2,width=0.4,color="black", fillcolor="white", style="filled",URL="$_e_device_types_8h.html",tooltip=" "];
  Node1 -> Node47 [color="midnightblue",fontsize="10",style="solid"];
  Node47 [label="IEventReceiver.h",height=0.2,width=0.4,color="black", fillcolor="white", style="filled",URL="$_i_event_receiver_8h.html",tooltip=" "];
  Node47 -> Node48 [color="midnightblue",fontsize="10",style="solid"];
  Node48 [label="ILogger.h",height=0.2,width=0.4,color="black", fillcolor="white", style="filled",URL="$_i_logger_8h.html",tooltip=" "];
  Node48 -> Node2 [color="midnightblue",fontsize="10",style="solid"];
  Node47 -> Node49 [color="midnightblue",fontsize="10",style="solid"];
  Node49 [label="Keycodes.h",height=0.2,width=0.4,color="black", fillcolor="white", style="filled",URL="$_keycodes_8h.html",tooltip=" "];
  Node47 -> Node22 [color="midnightblue",fontsize="10",style="solid"];
  Node1 -> Node50 [color="midnightblue",fontsize="10",style="solid"];
  Node50 [label="ICursorControl.h",height=0.2,width=0.4,color="black", fillcolor="white", style="filled",URL="$_i_cursor_control_8h.html",tooltip=" "];
  Node50 -> Node2 [color="midnightblue",fontsize="10",style="solid"];
  Node50 -> Node15 [color="midnightblue",fontsize="10",style="solid"];
  Node50 -> Node14 [color="midnightblue",fontsize="10",style="solid"];
  Node1 -> Node51 [color="midnightblue",fontsize="10",style="solid"];
  Node51 [label="IVideoModeList.h",height=0.2,width=0.4,color="black", fillcolor="white", style="filled",URL="$_i_video_mode_list_8h.html",tooltip=" "];
  Node51 -> Node2 [color="midnightblue",fontsize="10",style="solid"];
  Node51 -> Node7 [color="midnightblue",fontsize="10",style="solid"];
  Node1 -> Node52 [color="midnightblue",fontsize="10",style="solid"];
  Node52 [label="ITimer.h",height=0.2,width=0.4,color="black", fillcolor="white", style="filled",URL="$_i_timer_8h.html",tooltip=" "];
  Node52 -> Node2 [color="midnightblue",fontsize="10",style="solid"];
  Node1 -> Node53 [color="midnightblue",fontsize="10",style="solid"];
  Node53 [label="IOSOperator.h",height=0.2,width=0.4,color="black", fillcolor="white", style="filled",URL="$_i_o_s_operator_8h.html",tooltip=" "];
  Node53 -> Node2 [color="midnightblue",fontsize="10",style="solid"];
  Node53 -> Node22 [color="midnightblue",fontsize="10",style="solid"];
}
