digraph "cmake/SFML-2.5.1/include/SFML/Window/Joystick.hpp"
{
 // LATEX_PDF_SIZE
  edge [fontname="Helvetica",fontsize="10",labelfontname="Helvetica",labelfontsize="10"];
  node [fontname="Helvetica",fontsize="10",shape=record];
  Node1 [label="cmake/SFML-2.5.1/include\l/SFML/Window/Joystick.hpp",height=0.2,width=0.4,color="black", fillcolor="grey75", style="filled", fontcolor="black",tooltip=" "];
  Node1 -> Node2 [color="midnightblue",fontsize="10",style="solid"];
  Node2 [label="SFML/Window/Export.hpp",height=0.2,width=0.4,color="black", fillcolor="white", style="filled",URL="$_window_2_export_8hpp.html",tooltip=" "];
  Node2 -> Node3 [color="midnightblue",fontsize="10",style="solid"];
  Node3 [label="SFML/Config.hpp",height=0.2,width=0.4,color="black", fillcolor="white", style="filled",URL="$_config_8hpp.html",tooltip=" "];
  Node1 -> Node4 [color="midnightblue",fontsize="10",style="solid"];
  Node4 [label="SFML/System/String.hpp",height=0.2,width=0.4,color="black", fillcolor="white", style="filled",URL="$_string_8hpp.html",tooltip=" "];
  Node4 -> Node5 [color="midnightblue",fontsize="10",style="solid"];
  Node5 [label="SFML/System/Export.hpp",height=0.2,width=0.4,color="black", fillcolor="white", style="filled",URL="$_system_2_export_8hpp.html",tooltip=" "];
  Node5 -> Node3 [color="midnightblue",fontsize="10",style="solid"];
  Node4 -> Node6 [color="midnightblue",fontsize="10",style="solid"];
  Node6 [label="SFML/System/Utf.hpp",height=0.2,width=0.4,color="black", fillcolor="white", style="filled",URL="$_utf_8hpp.html",tooltip=" "];
  Node6 -> Node3 [color="midnightblue",fontsize="10",style="solid"];
  Node6 -> Node7 [color="midnightblue",fontsize="10",style="solid"];
  Node7 [label="algorithm",height=0.2,width=0.4,color="grey75", fillcolor="white", style="filled",tooltip=" "];
  Node6 -> Node8 [color="midnightblue",fontsize="10",style="solid"];
  Node8 [label="locale",height=0.2,width=0.4,color="grey75", fillcolor="white", style="filled",tooltip=" "];
  Node6 -> Node9 [color="midnightblue",fontsize="10",style="solid"];
  Node9 [label="string",height=0.2,width=0.4,color="grey75", fillcolor="white", style="filled",tooltip=" "];
  Node6 -> Node10 [color="midnightblue",fontsize="10",style="solid"];
  Node10 [label="cstdlib",height=0.2,width=0.4,color="grey75", fillcolor="white", style="filled",tooltip=" "];
  Node6 -> Node11 [color="midnightblue",fontsize="10",style="solid"];
  Node11 [label="SFML/System/Utf.inl",height=0.2,width=0.4,color="black", fillcolor="white", style="filled",URL="$_utf_8inl.html",tooltip=" "];
  Node4 -> Node12 [color="midnightblue",fontsize="10",style="solid"];
  Node12 [label="iterator",height=0.2,width=0.4,color="grey75", fillcolor="white", style="filled",tooltip=" "];
  Node4 -> Node8 [color="midnightblue",fontsize="10",style="solid"];
  Node4 -> Node9 [color="midnightblue",fontsize="10",style="solid"];
  Node4 -> Node13 [color="midnightblue",fontsize="10",style="solid"];
  Node13 [label="SFML/System/String.inl",height=0.2,width=0.4,color="black", fillcolor="white", style="filled",URL="$_string_8inl.html",tooltip=" "];
}
