digraph "includes/JukeBox/JukeBox.hpp"
{
 // LATEX_PDF_SIZE
  edge [fontname="Helvetica",fontsize="10",labelfontname="Helvetica",labelfontsize="10"];
  node [fontname="Helvetica",fontsize="10",shape=record];
  Node1 [label="includes/JukeBox/JukeBox.hpp",height=0.2,width=0.4,color="black", fillcolor="grey75", style="filled", fontcolor="black",tooltip=" "];
  Node1 -> Node2 [color="midnightblue",fontsize="10",style="solid"];
  Node2 [label="IScene.hpp",height=0.2,width=0.4,color="black", fillcolor="white", style="filled",URL="$_i_scene_8hpp.html",tooltip=" "];
  Node1 -> Node3 [color="midnightblue",fontsize="10",style="solid"];
  Node3 [label="SFML/Audio.hpp",height=0.2,width=0.4,color="black", fillcolor="white", style="filled",URL="$_audio_8hpp.html",tooltip=" "];
  Node3 -> Node4 [color="midnightblue",fontsize="10",style="solid"];
  Node4 [label="SFML/System.hpp",height=0.2,width=0.4,color="black", fillcolor="white", style="filled",URL="$cmake_2_s_f_m_l-2_85_81_2include_2_s_f_m_l_2_system_8hpp.html",tooltip=" "];
  Node4 -> Node5 [color="midnightblue",fontsize="10",style="solid"];
  Node5 [label="SFML/Config.hpp",height=0.2,width=0.4,color="black", fillcolor="white", style="filled",URL="$_config_8hpp.html",tooltip=" "];
  Node4 -> Node6 [color="midnightblue",fontsize="10",style="solid"];
  Node6 [label="SFML/System/Clock.hpp",height=0.2,width=0.4,color="black", fillcolor="white", style="filled",URL="$_clock_8hpp.html",tooltip=" "];
  Node6 -> Node7 [color="midnightblue",fontsize="10",style="solid"];
  Node7 [label="SFML/System/Export.hpp",height=0.2,width=0.4,color="black", fillcolor="white", style="filled",URL="$_system_2_export_8hpp.html",tooltip=" "];
  Node7 -> Node5 [color="midnightblue",fontsize="10",style="solid"];
  Node6 -> Node8 [color="midnightblue",fontsize="10",style="solid"];
  Node8 [label="SFML/System/Time.hpp",height=0.2,width=0.4,color="black", fillcolor="white", style="filled",URL="$_time_8hpp.html",tooltip=" "];
  Node8 -> Node7 [color="midnightblue",fontsize="10",style="solid"];
  Node4 -> Node9 [color="midnightblue",fontsize="10",style="solid"];
  Node9 [label="SFML/System/Err.hpp",height=0.2,width=0.4,color="black", fillcolor="white", style="filled",URL="$_err_8hpp.html",tooltip=" "];
  Node9 -> Node7 [color="midnightblue",fontsize="10",style="solid"];
  Node9 -> Node10 [color="midnightblue",fontsize="10",style="solid"];
  Node10 [label="ostream",height=0.2,width=0.4,color="grey75", fillcolor="white", style="filled",tooltip=" "];
  Node4 -> Node11 [color="midnightblue",fontsize="10",style="solid"];
  Node11 [label="SFML/System/FileInputStream.hpp",height=0.2,width=0.4,color="black", fillcolor="white", style="filled",URL="$_file_input_stream_8hpp.html",tooltip=" "];
  Node11 -> Node5 [color="midnightblue",fontsize="10",style="solid"];
  Node11 -> Node7 [color="midnightblue",fontsize="10",style="solid"];
  Node11 -> Node12 [color="midnightblue",fontsize="10",style="solid"];
  Node12 [label="SFML/System/InputStream.hpp",height=0.2,width=0.4,color="black", fillcolor="white", style="filled",URL="$_input_stream_8hpp.html",tooltip=" "];
  Node12 -> Node5 [color="midnightblue",fontsize="10",style="solid"];
  Node12 -> Node7 [color="midnightblue",fontsize="10",style="solid"];
  Node11 -> Node13 [color="midnightblue",fontsize="10",style="solid"];
  Node13 [label="SFML/System/NonCopyable.hpp",height=0.2,width=0.4,color="black", fillcolor="white", style="filled",URL="$_non_copyable_8hpp.html",tooltip=" "];
  Node13 -> Node7 [color="midnightblue",fontsize="10",style="solid"];
  Node11 -> Node14 [color="midnightblue",fontsize="10",style="solid"];
  Node14 [label="cstdio",height=0.2,width=0.4,color="grey75", fillcolor="white", style="filled",tooltip=" "];
  Node11 -> Node15 [color="midnightblue",fontsize="10",style="solid"];
  Node15 [label="string",height=0.2,width=0.4,color="grey75", fillcolor="white", style="filled",tooltip=" "];
  Node4 -> Node12 [color="midnightblue",fontsize="10",style="solid"];
  Node4 -> Node16 [color="midnightblue",fontsize="10",style="solid"];
  Node16 [label="SFML/System/Lock.hpp",height=0.2,width=0.4,color="black", fillcolor="white", style="filled",URL="$_lock_8hpp.html",tooltip=" "];
  Node16 -> Node7 [color="midnightblue",fontsize="10",style="solid"];
  Node16 -> Node13 [color="midnightblue",fontsize="10",style="solid"];
  Node4 -> Node17 [color="midnightblue",fontsize="10",style="solid"];
  Node17 [label="SFML/System/MemoryInputStream.hpp",height=0.2,width=0.4,color="black", fillcolor="white", style="filled",URL="$_memory_input_stream_8hpp.html",tooltip=" "];
  Node17 -> Node5 [color="midnightblue",fontsize="10",style="solid"];
  Node17 -> Node12 [color="midnightblue",fontsize="10",style="solid"];
  Node17 -> Node7 [color="midnightblue",fontsize="10",style="solid"];
  Node17 -> Node18 [color="midnightblue",fontsize="10",style="solid"];
  Node18 [label="cstdlib",height=0.2,width=0.4,color="grey75", fillcolor="white", style="filled",tooltip=" "];
  Node4 -> Node19 [color="midnightblue",fontsize="10",style="solid"];
  Node19 [label="SFML/System/Mutex.hpp",height=0.2,width=0.4,color="black", fillcolor="white", style="filled",URL="$_mutex_8hpp.html",tooltip=" "];
  Node19 -> Node7 [color="midnightblue",fontsize="10",style="solid"];
  Node19 -> Node13 [color="midnightblue",fontsize="10",style="solid"];
  Node4 -> Node13 [color="midnightblue",fontsize="10",style="solid"];
  Node4 -> Node20 [color="midnightblue",fontsize="10",style="solid"];
  Node20 [label="SFML/System/Sleep.hpp",height=0.2,width=0.4,color="black", fillcolor="white", style="filled",URL="$_sleep_8hpp.html",tooltip=" "];
  Node20 -> Node7 [color="midnightblue",fontsize="10",style="solid"];
  Node20 -> Node8 [color="midnightblue",fontsize="10",style="solid"];
  Node4 -> Node21 [color="midnightblue",fontsize="10",style="solid"];
  Node21 [label="SFML/System/String.hpp",height=0.2,width=0.4,color="black", fillcolor="white", style="filled",URL="$_string_8hpp.html",tooltip=" "];
  Node21 -> Node7 [color="midnightblue",fontsize="10",style="solid"];
  Node21 -> Node22 [color="midnightblue",fontsize="10",style="solid"];
  Node22 [label="SFML/System/Utf.hpp",height=0.2,width=0.4,color="red", fillcolor="white", style="filled",URL="$_utf_8hpp.html",tooltip=" "];
  Node22 -> Node5 [color="midnightblue",fontsize="10",style="solid"];
  Node22 -> Node23 [color="midnightblue",fontsize="10",style="solid"];
  Node23 [label="algorithm",height=0.2,width=0.4,color="grey75", fillcolor="white", style="filled",tooltip=" "];
  Node22 -> Node24 [color="midnightblue",fontsize="10",style="solid"];
  Node24 [label="locale",height=0.2,width=0.4,color="grey75", fillcolor="white", style="filled",tooltip=" "];
  Node22 -> Node15 [color="midnightblue",fontsize="10",style="solid"];
  Node22 -> Node18 [color="midnightblue",fontsize="10",style="solid"];
  Node21 -> Node26 [color="midnightblue",fontsize="10",style="solid"];
  Node26 [label="iterator",height=0.2,width=0.4,color="grey75", fillcolor="white", style="filled",tooltip=" "];
  Node21 -> Node24 [color="midnightblue",fontsize="10",style="solid"];
  Node21 -> Node15 [color="midnightblue",fontsize="10",style="solid"];
  Node21 -> Node27 [color="midnightblue",fontsize="10",style="solid"];
  Node27 [label="SFML/System/String.inl",height=0.2,width=0.4,color="black", fillcolor="white", style="filled",URL="$_string_8inl.html",tooltip=" "];
  Node4 -> Node28 [color="midnightblue",fontsize="10",style="solid"];
  Node28 [label="SFML/System/Thread.hpp",height=0.2,width=0.4,color="black", fillcolor="white", style="filled",URL="$_thread_8hpp.html",tooltip=" "];
  Node28 -> Node7 [color="midnightblue",fontsize="10",style="solid"];
  Node28 -> Node13 [color="midnightblue",fontsize="10",style="solid"];
  Node28 -> Node18 [color="midnightblue",fontsize="10",style="solid"];
  Node28 -> Node29 [color="midnightblue",fontsize="10",style="solid"];
  Node29 [label="SFML/System/Thread.inl",height=0.2,width=0.4,color="black", fillcolor="white", style="filled",URL="$_thread_8inl.html",tooltip=" "];
  Node4 -> Node30 [color="midnightblue",fontsize="10",style="solid"];
  Node30 [label="SFML/System/ThreadLocal.hpp",height=0.2,width=0.4,color="black", fillcolor="white", style="filled",URL="$_thread_local_8hpp.html",tooltip=" "];
  Node30 -> Node7 [color="midnightblue",fontsize="10",style="solid"];
  Node30 -> Node13 [color="midnightblue",fontsize="10",style="solid"];
  Node30 -> Node18 [color="midnightblue",fontsize="10",style="solid"];
  Node4 -> Node31 [color="midnightblue",fontsize="10",style="solid"];
  Node31 [label="SFML/System/ThreadLocalPtr.hpp",height=0.2,width=0.4,color="red", fillcolor="white", style="filled",URL="$_thread_local_ptr_8hpp.html",tooltip=" "];
  Node31 -> Node30 [color="midnightblue",fontsize="10",style="solid"];
  Node4 -> Node8 [color="midnightblue",fontsize="10",style="solid"];
  Node4 -> Node22 [color="midnightblue",fontsize="10",style="solid"];
  Node4 -> Node33 [color="midnightblue",fontsize="10",style="solid"];
  Node33 [label="SFML/System/Vector2.hpp",height=0.2,width=0.4,color="red", fillcolor="white", style="filled",URL="$_vector2_8hpp.html",tooltip=" "];
  Node4 -> Node35 [color="midnightblue",fontsize="10",style="solid"];
  Node35 [label="SFML/System/Vector3.hpp",height=0.2,width=0.4,color="red", fillcolor="white", style="filled",URL="$_vector3_8hpp.html",tooltip=" "];
  Node3 -> Node37 [color="midnightblue",fontsize="10",style="solid"];
  Node37 [label="SFML/Audio/InputSoundFile.hpp",height=0.2,width=0.4,color="black", fillcolor="white", style="filled",URL="$_input_sound_file_8hpp.html",tooltip=" "];
  Node37 -> Node38 [color="midnightblue",fontsize="10",style="solid"];
  Node38 [label="SFML/Audio/Export.hpp",height=0.2,width=0.4,color="black", fillcolor="white", style="filled",URL="$_audio_2_export_8hpp.html",tooltip=" "];
  Node38 -> Node5 [color="midnightblue",fontsize="10",style="solid"];
  Node37 -> Node13 [color="midnightblue",fontsize="10",style="solid"];
  Node37 -> Node8 [color="midnightblue",fontsize="10",style="solid"];
  Node37 -> Node15 [color="midnightblue",fontsize="10",style="solid"];
  Node37 -> Node23 [color="midnightblue",fontsize="10",style="solid"];
  Node3 -> Node39 [color="midnightblue",fontsize="10",style="solid"];
  Node39 [label="SFML/Audio/Listener.hpp",height=0.2,width=0.4,color="black", fillcolor="white", style="filled",URL="$_listener_8hpp.html",tooltip=" "];
  Node39 -> Node38 [color="midnightblue",fontsize="10",style="solid"];
  Node39 -> Node35 [color="midnightblue",fontsize="10",style="solid"];
  Node3 -> Node40 [color="midnightblue",fontsize="10",style="solid"];
  Node40 [label="SFML/Audio/Music.hpp",height=0.2,width=0.4,color="black", fillcolor="white", style="filled",URL="$_music_8hpp.html",tooltip=" "];
  Node40 -> Node38 [color="midnightblue",fontsize="10",style="solid"];
  Node40 -> Node41 [color="midnightblue",fontsize="10",style="solid"];
  Node41 [label="SFML/Audio/SoundStream.hpp",height=0.2,width=0.4,color="black", fillcolor="white", style="filled",URL="$_sound_stream_8hpp.html",tooltip=" "];
  Node41 -> Node38 [color="midnightblue",fontsize="10",style="solid"];
  Node41 -> Node42 [color="midnightblue",fontsize="10",style="solid"];
  Node42 [label="SFML/Audio/SoundSource.hpp",height=0.2,width=0.4,color="black", fillcolor="white", style="filled",URL="$_sound_source_8hpp.html",tooltip=" "];
  Node42 -> Node38 [color="midnightblue",fontsize="10",style="solid"];
  Node42 -> Node43 [color="midnightblue",fontsize="10",style="solid"];
  Node43 [label="SFML/Audio/AlResource.hpp",height=0.2,width=0.4,color="black", fillcolor="white", style="filled",URL="$_al_resource_8hpp.html",tooltip=" "];
  Node43 -> Node38 [color="midnightblue",fontsize="10",style="solid"];
  Node42 -> Node35 [color="midnightblue",fontsize="10",style="solid"];
  Node41 -> Node28 [color="midnightblue",fontsize="10",style="solid"];
  Node41 -> Node8 [color="midnightblue",fontsize="10",style="solid"];
  Node41 -> Node19 [color="midnightblue",fontsize="10",style="solid"];
  Node41 -> Node18 [color="midnightblue",fontsize="10",style="solid"];
  Node40 -> Node37 [color="midnightblue",fontsize="10",style="solid"];
  Node40 -> Node19 [color="midnightblue",fontsize="10",style="solid"];
  Node40 -> Node8 [color="midnightblue",fontsize="10",style="solid"];
  Node40 -> Node15 [color="midnightblue",fontsize="10",style="solid"];
  Node40 -> Node44 [color="midnightblue",fontsize="10",style="solid"];
  Node44 [label="vector",height=0.2,width=0.4,color="grey75", fillcolor="white", style="filled",tooltip=" "];
  Node3 -> Node45 [color="midnightblue",fontsize="10",style="solid"];
  Node45 [label="SFML/Audio/OutputSoundFile.hpp",height=0.2,width=0.4,color="black", fillcolor="white", style="filled",URL="$_output_sound_file_8hpp.html",tooltip=" "];
  Node45 -> Node38 [color="midnightblue",fontsize="10",style="solid"];
  Node45 -> Node13 [color="midnightblue",fontsize="10",style="solid"];
  Node45 -> Node15 [color="midnightblue",fontsize="10",style="solid"];
  Node3 -> Node46 [color="midnightblue",fontsize="10",style="solid"];
  Node46 [label="SFML/Audio/Sound.hpp",height=0.2,width=0.4,color="black", fillcolor="white", style="filled",URL="$_sound_8hpp.html",tooltip=" "];
  Node46 -> Node38 [color="midnightblue",fontsize="10",style="solid"];
  Node46 -> Node42 [color="midnightblue",fontsize="10",style="solid"];
  Node46 -> Node8 [color="midnightblue",fontsize="10",style="solid"];
  Node46 -> Node18 [color="midnightblue",fontsize="10",style="solid"];
  Node3 -> Node47 [color="midnightblue",fontsize="10",style="solid"];
  Node47 [label="SFML/Audio/SoundBuffer.hpp",height=0.2,width=0.4,color="black", fillcolor="white", style="filled",URL="$_sound_buffer_8hpp.html",tooltip=" "];
  Node47 -> Node38 [color="midnightblue",fontsize="10",style="solid"];
  Node47 -> Node43 [color="midnightblue",fontsize="10",style="solid"];
  Node47 -> Node8 [color="midnightblue",fontsize="10",style="solid"];
  Node47 -> Node15 [color="midnightblue",fontsize="10",style="solid"];
  Node47 -> Node44 [color="midnightblue",fontsize="10",style="solid"];
  Node47 -> Node48 [color="midnightblue",fontsize="10",style="solid"];
  Node48 [label="set",height=0.2,width=0.4,color="grey75", fillcolor="white", style="filled",tooltip=" "];
  Node3 -> Node49 [color="midnightblue",fontsize="10",style="solid"];
  Node49 [label="SFML/Audio/SoundBufferRecorder.hpp",height=0.2,width=0.4,color="black", fillcolor="white", style="filled",URL="$_sound_buffer_recorder_8hpp.html",tooltip=" "];
  Node49 -> Node38 [color="midnightblue",fontsize="10",style="solid"];
  Node49 -> Node47 [color="midnightblue",fontsize="10",style="solid"];
  Node49 -> Node50 [color="midnightblue",fontsize="10",style="solid"];
  Node50 [label="SFML/Audio/SoundRecorder.hpp",height=0.2,width=0.4,color="black", fillcolor="white", style="filled",URL="$_sound_recorder_8hpp.html",tooltip=" "];
  Node50 -> Node38 [color="midnightblue",fontsize="10",style="solid"];
  Node50 -> Node43 [color="midnightblue",fontsize="10",style="solid"];
  Node50 -> Node28 [color="midnightblue",fontsize="10",style="solid"];
  Node50 -> Node8 [color="midnightblue",fontsize="10",style="solid"];
  Node50 -> Node44 [color="midnightblue",fontsize="10",style="solid"];
  Node50 -> Node15 [color="midnightblue",fontsize="10",style="solid"];
  Node49 -> Node44 [color="midnightblue",fontsize="10",style="solid"];
  Node3 -> Node51 [color="midnightblue",fontsize="10",style="solid"];
  Node51 [label="SFML/Audio/SoundFileFactory.hpp",height=0.2,width=0.4,color="black", fillcolor="white", style="filled",URL="$_sound_file_factory_8hpp.html",tooltip=" "];
  Node51 -> Node38 [color="midnightblue",fontsize="10",style="solid"];
  Node51 -> Node15 [color="midnightblue",fontsize="10",style="solid"];
  Node51 -> Node44 [color="midnightblue",fontsize="10",style="solid"];
  Node51 -> Node52 [color="midnightblue",fontsize="10",style="solid"];
  Node52 [label="SFML/Audio/SoundFileFactory.inl",height=0.2,width=0.4,color="black", fillcolor="white", style="filled",URL="$_sound_file_factory_8inl.html",tooltip=" "];
  Node3 -> Node53 [color="midnightblue",fontsize="10",style="solid"];
  Node53 [label="SFML/Audio/SoundFileReader.hpp",height=0.2,width=0.4,color="black", fillcolor="white", style="filled",URL="$_sound_file_reader_8hpp.html",tooltip=" "];
  Node53 -> Node38 [color="midnightblue",fontsize="10",style="solid"];
  Node53 -> Node15 [color="midnightblue",fontsize="10",style="solid"];
  Node3 -> Node54 [color="midnightblue",fontsize="10",style="solid"];
  Node54 [label="SFML/Audio/SoundFileWriter.hpp",height=0.2,width=0.4,color="black", fillcolor="white", style="filled",URL="$_sound_file_writer_8hpp.html",tooltip=" "];
  Node54 -> Node38 [color="midnightblue",fontsize="10",style="solid"];
  Node54 -> Node15 [color="midnightblue",fontsize="10",style="solid"];
  Node3 -> Node50 [color="midnightblue",fontsize="10",style="solid"];
  Node3 -> Node42 [color="midnightblue",fontsize="10",style="solid"];
  Node3 -> Node41 [color="midnightblue",fontsize="10",style="solid"];
}
