digraph "includes/Factories/ECS/components/MeshComponent.hpp"
{
 // LATEX_PDF_SIZE
  edge [fontname="Helvetica",fontsize="10",labelfontname="Helvetica",labelfontsize="10"];
  node [fontname="Helvetica",fontsize="10",shape=record];
  Node1 [label="includes/Factories\l/ECS/components/MeshComponent.hpp",height=0.2,width=0.4,color="black", fillcolor="grey75", style="filled", fontcolor="black",tooltip=" "];
  Node1 -> Node2 [dir="back",color="midnightblue",fontsize="10",style="solid"];
  Node2 [label="includes/Factories\l/ECS/entities/Perso.hpp",height=0.2,width=0.4,color="black", fillcolor="white", style="filled",URL="$_perso_8hpp.html",tooltip=" "];
  Node2 -> Node3 [dir="back",color="midnightblue",fontsize="10",style="solid"];
  Node3 [label="includes/Scenes/GameScene.hpp",height=0.2,width=0.4,color="black", fillcolor="white", style="filled",URL="$_game_scene_8hpp.html",tooltip=" "];
  Node3 -> Node4 [dir="back",color="midnightblue",fontsize="10",style="solid"];
  Node4 [label="includes/Core/Core.hpp",height=0.2,width=0.4,color="black", fillcolor="white", style="filled",URL="$_core_8hpp.html",tooltip=" "];
  Node4 -> Node5 [dir="back",color="midnightblue",fontsize="10",style="solid"];
  Node5 [label="sources/Core/Core.cpp",height=0.2,width=0.4,color="black", fillcolor="white", style="filled",URL="$_core_8cpp.html",tooltip=" "];
  Node4 -> Node6 [dir="back",color="midnightblue",fontsize="10",style="solid"];
  Node6 [label="sources/main.cpp",height=0.2,width=0.4,color="black", fillcolor="white", style="filled",URL="$main_8cpp.html",tooltip=" "];
  Node3 -> Node7 [dir="back",color="midnightblue",fontsize="10",style="solid"];
  Node7 [label="sources/Scenes/GameScene.cpp",height=0.2,width=0.4,color="black", fillcolor="white", style="filled",URL="$_game_scene_8cpp.html",tooltip=" "];
  Node2 -> Node8 [dir="back",color="midnightblue",fontsize="10",style="solid"];
  Node8 [label="sources/Factories/ECS\l/entities/Perso.cpp",height=0.2,width=0.4,color="black", fillcolor="white", style="filled",URL="$_perso_8cpp.html",tooltip=" "];
  Node2 -> Node6 [dir="back",color="midnightblue",fontsize="10",style="solid"];
  Node1 -> Node9 [dir="back",color="midnightblue",fontsize="10",style="solid"];
  Node9 [label="includes/Graphical\l/Graphical.hpp",height=0.2,width=0.4,color="black", fillcolor="white", style="filled",URL="$_graphical_8hpp.html",tooltip=" "];
  Node9 -> Node4 [dir="back",color="midnightblue",fontsize="10",style="solid"];
  Node9 -> Node3 [dir="back",color="midnightblue",fontsize="10",style="solid"];
  Node9 -> Node10 [dir="back",color="midnightblue",fontsize="10",style="solid"];
  Node10 [label="includes/Scenes/Menu.hpp",height=0.2,width=0.4,color="black", fillcolor="white", style="filled",URL="$_menu_8hpp.html",tooltip=" "];
  Node10 -> Node4 [dir="back",color="midnightblue",fontsize="10",style="solid"];
  Node10 -> Node11 [dir="back",color="midnightblue",fontsize="10",style="solid"];
  Node11 [label="sources/Scenes/Menu.cpp",height=0.2,width=0.4,color="black", fillcolor="white", style="filled",URL="$_menu_8cpp.html",tooltip=" "];
  Node9 -> Node12 [dir="back",color="midnightblue",fontsize="10",style="solid"];
  Node12 [label="includes/Scenes/Options.hpp",height=0.2,width=0.4,color="black", fillcolor="white", style="filled",URL="$_options_8hpp.html",tooltip=" "];
  Node12 -> Node4 [dir="back",color="midnightblue",fontsize="10",style="solid"];
  Node12 -> Node13 [dir="back",color="midnightblue",fontsize="10",style="solid"];
  Node13 [label="sources/Scenes/Options.cpp",height=0.2,width=0.4,color="black", fillcolor="white", style="filled",URL="$_options_8cpp.html",tooltip=" "];
  Node9 -> Node14 [dir="back",color="midnightblue",fontsize="10",style="solid"];
  Node14 [label="includes/Scenes/SelectPlayer.hpp",height=0.2,width=0.4,color="black", fillcolor="white", style="filled",URL="$_select_player_8hpp.html",tooltip=" "];
  Node14 -> Node4 [dir="back",color="midnightblue",fontsize="10",style="solid"];
  Node14 -> Node15 [dir="back",color="midnightblue",fontsize="10",style="solid"];
  Node15 [label="sources/Scenes/SelectPlayer.cpp",height=0.2,width=0.4,color="black", fillcolor="white", style="filled",URL="$_select_player_8cpp.html",tooltip=" "];
  Node9 -> Node16 [dir="back",color="midnightblue",fontsize="10",style="solid"];
  Node16 [label="includes/Scenes/SelectSave.hpp",height=0.2,width=0.4,color="black", fillcolor="white", style="filled",URL="$_select_save_8hpp.html",tooltip=" "];
  Node16 -> Node4 [dir="back",color="midnightblue",fontsize="10",style="solid"];
  Node16 -> Node17 [dir="back",color="midnightblue",fontsize="10",style="solid"];
  Node17 [label="sources/Scenes/SelectSave.cpp",height=0.2,width=0.4,color="black", fillcolor="white", style="filled",URL="$_select_save_8cpp.html",tooltip=" "];
  Node9 -> Node18 [dir="back",color="midnightblue",fontsize="10",style="solid"];
  Node18 [label="includes/Scenes/Title.hpp",height=0.2,width=0.4,color="black", fillcolor="white", style="filled",URL="$_title_8hpp.html",tooltip=" "];
  Node18 -> Node4 [dir="back",color="midnightblue",fontsize="10",style="solid"];
  Node18 -> Node19 [dir="back",color="midnightblue",fontsize="10",style="solid"];
  Node19 [label="sources/Scenes/Title.cpp",height=0.2,width=0.4,color="black", fillcolor="white", style="filled",URL="$_title_8cpp.html",tooltip=" "];
  Node9 -> Node20 [dir="back",color="midnightblue",fontsize="10",style="solid"];
  Node20 [label="sources/Graphical/Graphical.cpp",height=0.2,width=0.4,color="black", fillcolor="white", style="filled",URL="$_graphical_8cpp.html",tooltip=" "];
  Node9 -> Node6 [dir="back",color="midnightblue",fontsize="10",style="solid"];
  Node1 -> Node21 [dir="back",color="midnightblue",fontsize="10",style="solid"];
  Node21 [label="sources/Factories/ECS\l/components/MeshComponent.cpp",height=0.2,width=0.4,color="black", fillcolor="white", style="filled",URL="$_mesh_component_8cpp.html",tooltip=" "];
}
