digraph "cmake/SFML-2.5.1/examples/opengl/OpenGL.cpp"
{
 // LATEX_PDF_SIZE
  edge [fontname="Helvetica",fontsize="10",labelfontname="Helvetica",labelfontsize="10"];
  node [fontname="Helvetica",fontsize="10",shape=record];
  Node1 [label="cmake/SFML-2.5.1/examples\l/opengl/OpenGL.cpp",height=0.2,width=0.4,color="black", fillcolor="grey75", style="filled", fontcolor="black",tooltip=" "];
  Node1 -> Node2 [color="midnightblue",fontsize="10",style="solid"];
  Node2 [label="SFML/Graphics.hpp",height=0.2,width=0.4,color="black", fillcolor="white", style="filled",URL="$_graphics_8hpp.html",tooltip=" "];
  Node2 -> Node3 [color="midnightblue",fontsize="10",style="solid"];
  Node3 [label="SFML/Window.hpp",height=0.2,width=0.4,color="black", fillcolor="white", style="filled",URL="$_window_8hpp.html",tooltip=" "];
  Node3 -> Node4 [color="midnightblue",fontsize="10",style="solid"];
  Node4 [label="SFML/System.hpp",height=0.2,width=0.4,color="red", fillcolor="white", style="filled",URL="$cmake_2_s_f_m_l-2_85_81_2include_2_s_f_m_l_2_system_8hpp.html",tooltip=" "];
  Node4 -> Node5 [color="midnightblue",fontsize="10",style="solid"];
  Node5 [label="SFML/Config.hpp",height=0.2,width=0.4,color="black", fillcolor="white", style="filled",URL="$_config_8hpp.html",tooltip=" "];
  Node4 -> Node21 [color="midnightblue",fontsize="10",style="solid"];
  Node21 [label="SFML/System/String.hpp",height=0.2,width=0.4,color="red", fillcolor="white", style="filled",URL="$_string_8hpp.html",tooltip=" "];
  Node4 -> Node33 [color="midnightblue",fontsize="10",style="solid"];
  Node33 [label="SFML/System/Vector2.hpp",height=0.2,width=0.4,color="red", fillcolor="white", style="filled",URL="$_vector2_8hpp.html",tooltip=" "];
  Node3 -> Node37 [color="midnightblue",fontsize="10",style="solid"];
  Node37 [label="SFML/Window/Clipboard.hpp",height=0.2,width=0.4,color="red", fillcolor="white", style="filled",URL="$_clipboard_8hpp.html",tooltip=" "];
  Node37 -> Node21 [color="midnightblue",fontsize="10",style="solid"];
  Node3 -> Node39 [color="midnightblue",fontsize="10",style="solid"];
  Node39 [label="SFML/Window/Context.hpp",height=0.2,width=0.4,color="red", fillcolor="white", style="filled",URL="$_context_8hpp.html",tooltip=" "];
  Node39 -> Node41 [color="midnightblue",fontsize="10",style="solid"];
  Node41 [label="SFML/Window/ContextSettings.hpp",height=0.2,width=0.4,color="black", fillcolor="white", style="filled",URL="$_context_settings_8hpp.html",tooltip=" "];
  Node41 -> Node5 [color="midnightblue",fontsize="10",style="solid"];
  Node3 -> Node41 [color="midnightblue",fontsize="10",style="solid"];
  Node3 -> Node42 [color="midnightblue",fontsize="10",style="solid"];
  Node42 [label="SFML/Window/Cursor.hpp",height=0.2,width=0.4,color="red", fillcolor="white", style="filled",URL="$_cursor_8hpp.html",tooltip=" "];
  Node42 -> Node33 [color="midnightblue",fontsize="10",style="solid"];
  Node3 -> Node43 [color="midnightblue",fontsize="10",style="solid"];
  Node43 [label="SFML/Window/Event.hpp",height=0.2,width=0.4,color="black", fillcolor="white", style="filled",URL="$_event_8hpp.html",tooltip=" "];
  Node43 -> Node5 [color="midnightblue",fontsize="10",style="solid"];
  Node43 -> Node44 [color="midnightblue",fontsize="10",style="solid"];
  Node44 [label="SFML/Window/Joystick.hpp",height=0.2,width=0.4,color="red", fillcolor="white", style="filled",URL="$_joystick_8hpp.html",tooltip=" "];
  Node44 -> Node21 [color="midnightblue",fontsize="10",style="solid"];
  Node43 -> Node45 [color="midnightblue",fontsize="10",style="solid"];
  Node45 [label="SFML/Window/Keyboard.hpp",height=0.2,width=0.4,color="red", fillcolor="white", style="filled",URL="$_keyboard_8hpp.html",tooltip=" "];
  Node43 -> Node46 [color="midnightblue",fontsize="10",style="solid"];
  Node46 [label="SFML/Window/Mouse.hpp",height=0.2,width=0.4,color="red", fillcolor="white", style="filled",URL="$_mouse_8hpp.html",tooltip=" "];
  Node46 -> Node33 [color="midnightblue",fontsize="10",style="solid"];
  Node43 -> Node47 [color="midnightblue",fontsize="10",style="solid"];
  Node47 [label="SFML/Window/Sensor.hpp",height=0.2,width=0.4,color="red", fillcolor="white", style="filled",URL="$_sensor_8hpp.html",tooltip=" "];
  Node3 -> Node44 [color="midnightblue",fontsize="10",style="solid"];
  Node3 -> Node45 [color="midnightblue",fontsize="10",style="solid"];
  Node3 -> Node46 [color="midnightblue",fontsize="10",style="solid"];
  Node3 -> Node47 [color="midnightblue",fontsize="10",style="solid"];
  Node3 -> Node48 [color="midnightblue",fontsize="10",style="solid"];
  Node48 [label="SFML/Window/Touch.hpp",height=0.2,width=0.4,color="red", fillcolor="white", style="filled",URL="$_touch_8hpp.html",tooltip=" "];
  Node48 -> Node33 [color="midnightblue",fontsize="10",style="solid"];
  Node3 -> Node49 [color="midnightblue",fontsize="10",style="solid"];
  Node49 [label="SFML/Window/VideoMode.hpp",height=0.2,width=0.4,color="red", fillcolor="white", style="filled",URL="$_video_mode_8hpp.html",tooltip=" "];
  Node49 -> Node50 [color="midnightblue",fontsize="10",style="solid"];
  Node50 [label="vector",height=0.2,width=0.4,color="grey75", fillcolor="white", style="filled",tooltip=" "];
  Node3 -> Node51 [color="midnightblue",fontsize="10",style="solid"];
  Node51 [label="SFML/Window/Window.hpp",height=0.2,width=0.4,color="red", fillcolor="white", style="filled",URL="$_window_2_window_8hpp.html",tooltip=" "];
  Node51 -> Node41 [color="midnightblue",fontsize="10",style="solid"];
  Node51 -> Node42 [color="midnightblue",fontsize="10",style="solid"];
  Node51 -> Node49 [color="midnightblue",fontsize="10",style="solid"];
  Node51 -> Node52 [color="midnightblue",fontsize="10",style="solid"];
  Node52 [label="SFML/Window/WindowHandle.hpp",height=0.2,width=0.4,color="black", fillcolor="white", style="filled",URL="$_window_handle_8hpp.html",tooltip=" "];
  Node52 -> Node5 [color="midnightblue",fontsize="10",style="solid"];
  Node51 -> Node53 [color="midnightblue",fontsize="10",style="solid"];
  Node53 [label="SFML/Window/WindowStyle.hpp",height=0.2,width=0.4,color="black", fillcolor="white", style="filled",URL="$_window_style_8hpp.html",tooltip=" "];
  Node51 -> Node21 [color="midnightblue",fontsize="10",style="solid"];
  Node51 -> Node33 [color="midnightblue",fontsize="10",style="solid"];
  Node3 -> Node52 [color="midnightblue",fontsize="10",style="solid"];
  Node3 -> Node53 [color="midnightblue",fontsize="10",style="solid"];
  Node2 -> Node54 [color="midnightblue",fontsize="10",style="solid"];
  Node54 [label="SFML/Graphics/BlendMode.hpp",height=0.2,width=0.4,color="black", fillcolor="white", style="filled",URL="$_blend_mode_8hpp.html",tooltip=" "];
  Node54 -> Node55 [color="midnightblue",fontsize="10",style="solid"];
  Node55 [label="SFML/Graphics/Export.hpp",height=0.2,width=0.4,color="black", fillcolor="white", style="filled",URL="$_graphics_2_export_8hpp.html",tooltip=" "];
  Node55 -> Node5 [color="midnightblue",fontsize="10",style="solid"];
  Node2 -> Node56 [color="midnightblue",fontsize="10",style="solid"];
  Node56 [label="SFML/Graphics/CircleShape.hpp",height=0.2,width=0.4,color="black", fillcolor="white", style="filled",URL="$_circle_shape_8hpp.html",tooltip=" "];
  Node56 -> Node55 [color="midnightblue",fontsize="10",style="solid"];
  Node56 -> Node57 [color="midnightblue",fontsize="10",style="solid"];
  Node57 [label="SFML/Graphics/Shape.hpp",height=0.2,width=0.4,color="black", fillcolor="white", style="filled",URL="$_shape_8hpp.html",tooltip=" "];
  Node57 -> Node55 [color="midnightblue",fontsize="10",style="solid"];
  Node57 -> Node58 [color="midnightblue",fontsize="10",style="solid"];
  Node58 [label="SFML/Graphics/Drawable.hpp",height=0.2,width=0.4,color="black", fillcolor="white", style="filled",URL="$_drawable_8hpp.html",tooltip=" "];
  Node58 -> Node55 [color="midnightblue",fontsize="10",style="solid"];
  Node58 -> Node59 [color="midnightblue",fontsize="10",style="solid"];
  Node59 [label="SFML/Graphics/RenderStates.hpp",height=0.2,width=0.4,color="black", fillcolor="white", style="filled",URL="$_render_states_8hpp.html",tooltip=" "];
  Node59 -> Node55 [color="midnightblue",fontsize="10",style="solid"];
  Node59 -> Node54 [color="midnightblue",fontsize="10",style="solid"];
  Node59 -> Node60 [color="midnightblue",fontsize="10",style="solid"];
  Node60 [label="SFML/Graphics/Transform.hpp",height=0.2,width=0.4,color="black", fillcolor="white", style="filled",URL="$_transform_8hpp.html",tooltip=" "];
  Node60 -> Node55 [color="midnightblue",fontsize="10",style="solid"];
  Node60 -> Node61 [color="midnightblue",fontsize="10",style="solid"];
  Node61 [label="SFML/Graphics/Rect.hpp",height=0.2,width=0.4,color="red", fillcolor="white", style="filled",URL="$_rect_8hpp.html",tooltip=" "];
  Node61 -> Node33 [color="midnightblue",fontsize="10",style="solid"];
  Node60 -> Node33 [color="midnightblue",fontsize="10",style="solid"];
  Node57 -> Node63 [color="midnightblue",fontsize="10",style="solid"];
  Node63 [label="SFML/Graphics/Transformable.hpp",height=0.2,width=0.4,color="black", fillcolor="white", style="filled",URL="$_transformable_8hpp.html",tooltip=" "];
  Node63 -> Node55 [color="midnightblue",fontsize="10",style="solid"];
  Node63 -> Node60 [color="midnightblue",fontsize="10",style="solid"];
  Node57 -> Node64 [color="midnightblue",fontsize="10",style="solid"];
  Node64 [label="SFML/Graphics/VertexArray.hpp",height=0.2,width=0.4,color="black", fillcolor="white", style="filled",URL="$_vertex_array_8hpp.html",tooltip=" "];
  Node64 -> Node55 [color="midnightblue",fontsize="10",style="solid"];
  Node64 -> Node65 [color="midnightblue",fontsize="10",style="solid"];
  Node65 [label="SFML/Graphics/Vertex.hpp",height=0.2,width=0.4,color="black", fillcolor="white", style="filled",URL="$_vertex_8hpp.html",tooltip=" "];
  Node65 -> Node55 [color="midnightblue",fontsize="10",style="solid"];
  Node65 -> Node66 [color="midnightblue",fontsize="10",style="solid"];
  Node66 [label="SFML/Graphics/Color.hpp",height=0.2,width=0.4,color="black", fillcolor="white", style="filled",URL="$_color_8hpp.html",tooltip=" "];
  Node66 -> Node55 [color="midnightblue",fontsize="10",style="solid"];
  Node65 -> Node33 [color="midnightblue",fontsize="10",style="solid"];
  Node64 -> Node67 [color="midnightblue",fontsize="10",style="solid"];
  Node67 [label="SFML/Graphics/PrimitiveType.hpp",height=0.2,width=0.4,color="black", fillcolor="white", style="filled",URL="$_primitive_type_8hpp.html",tooltip=" "];
  Node64 -> Node61 [color="midnightblue",fontsize="10",style="solid"];
  Node64 -> Node58 [color="midnightblue",fontsize="10",style="solid"];
  Node64 -> Node50 [color="midnightblue",fontsize="10",style="solid"];
  Node57 -> Node33 [color="midnightblue",fontsize="10",style="solid"];
  Node2 -> Node66 [color="midnightblue",fontsize="10",style="solid"];
  Node2 -> Node68 [color="midnightblue",fontsize="10",style="solid"];
  Node68 [label="SFML/Graphics/ConvexShape.hpp",height=0.2,width=0.4,color="black", fillcolor="white", style="filled",URL="$_convex_shape_8hpp.html",tooltip=" "];
  Node68 -> Node55 [color="midnightblue",fontsize="10",style="solid"];
  Node68 -> Node57 [color="midnightblue",fontsize="10",style="solid"];
  Node68 -> Node50 [color="midnightblue",fontsize="10",style="solid"];
  Node2 -> Node58 [color="midnightblue",fontsize="10",style="solid"];
  Node2 -> Node69 [color="midnightblue",fontsize="10",style="solid"];
  Node69 [label="SFML/Graphics/Font.hpp",height=0.2,width=0.4,color="red", fillcolor="white", style="filled",URL="$_font_8hpp.html",tooltip=" "];
  Node69 -> Node55 [color="midnightblue",fontsize="10",style="solid"];
  Node69 -> Node70 [color="midnightblue",fontsize="10",style="solid"];
  Node70 [label="SFML/Graphics/Glyph.hpp",height=0.2,width=0.4,color="black", fillcolor="white", style="filled",URL="$_glyph_8hpp.html",tooltip=" "];
  Node70 -> Node55 [color="midnightblue",fontsize="10",style="solid"];
  Node70 -> Node61 [color="midnightblue",fontsize="10",style="solid"];
  Node69 -> Node71 [color="midnightblue",fontsize="10",style="solid"];
  Node71 [label="SFML/Graphics/Texture.hpp",height=0.2,width=0.4,color="red", fillcolor="white", style="filled",URL="$_texture_8hpp.html",tooltip=" "];
  Node71 -> Node55 [color="midnightblue",fontsize="10",style="solid"];
  Node71 -> Node72 [color="midnightblue",fontsize="10",style="solid"];
  Node72 [label="SFML/Graphics/Image.hpp",height=0.2,width=0.4,color="red", fillcolor="white", style="filled",URL="$_image_8hpp.html",tooltip=" "];
  Node72 -> Node55 [color="midnightblue",fontsize="10",style="solid"];
  Node72 -> Node66 [color="midnightblue",fontsize="10",style="solid"];
  Node72 -> Node61 [color="midnightblue",fontsize="10",style="solid"];
  Node72 -> Node50 [color="midnightblue",fontsize="10",style="solid"];
  Node69 -> Node61 [color="midnightblue",fontsize="10",style="solid"];
  Node69 -> Node33 [color="midnightblue",fontsize="10",style="solid"];
  Node69 -> Node21 [color="midnightblue",fontsize="10",style="solid"];
  Node69 -> Node50 [color="midnightblue",fontsize="10",style="solid"];
  Node2 -> Node70 [color="midnightblue",fontsize="10",style="solid"];
  Node2 -> Node72 [color="midnightblue",fontsize="10",style="solid"];
  Node2 -> Node67 [color="midnightblue",fontsize="10",style="solid"];
  Node2 -> Node61 [color="midnightblue",fontsize="10",style="solid"];
  Node2 -> Node74 [color="midnightblue",fontsize="10",style="solid"];
  Node74 [label="SFML/Graphics/RectangleShape.hpp",height=0.2,width=0.4,color="black", fillcolor="white", style="filled",URL="$_rectangle_shape_8hpp.html",tooltip=" "];
  Node74 -> Node55 [color="midnightblue",fontsize="10",style="solid"];
  Node74 -> Node57 [color="midnightblue",fontsize="10",style="solid"];
  Node2 -> Node59 [color="midnightblue",fontsize="10",style="solid"];
  Node2 -> Node75 [color="midnightblue",fontsize="10",style="solid"];
  Node75 [label="SFML/Graphics/RenderTarget.hpp",height=0.2,width=0.4,color="red", fillcolor="white", style="filled",URL="$_render_target_8hpp.html",tooltip=" "];
  Node75 -> Node55 [color="midnightblue",fontsize="10",style="solid"];
  Node75 -> Node66 [color="midnightblue",fontsize="10",style="solid"];
  Node75 -> Node61 [color="midnightblue",fontsize="10",style="solid"];
  Node75 -> Node76 [color="midnightblue",fontsize="10",style="solid"];
  Node76 [label="SFML/Graphics/View.hpp",height=0.2,width=0.4,color="black", fillcolor="white", style="filled",URL="$_view_8hpp.html",tooltip=" "];
  Node76 -> Node55 [color="midnightblue",fontsize="10",style="solid"];
  Node76 -> Node61 [color="midnightblue",fontsize="10",style="solid"];
  Node76 -> Node60 [color="midnightblue",fontsize="10",style="solid"];
  Node76 -> Node33 [color="midnightblue",fontsize="10",style="solid"];
  Node75 -> Node60 [color="midnightblue",fontsize="10",style="solid"];
  Node75 -> Node54 [color="midnightblue",fontsize="10",style="solid"];
  Node75 -> Node59 [color="midnightblue",fontsize="10",style="solid"];
  Node75 -> Node67 [color="midnightblue",fontsize="10",style="solid"];
  Node75 -> Node65 [color="midnightblue",fontsize="10",style="solid"];
  Node2 -> Node77 [color="midnightblue",fontsize="10",style="solid"];
  Node77 [label="SFML/Graphics/RenderTexture.hpp",height=0.2,width=0.4,color="black", fillcolor="white", style="filled",URL="$_render_texture_8hpp.html",tooltip=" "];
  Node77 -> Node55 [color="midnightblue",fontsize="10",style="solid"];
  Node77 -> Node71 [color="midnightblue",fontsize="10",style="solid"];
  Node77 -> Node75 [color="midnightblue",fontsize="10",style="solid"];
  Node77 -> Node41 [color="midnightblue",fontsize="10",style="solid"];
  Node2 -> Node78 [color="midnightblue",fontsize="10",style="solid"];
  Node78 [label="SFML/Graphics/RenderWindow.hpp",height=0.2,width=0.4,color="red", fillcolor="white", style="filled",URL="$_render_window_8hpp.html",tooltip=" "];
  Node78 -> Node55 [color="midnightblue",fontsize="10",style="solid"];
  Node78 -> Node75 [color="midnightblue",fontsize="10",style="solid"];
  Node78 -> Node72 [color="midnightblue",fontsize="10",style="solid"];
  Node78 -> Node51 [color="midnightblue",fontsize="10",style="solid"];
  Node2 -> Node79 [color="midnightblue",fontsize="10",style="solid"];
  Node79 [label="SFML/Graphics/Shader.hpp",height=0.2,width=0.4,color="red", fillcolor="white", style="filled",URL="$_shader_8hpp.html",tooltip=" "];
  Node79 -> Node55 [color="midnightblue",fontsize="10",style="solid"];
  Node79 -> Node33 [color="midnightblue",fontsize="10",style="solid"];
  Node2 -> Node57 [color="midnightblue",fontsize="10",style="solid"];
  Node2 -> Node82 [color="midnightblue",fontsize="10",style="solid"];
  Node82 [label="SFML/Graphics/Sprite.hpp",height=0.2,width=0.4,color="black", fillcolor="white", style="filled",URL="$_sprite_8hpp.html",tooltip=" "];
  Node82 -> Node55 [color="midnightblue",fontsize="10",style="solid"];
  Node82 -> Node58 [color="midnightblue",fontsize="10",style="solid"];
  Node82 -> Node63 [color="midnightblue",fontsize="10",style="solid"];
  Node82 -> Node65 [color="midnightblue",fontsize="10",style="solid"];
  Node82 -> Node61 [color="midnightblue",fontsize="10",style="solid"];
  Node2 -> Node83 [color="midnightblue",fontsize="10",style="solid"];
  Node83 [label="SFML/Graphics/Text.hpp",height=0.2,width=0.4,color="red", fillcolor="white", style="filled",URL="$_text_8hpp.html",tooltip=" "];
  Node83 -> Node55 [color="midnightblue",fontsize="10",style="solid"];
  Node83 -> Node58 [color="midnightblue",fontsize="10",style="solid"];
  Node83 -> Node63 [color="midnightblue",fontsize="10",style="solid"];
  Node83 -> Node69 [color="midnightblue",fontsize="10",style="solid"];
  Node83 -> Node61 [color="midnightblue",fontsize="10",style="solid"];
  Node83 -> Node64 [color="midnightblue",fontsize="10",style="solid"];
  Node83 -> Node21 [color="midnightblue",fontsize="10",style="solid"];
  Node83 -> Node50 [color="midnightblue",fontsize="10",style="solid"];
  Node2 -> Node71 [color="midnightblue",fontsize="10",style="solid"];
  Node2 -> Node60 [color="midnightblue",fontsize="10",style="solid"];
  Node2 -> Node63 [color="midnightblue",fontsize="10",style="solid"];
  Node2 -> Node65 [color="midnightblue",fontsize="10",style="solid"];
  Node2 -> Node64 [color="midnightblue",fontsize="10",style="solid"];
  Node2 -> Node84 [color="midnightblue",fontsize="10",style="solid"];
  Node84 [label="SFML/Graphics/VertexBuffer.hpp",height=0.2,width=0.4,color="red", fillcolor="white", style="filled",URL="$_vertex_buffer_8hpp.html",tooltip=" "];
  Node84 -> Node55 [color="midnightblue",fontsize="10",style="solid"];
  Node84 -> Node67 [color="midnightblue",fontsize="10",style="solid"];
  Node84 -> Node58 [color="midnightblue",fontsize="10",style="solid"];
  Node2 -> Node76 [color="midnightblue",fontsize="10",style="solid"];
  Node1 -> Node85 [color="midnightblue",fontsize="10",style="solid"];
  Node85 [label="SFML/OpenGL.hpp",height=0.2,width=0.4,color="black", fillcolor="white", style="filled",URL="$_open_g_l_8hpp.html",tooltip=" "];
  Node85 -> Node5 [color="midnightblue",fontsize="10",style="solid"];
}
