digraph "includes/Scenes/SelectSave.hpp"
{
 // LATEX_PDF_SIZE
  edge [fontname="Helvetica",fontsize="10",labelfontname="Helvetica",labelfontsize="10"];
  node [fontname="Helvetica",fontsize="10",shape=record];
  Node1 [label="includes/Scenes/SelectSave.hpp",height=0.2,width=0.4,color="black", fillcolor="grey75", style="filled", fontcolor="black",tooltip=" "];
  Node1 -> Node2 [dir="back",color="midnightblue",fontsize="10",style="solid"];
  Node2 [label="includes/Core/Core.hpp",height=0.2,width=0.4,color="black", fillcolor="white", style="filled",URL="$_core_8hpp.html",tooltip=" "];
  Node2 -> Node3 [dir="back",color="midnightblue",fontsize="10",style="solid"];
  Node3 [label="sources/Core/Core.cpp",height=0.2,width=0.4,color="black", fillcolor="white", style="filled",URL="$_core_8cpp.html",tooltip=" "];
  Node2 -> Node4 [dir="back",color="midnightblue",fontsize="10",style="solid"];
  Node4 [label="sources/main.cpp",height=0.2,width=0.4,color="black", fillcolor="white", style="filled",URL="$main_8cpp.html",tooltip=" "];
  Node1 -> Node5 [dir="back",color="midnightblue",fontsize="10",style="solid"];
  Node5 [label="sources/Scenes/SelectSave.cpp",height=0.2,width=0.4,color="black", fillcolor="white", style="filled",URL="$_select_save_8cpp.html",tooltip=" "];
}
