digraph "cmake/SFML-2.5.1/include/SFML/Graphics/Texture.hpp"
{
 // LATEX_PDF_SIZE
  edge [fontname="Helvetica",fontsize="10",labelfontname="Helvetica",labelfontsize="10"];
  node [fontname="Helvetica",fontsize="10",shape=record];
  Node1 [label="cmake/SFML-2.5.1/include\l/SFML/Graphics/Texture.hpp",height=0.2,width=0.4,color="black", fillcolor="grey75", style="filled", fontcolor="black",tooltip=" "];
  Node1 -> Node2 [color="midnightblue",fontsize="10",style="solid"];
  Node2 [label="SFML/Graphics/Export.hpp",height=0.2,width=0.4,color="black", fillcolor="white", style="filled",URL="$_graphics_2_export_8hpp.html",tooltip=" "];
  Node2 -> Node3 [color="midnightblue",fontsize="10",style="solid"];
  Node3 [label="SFML/Config.hpp",height=0.2,width=0.4,color="black", fillcolor="white", style="filled",URL="$_config_8hpp.html",tooltip=" "];
  Node1 -> Node4 [color="midnightblue",fontsize="10",style="solid"];
  Node4 [label="SFML/Graphics/Image.hpp",height=0.2,width=0.4,color="black", fillcolor="white", style="filled",URL="$_image_8hpp.html",tooltip=" "];
  Node4 -> Node2 [color="midnightblue",fontsize="10",style="solid"];
  Node4 -> Node5 [color="midnightblue",fontsize="10",style="solid"];
  Node5 [label="SFML/Graphics/Color.hpp",height=0.2,width=0.4,color="black", fillcolor="white", style="filled",URL="$_color_8hpp.html",tooltip=" "];
  Node5 -> Node2 [color="midnightblue",fontsize="10",style="solid"];
  Node4 -> Node6 [color="midnightblue",fontsize="10",style="solid"];
  Node6 [label="SFML/Graphics/Rect.hpp",height=0.2,width=0.4,color="black", fillcolor="white", style="filled",URL="$_rect_8hpp.html",tooltip=" "];
  Node6 -> Node7 [color="midnightblue",fontsize="10",style="solid"];
  Node7 [label="SFML/System/Vector2.hpp",height=0.2,width=0.4,color="black", fillcolor="white", style="filled",URL="$_vector2_8hpp.html",tooltip=" "];
  Node7 -> Node8 [color="midnightblue",fontsize="10",style="solid"];
  Node8 [label="SFML/System/Vector2.inl",height=0.2,width=0.4,color="black", fillcolor="white", style="filled",URL="$_vector2_8inl.html",tooltip=" "];
  Node6 -> Node9 [color="midnightblue",fontsize="10",style="solid"];
  Node9 [label="algorithm",height=0.2,width=0.4,color="grey75", fillcolor="white", style="filled",tooltip=" "];
  Node6 -> Node10 [color="midnightblue",fontsize="10",style="solid"];
  Node10 [label="SFML/Graphics/Rect.inl",height=0.2,width=0.4,color="black", fillcolor="white", style="filled",URL="$_rect_8inl.html",tooltip=" "];
  Node4 -> Node11 [color="midnightblue",fontsize="10",style="solid"];
  Node11 [label="string",height=0.2,width=0.4,color="grey75", fillcolor="white", style="filled",tooltip=" "];
  Node4 -> Node12 [color="midnightblue",fontsize="10",style="solid"];
  Node12 [label="vector",height=0.2,width=0.4,color="grey75", fillcolor="white", style="filled",tooltip=" "];
  Node1 -> Node13 [color="midnightblue",fontsize="10",style="solid"];
  Node13 [label="SFML/Window/GlResource.hpp",height=0.2,width=0.4,color="black", fillcolor="white", style="filled",URL="$_gl_resource_8hpp.html",tooltip=" "];
  Node13 -> Node14 [color="midnightblue",fontsize="10",style="solid"];
  Node14 [label="SFML/Window/Export.hpp",height=0.2,width=0.4,color="black", fillcolor="white", style="filled",URL="$_window_2_export_8hpp.html",tooltip=" "];
  Node14 -> Node3 [color="midnightblue",fontsize="10",style="solid"];
  Node13 -> Node15 [color="midnightblue",fontsize="10",style="solid"];
  Node15 [label="SFML/System/NonCopyable.hpp",height=0.2,width=0.4,color="black", fillcolor="white", style="filled",URL="$_non_copyable_8hpp.html",tooltip=" "];
  Node15 -> Node16 [color="midnightblue",fontsize="10",style="solid"];
  Node16 [label="SFML/System/Export.hpp",height=0.2,width=0.4,color="black", fillcolor="white", style="filled",URL="$_system_2_export_8hpp.html",tooltip=" "];
  Node16 -> Node3 [color="midnightblue",fontsize="10",style="solid"];
}
