digraph "includes/GameObjects/Wall.hpp"
{
 // LATEX_PDF_SIZE
  edge [fontname="Helvetica",fontsize="10",labelfontname="Helvetica",labelfontsize="10"];
  node [fontname="Helvetica",fontsize="10",shape=record];
  Node1 [label="includes/GameObjects\l/Wall.hpp",height=0.2,width=0.4,color="black", fillcolor="grey75", style="filled", fontcolor="black",tooltip=" "];
  Node1 -> Node2 [color="midnightblue",fontsize="10",style="solid"];
  Node2 [label="Block.hpp",height=0.2,width=0.4,color="black", fillcolor="white", style="filled",URL="$_block_8hpp.html",tooltip=" "];
  Node2 -> Node3 [color="midnightblue",fontsize="10",style="solid"];
  Node3 [label="Entity.hpp",height=0.2,width=0.4,color="black", fillcolor="white", style="filled",URL="$_entity_8hpp.html",tooltip=" "];
  Node3 -> Node4 [color="midnightblue",fontsize="10",style="solid"];
  Node4 [label="vector",height=0.2,width=0.4,color="grey75", fillcolor="white", style="filled",tooltip=" "];
  Node3 -> Node5 [color="midnightblue",fontsize="10",style="solid"];
  Node5 [label="map",height=0.2,width=0.4,color="grey75", fillcolor="white", style="filled",tooltip=" "];
  Node3 -> Node6 [color="midnightblue",fontsize="10",style="solid"];
  Node6 [label="memory",height=0.2,width=0.4,color="grey75", fillcolor="white", style="filled",tooltip=" "];
  Node3 -> Node7 [color="midnightblue",fontsize="10",style="solid"];
  Node7 [label="../components/Component.hpp",height=0.2,width=0.4,color="black", fillcolor="white", style="filled",URL="$_component_8hpp.html",tooltip=" "];
  Node3 -> Node8 [color="midnightblue",fontsize="10",style="solid"];
  Node8 [label="../ID/ID.hpp",height=0.2,width=0.4,color="black", fillcolor="white", style="filled",URL="$_i_d_8hpp.html",tooltip=" "];
  Node2 -> Node9 [color="midnightblue",fontsize="10",style="solid"];
  Node9 [label="PositionComponent.hpp",height=0.2,width=0.4,color="black", fillcolor="white", style="filled",URL="$_position_component_8hpp.html",tooltip=" "];
  Node9 -> Node7 [color="midnightblue",fontsize="10",style="solid"];
  Node2 -> Node10 [color="midnightblue",fontsize="10",style="solid"];
  Node10 [label="TextureComponent.hpp",height=0.2,width=0.4,color="black", fillcolor="white", style="filled",URL="$_texture_component_8hpp.html",tooltip=" "];
  Node10 -> Node11 [color="midnightblue",fontsize="10",style="solid"];
  Node11 [label="irrlicht.h",height=0.2,width=0.4,color="red", fillcolor="white", style="filled",URL="$irrlicht_8h.html",tooltip="Main header file of the irrlicht, the only file needed to include."];
  Node11 -> Node12 [color="midnightblue",fontsize="10",style="solid"];
  Node12 [label="IrrCompileConfig.h",height=0.2,width=0.4,color="red", fillcolor="white", style="filled",URL="$_irr_compile_config_8h.html",tooltip=" "];
  Node11 -> Node14 [color="midnightblue",fontsize="10",style="solid"];
  Node14 [label="aabbox3d.h",height=0.2,width=0.4,color="red", fillcolor="white", style="filled",URL="$aabbox3d_8h.html",tooltip=" "];
  Node11 -> Node25 [color="midnightblue",fontsize="10",style="solid"];
  Node25 [label="CDynamicMeshBuffer.h",height=0.2,width=0.4,color="red", fillcolor="white", style="filled",URL="$_c_dynamic_mesh_buffer_8h.html",tooltip=" "];
  Node25 -> Node52 [color="midnightblue",fontsize="10",style="solid"];
  Node52 [label="CVertexBuffer.h",height=0.2,width=0.4,color="red", fillcolor="white", style="filled",URL="$_c_vertex_buffer_8h.html",tooltip=" "];
  Node25 -> Node53 [color="midnightblue",fontsize="10",style="solid"];
  Node53 [label="CIndexBuffer.h",height=0.2,width=0.4,color="red", fillcolor="white", style="filled",URL="$_c_index_buffer_8h.html",tooltip=" "];
  Node11 -> Node53 [color="midnightblue",fontsize="10",style="solid"];
  Node11 -> Node54 [color="midnightblue",fontsize="10",style="solid"];
  Node54 [label="CMeshBuffer.h",height=0.2,width=0.4,color="red", fillcolor="white", style="filled",URL="$_c_mesh_buffer_8h.html",tooltip=" "];
  Node11 -> Node55 [color="midnightblue",fontsize="10",style="solid"];
  Node55 [label="coreutil.h",height=0.2,width=0.4,color="red", fillcolor="white", style="filled",URL="$coreutil_8h.html",tooltip="File containing useful basic utility functions."];
  Node11 -> Node52 [color="midnightblue",fontsize="10",style="solid"];
  Node11 -> Node33 [color="midnightblue",fontsize="10",style="solid"];
  Node33 [label="dimension2d.h",height=0.2,width=0.4,color="red", fillcolor="white", style="filled",URL="$dimension2d_8h.html",tooltip=" "];
  Node11 -> Node57 [color="midnightblue",fontsize="10",style="solid"];
  Node57 [label="ECullingTypes.h",height=0.2,width=0.4,color="red", fillcolor="white", style="filled",URL="$_e_culling_types_8h.html",tooltip=" "];
  Node11 -> Node58 [color="midnightblue",fontsize="10",style="solid"];
  Node58 [label="EDebugSceneTypes.h",height=0.2,width=0.4,color="black", fillcolor="white", style="filled",URL="$_e_debug_scene_types_8h.html",tooltip=" "];
  Node11 -> Node59 [color="midnightblue",fontsize="10",style="solid"];
  Node59 [label="EDriverFeatures.h",height=0.2,width=0.4,color="black", fillcolor="white", style="filled",URL="$_e_driver_features_8h.html",tooltip=" "];
  Node11 -> Node60 [color="midnightblue",fontsize="10",style="solid"];
  Node60 [label="EDriverTypes.h",height=0.2,width=0.4,color="black", fillcolor="white", style="filled",URL="$_e_driver_types_8h.html",tooltip=" "];
  Node11 -> Node61 [color="midnightblue",fontsize="10",style="solid"];
  Node61 [label="EGUIAlignment.h",height=0.2,width=0.4,color="black", fillcolor="white", style="filled",URL="$_e_g_u_i_alignment_8h.html",tooltip=" "];
  Node11 -> Node62 [color="midnightblue",fontsize="10",style="solid"];
  Node62 [label="EGUIElementTypes.h",height=0.2,width=0.4,color="red", fillcolor="white", style="filled",URL="$_e_g_u_i_element_types_8h.html",tooltip=" "];
  Node11 -> Node48 [color="midnightblue",fontsize="10",style="solid"];
  Node48 [label="EHardwareBufferFlags.h",height=0.2,width=0.4,color="black", fillcolor="white", style="filled",URL="$_e_hardware_buffer_flags_8h.html",tooltip=" "];
  Node11 -> Node44 [color="midnightblue",fontsize="10",style="solid"];
  Node44 [label="EMaterialFlags.h",height=0.2,width=0.4,color="black", fillcolor="white", style="filled",URL="$_e_material_flags_8h.html",tooltip=" "];
  Node11 -> Node43 [color="midnightblue",fontsize="10",style="solid"];
  Node43 [label="EMaterialTypes.h",height=0.2,width=0.4,color="black", fillcolor="white", style="filled",URL="$_e_material_types_8h.html",tooltip=" "];
  Node11 -> Node63 [color="midnightblue",fontsize="10",style="solid"];
  Node63 [label="EMeshWriterEnums.h",height=0.2,width=0.4,color="red", fillcolor="white", style="filled",URL="$_e_mesh_writer_enums_8h.html",tooltip=" "];
  Node11 -> Node64 [color="midnightblue",fontsize="10",style="solid"];
  Node64 [label="EMessageBoxFlags.h",height=0.2,width=0.4,color="black", fillcolor="white", style="filled",URL="$_e_message_box_flags_8h.html",tooltip=" "];
  Node11 -> Node65 [color="midnightblue",fontsize="10",style="solid"];
  Node65 [label="ESceneNodeAnimatorTypes.h",height=0.2,width=0.4,color="black", fillcolor="white", style="filled",URL="$_e_scene_node_animator_types_8h.html",tooltip=" "];
  Node11 -> Node66 [color="midnightblue",fontsize="10",style="solid"];
  Node66 [label="ESceneNodeTypes.h",height=0.2,width=0.4,color="red", fillcolor="white", style="filled",URL="$_e_scene_node_types_8h.html",tooltip=" "];
  Node11 -> Node67 [color="midnightblue",fontsize="10",style="solid"];
  Node67 [label="ETerrainElements.h",height=0.2,width=0.4,color="black", fillcolor="white", style="filled",URL="$_e_terrain_elements_8h.html",tooltip=" "];
  Node11 -> Node68 [color="midnightblue",fontsize="10",style="solid"];
  Node68 [label="fast_atof.h",height=0.2,width=0.4,color="red", fillcolor="white", style="filled",URL="$fast__atof_8h.html",tooltip=" "];
  Node11 -> Node42 [color="midnightblue",fontsize="10",style="solid"];
  Node42 [label="heapsort.h",height=0.2,width=0.4,color="red", fillcolor="white", style="filled",URL="$heapsort_8h.html",tooltip=" "];
  Node11 -> Node69 [color="midnightblue",fontsize="10",style="solid"];
  Node69 [label="IAnimatedMesh.h",height=0.2,width=0.4,color="red", fillcolor="white", style="filled",URL="$_i_animated_mesh_8h.html",tooltip=" "];
  Node69 -> Node14 [color="midnightblue",fontsize="10",style="solid"];
  Node11 -> Node71 [color="midnightblue",fontsize="10",style="solid"];
  Node71 [label="IAnimatedMeshMD2.h",height=0.2,width=0.4,color="black", fillcolor="white", style="filled",URL="$_i_animated_mesh_m_d2_8h.html",tooltip=" "];
  Node71 -> Node69 [color="midnightblue",fontsize="10",style="solid"];
  Node11 -> Node72 [color="midnightblue",fontsize="10",style="solid"];
  Node72 [label="IAnimatedMeshMD3.h",height=0.2,width=0.4,color="red", fillcolor="white", style="filled",URL="$_i_animated_mesh_m_d3_8h.html",tooltip=" "];
  Node72 -> Node69 [color="midnightblue",fontsize="10",style="solid"];
  Node11 -> Node88 [color="midnightblue",fontsize="10",style="solid"];
  Node88 [label="IAnimatedMeshSceneNode.h",height=0.2,width=0.4,color="red", fillcolor="white", style="filled",URL="$_i_animated_mesh_scene_node_8h.html",tooltip=" "];
  Node88 -> Node100 [color="midnightblue",fontsize="10",style="solid"];
  Node100 [label="IBoneSceneNode.h",height=0.2,width=0.4,color="red", fillcolor="white", style="filled",URL="$_i_bone_scene_node_8h.html",tooltip=" "];
  Node88 -> Node71 [color="midnightblue",fontsize="10",style="solid"];
  Node88 -> Node72 [color="midnightblue",fontsize="10",style="solid"];
  Node11 -> Node90 [color="midnightblue",fontsize="10",style="solid"];
  Node90 [label="IAttributeExchangingObject.h",height=0.2,width=0.4,color="red", fillcolor="white", style="filled",URL="$_i_attribute_exchanging_object_8h.html",tooltip=" "];
  Node11 -> Node97 [color="midnightblue",fontsize="10",style="solid"];
  Node97 [label="IAttributes.h",height=0.2,width=0.4,color="red", fillcolor="white", style="filled",URL="$_i_attributes_8h.html",tooltip=" "];
  Node97 -> Node33 [color="midnightblue",fontsize="10",style="solid"];
  Node11 -> Node101 [color="midnightblue",fontsize="10",style="solid"];
  Node101 [label="IBillboardSceneNode.h",height=0.2,width=0.4,color="red", fillcolor="white", style="filled",URL="$_i_billboard_scene_node_8h.html",tooltip=" "];
  Node11 -> Node102 [color="midnightblue",fontsize="10",style="solid"];
  Node102 [label="IBillboardTextSceneNode.h",height=0.2,width=0.4,color="black", fillcolor="white", style="filled",URL="$_i_billboard_text_scene_node_8h.html",tooltip=" "];
  Node102 -> Node101 [color="midnightblue",fontsize="10",style="solid"];
  Node11 -> Node100 [color="midnightblue",fontsize="10",style="solid"];
  Node11 -> Node103 [color="midnightblue",fontsize="10",style="solid"];
  Node103 [label="ICameraSceneNode.h",height=0.2,width=0.4,color="red", fillcolor="white", style="filled",URL="$_i_camera_scene_node_8h.html",tooltip=" "];
  Node11 -> Node104 [color="midnightblue",fontsize="10",style="solid"];
  Node104 [label="ICursorControl.h",height=0.2,width=0.4,color="red", fillcolor="white", style="filled",URL="$_i_cursor_control_8h.html",tooltip=" "];
  Node10 -> Node201 [color="midnightblue",fontsize="10",style="solid"];
  Node201 [label="iostream",height=0.2,width=0.4,color="grey75", fillcolor="white", style="filled",tooltip=" "];
  Node10 -> Node7 [color="midnightblue",fontsize="10",style="solid"];
  Node10 -> Node202 [color="midnightblue",fontsize="10",style="solid"];
  Node202 [label="TextureError.hpp",height=0.2,width=0.4,color="red", fillcolor="white", style="filled",URL="$_texture_error_8hpp.html",tooltip=" "];
  Node2 -> Node206 [color="midnightblue",fontsize="10",style="solid"];
  Node206 [label="ColliderComponent.hpp",height=0.2,width=0.4,color="black", fillcolor="white", style="filled",URL="$_collider_component_8hpp.html",tooltip=" "];
  Node206 -> Node7 [color="midnightblue",fontsize="10",style="solid"];
  Node2 -> Node207 [color="midnightblue",fontsize="10",style="solid"];
  Node207 [label="CubeComponent.hpp",height=0.2,width=0.4,color="black", fillcolor="white", style="filled",URL="$_cube_component_8hpp.html",tooltip=" "];
  Node207 -> Node11 [color="midnightblue",fontsize="10",style="solid"];
  Node207 -> Node201 [color="midnightblue",fontsize="10",style="solid"];
  Node207 -> Node3 [color="midnightblue",fontsize="10",style="solid"];
  Node207 -> Node7 [color="midnightblue",fontsize="10",style="solid"];
}
