digraph "cmake/SFML-2.5.1/include/SFML/Window/Window.hpp"
{
 // LATEX_PDF_SIZE
  edge [fontname="Helvetica",fontsize="10",labelfontname="Helvetica",labelfontsize="10"];
  node [fontname="Helvetica",fontsize="10",shape=record];
  Node1 [label="cmake/SFML-2.5.1/include\l/SFML/Window/Window.hpp",height=0.2,width=0.4,color="black", fillcolor="grey75", style="filled", fontcolor="black",tooltip=" "];
  Node1 -> Node2 [color="midnightblue",fontsize="10",style="solid"];
  Node2 [label="SFML/Window/ContextSettings.hpp",height=0.2,width=0.4,color="black", fillcolor="white", style="filled",URL="$_context_settings_8hpp.html",tooltip=" "];
  Node2 -> Node3 [color="midnightblue",fontsize="10",style="solid"];
  Node3 [label="SFML/Config.hpp",height=0.2,width=0.4,color="black", fillcolor="white", style="filled",URL="$_config_8hpp.html",tooltip=" "];
  Node1 -> Node4 [color="midnightblue",fontsize="10",style="solid"];
  Node4 [label="SFML/Window/Cursor.hpp",height=0.2,width=0.4,color="black", fillcolor="white", style="filled",URL="$_cursor_8hpp.html",tooltip=" "];
  Node4 -> Node5 [color="midnightblue",fontsize="10",style="solid"];
  Node5 [label="SFML/Window/Export.hpp",height=0.2,width=0.4,color="black", fillcolor="white", style="filled",URL="$_window_2_export_8hpp.html",tooltip=" "];
  Node5 -> Node3 [color="midnightblue",fontsize="10",style="solid"];
  Node4 -> Node6 [color="midnightblue",fontsize="10",style="solid"];
  Node6 [label="SFML/System/NonCopyable.hpp",height=0.2,width=0.4,color="black", fillcolor="white", style="filled",URL="$_non_copyable_8hpp.html",tooltip=" "];
  Node6 -> Node7 [color="midnightblue",fontsize="10",style="solid"];
  Node7 [label="SFML/System/Export.hpp",height=0.2,width=0.4,color="black", fillcolor="white", style="filled",URL="$_system_2_export_8hpp.html",tooltip=" "];
  Node7 -> Node3 [color="midnightblue",fontsize="10",style="solid"];
  Node4 -> Node8 [color="midnightblue",fontsize="10",style="solid"];
  Node8 [label="SFML/System/Vector2.hpp",height=0.2,width=0.4,color="black", fillcolor="white", style="filled",URL="$_vector2_8hpp.html",tooltip=" "];
  Node8 -> Node9 [color="midnightblue",fontsize="10",style="solid"];
  Node9 [label="SFML/System/Vector2.inl",height=0.2,width=0.4,color="black", fillcolor="white", style="filled",URL="$_vector2_8inl.html",tooltip=" "];
  Node1 -> Node5 [color="midnightblue",fontsize="10",style="solid"];
  Node1 -> Node10 [color="midnightblue",fontsize="10",style="solid"];
  Node10 [label="SFML/Window/GlResource.hpp",height=0.2,width=0.4,color="black", fillcolor="white", style="filled",URL="$_gl_resource_8hpp.html",tooltip=" "];
  Node10 -> Node5 [color="midnightblue",fontsize="10",style="solid"];
  Node10 -> Node6 [color="midnightblue",fontsize="10",style="solid"];
  Node1 -> Node11 [color="midnightblue",fontsize="10",style="solid"];
  Node11 [label="SFML/Window/VideoMode.hpp",height=0.2,width=0.4,color="black", fillcolor="white", style="filled",URL="$_video_mode_8hpp.html",tooltip=" "];
  Node11 -> Node5 [color="midnightblue",fontsize="10",style="solid"];
  Node11 -> Node12 [color="midnightblue",fontsize="10",style="solid"];
  Node12 [label="vector",height=0.2,width=0.4,color="grey75", fillcolor="white", style="filled",tooltip=" "];
  Node1 -> Node13 [color="midnightblue",fontsize="10",style="solid"];
  Node13 [label="SFML/Window/WindowHandle.hpp",height=0.2,width=0.4,color="black", fillcolor="white", style="filled",URL="$_window_handle_8hpp.html",tooltip=" "];
  Node13 -> Node3 [color="midnightblue",fontsize="10",style="solid"];
  Node1 -> Node14 [color="midnightblue",fontsize="10",style="solid"];
  Node14 [label="SFML/Window/WindowStyle.hpp",height=0.2,width=0.4,color="black", fillcolor="white", style="filled",URL="$_window_style_8hpp.html",tooltip=" "];
  Node1 -> Node15 [color="midnightblue",fontsize="10",style="solid"];
  Node15 [label="SFML/System/Clock.hpp",height=0.2,width=0.4,color="black", fillcolor="white", style="filled",URL="$_clock_8hpp.html",tooltip=" "];
  Node15 -> Node7 [color="midnightblue",fontsize="10",style="solid"];
  Node15 -> Node16 [color="midnightblue",fontsize="10",style="solid"];
  Node16 [label="SFML/System/Time.hpp",height=0.2,width=0.4,color="black", fillcolor="white", style="filled",URL="$_time_8hpp.html",tooltip=" "];
  Node16 -> Node7 [color="midnightblue",fontsize="10",style="solid"];
  Node1 -> Node6 [color="midnightblue",fontsize="10",style="solid"];
  Node1 -> Node17 [color="midnightblue",fontsize="10",style="solid"];
  Node17 [label="SFML/System/String.hpp",height=0.2,width=0.4,color="black", fillcolor="white", style="filled",URL="$_string_8hpp.html",tooltip=" "];
  Node17 -> Node7 [color="midnightblue",fontsize="10",style="solid"];
  Node17 -> Node18 [color="midnightblue",fontsize="10",style="solid"];
  Node18 [label="SFML/System/Utf.hpp",height=0.2,width=0.4,color="black", fillcolor="white", style="filled",URL="$_utf_8hpp.html",tooltip=" "];
  Node18 -> Node3 [color="midnightblue",fontsize="10",style="solid"];
  Node18 -> Node19 [color="midnightblue",fontsize="10",style="solid"];
  Node19 [label="algorithm",height=0.2,width=0.4,color="grey75", fillcolor="white", style="filled",tooltip=" "];
  Node18 -> Node20 [color="midnightblue",fontsize="10",style="solid"];
  Node20 [label="locale",height=0.2,width=0.4,color="grey75", fillcolor="white", style="filled",tooltip=" "];
  Node18 -> Node21 [color="midnightblue",fontsize="10",style="solid"];
  Node21 [label="string",height=0.2,width=0.4,color="grey75", fillcolor="white", style="filled",tooltip=" "];
  Node18 -> Node22 [color="midnightblue",fontsize="10",style="solid"];
  Node22 [label="cstdlib",height=0.2,width=0.4,color="grey75", fillcolor="white", style="filled",tooltip=" "];
  Node18 -> Node23 [color="midnightblue",fontsize="10",style="solid"];
  Node23 [label="SFML/System/Utf.inl",height=0.2,width=0.4,color="black", fillcolor="white", style="filled",URL="$_utf_8inl.html",tooltip=" "];
  Node17 -> Node24 [color="midnightblue",fontsize="10",style="solid"];
  Node24 [label="iterator",height=0.2,width=0.4,color="grey75", fillcolor="white", style="filled",tooltip=" "];
  Node17 -> Node20 [color="midnightblue",fontsize="10",style="solid"];
  Node17 -> Node21 [color="midnightblue",fontsize="10",style="solid"];
  Node17 -> Node25 [color="midnightblue",fontsize="10",style="solid"];
  Node25 [label="SFML/System/String.inl",height=0.2,width=0.4,color="black", fillcolor="white", style="filled",URL="$_string_8inl.html",tooltip=" "];
  Node1 -> Node8 [color="midnightblue",fontsize="10",style="solid"];
}
