digraph "irr::core::aabbox3d::getCenter"
{
 // LATEX_PDF_SIZE
  edge [fontname="Helvetica",fontsize="10",labelfontname="Helvetica",labelfontsize="10"];
  node [fontname="Helvetica",fontsize="10",shape=record];
  rankdir="RL";
  Node1 [label="irr::core::aabbox3d\l::getCenter",height=0.2,width=0.4,color="black", fillcolor="grey75", style="filled", fontcolor="black",tooltip="Get center of the bounding box."];
  Node1 -> Node2 [dir="back",color="midnightblue",fontsize="10",style="solid"];
  Node2 [label="irr::core::aabbox3d\l\< f32 \>::getEdges",height=0.2,width=0.4,color="black", fillcolor="white", style="filled",URL="$classirr_1_1core_1_1aabbox3d.html#acb31d9c6a79559c2636c1e32a3e2e459",tooltip="Stores all 8 edges of the box into an array."];
  Node1 -> Node3 [dir="back",color="midnightblue",fontsize="10",style="solid"];
  Node3 [label="irr::core::aabbox3d\l\< f32 \>::intersectsWithLine",height=0.2,width=0.4,color="black", fillcolor="white", style="filled",URL="$classirr_1_1core_1_1aabbox3d.html#ad24417ef24e598bc484ea8b7af1c2187",tooltip="Tests if the box intersects with a line."];
  Node1 -> Node4 [dir="back",color="midnightblue",fontsize="10",style="solid"];
  Node4 [label="indie::Collision::setCollision",height=0.2,width=0.4,color="black", fillcolor="white", style="filled",URL="$classindie_1_1_collision.html#abb5bcdefdd8d081adbcde3dd947e5d3d",tooltip=" "];
  Node4 -> Node5 [dir="back",color="midnightblue",fontsize="10",style="solid"];
  Node5 [label="indie::Graphical::Entity\lToBlock",height=0.2,width=0.4,color="black", fillcolor="white", style="filled",URL="$classindie_1_1_graphical.html#a6a9083751a53c476544993433ee7db1b",tooltip=" "];
}
