digraph "irr::scene::ISceneNode::remove"
{
 // LATEX_PDF_SIZE
  edge [fontname="Helvetica",fontsize="10",labelfontname="Helvetica",labelfontsize="10"];
  node [fontname="Helvetica",fontsize="10",shape=record];
  rankdir="RL";
  Node1 [label="irr::scene::ISceneNode\l::remove",height=0.2,width=0.4,color="black", fillcolor="grey75", style="filled", fontcolor="black",tooltip="Removes this scene node from the scene."];
  Node1 -> Node2 [dir="back",color="midnightblue",fontsize="10",style="solid"];
  Node2 [label="irr::scene::ISceneNode\l::addChild",height=0.2,width=0.4,color="black", fillcolor="white", style="filled",URL="$classirr_1_1scene_1_1_i_scene_node.html#acceef4fbb68f6cc7bb40035225350970",tooltip="Adds a child to this scene node."];
  Node2 -> Node3 [dir="back",color="midnightblue",fontsize="10",style="solid"];
  Node3 [label="irr::scene::ISceneNode\l::ISceneNode",height=0.2,width=0.4,color="black", fillcolor="white", style="filled",URL="$classirr_1_1scene_1_1_i_scene_node.html#a9894d951df2f720924f891e0a7b9fac2",tooltip="Constructor."];
  Node2 -> Node4 [dir="back",color="midnightblue",fontsize="10",style="solid"];
  Node4 [label="irr::scene::ISceneNode\l::setParent",height=0.2,width=0.4,color="black", fillcolor="white", style="filled",URL="$classirr_1_1scene_1_1_i_scene_node.html#a59e7f36cb5c9c4895e06fce0ca5eb276",tooltip="Changes the parent of the scene node."];
  Node1 -> Node4 [dir="back",color="midnightblue",fontsize="10",style="solid"];
}
