digraph "irr::gui::IGUIElement::setMinSize"
{
 // LATEX_PDF_SIZE
  edge [fontname="Helvetica",fontsize="10",labelfontname="Helvetica",labelfontsize="10"];
  node [fontname="Helvetica",fontsize="10",shape=record];
  rankdir="LR";
  Node1 [label="irr::gui::IGUIElement\l::setMinSize",height=0.2,width=0.4,color="black", fillcolor="grey75", style="filled", fontcolor="black",tooltip="Sets the minimum size allowed for this element."];
  Node1 -> Node2 [color="midnightblue",fontsize="10",style="solid"];
  Node2 [label="irr::gui::IGUIElement\l::updateAbsolutePosition",height=0.2,width=0.4,color="black", fillcolor="white", style="filled",URL="$classirr_1_1gui_1_1_i_g_u_i_element.html#ad58bbeba69a118873a5075d86b4c90f2",tooltip="Updates the absolute position."];
  Node2 -> Node3 [color="midnightblue",fontsize="10",style="solid"];
  Node3 [label="irr::gui::IGUIElement\l::recalculateAbsolutePosition",height=0.2,width=0.4,color="black", fillcolor="white", style="filled",URL="$classirr_1_1gui_1_1_i_g_u_i_element.html#a436d80ee161086389d7f3537ca062e4a",tooltip=" "];
  Node3 -> Node4 [color="midnightblue",fontsize="10",style="solid"];
  Node4 [label="irr::core::rect::clipAgainst",height=0.2,width=0.4,color="black", fillcolor="white", style="filled",URL="$classirr_1_1core_1_1rect.html#a86645d45a8bed1a3539bba9865e93de4",tooltip="Clips this rectangle with another one."];
  Node3 -> Node5 [color="midnightblue",fontsize="10",style="solid"];
  Node5 [label="irr::core::rect::getHeight",height=0.2,width=0.4,color="black", fillcolor="white", style="filled",URL="$classirr_1_1core_1_1rect.html#ad43b325eeb165c553a58f34efb2ee961",tooltip="Get height of rectangle."];
  Node3 -> Node6 [color="midnightblue",fontsize="10",style="solid"];
  Node6 [label="irr::core::rect::getWidth",height=0.2,width=0.4,color="black", fillcolor="white", style="filled",URL="$classirr_1_1core_1_1rect.html#ad5dcae186b85b938d42b59c91bfeb9a5",tooltip="Get width of rectangle."];
  Node3 -> Node7 [color="midnightblue",fontsize="10",style="solid"];
  Node7 [label="irr::core::rect::repair",height=0.2,width=0.4,color="black", fillcolor="white", style="filled",URL="$classirr_1_1core_1_1rect.html#a45c7665e74aed626bb5c01729f206775",tooltip="If the lower right corner of the rect is smaller then the upper left, the points are swapped."];
  Node3 -> Node8 [color="midnightblue",fontsize="10",style="solid"];
  Node8 [label="irr::core::round32",height=0.2,width=0.4,color="black", fillcolor="white", style="filled",URL="$namespaceirr_1_1core.html#ae46f57f03e9033c57c180fbe83b04cf2",tooltip=" "];
  Node8 -> Node9 [color="midnightblue",fontsize="10",style="solid"];
  Node9 [label="irr::core::round_",height=0.2,width=0.4,color="black", fillcolor="white", style="filled",URL="$namespaceirr_1_1core.html#a894a901069c34298987761c5f3d74f1f",tooltip=" "];
}
