digraph "sf::Sound::getPlayingOffset"
{
 // LATEX_PDF_SIZE
  edge [fontname="Helvetica",fontsize="10",labelfontname="Helvetica",labelfontsize="10"];
  node [fontname="Helvetica",fontsize="10",shape=record];
  rankdir="RL";
  Node1 [label="sf::Sound::getPlayingOffset",height=0.2,width=0.4,color="black", fillcolor="grey75", style="filled", fontcolor="black",tooltip="Get the current playing position of the sound."];
  Node1 -> Node2 [dir="back",color="midnightblue",fontsize="10",style="solid"];
  Node2 [label="main",height=0.2,width=0.4,color="black", fillcolor="white", style="filled",URL="$_sound_capture_8cpp.html#ae66f6b31b5ad750f1fe042a706a4e3d4",tooltip=" "];
  Node1 -> Node3 [dir="back",color="midnightblue",fontsize="10",style="solid"];
  Node3 [label="playSound",height=0.2,width=0.4,color="black", fillcolor="white", style="filled",URL="$_sound_8cpp.html#ad43013e2a3efe3bae11ef06683ffe326",tooltip=" "];
  Node3 -> Node4 [dir="back",color="midnightblue",fontsize="10",style="solid"];
  Node4 [label="main",height=0.2,width=0.4,color="black", fillcolor="white", style="filled",URL="$_sound_8cpp.html#ae66f6b31b5ad750f1fe042a706a4e3d4",tooltip=" "];
}
