digraph "irr::video::SColor::getLightness"
{
 // LATEX_PDF_SIZE
  edge [fontname="Helvetica",fontsize="10",labelfontname="Helvetica",labelfontsize="10"];
  node [fontname="Helvetica",fontsize="10",shape=record];
  rankdir="LR";
  Node1 [label="irr::video::SColor\l::getLightness",height=0.2,width=0.4,color="black", fillcolor="grey75", style="filled", fontcolor="black",tooltip="Get lightness of the color in the range [0,255]."];
  Node1 -> Node2 [color="midnightblue",fontsize="10",style="solid"];
  Node2 [label="irr::video::SColor\l::getBlue",height=0.2,width=0.4,color="black", fillcolor="white", style="filled",URL="$classirr_1_1video_1_1_s_color.html#afb60ac456b2efc2f2a4f04a643293d26",tooltip="Returns the blue component of the color."];
  Node1 -> Node3 [color="midnightblue",fontsize="10",style="solid"];
  Node3 [label="irr::video::SColor\l::getGreen",height=0.2,width=0.4,color="black", fillcolor="white", style="filled",URL="$classirr_1_1video_1_1_s_color.html#a198773366f2a5436c1ca4adc9037bb8d",tooltip="Returns the green component of the color."];
  Node1 -> Node4 [color="midnightblue",fontsize="10",style="solid"];
  Node4 [label="irr::video::SColor\l::getRed",height=0.2,width=0.4,color="black", fillcolor="white", style="filled",URL="$classirr_1_1video_1_1_s_color.html#a70d11ec2247581c79ee11e0e1b511978",tooltip="Returns the red component of the color."];
  Node1 -> Node5 [color="midnightblue",fontsize="10",style="solid"];
  Node5 [label="irr::core::max_",height=0.2,width=0.4,color="black", fillcolor="white", style="filled",URL="$namespaceirr_1_1core.html#afca1ce7ac54e0c31a9047947f4c7319b",tooltip="returns maximum of two values. Own implementation to get rid of the STL (VS6 problems)"];
  Node1 -> Node6 [color="midnightblue",fontsize="10",style="solid"];
  Node6 [label="irr::core::min_",height=0.2,width=0.4,color="black", fillcolor="white", style="filled",URL="$namespaceirr_1_1core.html#a9d34bfdbbe9c136b01ae04974572bc11",tooltip="returns minimum of two values. Own implementation to get rid of the STL (VS6 problems)"];
}
