digraph "irr::core::CMatrix4::operator*"
{
 // LATEX_PDF_SIZE
  edge [fontname="Helvetica",fontsize="10",labelfontname="Helvetica",labelfontsize="10"];
  node [fontname="Helvetica",fontsize="10",shape=record];
  rankdir="LR";
  Node1 [label="irr::core::CMatrix4\l::operator*",height=0.2,width=0.4,color="black", fillcolor="grey75", style="filled", fontcolor="black",tooltip="Multiply by another matrix."];
  Node1 -> Node2 [color="midnightblue",fontsize="10",style="solid"];
  Node2 [label="irr::core::CMatrix4\l::isIdentity",height=0.2,width=0.4,color="black", fillcolor="white", style="filled",URL="$classirr_1_1core_1_1_c_matrix4.html#a01fb063cdc136aaa827c883a3ab6cac4",tooltip="Returns true if the matrix is the identity matrix."];
  Node2 -> Node3 [color="midnightblue",fontsize="10",style="solid"];
  Node3 [label="irr::core::equals",height=0.2,width=0.4,color="black", fillcolor="white", style="filled",URL="$namespaceirr_1_1core.html#abf9b9b140cc365908ea4c8c47451e4e3",tooltip="returns if a equals b, taking possible rounding errors into account"];
}
