digraph "irr::scene::IMeshManipulator::transformMesh"
{
 // LATEX_PDF_SIZE
  edge [fontname="Helvetica",fontsize="10",labelfontname="Helvetica",labelfontsize="10"];
  node [fontname="Helvetica",fontsize="10",shape=record];
  rankdir="LR";
  Node1 [label="irr::scene::IMeshManipulator\l::transformMesh",height=0.2,width=0.4,color="black", fillcolor="grey75", style="filled", fontcolor="black",tooltip="Applies a transformation to a mesh."];
  Node1 -> Node2 [color="midnightblue",fontsize="10",style="solid"];
  Node2 [label="irr::scene::IMeshManipulator\l::transform",height=0.2,width=0.4,color="black", fillcolor="white", style="filled",URL="$classirr_1_1scene_1_1_i_mesh_manipulator.html#a9f9962d31cbd4ebeb1be0812765884cf",tooltip="Applies a transformation to a mesh."];
  Node2 -> Node3 [color="midnightblue",fontsize="10",style="solid"];
  Node3 [label="irr::scene::IMeshManipulator\l::apply",height=0.2,width=0.4,color="black", fillcolor="white", style="filled",URL="$classirr_1_1scene_1_1_i_mesh_manipulator.html#a6d685fb465a8b5efecd0825b74099ceb",tooltip="Apply a manipulator on the Meshbuffer."];
  Node3 -> Node4 [color="midnightblue",fontsize="10",style="solid"];
  Node4 [label="irr::scene::IMeshManipulator\l::apply_",height=0.2,width=0.4,color="black", fillcolor="white", style="filled",URL="$classirr_1_1scene_1_1_i_mesh_manipulator.html#a774eccf79c86497b49b4dea7ead1eeb2",tooltip="Apply a manipulator based on the type of the functor."];
  Node4 -> Node5 [color="midnightblue",fontsize="10",style="solid"];
  Node5 [label="irr::core::aabbox3d\l::addInternalPoint",height=0.2,width=0.4,color="black", fillcolor="white", style="filled",URL="$classirr_1_1core_1_1aabbox3d.html#a49e3765fd2f40a115f8f28bd74d62ccf",tooltip="Adds a point to the bounding box."];
  Node4 -> Node6 [color="midnightblue",fontsize="10",style="solid"];
  Node6 [label="irr::scene::IMeshBuffer\l::getPosition",height=0.2,width=0.4,color="black", fillcolor="white", style="filled",URL="$classirr_1_1scene_1_1_i_mesh_buffer.html#a79ca051edc0ece69057fda7b4fe1e155",tooltip="returns position of vertex i"];
  Node4 -> Node7 [color="midnightblue",fontsize="10",style="solid"];
  Node7 [label="irr::scene::IMeshBuffer\l::getVertexCount",height=0.2,width=0.4,color="black", fillcolor="white", style="filled",URL="$classirr_1_1scene_1_1_i_mesh_buffer.html#a77ab285c8c886af8ddeb0371db7bde96",tooltip="Get amount of vertices in meshbuffer."];
  Node4 -> Node8 [color="midnightblue",fontsize="10",style="solid"];
  Node8 [label="irr::scene::IMeshBuffer\l::getVertexType",height=0.2,width=0.4,color="black", fillcolor="white", style="filled",URL="$classirr_1_1scene_1_1_i_mesh_buffer.html#a4d7a84ae4416487736f0ed0f519bb4f0",tooltip="Get type of vertex data which is stored in this meshbuffer."];
  Node4 -> Node9 [color="midnightblue",fontsize="10",style="solid"];
  Node9 [label="irr::scene::IMeshBuffer\l::getVertices",height=0.2,width=0.4,color="black", fillcolor="white", style="filled",URL="$classirr_1_1scene_1_1_i_mesh_buffer.html#a99891e516246b2cff13b362a435c8028",tooltip="Get access to vertex data. The data is an array of vertices."];
  Node4 -> Node10 [color="midnightblue",fontsize="10",style="solid"];
  Node10 [label="irr::core::aabbox3d\l::reset",height=0.2,width=0.4,color="black", fillcolor="white", style="filled",URL="$classirr_1_1core_1_1aabbox3d.html#afc718e96ed11aa71a30311d32bfc885a",tooltip="Resets the bounding box to a one-point box."];
  Node4 -> Node11 [color="midnightblue",fontsize="10",style="solid"];
  Node11 [label="irr::scene::IMeshBuffer\l::setBoundingBox",height=0.2,width=0.4,color="black", fillcolor="white", style="filled",URL="$classirr_1_1scene_1_1_i_mesh_buffer.html#adbbfb7757dfbba7357193d2280893df6",tooltip="Set axis aligned bounding box."];
}
