digraph "irr::core::vector3d::dotProduct"
{
 // LATEX_PDF_SIZE
  edge [fontname="Helvetica",fontsize="10",labelfontname="Helvetica",labelfontsize="10"];
  node [fontname="Helvetica",fontsize="10",shape=record];
  rankdir="RL";
  Node1 [label="irr::core::vector3d\l::dotProduct",height=0.2,width=0.4,color="black", fillcolor="grey75", style="filled", fontcolor="black",tooltip="Get the dot product with another vector."];
  Node1 -> Node2 [dir="back",color="midnightblue",fontsize="10",style="solid"];
  Node2 [label="irr::core::CMatrix4\l::buildAxisAlignedBillboard",height=0.2,width=0.4,color="black", fillcolor="white", style="filled",URL="$classirr_1_1core_1_1_c_matrix4.html#ad2dc80f2aed15900839389cf52f9e798",tooltip="Builds a matrix which rotates a source vector to a look vector over an arbitrary axis."];
  Node1 -> Node3 [dir="back",color="midnightblue",fontsize="10",style="solid"];
  Node3 [label="irr::core::CMatrix4\l::buildCameraLookAtMatrixLH",height=0.2,width=0.4,color="black", fillcolor="white", style="filled",URL="$classirr_1_1core_1_1_c_matrix4.html#a78e15297c806006898df58498755ecd4",tooltip="Builds a left-handed look-at matrix."];
  Node1 -> Node4 [dir="back",color="midnightblue",fontsize="10",style="solid"];
  Node4 [label="irr::core::CMatrix4\l::buildCameraLookAtMatrixRH",height=0.2,width=0.4,color="black", fillcolor="white", style="filled",URL="$classirr_1_1core_1_1_c_matrix4.html#a62ebd6002a5018c1096ac368f6be271a",tooltip="Builds a right-handed look-at matrix."];
  Node1 -> Node5 [dir="back",color="midnightblue",fontsize="10",style="solid"];
  Node5 [label="irr::core::CMatrix4\l::buildRotateFromTo",height=0.2,width=0.4,color="black", fillcolor="white", style="filled",URL="$classirr_1_1core_1_1_c_matrix4.html#a4802c6a89ad813e2919f68f512fb320f",tooltip="Builds a matrix that rotates from one vector to another."];
  Node1 -> Node6 [dir="back",color="midnightblue",fontsize="10",style="solid"];
  Node6 [label="irr::core::CMatrix4\l::buildShadowMatrix",height=0.2,width=0.4,color="black", fillcolor="white", style="filled",URL="$classirr_1_1core_1_1_c_matrix4.html#a583d0ece1d80f69101660e1cbe441768",tooltip="Builds a matrix that flattens geometry into a plane."];
  Node1 -> Node7 [dir="back",color="midnightblue",fontsize="10",style="solid"];
  Node7 [label="irr::core::line3d::\lgetClosestPoint",height=0.2,width=0.4,color="black", fillcolor="white", style="filled",URL="$classirr_1_1core_1_1line3d.html#a40fefd94d9fe0d206eb46e6db52826dc",tooltip="Get the closest point on this line to a point."];
  Node7 -> Node8 [dir="back",color="midnightblue",fontsize="10",style="solid"];
  Node8 [label="irr::core::triangle3d\l::closestPointOnTriangle",height=0.2,width=0.4,color="black", fillcolor="white", style="filled",URL="$classirr_1_1core_1_1triangle3d.html#a0212c09e6804a7a25c3fef791b6b1336",tooltip="Get the closest point on a triangle to a point on the same plane."];
  Node1 -> Node9 [dir="back",color="midnightblue",fontsize="10",style="solid"];
  Node9 [label="irr::core::plane3d\l\< f32 \>::getDistanceTo",height=0.2,width=0.4,color="black", fillcolor="white", style="filled",URL="$classirr_1_1core_1_1plane3d.html#ab5e41d5843bf3bb856f543186b8a7df8",tooltip="Get the distance to a point."];
  Node1 -> Node10 [dir="back",color="midnightblue",fontsize="10",style="solid"];
  Node10 [label="irr::core::triangle3d\l::getIntersectionOfPlaneWithLine",height=0.2,width=0.4,color="black", fillcolor="white", style="filled",URL="$classirr_1_1core_1_1triangle3d.html#a860339e3646bf2f7cbb7e88be1cf0783",tooltip="Calculates the intersection between a 3d line and the plane the triangle is on."];
  Node10 -> Node11 [dir="back",color="midnightblue",fontsize="10",style="solid"];
  Node11 [label="irr::core::triangle3d\l::getIntersectionWithLine",height=0.2,width=0.4,color="black", fillcolor="white", style="filled",URL="$classirr_1_1core_1_1triangle3d.html#a70e0d27d17f9f0d14117df912cdaafe1",tooltip="Get an intersection with a 3d line."];
  Node11 -> Node12 [dir="back",color="midnightblue",fontsize="10",style="solid"];
  Node12 [label="irr::core::triangle3d\l::getIntersectionWithLimitedLine",height=0.2,width=0.4,color="black", fillcolor="white", style="filled",URL="$classirr_1_1core_1_1triangle3d.html#a3274d1e1ee1d28050176736c5e6773c2",tooltip="Get an intersection with a 3d line."];
  Node1 -> Node13 [dir="back",color="midnightblue",fontsize="10",style="solid"];
  Node13 [label="irr::core::line3d::\lgetIntersectionWithSphere",height=0.2,width=0.4,color="black", fillcolor="white", style="filled",URL="$classirr_1_1core_1_1line3d.html#a1315915ed1b1fb8a11eb8b561be193a0",tooltip="Check if the line intersects with a shpere."];
  Node1 -> Node14 [dir="back",color="midnightblue",fontsize="10",style="solid"];
  Node14 [label="irr::core::triangle3d\l::isFrontFacing",height=0.2,width=0.4,color="black", fillcolor="white", style="filled",URL="$classirr_1_1core_1_1triangle3d.html#a9befd6b07fc8067d16cf313b35b835db",tooltip="Test if the triangle would be front or backfacing from any point."];
  Node1 -> Node15 [dir="back",color="midnightblue",fontsize="10",style="solid"];
  Node15 [label="irr::core::triangle3d\l::isPointInsideFast",height=0.2,width=0.4,color="black", fillcolor="white", style="filled",URL="$classirr_1_1core_1_1triangle3d.html#a87d93ff616faf4b99b59f8d2ecd9c0de",tooltip="Check if a point is inside the triangle (border-points count also as inside)"];
  Node1 -> Node16 [dir="back",color="midnightblue",fontsize="10",style="solid"];
  Node16 [label="irr::core::plane3d\l\< f32 \>::recalculateD",height=0.2,width=0.4,color="black", fillcolor="white", style="filled",URL="$classirr_1_1core_1_1plane3d.html#a65c1748d516ddc820b6b970f9367f1ff",tooltip="Recalculates the distance from origin by applying a new member point to the plane."];
  Node1 -> Node17 [dir="back",color="midnightblue",fontsize="10",style="solid"];
  Node17 [label="irr::core::quaternion\l::rotationFromTo",height=0.2,width=0.4,color="black", fillcolor="white", style="filled",URL="$classirr_1_1core_1_1quaternion.html#a9da1b3ddfb9722f596a73abf5212c020",tooltip="Set quaternion to represent a rotation from one vector to another."];
}
