digraph "NetworkRecorder::~NetworkRecorder"
{
 // LATEX_PDF_SIZE
  edge [fontname="Helvetica",fontsize="10",labelfontname="Helvetica",labelfontsize="10"];
  node [fontname="Helvetica",fontsize="10",shape=record];
  rankdir="LR";
  Node1 [label="NetworkRecorder::~Network\lRecorder",height=0.2,width=0.4,color="black", fillcolor="grey75", style="filled", fontcolor="black",tooltip=" "];
  Node1 -> Node2 [color="midnightblue",fontsize="10",style="solid"];
  Node2 [label="sf::SoundRecorder::stop",height=0.2,width=0.4,color="black", fillcolor="white", style="filled",URL="$classsf_1_1_sound_recorder.html#a8d9c8346aa9aa409cfed4a1101159c4c",tooltip="Stop the capture."];
}
