digraph "irr::scene::ISceneNode::setTriangleSelector"
{
 // LATEX_PDF_SIZE
  edge [fontname="Helvetica",fontsize="10",labelfontname="Helvetica",labelfontsize="10"];
  node [fontname="Helvetica",fontsize="10",shape=record];
  rankdir="LR";
  Node1 [label="irr::scene::ISceneNode\l::setTriangleSelector",height=0.2,width=0.4,color="black", fillcolor="grey75", style="filled", fontcolor="black",tooltip="Sets the triangle selector of the scene node."];
  Node1 -> Node2 [color="midnightblue",fontsize="10",style="solid"];
  Node2 [label="irr::IReferenceCounted\l::drop",height=0.2,width=0.4,color="black", fillcolor="white", style="filled",URL="$classirr_1_1_i_reference_counted.html#a03856a09355b89d178090c4a5f738543",tooltip="Drops the object. Decrements the reference counter by one."];
  Node1 -> Node3 [color="midnightblue",fontsize="10",style="solid"];
  Node3 [label="irr::IReferenceCounted\l::grab",height=0.2,width=0.4,color="black", fillcolor="white", style="filled",URL="$classirr_1_1_i_reference_counted.html#a396f9cdbe311ada278626477b3c6f0f5",tooltip="Grabs the object. Increments the reference counter by one."];
}
