digraph "irr::video::SMaterial"
{
 // LATEX_PDF_SIZE
  edge [fontname="Helvetica",fontsize="10",labelfontname="Helvetica",labelfontsize="10"];
  node [fontname="Helvetica",fontsize="10",shape=record];
  Node1 [label="irr::video::SMaterial",height=0.2,width=0.4,color="black", fillcolor="grey75", style="filled", fontcolor="black",tooltip="Struct for holding parameters for a material renderer."];
  Node2 -> Node1 [dir="back",color="darkorchid3",fontsize="10",style="dashed",label=" AmbientColor\nSpecularColor\nEmissiveColor\nDiffuseColor" ];
  Node2 [label="irr::video::SColor",height=0.2,width=0.4,color="black", fillcolor="white", style="filled",URL="$classirr_1_1video_1_1_s_color.html",tooltip="Class representing a 32 bit ARGB color."];
  Node3 -> Node1 [dir="back",color="darkorchid3",fontsize="10",style="dashed",label=" TextureLayer" ];
  Node3 [label="irr::video::SMaterialLayer",height=0.2,width=0.4,color="black", fillcolor="white", style="filled",URL="$classirr_1_1video_1_1_s_material_layer.html",tooltip="Struct for holding material parameters which exist per texture layer."];
  Node4 -> Node3 [dir="back",color="darkorchid3",fontsize="10",style="dashed",label=" Texture" ];
  Node4 [label="irr::video::ITexture",height=0.2,width=0.4,color="black", fillcolor="white", style="filled",URL="$classirr_1_1video_1_1_i_texture.html",tooltip="Interface of a Video Driver dependent Texture."];
  Node5 -> Node4 [dir="back",color="midnightblue",fontsize="10",style="solid"];
  Node5 [label="irr::IReferenceCounted",height=0.2,width=0.4,color="black", fillcolor="white", style="filled",URL="$classirr_1_1_i_reference_counted.html",tooltip="Base class of most objects of the Irrlicht Engine."];
  Node6 -> Node4 [dir="back",color="darkorchid3",fontsize="10",style="dashed",label=" NamedPath" ];
  Node6 [label="irr::io::SNamedPath",height=0.2,width=0.4,color="black", fillcolor="white", style="filled",URL="$structirr_1_1io_1_1_s_named_path.html",tooltip="Used in places where we identify objects by a filename, but don't actually work with the real filenam..."];
}
