digraph "irr::core::line2d::isPointBetweenStartAndEnd"
{
 // LATEX_PDF_SIZE
  edge [fontname="Helvetica",fontsize="10",labelfontname="Helvetica",labelfontsize="10"];
  node [fontname="Helvetica",fontsize="10",shape=record];
  rankdir="LR";
  Node1 [label="irr::core::line2d::\lisPointBetweenStartAndEnd",height=0.2,width=0.4,color="black", fillcolor="grey75", style="filled", fontcolor="black",tooltip="Check if the given point is between start and end of the line."];
  Node1 -> Node2 [color="midnightblue",fontsize="10",style="solid"];
  Node2 [label="irr::core::vector2d\l::isBetweenPoints",height=0.2,width=0.4,color="black", fillcolor="white", style="filled",URL="$classirr_1_1core_1_1vector2d.html#aeaf8fc27c46894825b3d84ff47f08a4a",tooltip="Returns if this vector interpreted as a point is on a line between two other points."];
}
