digraph "irr::scene::ISceneManager::createOctreeTriangleSelector"
{
 // LATEX_PDF_SIZE
  edge [fontname="Helvetica",fontsize="10",labelfontname="Helvetica",labelfontsize="10"];
  node [fontname="Helvetica",fontsize="10",shape=record];
  rankdir="RL";
  Node1 [label="irr::scene::ISceneManager\l::createOctreeTriangleSelector",height=0.2,width=0.4,color="black", fillcolor="grey75", style="filled", fontcolor="black",tooltip="Creates a Triangle Selector, optimized by an octree."];
  Node1 -> Node2 [dir="back",color="midnightblue",fontsize="10",style="solid"];
  Node2 [label="irr::scene::ISceneManager\l::createOctTreeTriangleSelector",height=0.2,width=0.4,color="black", fillcolor="white", style="filled",URL="$classirr_1_1scene_1_1_i_scene_manager.html#a67f20d1a535645048f2f7e2b5c670656",tooltip="//! Creates a Triangle Selector, optimized by an octree."];
  Node1 -> Node3 [dir="back",color="midnightblue",fontsize="10",style="solid"];
  Node3 [label="indie::Collision::setCollision",height=0.2,width=0.4,color="black", fillcolor="white", style="filled",URL="$classindie_1_1_collision.html#abb5bcdefdd8d081adbcde3dd947e5d3d",tooltip=" "];
  Node3 -> Node4 [dir="back",color="midnightblue",fontsize="10",style="solid"];
  Node4 [label="indie::Graphical::Entity\lToBlock",height=0.2,width=0.4,color="black", fillcolor="white", style="filled",URL="$classindie_1_1_graphical.html#a6a9083751a53c476544993433ee7db1b",tooltip=" "];
}
