digraph "irr::IOSOperator::getOperationSystemVersion"
{
 // LATEX_PDF_SIZE
  edge [fontname="Helvetica",fontsize="10",labelfontname="Helvetica",labelfontsize="10"];
  node [fontname="Helvetica",fontsize="10",shape=record];
  rankdir="LR";
  Node1 [label="irr::IOSOperator::getOperation\lSystemVersion",height=0.2,width=0.4,color="black", fillcolor="grey75", style="filled", fontcolor="black",tooltip="Get the current operation system version as string."];
  Node1 -> Node2 [color="midnightblue",fontsize="10",style="solid"];
  Node2 [label="irr::IOSOperator::getOperating\lSystemVersion",height=0.2,width=0.4,color="black", fillcolor="white", style="filled",URL="$classirr_1_1_i_o_s_operator.html#acf89b7715468ad2af91807dea6d40bf8",tooltip="Get the current operation system version as string."];
}
