digraph "irr::scene::ISceneManager::addParticleSystemSceneNode"
{
 // LATEX_PDF_SIZE
  edge [fontname="Helvetica",fontsize="10",labelfontname="Helvetica",labelfontsize="10"];
  node [fontname="Helvetica",fontsize="10",shape=record];
  rankdir="RL";
  Node1 [label="irr::scene::ISceneManager\l::addParticleSystemSceneNode",height=0.2,width=0.4,color="black", fillcolor="grey75", style="filled", fontcolor="black",tooltip="Adds a particle system scene node to the scene graph."];
  Node1 -> Node2 [dir="back",color="midnightblue",fontsize="10",style="solid"];
  Node2 [label="Particuls::Particuls",height=0.2,width=0.4,color="black", fillcolor="white", style="filled",URL="$class_particuls.html#a61a8da4061c53f494e379cbdf2bd9175",tooltip=" "];
}
