digraph "StormBlink::onUpdate"
{
 // LATEX_PDF_SIZE
  edge [fontname="Helvetica",fontsize="10",labelfontname="Helvetica",labelfontsize="10"];
  node [fontname="Helvetica",fontsize="10",shape=record];
  rankdir="LR";
  Node1 [label="StormBlink::onUpdate",height=0.2,width=0.4,color="black", fillcolor="grey75", style="filled", fontcolor="black",tooltip=" "];
  Node1 -> Node2 [color="midnightblue",fontsize="10",style="solid"];
  Node2 [label="sf::Shader::setUniform",height=0.2,width=0.4,color="black", fillcolor="white", style="filled",URL="$classsf_1_1_shader.html#abf78e3bea1e9b0bab850b6b0a0de29c7",tooltip="Specify value for float uniform."];
}
