digraph "irr::scene::ISceneManager::addOctreeSceneNode"
{
 // LATEX_PDF_SIZE
  edge [fontname="Helvetica",fontsize="10",labelfontname="Helvetica",labelfontsize="10"];
  node [fontname="Helvetica",fontsize="10",shape=record];
  rankdir="RL";
  Node1 [label="irr::scene::ISceneManager\l::addOctreeSceneNode",height=0.2,width=0.4,color="black", fillcolor="grey75", style="filled", fontcolor="black",tooltip="Adds a scene node for rendering using a octree to the scene graph."];
  Node1 -> Node2 [dir="back",color="midnightblue",fontsize="10",style="solid"];
  Node2 [label="irr::scene::ISceneManager\l::addOctTreeSceneNode",height=0.2,width=0.4,color="black", fillcolor="white", style="filled",URL="$classirr_1_1scene_1_1_i_scene_manager.html#ad976720f7b110b47374e129b29e4e572",tooltip="Adds a scene node for rendering using a octree to the scene graph."];
}
