digraph "irr::core::map::getIterator"
{
 // LATEX_PDF_SIZE
  edge [fontname="Helvetica",fontsize="10",labelfontname="Helvetica",labelfontsize="10"];
  node [fontname="Helvetica",fontsize="10",shape=record];
  rankdir="LR";
  Node1 [label="irr::core::map::getIterator",height=0.2,width=0.4,color="black", fillcolor="grey75", style="filled", fontcolor="black",tooltip="Returns an iterator."];
  Node1 -> Node2 [color="midnightblue",fontsize="10",style="solid"];
  Node2 [label="irr::core::map::getRoot",height=0.2,width=0.4,color="black", fillcolor="white", style="filled",URL="$classirr_1_1core_1_1map.html#a6666acf9724e2e20cd338a6a5ff66c65",tooltip=" "];
}
