digraph "irr::scene::IIndexBuffer::getChangedID"
{
 // LATEX_PDF_SIZE
  edge [fontname="Helvetica",fontsize="10",labelfontname="Helvetica",labelfontsize="10"];
  node [fontname="Helvetica",fontsize="10",shape=record];
  rankdir="RL";
  Node1 [label="irr::scene::IIndexBuffer\l::getChangedID",height=0.2,width=0.4,color="black", fillcolor="grey75", style="filled", fontcolor="black",tooltip="Get the currently used ID for identification of changes."];
  Node1 -> Node2 [dir="back",color="midnightblue",fontsize="10",style="solid"];
  Node2 [label="irr::scene::IDynamicMesh\lBuffer::getChangedID_Index",height=0.2,width=0.4,color="black", fillcolor="white", style="filled",URL="$classirr_1_1scene_1_1_i_dynamic_mesh_buffer.html#a2514a3d0e4865b7b9714fe1f9f58ad51",tooltip="Get the currently used ID for identification of changes."];
}
