digraph "irr::gui::IGUIElement::getAbsolutePosition"
{
 // LATEX_PDF_SIZE
  edge [fontname="Helvetica",fontsize="10",labelfontname="Helvetica",labelfontsize="10"];
  node [fontname="Helvetica",fontsize="10",shape=record];
  rankdir="RL";
  Node1 [label="irr::gui::IGUIElement\l::getAbsolutePosition",height=0.2,width=0.4,color="black", fillcolor="grey75", style="filled", fontcolor="black",tooltip="Gets the absolute rectangle of this element."];
  Node1 -> Node2 [dir="back",color="midnightblue",fontsize="10",style="solid"];
  Node2 [label="irr::gui::IGUIElement\l::addChildToEnd",height=0.2,width=0.4,color="black", fillcolor="white", style="filled",URL="$classirr_1_1gui_1_1_i_g_u_i_element.html#abbd5e7871db1672233bd47ea4ad1f305",tooltip=" "];
  Node2 -> Node3 [dir="back",color="midnightblue",fontsize="10",style="solid"];
  Node3 [label="irr::gui::IGUIElement\l::addChild",height=0.2,width=0.4,color="black", fillcolor="white", style="filled",URL="$classirr_1_1gui_1_1_i_g_u_i_element.html#a221c8505217aa9c23c621627a0435554",tooltip="Adds a GUI element as new child of this element."];
  Node2 -> Node4 [dir="back",color="midnightblue",fontsize="10",style="solid"];
  Node4 [label="irr::gui::IGUIElement\l::IGUIElement",height=0.2,width=0.4,color="black", fillcolor="white", style="filled",URL="$classirr_1_1gui_1_1_i_g_u_i_element.html#a540fb9b2617696ef421d5510b4d96fea",tooltip="Constructor."];
  Node1 -> Node5 [dir="back",color="midnightblue",fontsize="10",style="solid"];
  Node5 [label="irr::gui::IGUIElement\l::setAlignment",height=0.2,width=0.4,color="black", fillcolor="white", style="filled",URL="$classirr_1_1gui_1_1_i_g_u_i_element.html#a1eb3d7ec13ebbf8c73859810088f666b",tooltip="The alignment defines how the borders of this element will be positioned when the parent element is r..."];
  Node5 -> Node6 [dir="back",color="midnightblue",fontsize="10",style="solid"];
  Node6 [label="irr::gui::IGUIElement\l::deserializeAttributes",height=0.2,width=0.4,color="black", fillcolor="white", style="filled",URL="$classirr_1_1gui_1_1_i_g_u_i_element.html#af71b96163b8d95816cd9c80fbf413b4d",tooltip="Reads attributes of the scene node."];
  Node1 -> Node7 [dir="back",color="midnightblue",fontsize="10",style="solid"];
  Node7 [label="irr::gui::IGUIElement\l::setRelativePosition",height=0.2,width=0.4,color="black", fillcolor="white", style="filled",URL="$classirr_1_1gui_1_1_i_g_u_i_element.html#a0e5bb2d0a2e88e30d3697652f8dd7034",tooltip="Sets the relative rectangle of this element."];
  Node7 -> Node6 [dir="back",color="midnightblue",fontsize="10",style="solid"];
  Node7 -> Node8 [dir="back",color="midnightblue",fontsize="10",style="solid"];
  Node8 [label="irr::gui::IGUIElement\l::move",height=0.2,width=0.4,color="black", fillcolor="white", style="filled",URL="$classirr_1_1gui_1_1_i_g_u_i_element.html#a842eeacfcb26865416b084593a774704",tooltip="Moves this element."];
  Node7 -> Node9 [dir="back",color="midnightblue",fontsize="10",style="solid"];
  Node9 [label="irr::gui::IGUIElement\l::setRelativePosition",height=0.2,width=0.4,color="black", fillcolor="white", style="filled",URL="$classirr_1_1gui_1_1_i_g_u_i_element.html#aba1cfc75daa28e53a021faa2d954b79b",tooltip="Sets the relative rectangle of this element, maintaining its current width and height."];
  Node1 -> Node10 [dir="back",color="midnightblue",fontsize="10",style="solid"];
  Node10 [label="irr::gui::IGUIElement\l::setRelativePositionProportional",height=0.2,width=0.4,color="black", fillcolor="white", style="filled",URL="$classirr_1_1gui_1_1_i_g_u_i_element.html#aa67e02ab54db1068e7c057721d2f24a5",tooltip="Sets the relative rectangle of this element as a proportion of its parent's area."];
}
