digraph "irr::gui::IGUIElement::deserializeAttributes"
{
 // LATEX_PDF_SIZE
  edge [fontname="Helvetica",fontsize="10",labelfontname="Helvetica",labelfontsize="10"];
  node [fontname="Helvetica",fontsize="10",shape=record];
  rankdir="LR";
  Node1 [label="irr::gui::IGUIElement\l::deserializeAttributes",height=0.2,width=0.4,color="black", fillcolor="grey75", style="filled", fontcolor="black",tooltip="Reads attributes of the scene node."];
  Node1 -> Node2 [color="midnightblue",fontsize="10",style="solid"];
  Node2 [label="irr::core::string::\lc_str",height=0.2,width=0.4,color="black", fillcolor="white", style="filled",URL="$classirr_1_1core_1_1string.html#a922e20cf1319744a2aebb58c5f967d00",tooltip="Returns character string."];
  Node1 -> Node3 [color="midnightblue",fontsize="10",style="solid"];
  Node3 [label="irr::io::IAttributes\l::getAttributeAsBool",height=0.2,width=0.4,color="black", fillcolor="white", style="filled",URL="$classirr_1_1io_1_1_i_attributes.html#a197407f5b0f1d0c1aefab3e1b8d7c02d",tooltip=" "];
  Node1 -> Node4 [color="midnightblue",fontsize="10",style="solid"];
  Node4 [label="irr::io::IAttributes\l::getAttributeAsEnumeration",height=0.2,width=0.4,color="black", fillcolor="white", style="filled",URL="$classirr_1_1io_1_1_i_attributes.html#a2a204c332735a0b15fa555ae6e785214",tooltip=" "];
  Node1 -> Node5 [color="midnightblue",fontsize="10",style="solid"];
  Node5 [label="irr::io::IAttributes\l::getAttributeAsInt",height=0.2,width=0.4,color="black", fillcolor="white", style="filled",URL="$classirr_1_1io_1_1_i_attributes.html#ac6c51254c9d43cb58cb89866cdd210ed",tooltip=" "];
  Node1 -> Node6 [color="midnightblue",fontsize="10",style="solid"];
  Node6 [label="irr::io::IAttributes\l::getAttributeAsPosition2d",height=0.2,width=0.4,color="black", fillcolor="white", style="filled",URL="$classirr_1_1io_1_1_i_attributes.html#abedde01b678c482be20735e4d730942f",tooltip=" "];
  Node1 -> Node7 [color="midnightblue",fontsize="10",style="solid"];
  Node7 [label="irr::io::IAttributes\l::getAttributeAsRect",height=0.2,width=0.4,color="black", fillcolor="white", style="filled",URL="$classirr_1_1io_1_1_i_attributes.html#ac2d077105e2e7c263ea181f67a005cc2",tooltip=" "];
  Node1 -> Node8 [color="midnightblue",fontsize="10",style="solid"];
  Node8 [label="irr::io::IAttributes\l::getAttributeAsString",height=0.2,width=0.4,color="black", fillcolor="white", style="filled",URL="$classirr_1_1io_1_1_i_attributes.html#a60f395fd008a70cc0531fa038c81f0ea",tooltip=" "];
  Node1 -> Node9 [color="midnightblue",fontsize="10",style="solid"];
  Node9 [label="irr::io::IAttributes\l::getAttributeAsStringW",height=0.2,width=0.4,color="black", fillcolor="white", style="filled",URL="$classirr_1_1io_1_1_i_attributes.html#a874219751c3a52d781cdfa372cd8bcf5",tooltip=" "];
  Node1 -> Node10 [color="midnightblue",fontsize="10",style="solid"];
  Node10 [label="irr::gui::IGUIElement\l::setAlignment",height=0.2,width=0.4,color="black", fillcolor="white", style="filled",URL="$classirr_1_1gui_1_1_i_g_u_i_element.html#a1eb3d7ec13ebbf8c73859810088f666b",tooltip="The alignment defines how the borders of this element will be positioned when the parent element is r..."];
  Node10 -> Node11 [color="midnightblue",fontsize="10",style="solid"];
  Node11 [label="irr::gui::IGUIElement\l::getAbsolutePosition",height=0.2,width=0.4,color="black", fillcolor="white", style="filled",URL="$classirr_1_1gui_1_1_i_g_u_i_element.html#a6c5b94dd889533a306a03e25d0998bdf",tooltip="Gets the absolute rectangle of this element."];
  Node10 -> Node12 [color="midnightblue",fontsize="10",style="solid"];
  Node12 [label="irr::core::rect::getSize",height=0.2,width=0.4,color="black", fillcolor="white", style="filled",URL="$classirr_1_1core_1_1rect.html#aa5e0bf0e6474c1603c735a63843833fa",tooltip="Get the dimensions of the rectangle."];
  Node10 -> Node13 [color="midnightblue",fontsize="10",style="solid"];
  Node13 [label="if",height=0.2,width=0.4,color="black", fillcolor="white", style="filled",URL="$_c_make_lists_8txt.html#a5589d4da876cf5a1feb70e7368b73309",tooltip=" "];
  Node1 -> Node14 [color="midnightblue",fontsize="10",style="solid"];
  Node14 [label="irr::gui::IGUIElement\l::setEnabled",height=0.2,width=0.4,color="black", fillcolor="white", style="filled",URL="$classirr_1_1gui_1_1_i_g_u_i_element.html#a2e3fd4a5f1ae52296f98cf36fdcffd1b",tooltip="Sets the enabled state of this element."];
  Node1 -> Node15 [color="midnightblue",fontsize="10",style="solid"];
  Node15 [label="irr::gui::IGUIElement\l::setID",height=0.2,width=0.4,color="black", fillcolor="white", style="filled",URL="$classirr_1_1gui_1_1_i_g_u_i_element.html#a55bad0e14306765e1fb734c56b729ba4",tooltip="Sets the id of this element."];
  Node1 -> Node16 [color="midnightblue",fontsize="10",style="solid"];
  Node16 [label="irr::gui::IGUIElement\l::setMaxSize",height=0.2,width=0.4,color="black", fillcolor="white", style="filled",URL="$classirr_1_1gui_1_1_i_g_u_i_element.html#ae80ad7253fb9fb2ebbeda2a8148fff3e",tooltip="Sets the maximum size allowed for this element."];
  Node16 -> Node17 [color="midnightblue",fontsize="10",style="solid"];
  Node17 [label="irr::gui::IGUIElement\l::updateAbsolutePosition",height=0.2,width=0.4,color="black", fillcolor="white", style="filled",URL="$classirr_1_1gui_1_1_i_g_u_i_element.html#ad58bbeba69a118873a5075d86b4c90f2",tooltip="Updates the absolute position."];
  Node17 -> Node18 [color="midnightblue",fontsize="10",style="solid"];
  Node18 [label="irr::gui::IGUIElement\l::recalculateAbsolutePosition",height=0.2,width=0.4,color="black", fillcolor="white", style="filled",URL="$classirr_1_1gui_1_1_i_g_u_i_element.html#a436d80ee161086389d7f3537ca062e4a",tooltip=" "];
  Node18 -> Node19 [color="midnightblue",fontsize="10",style="solid"];
  Node19 [label="irr::core::rect::clipAgainst",height=0.2,width=0.4,color="black", fillcolor="white", style="filled",URL="$classirr_1_1core_1_1rect.html#a86645d45a8bed1a3539bba9865e93de4",tooltip="Clips this rectangle with another one."];
  Node18 -> Node20 [color="midnightblue",fontsize="10",style="solid"];
  Node20 [label="irr::core::rect::getHeight",height=0.2,width=0.4,color="black", fillcolor="white", style="filled",URL="$classirr_1_1core_1_1rect.html#ad43b325eeb165c553a58f34efb2ee961",tooltip="Get height of rectangle."];
  Node18 -> Node21 [color="midnightblue",fontsize="10",style="solid"];
  Node21 [label="irr::core::rect::getWidth",height=0.2,width=0.4,color="black", fillcolor="white", style="filled",URL="$classirr_1_1core_1_1rect.html#ad5dcae186b85b938d42b59c91bfeb9a5",tooltip="Get width of rectangle."];
  Node18 -> Node22 [color="midnightblue",fontsize="10",style="solid"];
  Node22 [label="irr::core::rect::repair",height=0.2,width=0.4,color="black", fillcolor="white", style="filled",URL="$classirr_1_1core_1_1rect.html#a45c7665e74aed626bb5c01729f206775",tooltip="If the lower right corner of the rect is smaller then the upper left, the points are swapped."];
  Node18 -> Node23 [color="midnightblue",fontsize="10",style="solid"];
  Node23 [label="irr::core::round32",height=0.2,width=0.4,color="black", fillcolor="white", style="filled",URL="$namespaceirr_1_1core.html#ae46f57f03e9033c57c180fbe83b04cf2",tooltip=" "];
  Node23 -> Node24 [color="midnightblue",fontsize="10",style="solid"];
  Node24 [label="irr::core::round_",height=0.2,width=0.4,color="black", fillcolor="white", style="filled",URL="$namespaceirr_1_1core.html#a894a901069c34298987761c5f3d74f1f",tooltip=" "];
  Node1 -> Node25 [color="midnightblue",fontsize="10",style="solid"];
  Node25 [label="irr::gui::IGUIElement\l::setMinSize",height=0.2,width=0.4,color="black", fillcolor="white", style="filled",URL="$classirr_1_1gui_1_1_i_g_u_i_element.html#ae1ddcdd58af93fea900bd6295d4d8e61",tooltip="Sets the minimum size allowed for this element."];
  Node25 -> Node17 [color="midnightblue",fontsize="10",style="solid"];
  Node1 -> Node26 [color="midnightblue",fontsize="10",style="solid"];
  Node26 [label="irr::gui::IGUIElement\l::setName",height=0.2,width=0.4,color="black", fillcolor="white", style="filled",URL="$classirr_1_1gui_1_1_i_g_u_i_element.html#a47ce14d1a973137b6cbe91a047df2ebe",tooltip="Sets the name of the element."];
  Node1 -> Node27 [color="midnightblue",fontsize="10",style="solid"];
  Node27 [label="irr::gui::IGUIElement\l::setNotClipped",height=0.2,width=0.4,color="black", fillcolor="white", style="filled",URL="$classirr_1_1gui_1_1_i_g_u_i_element.html#a814d322989acafa74c895e5c13908b86",tooltip="Sets whether the element will ignore its parent's clipping rectangle."];
  Node27 -> Node17 [color="midnightblue",fontsize="10",style="solid"];
  Node1 -> Node28 [color="midnightblue",fontsize="10",style="solid"];
  Node28 [label="irr::gui::IGUIElement\l::setRelativePosition",height=0.2,width=0.4,color="black", fillcolor="white", style="filled",URL="$classirr_1_1gui_1_1_i_g_u_i_element.html#a0e5bb2d0a2e88e30d3697652f8dd7034",tooltip="Sets the relative rectangle of this element."];
  Node28 -> Node11 [color="midnightblue",fontsize="10",style="solid"];
  Node28 -> Node12 [color="midnightblue",fontsize="10",style="solid"];
  Node28 -> Node13 [color="midnightblue",fontsize="10",style="solid"];
  Node28 -> Node17 [color="midnightblue",fontsize="10",style="solid"];
  Node1 -> Node29 [color="midnightblue",fontsize="10",style="solid"];
  Node29 [label="irr::gui::IGUIElement\l::setText",height=0.2,width=0.4,color="black", fillcolor="white", style="filled",URL="$classirr_1_1gui_1_1_i_g_u_i_element.html#a8f864c26d4b2ee3551c53d3ebf870656",tooltip="Sets the new caption of this element."];
  Node1 -> Node30 [color="midnightblue",fontsize="10",style="solid"];
  Node30 [label="irr::gui::IGUIElement\l::setVisible",height=0.2,width=0.4,color="black", fillcolor="white", style="filled",URL="$classirr_1_1gui_1_1_i_g_u_i_element.html#aed537cb0b16c670b8f895179f0027bad",tooltip="Sets the visible state of this element."];
}
