digraph "irr::scene::IGeometryCreator::createHillPlaneMesh"
{
 // LATEX_PDF_SIZE
  edge [fontname="Helvetica",fontsize="10",labelfontname="Helvetica",labelfontsize="10"];
  node [fontname="Helvetica",fontsize="10",shape=record];
  rankdir="RL";
  Node1 [label="irr::scene::IGeometryCreator\l::createHillPlaneMesh",height=0.2,width=0.4,color="black", fillcolor="grey75", style="filled", fontcolor="black",tooltip="Create a pseudo-random mesh representing a hilly terrain."];
  Node1 -> Node2 [dir="back",color="midnightblue",fontsize="10",style="solid"];
  Node2 [label="irr::scene::IGeometryCreator\l::createPlaneMesh",height=0.2,width=0.4,color="black", fillcolor="white", style="filled",URL="$classirr_1_1scene_1_1_i_geometry_creator.html#ad584dd294e44104452c4418d70223381",tooltip="Create a simple rectangular textured plane mesh."];
}
