digraph "indie::Entity"
{
 // LATEX_PDF_SIZE
  edge [fontname="Helvetica",fontsize="10",labelfontname="Helvetica",labelfontsize="10"];
  node [fontname="Helvetica",fontsize="10",shape=record];
  Node1 [label="indie::Entity",height=0.2,width=0.4,color="black", fillcolor="grey75", style="filled", fontcolor="black",tooltip=" "];
  Node2 -> Node1 [dir="back",color="darkorchid3",fontsize="10",style="dashed",label=" _id" ];
  Node2 [label="ID",height=0.2,width=0.4,color="black", fillcolor="white", style="filled",URL="$class_i_d.html",tooltip=" "];
}
