digraph "irr::core::vector2d::getInterpolated"
{
 // LATEX_PDF_SIZE
  edge [fontname="Helvetica",fontsize="10",labelfontname="Helvetica",labelfontsize="10"];
  node [fontname="Helvetica",fontsize="10",shape=record];
  rankdir="RL";
  Node1 [label="irr::core::vector2d\l::getInterpolated",height=0.2,width=0.4,color="black", fillcolor="grey75", style="filled", fontcolor="black",tooltip="Creates an interpolated vector between this vector and another vector."];
  Node1 -> Node2 [dir="back",color="midnightblue",fontsize="10",style="solid"];
  Node2 [label="irr::video::S3DVertex\l::getInterpolated",height=0.2,width=0.4,color="black", fillcolor="white", style="filled",URL="$structirr_1_1video_1_1_s3_d_vertex.html#aff56b2ace8f6c07acdd9b485d51e19b7",tooltip=" "];
  Node1 -> Node3 [dir="back",color="midnightblue",fontsize="10",style="solid"];
  Node3 [label="irr::video::S3DVertex2TCoords\l::getInterpolated",height=0.2,width=0.4,color="black", fillcolor="white", style="filled",URL="$structirr_1_1video_1_1_s3_d_vertex2_t_coords.html#a0d637a26b92358b85639a2d1079d1aa7",tooltip=" "];
  Node1 -> Node4 [dir="back",color="midnightblue",fontsize="10",style="solid"];
  Node4 [label="irr::video::S3DVertexTangents\l::getInterpolated",height=0.2,width=0.4,color="black", fillcolor="white", style="filled",URL="$structirr_1_1video_1_1_s3_d_vertex_tangents.html#ac2b549c2bb1a13939789100411a1d3e6",tooltip=" "];
}
