digraph "irr::video::IVideoDriver::createImageFromData"
{
 // LATEX_PDF_SIZE
  edge [fontname="Helvetica",fontsize="10",labelfontname="Helvetica",labelfontsize="10"];
  node [fontname="Helvetica",fontsize="10",shape=record];
  rankdir="RL";
  Node1 [label="irr::video::IVideoDriver\l::createImageFromData",height=0.2,width=0.4,color="black", fillcolor="grey75", style="filled", fontcolor="black",tooltip="Creates a software image from a byte array."];
  Node1 -> Node2 [dir="back",color="midnightblue",fontsize="10",style="solid"];
  Node2 [label="irr::scene::quake3\l::getTextures",height=0.2,width=0.4,color="black", fillcolor="white", style="filled",URL="$namespaceirr_1_1scene_1_1quake3.html#a8ac9dc32a1de82eda41cc3fd5297c152",tooltip=" "];
}
