digraph "irr::core::irrAllocator::destruct"
{
 // LATEX_PDF_SIZE
  edge [fontname="Helvetica",fontsize="10",labelfontname="Helvetica",labelfontsize="10"];
  node [fontname="Helvetica",fontsize="10",shape=record];
  rankdir="RL";
  Node1 [label="irr::core::irrAllocator\l::destruct",height=0.2,width=0.4,color="black", fillcolor="grey75", style="filled", fontcolor="black",tooltip="Destruct an element."];
  Node1 -> Node2 [dir="back",color="midnightblue",fontsize="10",style="solid"];
  Node2 [label="irr::core::list\< irr\l::scene::ISceneNode *\l \>::clear",height=0.2,width=0.4,color="black", fillcolor="white", style="filled",URL="$classirr_1_1core_1_1list.html#aad18996ed41454bf7bb8e1d3199f4e73",tooltip="Clears the list, deletes all elements in the list."];
  Node1 -> Node3 [dir="back",color="midnightblue",fontsize="10",style="solid"];
  Node3 [label="irr::core::list\< irr\l::scene::ISceneNode *\l \>::erase",height=0.2,width=0.4,color="black", fillcolor="white", style="filled",URL="$classirr_1_1core_1_1list.html#a407935fc79a35ce7caa19e4f6ce25c3f",tooltip="Erases an element."];
}
