digraph "irr::core::vector2d::getAngleWith"
{
 // LATEX_PDF_SIZE
  edge [fontname="Helvetica",fontsize="10",labelfontname="Helvetica",labelfontsize="10"];
  node [fontname="Helvetica",fontsize="10",shape=record];
  rankdir="RL";
  Node1 [label="irr::core::vector2d\l::getAngleWith",height=0.2,width=0.4,color="black", fillcolor="grey75", style="filled", fontcolor="black",tooltip="Calculates the angle between this vector and another one in degree."];
  Node1 -> Node2 [dir="back",color="midnightblue",fontsize="10",style="solid"];
  Node2 [label="irr::core::line2d::\lgetAngleWith",height=0.2,width=0.4,color="black", fillcolor="white", style="filled",URL="$classirr_1_1core_1_1line2d.html#a0342a0b17c9318cb1eb1183cb91abaf4",tooltip="Get angle between this line and given line."];
}
