digraph "irr::core::string::replace"
{
 // LATEX_PDF_SIZE
  edge [fontname="Helvetica",fontsize="10",labelfontname="Helvetica",labelfontsize="10"];
  node [fontname="Helvetica",fontsize="10",shape=record];
  rankdir="RL";
  Node1 [label="irr::core::string::\lreplace",height=0.2,width=0.4,color="black", fillcolor="grey75", style="filled", fontcolor="black",tooltip="Replaces all characters of a special type with another one."];
  Node1 -> Node2 [dir="back",color="midnightblue",fontsize="10",style="solid"];
  Node2 [label="irr::io::SNamedPath\l::PathToName",height=0.2,width=0.4,color="black", fillcolor="white", style="filled",URL="$structirr_1_1io_1_1_s_named_path.html#a8717217ce69ab3d7f83ddb851016f9e0",tooltip=" "];
  Node2 -> Node3 [dir="back",color="midnightblue",fontsize="10",style="solid"];
  Node3 [label="irr::io::SNamedPath\l::setPath",height=0.2,width=0.4,color="black", fillcolor="white", style="filled",URL="$structirr_1_1io_1_1_s_named_path.html#a2c802b7579938e06bd858d5edade3d72",tooltip="Set the path."];
  Node1 -> Node4 [dir="back",color="midnightblue",fontsize="10",style="solid"];
  Node4 [label="irr::core::string\<\l fschar_t \>::replace",height=0.2,width=0.4,color="black", fillcolor="white", style="filled",URL="$classirr_1_1core_1_1string.html#a3c61ab1df9457e703893c02c52b6bca0",tooltip="Replaces all instances of a string with another one."];
}
