digraph "irr::scene::SVertexColorInvertManipulator"
{
 // LATEX_PDF_SIZE
  edge [fontname="Helvetica",fontsize="10",labelfontname="Helvetica",labelfontsize="10"];
  node [fontname="Helvetica",fontsize="10",shape=record];
  Node1 [label="irr::scene::SVertexColor\lInvertManipulator",height=0.2,width=0.4,color="black", fillcolor="grey75", style="filled", fontcolor="black",tooltip="Vertex manipulator which invertes the RGB values."];
  Node2 -> Node1 [dir="back",color="midnightblue",fontsize="10",style="solid"];
  Node2 [label="irr::scene::IVertexManipulator",height=0.2,width=0.4,color="black", fillcolor="white", style="filled",URL="$structirr_1_1scene_1_1_i_vertex_manipulator.html",tooltip="Interface for vertex manipulators."];
}
