digraph "irr::scene::IDynamicMeshBuffer::getTCoords"
{
 // LATEX_PDF_SIZE
  edge [fontname="Helvetica",fontsize="10",labelfontname="Helvetica",labelfontsize="10"];
  node [fontname="Helvetica",fontsize="10",shape=record];
  rankdir="LR";
  Node1 [label="irr::scene::IDynamicMesh\lBuffer::getTCoords",height=0.2,width=0.4,color="black", fillcolor="grey75", style="filled", fontcolor="black",tooltip="returns texture coords of vertex i"];
  Node1 -> Node2 [color="midnightblue",fontsize="10",style="solid"];
  Node2 [label="irr::scene::IDynamicMesh\lBuffer::getVertexBuffer",height=0.2,width=0.4,color="black", fillcolor="white", style="filled",URL="$classirr_1_1scene_1_1_i_dynamic_mesh_buffer.html#ac7d6a561f71e8045b5dcf7d6e148c852",tooltip=" "];
}
