digraph "irr::gui::IGUIElement::isEnabled"
{
 // LATEX_PDF_SIZE
  edge [fontname="Helvetica",fontsize="10",labelfontname="Helvetica",labelfontsize="10"];
  node [fontname="Helvetica",fontsize="10",shape=record];
  rankdir="LR";
  Node1 [label="irr::gui::IGUIElement\l::isEnabled",height=0.2,width=0.4,color="black", fillcolor="grey75", style="filled", fontcolor="black",tooltip="Returns true if element is enabled."];
  Node1 -> Node2 [color="midnightblue",fontsize="10",style="solid"];
  Node2 [label="irr::gui::IGUIElement\l::getParent",height=0.2,width=0.4,color="black", fillcolor="white", style="filled",URL="$classirr_1_1gui_1_1_i_g_u_i_element.html#ab3eacf3540cb5b020f3c4a24c6a67473",tooltip="Returns parent of this element."];
  Node1 -> Node1 [color="midnightblue",fontsize="10",style="solid"];
  Node1 -> Node3 [color="midnightblue",fontsize="10",style="solid"];
  Node3 [label="irr::gui::IGUIElement\l::isSubElement",height=0.2,width=0.4,color="black", fillcolor="white", style="filled",URL="$classirr_1_1gui_1_1_i_g_u_i_element.html#aa85661a9ebba0f46d6e7c7e0da92f4cd",tooltip="Returns true if this element was created as part of its parent control."];
}
