digraph "ID::generate"
{
 // LATEX_PDF_SIZE
  edge [fontname="Helvetica",fontsize="10",labelfontname="Helvetica",labelfontsize="10"];
  node [fontname="Helvetica",fontsize="10",shape=record];
  rankdir="LR";
  Node1 [label="ID::generate",height=0.2,width=0.4,color="black", fillcolor="grey75", style="filled", fontcolor="black",tooltip=" "];
  Node1 -> Node2 [color="midnightblue",fontsize="10",style="solid"];
  Node2 [label="ID::ID",height=0.2,width=0.4,color="black", fillcolor="white", style="filled",URL="$class_i_d.html#aa2e4cc0b4fe139ee001bee463916b2d3",tooltip=" "];
}
