digraph "sf::SoundStream"
{
 // LATEX_PDF_SIZE
  edge [fontname="Helvetica",fontsize="10",labelfontname="Helvetica",labelfontsize="10"];
  node [fontname="Helvetica",fontsize="10",shape=record];
  Node1 [label="sf::SoundStream",height=0.2,width=0.4,color="black", fillcolor="grey75", style="filled", fontcolor="black",tooltip="Abstract base class for streamed audio sources."];
  Node2 -> Node1 [dir="back",color="midnightblue",fontsize="10",style="solid"];
  Node2 [label="sf::SoundSource",height=0.2,width=0.4,color="black", fillcolor="white", style="filled",URL="$classsf_1_1_sound_source.html",tooltip="Base class defining a sound's properties."];
  Node3 -> Node2 [dir="back",color="firebrick4",fontsize="10",style="solid"];
  Node3 [label="sf::AlResource",height=0.2,width=0.4,color="black", fillcolor="white", style="filled",URL="$classsf_1_1_al_resource.html",tooltip="Base class for classes that require an OpenAL context."];
  Node1 -> Node4 [dir="back",color="midnightblue",fontsize="10",style="solid"];
  Node4 [label="NetworkAudioStream",height=0.2,width=0.4,color="black", fillcolor="white", style="filled",URL="$class_network_audio_stream.html",tooltip=" "];
  Node1 -> Node5 [dir="back",color="midnightblue",fontsize="10",style="solid"];
  Node5 [label="sf::Music",height=0.2,width=0.4,color="black", fillcolor="white", style="filled",URL="$classsf_1_1_music.html",tooltip="Streamed music played from an audio file."];
}
