digraph "NetworkAudioStream::NetworkAudioStream"
{
 // LATEX_PDF_SIZE
  edge [fontname="Helvetica",fontsize="10",labelfontname="Helvetica",labelfontsize="10"];
  node [fontname="Helvetica",fontsize="10",shape=record];
  rankdir="LR";
  Node1 [label="NetworkAudioStream\l::NetworkAudioStream",height=0.2,width=0.4,color="black", fillcolor="grey75", style="filled", fontcolor="black",tooltip=" "];
  Node1 -> Node2 [color="midnightblue",fontsize="10",style="solid"];
  Node2 [label="sf::SoundStream::initialize",height=0.2,width=0.4,color="black", fillcolor="white", style="filled",URL="$classsf_1_1_sound_stream.html#a9c351711198ee1aa77c2fefd3ced4d2c",tooltip="Define the audio stream parameters."];
}
