digraph "irr::core::quaternion::slerp"
{
 // LATEX_PDF_SIZE
  edge [fontname="Helvetica",fontsize="10",labelfontname="Helvetica",labelfontsize="10"];
  node [fontname="Helvetica",fontsize="10",shape=record];
  rankdir="LR";
  Node1 [label="irr::core::quaternion\l::slerp",height=0.2,width=0.4,color="black", fillcolor="grey75", style="filled", fontcolor="black",tooltip="Set this quaternion to the result of the spherical interpolation between two quaternions."];
  Node1 -> Node2 [color="midnightblue",fontsize="10",style="solid"];
  Node2 [label="irr::core::quaternion\l::dotProduct",height=0.2,width=0.4,color="black", fillcolor="white", style="filled",URL="$classirr_1_1core_1_1quaternion.html#a1815b23fdca2b759f7dc43e10c26439f",tooltip="Calculates the dot product."];
  Node1 -> Node3 [color="midnightblue",fontsize="10",style="solid"];
  Node3 [label="irr::core::quaternion\l::lerp",height=0.2,width=0.4,color="black", fillcolor="white", style="filled",URL="$classirr_1_1core_1_1quaternion.html#a75b5cb2d26397f07399e79ea20f1aff1",tooltip="Set this quaternion to the linear interpolation between two quaternions."];
  Node1 -> Node4 [color="midnightblue",fontsize="10",style="solid"];
  Node4 [label="irr::core::reciprocal",height=0.2,width=0.4,color="black", fillcolor="white", style="filled",URL="$namespaceirr_1_1core.html#aa01390f49052dfe07e16ee6c5233f4eb",tooltip=" "];
}
