digraph "indie::Render::Render"
{
 // LATEX_PDF_SIZE
  edge [fontname="Helvetica",fontsize="10",labelfontname="Helvetica",labelfontsize="10"];
  node [fontname="Helvetica",fontsize="10",shape=record];
  rankdir="LR";
  Node1 [label="indie::Render::Render",height=0.2,width=0.4,color="black", fillcolor="grey75", style="filled", fontcolor="black",tooltip=" "];
  Node1 -> Node2 [color="midnightblue",fontsize="10",style="solid"];
  Node2 [label="indie::Render::createCamera",height=0.2,width=0.4,color="black", fillcolor="white", style="filled",URL="$classindie_1_1_render.html#a919ebd708d9596f85a46f70e5040573c",tooltip=" "];
  Node1 -> Node3 [color="midnightblue",fontsize="10",style="solid"];
  Node3 [label="irr::createDevice",height=0.2,width=0.4,color="black", fillcolor="white", style="filled",URL="$namespaceirr.html#abaf4d8719cc26b0d30813abf85e47c76",tooltip="Creates an Irrlicht device. The Irrlicht device is the root object for using the engine."];
  Node1 -> Node4 [color="midnightblue",fontsize="10",style="solid"];
  Node4 [label="irr::IrrlichtDevice\l::getCursorControl",height=0.2,width=0.4,color="black", fillcolor="white", style="filled",URL="$classirr_1_1_irrlicht_device.html#a500a3b7bf69487ff7e2075dd0b0db529",tooltip="Provides access to the cursor control."];
  Node1 -> Node5 [color="midnightblue",fontsize="10",style="solid"];
  Node5 [label="irr::IrrlichtDevice\l::getSceneManager",height=0.2,width=0.4,color="black", fillcolor="white", style="filled",URL="$classirr_1_1_irrlicht_device.html#a891b503ff4d5041296d88f23f97d7b3d",tooltip="Provides access to the scene manager."];
  Node1 -> Node6 [color="midnightblue",fontsize="10",style="solid"];
  Node6 [label="irr::video::IVideoDriver\l::getTexture",height=0.2,width=0.4,color="black", fillcolor="white", style="filled",URL="$classirr_1_1video_1_1_i_video_driver.html#af4055165190e4adf221c6dc6f2434ea0",tooltip="Get access to a named texture."];
  Node1 -> Node7 [color="midnightblue",fontsize="10",style="solid"];
  Node7 [label="irr::IrrlichtDevice\l::getVideoDriver",height=0.2,width=0.4,color="black", fillcolor="white", style="filled",URL="$classirr_1_1_irrlicht_device.html#ada90707ba5c645d47e000e4e0f87c4c4",tooltip="Provides access to the video driver for drawing 3d and 2d geometry."];
  Node1 -> Node8 [color="midnightblue",fontsize="10",style="solid"];
  Node8 [label="irr::video::IVideoDriver\l::setTextureCreationFlag",height=0.2,width=0.4,color="black", fillcolor="white", style="filled",URL="$classirr_1_1video_1_1_i_video_driver.html#a868b58a6b86b9e4841ca3879ce246c4e",tooltip="Enables or disables a texture creation flag."];
  Node1 -> Node9 [color="midnightblue",fontsize="10",style="solid"];
  Node9 [label="irr::gui::ICursorControl\l::setVisible",height=0.2,width=0.4,color="black", fillcolor="white", style="filled",URL="$classirr_1_1gui_1_1_i_cursor_control.html#aceb41d68494e2b2076fbc6949b254c74",tooltip="Changes the visible state of the mouse cursor."];
}
