digraph "irr::core::map::ParentFirstIterator::reset"
{
 // LATEX_PDF_SIZE
  edge [fontname="Helvetica",fontsize="10",labelfontname="Helvetica",labelfontsize="10"];
  node [fontname="Helvetica",fontsize="10",shape=record];
  rankdir="RL";
  Node1 [label="irr::core::map::ParentFirst\lIterator::reset",height=0.2,width=0.4,color="black", fillcolor="grey75", style="filled", fontcolor="black",tooltip=" "];
  Node1 -> Node2 [dir="back",color="midnightblue",fontsize="10",style="solid"];
  Node2 [label="irr::core::map::ParentFirst\lIterator::ParentFirstIterator",height=0.2,width=0.4,color="black", fillcolor="white", style="filled",URL="$classirr_1_1core_1_1map_1_1_parent_first_iterator.html#a357ac1c340fd19bb14e28a7d168371e1",tooltip=" "];
}
