digraph "irr::scene::IDynamicMeshBuffer::getHardwareMappingHint_Index"
{
 // LATEX_PDF_SIZE
  edge [fontname="Helvetica",fontsize="10",labelfontname="Helvetica",labelfontsize="10"];
  node [fontname="Helvetica",fontsize="10",shape=record];
  rankdir="LR";
  Node1 [label="irr::scene::IDynamicMesh\lBuffer::getHardwareMappingHint_Index",height=0.2,width=0.4,color="black", fillcolor="grey75", style="filled", fontcolor="black",tooltip="get the current hardware mapping hint"];
  Node1 -> Node2 [color="midnightblue",fontsize="10",style="solid"];
  Node2 [label="irr::scene::IIndexBuffer\l::getHardwareMappingHint",height=0.2,width=0.4,color="black", fillcolor="white", style="filled",URL="$classirr_1_1scene_1_1_i_index_buffer.html#a4f4442f283501be5d1d1152381a1f726",tooltip="get the current hardware mapping hint"];
  Node1 -> Node3 [color="midnightblue",fontsize="10",style="solid"];
  Node3 [label="irr::scene::IDynamicMesh\lBuffer::getIndexBuffer",height=0.2,width=0.4,color="black", fillcolor="white", style="filled",URL="$classirr_1_1scene_1_1_i_dynamic_mesh_buffer.html#a69be70f795fc8b56050cde08b3b8a840",tooltip=" "];
}
