digraph "irr::video::SColor::getRed"
{
 // LATEX_PDF_SIZE
  edge [fontname="Helvetica",fontsize="10",labelfontname="Helvetica",labelfontsize="10"];
  node [fontname="Helvetica",fontsize="10",shape=record];
  rankdir="RL";
  Node1 [label="irr::video::SColor\l::getRed",height=0.2,width=0.4,color="black", fillcolor="grey75", style="filled", fontcolor="black",tooltip="Returns the red component of the color."];
  Node1 -> Node2 [dir="back",color="midnightblue",fontsize="10",style="solid"];
  Node2 [label="irr::video::SColor\l::getAverage",height=0.2,width=0.4,color="black", fillcolor="white", style="filled",URL="$classirr_1_1video_1_1_s_color.html#a6a528306d2322e20c93aadc2debbd3d6",tooltip="Get average intensity of the color in the range [0,255]."];
  Node2 -> Node3 [dir="back",color="midnightblue",fontsize="10",style="solid"];
  Node3 [label="irr::scene::SVertexColor\lThresholdManipulator::\loperator()",height=0.2,width=0.4,color="black", fillcolor="white", style="filled",URL="$classirr_1_1scene_1_1_s_vertex_color_threshold_manipulator.html#a656fefc7ed6d0c71e556fbb2986c1674",tooltip=" "];
  Node2 -> Node4 [dir="back",color="midnightblue",fontsize="10",style="solid"];
  Node4 [label="irr::scene::SVertexColor\lDesaturateToAverageManipulator\l::operator()",height=0.2,width=0.4,color="black", fillcolor="white", style="filled",URL="$classirr_1_1scene_1_1_s_vertex_color_desaturate_to_average_manipulator.html#ab421b1e9e5b4b7e4b4cf47c529f136b7",tooltip=" "];
  Node1 -> Node5 [dir="back",color="midnightblue",fontsize="10",style="solid"];
  Node5 [label="irr::video::SColor\l::getData",height=0.2,width=0.4,color="black", fillcolor="white", style="filled",URL="$classirr_1_1video_1_1_s_color.html#a7cba1b914230289de9c91ff28be96bc9",tooltip="Write the color to data in the defined format."];
  Node1 -> Node6 [dir="back",color="midnightblue",fontsize="10",style="solid"];
  Node6 [label="irr::video::SColor\l::getInterpolated",height=0.2,width=0.4,color="black", fillcolor="white", style="filled",URL="$classirr_1_1video_1_1_s_color.html#a20bfa471b5cf672db83355c181a3cae6",tooltip="Interpolates the color with a f32 value to another color."];
  Node6 -> Node7 [dir="back",color="midnightblue",fontsize="10",style="solid"];
  Node7 [label="irr::video::S3DVertex\l::getInterpolated",height=0.2,width=0.4,color="black", fillcolor="white", style="filled",URL="$structirr_1_1video_1_1_s3_d_vertex.html#aff56b2ace8f6c07acdd9b485d51e19b7",tooltip=" "];
  Node6 -> Node8 [dir="back",color="midnightblue",fontsize="10",style="solid"];
  Node8 [label="irr::video::S3DVertex2TCoords\l::getInterpolated",height=0.2,width=0.4,color="black", fillcolor="white", style="filled",URL="$structirr_1_1video_1_1_s3_d_vertex2_t_coords.html#a0d637a26b92358b85639a2d1079d1aa7",tooltip=" "];
  Node6 -> Node9 [dir="back",color="midnightblue",fontsize="10",style="solid"];
  Node9 [label="irr::video::S3DVertexTangents\l::getInterpolated",height=0.2,width=0.4,color="black", fillcolor="white", style="filled",URL="$structirr_1_1video_1_1_s3_d_vertex_tangents.html#ac2b549c2bb1a13939789100411a1d3e6",tooltip=" "];
  Node6 -> Node10 [dir="back",color="midnightblue",fontsize="10",style="solid"];
  Node10 [label="irr::scene::SVertexColor\lInterpolateLinearManipulator\l::operator()",height=0.2,width=0.4,color="black", fillcolor="white", style="filled",URL="$classirr_1_1scene_1_1_s_vertex_color_interpolate_linear_manipulator.html#a20f459ac91fef8ab949382261dbdb8bf",tooltip=" "];
  Node1 -> Node11 [dir="back",color="midnightblue",fontsize="10",style="solid"];
  Node11 [label="irr::video::SColor\l::getInterpolated_quadratic",height=0.2,width=0.4,color="black", fillcolor="white", style="filled",URL="$classirr_1_1video_1_1_s_color.html#addb63c4b8832c9bb01e4861e692e5f4f",tooltip="Returns interpolated color. ( quadratic )"];
  Node11 -> Node12 [dir="back",color="midnightblue",fontsize="10",style="solid"];
  Node12 [label="irr::scene::SVertexColor\lInterpolateQuadraticManipulator\l::operator()",height=0.2,width=0.4,color="black", fillcolor="white", style="filled",URL="$classirr_1_1scene_1_1_s_vertex_color_interpolate_quadratic_manipulator.html#a97f8cb2c2a0b13eb3fd094d7aeaf844c",tooltip=" "];
  Node1 -> Node13 [dir="back",color="midnightblue",fontsize="10",style="solid"];
  Node13 [label="irr::video::SColor\l::getLightness",height=0.2,width=0.4,color="black", fillcolor="white", style="filled",URL="$classirr_1_1video_1_1_s_color.html#aa0896808bbd22740a67f1badbebe1bca",tooltip="Get lightness of the color in the range [0,255]."];
  Node13 -> Node14 [dir="back",color="midnightblue",fontsize="10",style="solid"];
  Node14 [label="irr::scene::SVertexColor\lDesaturateToLightnessManipulator\l::operator()",height=0.2,width=0.4,color="black", fillcolor="white", style="filled",URL="$classirr_1_1scene_1_1_s_vertex_color_desaturate_to_lightness_manipulator.html#ad5b312bce8c7daec2b0340ee13893849",tooltip=" "];
  Node1 -> Node15 [dir="back",color="midnightblue",fontsize="10",style="solid"];
  Node15 [label="irr::video::SColor\l::getLuminance",height=0.2,width=0.4,color="black", fillcolor="white", style="filled",URL="$classirr_1_1video_1_1_s_color.html#a74510809a867a92c18696223e1130887",tooltip="Get luminance of the color in the range [0,255]."];
  Node15 -> Node16 [dir="back",color="midnightblue",fontsize="10",style="solid"];
  Node16 [label="irr::scene::SVertexColor\lDesaturateToLuminanceManipulator\l::operator()",height=0.2,width=0.4,color="black", fillcolor="white", style="filled",URL="$classirr_1_1scene_1_1_s_vertex_color_desaturate_to_luminance_manipulator.html#a583589d3a02441f75c40e53e2541fc56",tooltip=" "];
  Node1 -> Node17 [dir="back",color="midnightblue",fontsize="10",style="solid"];
  Node17 [label="irr::scene::SVertexColor\lInvertManipulator::operator()",height=0.2,width=0.4,color="black", fillcolor="white", style="filled",URL="$classirr_1_1scene_1_1_s_vertex_color_invert_manipulator.html#a021ea717189b31df2c77574fa15abc43",tooltip=" "];
  Node1 -> Node18 [dir="back",color="midnightblue",fontsize="10",style="solid"];
  Node18 [label="irr::scene::SVertexColor\lBrightnessManipulator\l::operator()",height=0.2,width=0.4,color="black", fillcolor="white", style="filled",URL="$classirr_1_1scene_1_1_s_vertex_color_brightness_manipulator.html#a62135721bd3856544c26533b8b0474ed",tooltip=" "];
  Node1 -> Node19 [dir="back",color="midnightblue",fontsize="10",style="solid"];
  Node19 [label="irr::scene::SVertexColor\lContrastManipulator::operator()",height=0.2,width=0.4,color="black", fillcolor="white", style="filled",URL="$classirr_1_1scene_1_1_s_vertex_color_contrast_manipulator.html#a7adeb77e264b6b9b3d9e5b15f4d7ab81",tooltip=" "];
  Node1 -> Node20 [dir="back",color="midnightblue",fontsize="10",style="solid"];
  Node20 [label="irr::scene::SVertexColor\lContrastBrightnessManipulator\l::operator()",height=0.2,width=0.4,color="black", fillcolor="white", style="filled",URL="$classirr_1_1scene_1_1_s_vertex_color_contrast_brightness_manipulator.html#a6cba6dba338abc6da855736085c76ba9",tooltip=" "];
  Node1 -> Node21 [dir="back",color="midnightblue",fontsize="10",style="solid"];
  Node21 [label="irr::scene::SVertexColor\lGammaManipulator::operator()",height=0.2,width=0.4,color="black", fillcolor="white", style="filled",URL="$classirr_1_1scene_1_1_s_vertex_color_gamma_manipulator.html#a49e984066700a72b9873c973e9ded15c",tooltip=" "];
  Node1 -> Node22 [dir="back",color="midnightblue",fontsize="10",style="solid"];
  Node22 [label="irr::scene::SVertexColor\lScaleManipulator::operator()",height=0.2,width=0.4,color="black", fillcolor="white", style="filled",URL="$classirr_1_1scene_1_1_s_vertex_color_scale_manipulator.html#af14234891a4df945f3433f21f9f54f7d",tooltip=" "];
  Node1 -> Node23 [dir="back",color="midnightblue",fontsize="10",style="solid"];
  Node23 [label="irr::video::SColor\l::operator+",height=0.2,width=0.4,color="black", fillcolor="white", style="filled",URL="$classirr_1_1video_1_1_s_color.html#a3de50f1cde7bf3f5b1af79c64cd0cdbd",tooltip="Adds two colors, result is clamped to 0..255 values."];
  Node1 -> Node24 [dir="back",color="midnightblue",fontsize="10",style="solid"];
  Node24 [label="irr::video::SColorf\l::SColorf",height=0.2,width=0.4,color="black", fillcolor="white", style="filled",URL="$classirr_1_1video_1_1_s_colorf.html#a78bdda49d8605203acc99854cc9722b7",tooltip="Constructs a color from 32 bit Color."];
  Node1 -> Node25 [dir="back",color="midnightblue",fontsize="10",style="solid"];
  Node25 [label="irr::video::SColor\l::toOpenGLColor",height=0.2,width=0.4,color="black", fillcolor="white", style="filled",URL="$classirr_1_1video_1_1_s_color.html#a4251509c429bdc125660c59170b50a2e",tooltip="Converts color to OpenGL color format."];
}
