digraph "irr::video::IShaderConstantSetCallBack"
{
 // LATEX_PDF_SIZE
  edge [fontname="Helvetica",fontsize="10",labelfontname="Helvetica",labelfontsize="10"];
  node [fontname="Helvetica",fontsize="10",shape=record];
  Node1 [label="irr::video::IShaderConstant\lSetCallBack",height=0.2,width=0.4,color="black", fillcolor="grey75", style="filled", fontcolor="black",tooltip="Interface making it possible to set constants for gpu programs every frame."];
  Node2 -> Node1 [dir="back",color="midnightblue",fontsize="10",style="solid"];
  Node2 [label="irr::IReferenceCounted",height=0.2,width=0.4,color="black", fillcolor="white", style="filled",URL="$classirr_1_1_i_reference_counted.html",tooltip="Base class of most objects of the Irrlicht Engine."];
}
