digraph "irr::scene::ISceneNode::ISceneNode"
{
 // LATEX_PDF_SIZE
  edge [fontname="Helvetica",fontsize="10",labelfontname="Helvetica",labelfontsize="10"];
  node [fontname="Helvetica",fontsize="10",shape=record];
  rankdir="LR";
  Node1 [label="irr::scene::ISceneNode\l::ISceneNode",height=0.2,width=0.4,color="black", fillcolor="grey75", style="filled", fontcolor="black",tooltip="Constructor."];
  Node1 -> Node2 [color="midnightblue",fontsize="10",style="solid"];
  Node2 [label="irr::scene::ISceneNode\l::addChild",height=0.2,width=0.4,color="black", fillcolor="white", style="filled",URL="$classirr_1_1scene_1_1_i_scene_node.html#acceef4fbb68f6cc7bb40035225350970",tooltip="Adds a child to this scene node."];
  Node2 -> Node3 [color="midnightblue",fontsize="10",style="solid"];
  Node3 [label="irr::IReferenceCounted\l::grab",height=0.2,width=0.4,color="black", fillcolor="white", style="filled",URL="$classirr_1_1_i_reference_counted.html#a396f9cdbe311ada278626477b3c6f0f5",tooltip="Grabs the object. Increments the reference counter by one."];
  Node2 -> Node4 [color="midnightblue",fontsize="10",style="solid"];
  Node4 [label="irr::scene::ISceneNode\l::remove",height=0.2,width=0.4,color="black", fillcolor="white", style="filled",URL="$classirr_1_1scene_1_1_i_scene_node.html#a2efa2670e29d6bb33b0dd99403b8b69c",tooltip="Removes this scene node from the scene."];
  Node4 -> Node5 [color="midnightblue",fontsize="10",style="solid"];
  Node5 [label="irr::scene::ISceneNode\l::removeChild",height=0.2,width=0.4,color="black", fillcolor="white", style="filled",URL="$classirr_1_1scene_1_1_i_scene_node.html#a831e371142fc883c7dd229552e0340de",tooltip="Removes a child from this scene node."];
  Node2 -> Node6 [color="midnightblue",fontsize="10",style="solid"];
  Node6 [label="irr::scene::ISceneNode\l::setSceneManager",height=0.2,width=0.4,color="black", fillcolor="white", style="filled",URL="$classirr_1_1scene_1_1_i_scene_node.html#a513d09ae37f71391d7c4838e29164a3e",tooltip=" "];
  Node1 -> Node7 [color="midnightblue",fontsize="10",style="solid"];
  Node7 [label="irr::scene::ISceneNode\l::updateAbsolutePosition",height=0.2,width=0.4,color="black", fillcolor="white", style="filled",URL="$classirr_1_1scene_1_1_i_scene_node.html#aeb6e0dc034bb2101600ce87acbcf0f6e",tooltip="Updates the absolute position based on the relative and the parents position."];
  Node7 -> Node8 [color="midnightblue",fontsize="10",style="solid"];
  Node8 [label="irr::scene::ISceneNode\l::getAbsoluteTransformation",height=0.2,width=0.4,color="black", fillcolor="white", style="filled",URL="$classirr_1_1scene_1_1_i_scene_node.html#af13dc546a7be796cc0868a2eec51e508",tooltip="Get the absolute transformation of the node. Is recalculated every OnAnimate()-call."];
  Node7 -> Node9 [color="midnightblue",fontsize="10",style="solid"];
  Node9 [label="irr::scene::ISceneNode\l::getRelativeTransformation",height=0.2,width=0.4,color="black", fillcolor="white", style="filled",URL="$classirr_1_1scene_1_1_i_scene_node.html#ac7c47ec49174315af83cf5f5d24edb24",tooltip="Returns the relative transformation of the scene node."];
  Node9 -> Node10 [color="midnightblue",fontsize="10",style="solid"];
  Node10 [label="irr::core::CMatrix4\l::setRotationDegrees",height=0.2,width=0.4,color="black", fillcolor="white", style="filled",URL="$classirr_1_1core_1_1_c_matrix4.html#a8ee5ef8619d4b0f56d72ac84495ed644",tooltip="Make a rotation matrix from Euler angles. The 4th row and column are unmodified."];
  Node9 -> Node11 [color="midnightblue",fontsize="10",style="solid"];
  Node11 [label="irr::core::CMatrix4\l::setScale",height=0.2,width=0.4,color="black", fillcolor="white", style="filled",URL="$classirr_1_1core_1_1_c_matrix4.html#a47117d44419af87e70084c01ab852049",tooltip="Set Scale."];
  Node9 -> Node12 [color="midnightblue",fontsize="10",style="solid"];
  Node12 [label="irr::core::CMatrix4\l::setTranslation",height=0.2,width=0.4,color="black", fillcolor="white", style="filled",URL="$classirr_1_1core_1_1_c_matrix4.html#ac04a3b341cbfbb7986be682691655622",tooltip="Set the translation of the current matrix. Will erase any previous values."];
}
