digraph "sf::SoundRecorder::start"
{
 // LATEX_PDF_SIZE
  edge [fontname="Helvetica",fontsize="10",labelfontname="Helvetica",labelfontsize="10"];
  node [fontname="Helvetica",fontsize="10",shape=record];
  rankdir="RL";
  Node1 [label="sf::SoundRecorder::\lstart",height=0.2,width=0.4,color="black", fillcolor="grey75", style="filled", fontcolor="black",tooltip="Start the capture."];
  Node1 -> Node2 [dir="back",color="midnightblue",fontsize="10",style="solid"];
  Node2 [label="doClient",height=0.2,width=0.4,color="black", fillcolor="white", style="filled",URL="$_vo_i_p_8cpp.html#af2fb0d243b0b7a8bcac7074dd83078c9",tooltip=" "];
  Node2 -> Node3 [dir="back",color="midnightblue",fontsize="10",style="solid"];
  Node3 [label="main",height=0.2,width=0.4,color="black", fillcolor="white", style="filled",URL="$_vo_i_p_8cpp.html#ae66f6b31b5ad750f1fe042a706a4e3d4",tooltip=" "];
  Node1 -> Node4 [dir="back",color="midnightblue",fontsize="10",style="solid"];
  Node4 [label="main",height=0.2,width=0.4,color="black", fillcolor="white", style="filled",URL="$_sound_capture_8cpp.html#ae66f6b31b5ad750f1fe042a706a4e3d4",tooltip=" "];
}
