digraph "irr::io::IIrrXMLReader&lt; char_type, super_class &gt;"
{
 // LATEX_PDF_SIZE
  edge [fontname="Helvetica",fontsize="10",labelfontname="Helvetica",labelfontsize="10"];
  node [fontname="Helvetica",fontsize="10",shape=record];
  Node1 [label="irr::io::IIrrXMLReader\l\< char_type, super_class \>",height=0.2,width=0.4,color="black", fillcolor="grey75", style="filled", fontcolor="black",tooltip="Interface providing easy read access to a XML file."];
  Node2 -> Node1 [dir="back",color="midnightblue",fontsize="10",style="solid"];
  Node2 [label="super_class",height=0.2,width=0.4,color="grey75", fillcolor="white", style="filled",tooltip=" "];
}
