digraph "irr::core::plane3d::getKnownIntersectionWithLine"
{
 // LATEX_PDF_SIZE
  edge [fontname="Helvetica",fontsize="10",labelfontname="Helvetica",labelfontsize="10"];
  node [fontname="Helvetica",fontsize="10",shape=record];
  rankdir="RL";
  Node1 [label="irr::core::plane3d\l::getKnownIntersectionWithLine",height=0.2,width=0.4,color="black", fillcolor="grey75", style="filled", fontcolor="black",tooltip="Get percentage of line between two points where an intersection with this plane happens."];
  Node1 -> Node2 [dir="back",color="midnightblue",fontsize="10",style="solid"];
  Node2 [label="irr::scene::SViewFrustum\l::clipLine",height=0.2,width=0.4,color="black", fillcolor="white", style="filled",URL="$structirr_1_1scene_1_1_s_view_frustum.html#a8d4a42afc55dde3b193ad0b1311f9dfe",tooltip="clips a line to the view frustum."];
}
