digraph "irr::core::CMatrix4::getRotationDegrees"
{
 // LATEX_PDF_SIZE
  edge [fontname="Helvetica",fontsize="10",labelfontname="Helvetica",labelfontsize="10"];
  node [fontname="Helvetica",fontsize="10",shape=record];
  rankdir="LR";
  Node1 [label="irr::core::CMatrix4\l::getRotationDegrees",height=0.2,width=0.4,color="black", fillcolor="grey75", style="filled", fontcolor="black",tooltip="Returns the rotation, as set by setRotation()."];
  Node1 -> Node2 [color="midnightblue",fontsize="10",style="solid"];
  Node2 [label="irr::core::clamp",height=0.2,width=0.4,color="black", fillcolor="white", style="filled",URL="$namespaceirr_1_1core.html#a6162f685b68f629e77336081d3316969",tooltip="clamps a value between low and high"];
  Node2 -> Node3 [color="midnightblue",fontsize="10",style="solid"];
  Node3 [label="irr::core::max_",height=0.2,width=0.4,color="black", fillcolor="white", style="filled",URL="$namespaceirr_1_1core.html#afca1ce7ac54e0c31a9047947f4c7319b",tooltip="returns maximum of two values. Own implementation to get rid of the STL (VS6 problems)"];
  Node2 -> Node4 [color="midnightblue",fontsize="10",style="solid"];
  Node4 [label="irr::core::min_",height=0.2,width=0.4,color="black", fillcolor="white", style="filled",URL="$namespaceirr_1_1core.html#a9d34bfdbbe9c136b01ae04974572bc11",tooltip="returns minimum of two values. Own implementation to get rid of the STL (VS6 problems)"];
  Node1 -> Node5 [color="midnightblue",fontsize="10",style="solid"];
  Node5 [label="irr::core::iszero",height=0.2,width=0.4,color="black", fillcolor="white", style="filled",URL="$namespaceirr_1_1core.html#afc24e6ba26469ec7ca7001ed272dc3b2",tooltip="returns if a equals zero, taking rounding errors into account"];
  Node1 -> Node6 [color="midnightblue",fontsize="10",style="solid"];
  Node6 [label="irr::core::reciprocal",height=0.2,width=0.4,color="black", fillcolor="white", style="filled",URL="$namespaceirr_1_1core.html#aa01390f49052dfe07e16ee6c5233f4eb",tooltip=" "];
}
