digraph "irr::video::IVideoDriver::drawIndexedTriangleFan"
{
 // LATEX_PDF_SIZE
  edge [fontname="Helvetica",fontsize="10",labelfontname="Helvetica",labelfontsize="10"];
  node [fontname="Helvetica",fontsize="10",shape=record];
  rankdir="LR";
  Node1 [label="irr::video::IVideoDriver\l::drawIndexedTriangleFan",height=0.2,width=0.4,color="black", fillcolor="grey75", style="filled", fontcolor="black",tooltip="Draws an indexed triangle fan."];
  Node1 -> Node2 [color="midnightblue",fontsize="10",style="solid"];
  Node2 [label="irr::video::IVideoDriver\l::drawVertexPrimitiveList",height=0.2,width=0.4,color="black", fillcolor="white", style="filled",URL="$classirr_1_1video_1_1_i_video_driver.html#ab18ac3ba8b6dbaa4437c5eb3b1e2f4fb",tooltip="Draws a vertex primitive list."];
}
