digraph "irr::core::rect::getWidth"
{
 // LATEX_PDF_SIZE
  edge [fontname="Helvetica",fontsize="10",labelfontname="Helvetica",labelfontsize="10"];
  node [fontname="Helvetica",fontsize="10",shape=record];
  rankdir="RL";
  Node1 [label="irr::core::rect::getWidth",height=0.2,width=0.4,color="black", fillcolor="grey75", style="filled", fontcolor="black",tooltip="Get width of rectangle."];
  Node1 -> Node2 [dir="back",color="midnightblue",fontsize="10",style="solid"];
  Node2 [label="irr::core::CMatrix4\l::buildNDCToDCMatrix",height=0.2,width=0.4,color="black", fillcolor="white", style="filled",URL="$classirr_1_1core_1_1_c_matrix4.html#a88a7d2f56d4ce637823379de308f673a",tooltip="Builds a matrix which transforms a normalized Device Coordinate to Device Coordinates."];
  Node1 -> Node3 [dir="back",color="midnightblue",fontsize="10",style="solid"];
  Node3 [label="irr::core::rect\< f32\l \>::constrainTo",height=0.2,width=0.4,color="black", fillcolor="white", style="filled",URL="$classirr_1_1core_1_1rect.html#a4515d2a1349dc805775854a422465f63",tooltip="Moves this rectangle to fit inside another one."];
  Node1 -> Node4 [dir="back",color="midnightblue",fontsize="10",style="solid"];
  Node4 [label="irr::core::rect\< f32\l \>::getArea",height=0.2,width=0.4,color="black", fillcolor="white", style="filled",URL="$classirr_1_1core_1_1rect.html#a1a9c505a1eb91ccb3e3915c61f9fb26d",tooltip="Returns size of rectangle."];
  Node1 -> Node5 [dir="back",color="midnightblue",fontsize="10",style="solid"];
  Node5 [label="irr::core::rect\< f32\l \>::getSize",height=0.2,width=0.4,color="black", fillcolor="white", style="filled",URL="$classirr_1_1core_1_1rect.html#aa5e0bf0e6474c1603c735a63843833fa",tooltip="Get the dimensions of the rectangle."];
  Node1 -> Node6 [dir="back",color="midnightblue",fontsize="10",style="solid"];
  Node6 [label="irr::gui::IGUIElement\l::recalculateAbsolutePosition",height=0.2,width=0.4,color="black", fillcolor="white", style="filled",URL="$classirr_1_1gui_1_1_i_g_u_i_element.html#a436d80ee161086389d7f3537ca062e4a",tooltip=" "];
  Node6 -> Node7 [dir="back",color="midnightblue",fontsize="10",style="solid"];
  Node7 [label="irr::gui::IGUIElement\l::IGUIElement",height=0.2,width=0.4,color="black", fillcolor="white", style="filled",URL="$classirr_1_1gui_1_1_i_g_u_i_element.html#a540fb9b2617696ef421d5510b4d96fea",tooltip="Constructor."];
  Node6 -> Node8 [dir="back",color="midnightblue",fontsize="10",style="solid"];
  Node8 [label="irr::gui::IGUIElement\l::updateAbsolutePosition",height=0.2,width=0.4,color="black", fillcolor="white", style="filled",URL="$classirr_1_1gui_1_1_i_g_u_i_element.html#ad58bbeba69a118873a5075d86b4c90f2",tooltip="Updates the absolute position."];
  Node8 -> Node9 [dir="back",color="midnightblue",fontsize="10",style="solid"];
  Node9 [label="irr::gui::IGUIElement\l::addChild",height=0.2,width=0.4,color="black", fillcolor="white", style="filled",URL="$classirr_1_1gui_1_1_i_g_u_i_element.html#a221c8505217aa9c23c621627a0435554",tooltip="Adds a GUI element as new child of this element."];
  Node8 -> Node10 [dir="back",color="midnightblue",fontsize="10",style="solid"];
  Node10 [label="irr::gui::IGUIElement\l::setMaxSize",height=0.2,width=0.4,color="black", fillcolor="white", style="filled",URL="$classirr_1_1gui_1_1_i_g_u_i_element.html#ae80ad7253fb9fb2ebbeda2a8148fff3e",tooltip="Sets the maximum size allowed for this element."];
  Node10 -> Node11 [dir="back",color="midnightblue",fontsize="10",style="solid"];
  Node11 [label="irr::gui::IGUIElement\l::deserializeAttributes",height=0.2,width=0.4,color="black", fillcolor="white", style="filled",URL="$classirr_1_1gui_1_1_i_g_u_i_element.html#af71b96163b8d95816cd9c80fbf413b4d",tooltip="Reads attributes of the scene node."];
  Node8 -> Node12 [dir="back",color="midnightblue",fontsize="10",style="solid"];
  Node12 [label="irr::gui::IGUIElement\l::setMinSize",height=0.2,width=0.4,color="black", fillcolor="white", style="filled",URL="$classirr_1_1gui_1_1_i_g_u_i_element.html#ae1ddcdd58af93fea900bd6295d4d8e61",tooltip="Sets the minimum size allowed for this element."];
  Node12 -> Node11 [dir="back",color="midnightblue",fontsize="10",style="solid"];
  Node8 -> Node13 [dir="back",color="midnightblue",fontsize="10",style="solid"];
  Node13 [label="irr::gui::IGUIElement\l::setNotClipped",height=0.2,width=0.4,color="black", fillcolor="white", style="filled",URL="$classirr_1_1gui_1_1_i_g_u_i_element.html#a814d322989acafa74c895e5c13908b86",tooltip="Sets whether the element will ignore its parent's clipping rectangle."];
  Node13 -> Node11 [dir="back",color="midnightblue",fontsize="10",style="solid"];
  Node8 -> Node14 [dir="back",color="midnightblue",fontsize="10",style="solid"];
  Node14 [label="irr::gui::IGUIElement\l::setRelativePosition",height=0.2,width=0.4,color="black", fillcolor="white", style="filled",URL="$classirr_1_1gui_1_1_i_g_u_i_element.html#a0e5bb2d0a2e88e30d3697652f8dd7034",tooltip="Sets the relative rectangle of this element."];
  Node14 -> Node11 [dir="back",color="midnightblue",fontsize="10",style="solid"];
  Node14 -> Node15 [dir="back",color="midnightblue",fontsize="10",style="solid"];
  Node15 [label="irr::gui::IGUIElement\l::move",height=0.2,width=0.4,color="black", fillcolor="white", style="filled",URL="$classirr_1_1gui_1_1_i_g_u_i_element.html#a842eeacfcb26865416b084593a774704",tooltip="Moves this element."];
  Node14 -> Node16 [dir="back",color="midnightblue",fontsize="10",style="solid"];
  Node16 [label="irr::gui::IGUIElement\l::setRelativePosition",height=0.2,width=0.4,color="black", fillcolor="white", style="filled",URL="$classirr_1_1gui_1_1_i_g_u_i_element.html#aba1cfc75daa28e53a021faa2d954b79b",tooltip="Sets the relative rectangle of this element, maintaining its current width and height."];
  Node8 -> Node17 [dir="back",color="midnightblue",fontsize="10",style="solid"];
  Node17 [label="irr::gui::IGUIElement\l::setRelativePositionProportional",height=0.2,width=0.4,color="black", fillcolor="white", style="filled",URL="$classirr_1_1gui_1_1_i_g_u_i_element.html#aa67e02ab54db1068e7c057721d2f24a5",tooltip="Sets the relative rectangle of this element as a proportion of its parent's area."];
}
