digraph "sf::Sound::setLoop"
{
 // LATEX_PDF_SIZE
  edge [fontname="Helvetica",fontsize="10",labelfontname="Helvetica",labelfontsize="10"];
  node [fontname="Helvetica",fontsize="10",shape=record];
  rankdir="RL";
  Node1 [label="sf::Sound::setLoop",height=0.2,width=0.4,color="black", fillcolor="grey75", style="filled", fontcolor="black",tooltip="Set whether or not the sound should loop after reaching the end."];
  Node1 -> Node2 [dir="back",color="midnightblue",fontsize="10",style="solid"];
  Node2 [label="indie::JukeBox::JukeBox",height=0.2,width=0.4,color="black", fillcolor="white", style="filled",URL="$classindie_1_1_juke_box.html#af6e650983504e6842f8675ee1d5ccf75",tooltip=" "];
}
