digraph "irr::core::plane3d::setPlane"
{
 // LATEX_PDF_SIZE
  edge [fontname="Helvetica",fontsize="10",labelfontname="Helvetica",labelfontsize="10"];
  node [fontname="Helvetica",fontsize="10",shape=record];
  rankdir="RL";
  Node1 [label="irr::core::plane3d\l::setPlane",height=0.2,width=0.4,color="black", fillcolor="grey75", style="filled", fontcolor="black",tooltip=" "];
  Node1 -> Node2 [dir="back",color="midnightblue",fontsize="10",style="solid"];
  Node2 [label="irr::core::plane3d\l\< f32 \>::plane3d",height=0.2,width=0.4,color="black", fillcolor="white", style="filled",URL="$classirr_1_1core_1_1plane3d.html#a79aa2659564f880e71db761516d91b9e",tooltip=" "];
  Node1 -> Node3 [dir="back",color="midnightblue",fontsize="10",style="solid"];
  Node3 [label="irr::core::CMatrix4\l::transformPlane",height=0.2,width=0.4,color="black", fillcolor="white", style="filled",URL="$classirr_1_1core_1_1_c_matrix4.html#aa8324285dd538763f8e9cfa50cc04b62",tooltip="Transforms a plane by this matrix."];
  Node3 -> Node4 [dir="back",color="midnightblue",fontsize="10",style="solid"];
  Node4 [label="irr::scene::SViewFrustum\l::transform",height=0.2,width=0.4,color="black", fillcolor="white", style="filled",URL="$structirr_1_1scene_1_1_s_view_frustum.html#aeabadaf532f08ba3cb98b897ff0619f2",tooltip="transforms the frustum by the matrix"];
}
