digraph "ID::ID"
{
 // LATEX_PDF_SIZE
  edge [fontname="Helvetica",fontsize="10",labelfontname="Helvetica",labelfontsize="10"];
  node [fontname="Helvetica",fontsize="10",shape=record];
  rankdir="RL";
  Node1 [label="ID::ID",height=0.2,width=0.4,color="black", fillcolor="grey75", style="filled", fontcolor="black",tooltip=" "];
  Node1 -> Node2 [dir="back",color="midnightblue",fontsize="10",style="solid"];
  Node2 [label="ID::generate",height=0.2,width=0.4,color="black", fillcolor="white", style="filled",URL="$class_i_d.html#a2cd133c70e90cc30f815747c1d6008dc",tooltip=" "];
  Node2 -> Node3 [dir="back",color="midnightblue",fontsize="10",style="solid"];
  Node3 [label="indie::Entity::Entity",height=0.2,width=0.4,color="black", fillcolor="white", style="filled",URL="$classindie_1_1_entity.html#ab77b30ab3909f2bfd1d4ebc14ea3d609",tooltip=" "];
  Node2 -> Node4 [dir="back",color="midnightblue",fontsize="10",style="solid"];
  Node4 [label="indie::Entity::operator=",height=0.2,width=0.4,color="black", fillcolor="white", style="filled",URL="$classindie_1_1_entity.html#ab9753953227be383a355c3c270f1c615",tooltip=" "];
}
