digraph "irr::video::IGPUProgrammingServices::addHighLevelShaderMaterialFromFiles"
{
 // LATEX_PDF_SIZE
  edge [fontname="Helvetica",fontsize="10",labelfontname="Helvetica",labelfontsize="10"];
  node [fontname="Helvetica",fontsize="10",shape=record];
  rankdir="RL";
  Node1 [label="irr::video::IGPUProgramming\lServices::addHighLevelShaderMaterial\lFromFiles",height=0.2,width=0.4,color="black", fillcolor="grey75", style="filled", fontcolor="black",tooltip="Like IGPUProgrammingServices::addShaderMaterial(), but loads from files."];
  Node1 -> Node2 [dir="back",color="midnightblue",fontsize="10",style="solid"];
  Node2 [label="irr::video::IGPUProgramming\lServices::addHighLevelShaderMaterial\lFromFiles",height=0.2,width=0.4,color="black", fillcolor="white", style="filled",URL="$classirr_1_1video_1_1_i_g_p_u_programming_services.html#a2e6abff7d3e976d65955aae13df5e500",tooltip="convenience function for use without geometry shaders"];
}
