digraph "irr::scene::SVertexColorBrightnessManipulator::operator()"
{
 // LATEX_PDF_SIZE
  edge [fontname="Helvetica",fontsize="10",labelfontname="Helvetica",labelfontsize="10"];
  node [fontname="Helvetica",fontsize="10",shape=record];
  rankdir="LR";
  Node1 [label="irr::scene::SVertexColor\lBrightnessManipulator\l::operator()",height=0.2,width=0.4,color="black", fillcolor="grey75", style="filled", fontcolor="black",tooltip=" "];
  Node1 -> Node2 [color="midnightblue",fontsize="10",style="solid"];
  Node2 [label="irr::core::clamp",height=0.2,width=0.4,color="black", fillcolor="white", style="filled",URL="$namespaceirr_1_1core.html#a6162f685b68f629e77336081d3316969",tooltip="clamps a value between low and high"];
  Node2 -> Node3 [color="midnightblue",fontsize="10",style="solid"];
  Node3 [label="irr::core::max_",height=0.2,width=0.4,color="black", fillcolor="white", style="filled",URL="$namespaceirr_1_1core.html#afca1ce7ac54e0c31a9047947f4c7319b",tooltip="returns maximum of two values. Own implementation to get rid of the STL (VS6 problems)"];
  Node2 -> Node4 [color="midnightblue",fontsize="10",style="solid"];
  Node4 [label="irr::core::min_",height=0.2,width=0.4,color="black", fillcolor="white", style="filled",URL="$namespaceirr_1_1core.html#a9d34bfdbbe9c136b01ae04974572bc11",tooltip="returns minimum of two values. Own implementation to get rid of the STL (VS6 problems)"];
  Node1 -> Node5 [color="midnightblue",fontsize="10",style="solid"];
  Node5 [label="irr::video::SColor\l::getBlue",height=0.2,width=0.4,color="black", fillcolor="white", style="filled",URL="$classirr_1_1video_1_1_s_color.html#afb60ac456b2efc2f2a4f04a643293d26",tooltip="Returns the blue component of the color."];
  Node1 -> Node6 [color="midnightblue",fontsize="10",style="solid"];
  Node6 [label="irr::video::SColor\l::getGreen",height=0.2,width=0.4,color="black", fillcolor="white", style="filled",URL="$classirr_1_1video_1_1_s_color.html#a198773366f2a5436c1ca4adc9037bb8d",tooltip="Returns the green component of the color."];
  Node1 -> Node7 [color="midnightblue",fontsize="10",style="solid"];
  Node7 [label="irr::video::SColor\l::getRed",height=0.2,width=0.4,color="black", fillcolor="white", style="filled",URL="$classirr_1_1video_1_1_s_color.html#a70d11ec2247581c79ee11e0e1b511978",tooltip="Returns the red component of the color."];
  Node1 -> Node8 [color="midnightblue",fontsize="10",style="solid"];
  Node8 [label="irr::video::SColor\l::setBlue",height=0.2,width=0.4,color="black", fillcolor="white", style="filled",URL="$classirr_1_1video_1_1_s_color.html#a13d82e6b52d32f7394f3cce041dc2965",tooltip="Sets the blue component of the Color."];
  Node1 -> Node9 [color="midnightblue",fontsize="10",style="solid"];
  Node9 [label="irr::video::SColor\l::setGreen",height=0.2,width=0.4,color="black", fillcolor="white", style="filled",URL="$classirr_1_1video_1_1_s_color.html#af80cfedd5e761216b8bed259963ac948",tooltip="Sets the green component of the Color."];
  Node1 -> Node10 [color="midnightblue",fontsize="10",style="solid"];
  Node10 [label="irr::video::SColor\l::setRed",height=0.2,width=0.4,color="black", fillcolor="white", style="filled",URL="$classirr_1_1video_1_1_s_color.html#a950c98714711ae9dd8c5219f83c07693",tooltip="Sets the red component of the Color."];
}
