digraph "irr::core::line3d::getMiddle"
{
 // LATEX_PDF_SIZE
  edge [fontname="Helvetica",fontsize="10",labelfontname="Helvetica",labelfontsize="10"];
  node [fontname="Helvetica",fontsize="10",shape=record];
  rankdir="RL";
  Node1 [label="irr::core::line3d::\lgetMiddle",height=0.2,width=0.4,color="black", fillcolor="grey75", style="filled", fontcolor="black",tooltip="Get middle of line."];
  Node1 -> Node2 [dir="back",color="midnightblue",fontsize="10",style="solid"];
  Node2 [label="irr::core::aabbox3d\l\< f32 \>::intersectsWithLine",height=0.2,width=0.4,color="black", fillcolor="white", style="filled",URL="$classirr_1_1core_1_1aabbox3d.html#ad0d7fec0145329dfca538066298fa3f2",tooltip="Tests if the box intersects with a line."];
}
