digraph "irr::core::vector3d::crossProduct"
{
 // LATEX_PDF_SIZE
  edge [fontname="Helvetica",fontsize="10",labelfontname="Helvetica",labelfontsize="10"];
  node [fontname="Helvetica",fontsize="10",shape=record];
  rankdir="RL";
  Node1 [label="irr::core::vector3d\l::crossProduct",height=0.2,width=0.4,color="black", fillcolor="grey75", style="filled", fontcolor="black",tooltip="Calculates the cross product with another vector."];
  Node1 -> Node2 [dir="back",color="midnightblue",fontsize="10",style="solid"];
  Node2 [label="irr::core::CMatrix4\l::buildAxisAlignedBillboard",height=0.2,width=0.4,color="black", fillcolor="white", style="filled",URL="$classirr_1_1core_1_1_c_matrix4.html#ad2dc80f2aed15900839389cf52f9e798",tooltip="Builds a matrix which rotates a source vector to a look vector over an arbitrary axis."];
  Node1 -> Node3 [dir="back",color="midnightblue",fontsize="10",style="solid"];
  Node3 [label="irr::core::CMatrix4\l::buildCameraLookAtMatrixLH",height=0.2,width=0.4,color="black", fillcolor="white", style="filled",URL="$classirr_1_1core_1_1_c_matrix4.html#a78e15297c806006898df58498755ecd4",tooltip="Builds a left-handed look-at matrix."];
  Node1 -> Node4 [dir="back",color="midnightblue",fontsize="10",style="solid"];
  Node4 [label="irr::core::CMatrix4\l::buildCameraLookAtMatrixRH",height=0.2,width=0.4,color="black", fillcolor="white", style="filled",URL="$classirr_1_1core_1_1_c_matrix4.html#a62ebd6002a5018c1096ac368f6be271a",tooltip="Builds a right-handed look-at matrix."];
  Node1 -> Node5 [dir="back",color="midnightblue",fontsize="10",style="solid"];
  Node5 [label="irr::core::CMatrix4\l::buildRotateFromTo",height=0.2,width=0.4,color="black", fillcolor="white", style="filled",URL="$classirr_1_1core_1_1_c_matrix4.html#a4802c6a89ad813e2919f68f512fb320f",tooltip="Builds a matrix that rotates from one vector to another."];
  Node1 -> Node6 [dir="back",color="midnightblue",fontsize="10",style="solid"];
  Node6 [label="irr::core::quaternion\l::operator*",height=0.2,width=0.4,color="black", fillcolor="white", style="filled",URL="$classirr_1_1core_1_1quaternion.html#a0bb1acde2b154e67cc6feab355f0a84c",tooltip="Multiplication operator."];
  Node1 -> Node7 [dir="back",color="midnightblue",fontsize="10",style="solid"];
  Node7 [label="irr::core::quaternion\l::rotationFromTo",height=0.2,width=0.4,color="black", fillcolor="white", style="filled",URL="$classirr_1_1core_1_1quaternion.html#a9da1b3ddfb9722f596a73abf5212c020",tooltip="Set quaternion to represent a rotation from one vector to another."];
}
