digraph "irr::scene::IDynamicMeshBuffer::getIndexCount"
{
 // LATEX_PDF_SIZE
  edge [fontname="Helvetica",fontsize="10",labelfontname="Helvetica",labelfontsize="10"];
  node [fontname="Helvetica",fontsize="10",shape=record];
  rankdir="LR";
  Node1 [label="irr::scene::IDynamicMesh\lBuffer::getIndexCount",height=0.2,width=0.4,color="black", fillcolor="grey75", style="filled", fontcolor="black",tooltip="Get amount of indices in this meshbuffer."];
  Node1 -> Node2 [color="midnightblue",fontsize="10",style="solid"];
  Node2 [label="irr::scene::IDynamicMesh\lBuffer::getIndexBuffer",height=0.2,width=0.4,color="black", fillcolor="white", style="filled",URL="$classirr_1_1scene_1_1_i_dynamic_mesh_buffer.html#a69be70f795fc8b56050cde08b3b8a840",tooltip=" "];
  Node1 -> Node3 [color="midnightblue",fontsize="10",style="solid"];
  Node3 [label="irr::scene::IIndexBuffer\l::size",height=0.2,width=0.4,color="black", fillcolor="white", style="filled",URL="$classirr_1_1scene_1_1_i_index_buffer.html#a0f6d6c8286ca764076463500b4c6f37c",tooltip=" "];
}
