digraph "cmake/include/coreutil.h"
{
 // LATEX_PDF_SIZE
  edge [fontname="Helvetica",fontsize="10",labelfontname="Helvetica",labelfontsize="10"];
  node [fontname="Helvetica",fontsize="10",shape=record];
  Node1 [label="cmake/include/coreutil.h",height=0.2,width=0.4,color="black", fillcolor="grey75", style="filled", fontcolor="black",tooltip="File containing useful basic utility functions."];
  Node1 -> Node2 [dir="back",color="midnightblue",fontsize="10",style="solid"];
  Node2 [label="cmake/include/IReadFile.h",height=0.2,width=0.4,color="black", fillcolor="white", style="filled",URL="$_i_read_file_8h.html",tooltip=" "];
  Node2 -> Node3 [dir="back",color="midnightblue",fontsize="10",style="solid"];
  Node3 [label="cmake/include/IFileArchive.h",height=0.2,width=0.4,color="black", fillcolor="white", style="filled",URL="$_i_file_archive_8h.html",tooltip=" "];
  Node3 -> Node4 [dir="back",color="midnightblue",fontsize="10",style="solid"];
  Node4 [label="cmake/include/IFileSystem.h",height=0.2,width=0.4,color="black", fillcolor="white", style="filled",URL="$_i_file_system_8h.html",tooltip=" "];
  Node4 -> Node5 [dir="back",color="midnightblue",fontsize="10",style="solid"];
  Node5 [label="cmake/include/IQ3Shader.h",height=0.2,width=0.4,color="black", fillcolor="white", style="filled",URL="$_i_q3_shader_8h.html",tooltip=" "];
  Node5 -> Node6 [dir="back",color="midnightblue",fontsize="10",style="solid"];
  Node6 [label="cmake/include/IAnimatedMesh\lMD3.h",height=0.2,width=0.4,color="black", fillcolor="white", style="filled",URL="$_i_animated_mesh_m_d3_8h.html",tooltip=" "];
  Node6 -> Node7 [dir="back",color="midnightblue",fontsize="10",style="solid"];
  Node7 [label="cmake/include/IAnimatedMesh\lSceneNode.h",height=0.2,width=0.4,color="black", fillcolor="white", style="filled",URL="$_i_animated_mesh_scene_node_8h.html",tooltip=" "];
  Node7 -> Node8 [dir="back",color="midnightblue",fontsize="10",style="solid"];
  Node8 [label="cmake/include/IParticleAnimated\lMeshSceneNodeEmitter.h",height=0.2,width=0.4,color="red", fillcolor="white", style="filled",URL="$_i_particle_animated_mesh_scene_node_emitter_8h.html",tooltip=" "];
  Node7 -> Node10 [dir="back",color="midnightblue",fontsize="10",style="solid"];
  Node10 [label="cmake/include/irrlicht.h",height=0.2,width=0.4,color="black", fillcolor="white", style="filled",URL="$irrlicht_8h.html",tooltip="Main header file of the irrlicht, the only file needed to include."];
  Node10 -> Node11 [dir="back",color="midnightblue",fontsize="10",style="solid"];
  Node11 [label="includes/Factories\l/Button.hpp",height=0.2,width=0.4,color="black", fillcolor="white", style="filled",URL="$_button_8hpp.html",tooltip=" "];
  Node11 -> Node12 [dir="back",color="midnightblue",fontsize="10",style="solid"];
  Node12 [label="includes/Scenes/Menu.hpp",height=0.2,width=0.4,color="black", fillcolor="white", style="filled",URL="$_menu_8hpp.html",tooltip=" "];
  Node12 -> Node13 [dir="back",color="midnightblue",fontsize="10",style="solid"];
  Node13 [label="includes/Core/Core.hpp",height=0.2,width=0.4,color="red", fillcolor="white", style="filled",URL="$_core_8hpp.html",tooltip=" "];
  Node13 -> Node15 [dir="back",color="midnightblue",fontsize="10",style="solid"];
  Node15 [label="sources/main.cpp",height=0.2,width=0.4,color="black", fillcolor="white", style="filled",URL="$main_8cpp.html",tooltip=" "];
  Node12 -> Node16 [dir="back",color="midnightblue",fontsize="10",style="solid"];
  Node16 [label="sources/Scenes/Menu.cpp",height=0.2,width=0.4,color="black", fillcolor="white", style="filled",URL="$_menu_8cpp.html",tooltip=" "];
  Node11 -> Node17 [dir="back",color="midnightblue",fontsize="10",style="solid"];
  Node17 [label="includes/Scenes/Options.hpp",height=0.2,width=0.4,color="black", fillcolor="white", style="filled",URL="$_options_8hpp.html",tooltip=" "];
  Node17 -> Node13 [dir="back",color="midnightblue",fontsize="10",style="solid"];
  Node17 -> Node18 [dir="back",color="midnightblue",fontsize="10",style="solid"];
  Node18 [label="sources/Scenes/Options.cpp",height=0.2,width=0.4,color="black", fillcolor="white", style="filled",URL="$_options_8cpp.html",tooltip=" "];
  Node11 -> Node19 [dir="back",color="midnightblue",fontsize="10",style="solid"];
  Node19 [label="includes/Scenes/SelectPlayer.hpp",height=0.2,width=0.4,color="black", fillcolor="white", style="filled",URL="$_select_player_8hpp.html",tooltip=" "];
  Node19 -> Node13 [dir="back",color="midnightblue",fontsize="10",style="solid"];
  Node19 -> Node20 [dir="back",color="midnightblue",fontsize="10",style="solid"];
  Node20 [label="sources/Scenes/SelectPlayer.cpp",height=0.2,width=0.4,color="black", fillcolor="white", style="filled",URL="$_select_player_8cpp.html",tooltip=" "];
  Node11 -> Node21 [dir="back",color="midnightblue",fontsize="10",style="solid"];
  Node21 [label="includes/Scenes/SelectSave.hpp",height=0.2,width=0.4,color="black", fillcolor="white", style="filled",URL="$_select_save_8hpp.html",tooltip=" "];
  Node21 -> Node13 [dir="back",color="midnightblue",fontsize="10",style="solid"];
  Node21 -> Node22 [dir="back",color="midnightblue",fontsize="10",style="solid"];
  Node22 [label="sources/Scenes/SelectSave.cpp",height=0.2,width=0.4,color="black", fillcolor="white", style="filled",URL="$_select_save_8cpp.html",tooltip=" "];
  Node11 -> Node23 [dir="back",color="midnightblue",fontsize="10",style="solid"];
  Node23 [label="includes/Scenes/Title.hpp",height=0.2,width=0.4,color="black", fillcolor="white", style="filled",URL="$_title_8hpp.html",tooltip=" "];
  Node23 -> Node13 [dir="back",color="midnightblue",fontsize="10",style="solid"];
  Node23 -> Node24 [dir="back",color="midnightblue",fontsize="10",style="solid"];
  Node24 [label="sources/Scenes/Title.cpp",height=0.2,width=0.4,color="black", fillcolor="white", style="filled",URL="$_title_8cpp.html",tooltip=" "];
  Node11 -> Node25 [dir="back",color="midnightblue",fontsize="10",style="solid"];
  Node25 [label="sources/Factories/Button.cpp",height=0.2,width=0.4,color="black", fillcolor="white", style="filled",URL="$_button_8cpp.html",tooltip=" "];
  Node10 -> Node26 [dir="back",color="midnightblue",fontsize="10",style="solid"];
  Node26 [label="includes/Factories\l/Collision.hpp",height=0.2,width=0.4,color="black", fillcolor="white", style="filled",URL="$_collision_8hpp.html",tooltip=" "];
  Node26 -> Node27 [dir="back",color="midnightblue",fontsize="10",style="solid"];
  Node27 [label="sources/Factories/Collision.cpp",height=0.2,width=0.4,color="black", fillcolor="white", style="filled",URL="$_collision_8cpp.html",tooltip=" "];
  Node26 -> Node28 [dir="back",color="midnightblue",fontsize="10",style="solid"];
  Node28 [label="sources/Graphical/Graphical.cpp",height=0.2,width=0.4,color="black", fillcolor="white", style="filled",URL="$_graphical_8cpp.html",tooltip=" "];
  Node10 -> Node29 [dir="back",color="midnightblue",fontsize="10",style="solid"];
  Node29 [label="includes/Factories\l/ECS/components/ActionComponent.hpp",height=0.2,width=0.4,color="black", fillcolor="white", style="filled",URL="$_action_component_8hpp.html",tooltip=" "];
  Node29 -> Node30 [dir="back",color="midnightblue",fontsize="10",style="solid"];
  Node30 [label="includes/Factories\l/ECS/entities/Perso.hpp",height=0.2,width=0.4,color="black", fillcolor="white", style="filled",URL="$_perso_8hpp.html",tooltip=" "];
  Node30 -> Node31 [dir="back",color="midnightblue",fontsize="10",style="solid"];
  Node31 [label="includes/Scenes/GameScene.hpp",height=0.2,width=0.4,color="red", fillcolor="white", style="filled",URL="$_game_scene_8hpp.html",tooltip=" "];
  Node31 -> Node13 [dir="back",color="midnightblue",fontsize="10",style="solid"];
  Node30 -> Node33 [dir="back",color="midnightblue",fontsize="10",style="solid"];
  Node33 [label="sources/Factories/ECS\l/entities/Perso.cpp",height=0.2,width=0.4,color="black", fillcolor="white", style="filled",URL="$_perso_8cpp.html",tooltip=" "];
  Node30 -> Node15 [dir="back",color="midnightblue",fontsize="10",style="solid"];
  Node29 -> Node34 [dir="back",color="midnightblue",fontsize="10",style="solid"];
  Node34 [label="includes/Graphical\l/Graphical.hpp",height=0.2,width=0.4,color="black", fillcolor="white", style="filled",URL="$_graphical_8hpp.html",tooltip=" "];
  Node34 -> Node13 [dir="back",color="midnightblue",fontsize="10",style="solid"];
  Node34 -> Node31 [dir="back",color="midnightblue",fontsize="10",style="solid"];
  Node34 -> Node12 [dir="back",color="midnightblue",fontsize="10",style="solid"];
  Node34 -> Node17 [dir="back",color="midnightblue",fontsize="10",style="solid"];
  Node34 -> Node19 [dir="back",color="midnightblue",fontsize="10",style="solid"];
  Node34 -> Node21 [dir="back",color="midnightblue",fontsize="10",style="solid"];
  Node34 -> Node23 [dir="back",color="midnightblue",fontsize="10",style="solid"];
  Node34 -> Node28 [dir="back",color="midnightblue",fontsize="10",style="solid"];
  Node34 -> Node15 [dir="back",color="midnightblue",fontsize="10",style="solid"];
  Node29 -> Node35 [dir="back",color="midnightblue",fontsize="10",style="solid"];
  Node35 [label="sources/Factories/ECS\l/components/ActionComponent.cpp",height=0.2,width=0.4,color="black", fillcolor="white", style="filled",URL="$_action_component_8cpp.html",tooltip=" "];
  Node10 -> Node36 [dir="back",color="midnightblue",fontsize="10",style="solid"];
  Node36 [label="includes/Factories\l/ECS/components/CubeComponent.hpp",height=0.2,width=0.4,color="black", fillcolor="white", style="filled",URL="$_cube_component_8hpp.html",tooltip=" "];
  Node36 -> Node37 [dir="back",color="midnightblue",fontsize="10",style="solid"];
  Node37 [label="includes/GameObjects\l/Block.hpp",height=0.2,width=0.4,color="red", fillcolor="white", style="filled",URL="$_block_8hpp.html",tooltip=" "];
  Node37 -> Node38 [dir="back",color="midnightblue",fontsize="10",style="solid"];
  Node38 [label="includes/GameObjects\l/Bomb.hpp",height=0.2,width=0.4,color="red", fillcolor="white", style="filled",URL="$_bomb_8hpp.html",tooltip=" "];
  Node38 -> Node30 [dir="back",color="midnightblue",fontsize="10",style="solid"];
  Node37 -> Node40 [dir="back",color="midnightblue",fontsize="10",style="solid"];
  Node40 [label="includes/GameObjects\l/Crate.hpp",height=0.2,width=0.4,color="red", fillcolor="white", style="filled",URL="$_crate_8hpp.html",tooltip=" "];
  Node40 -> Node28 [dir="back",color="midnightblue",fontsize="10",style="solid"];
  Node40 -> Node43 [dir="back",color="midnightblue",fontsize="10",style="solid"];
  Node43 [label="sources/Render/Render.cpp",height=0.2,width=0.4,color="black", fillcolor="white", style="filled",URL="$_render_8cpp.html",tooltip=" "];
  Node37 -> Node44 [dir="back",color="midnightblue",fontsize="10",style="solid"];
  Node44 [label="includes/GameObjects\l/Map.hpp",height=0.2,width=0.4,color="red", fillcolor="white", style="filled",URL="$_map_8hpp.html",tooltip=" "];
  Node44 -> Node34 [dir="back",color="midnightblue",fontsize="10",style="solid"];
  Node44 -> Node47 [dir="back",color="midnightblue",fontsize="10",style="solid"];
  Node47 [label="includes/Render/Render.hpp",height=0.2,width=0.4,color="black", fillcolor="white", style="filled",URL="$_render_8hpp.html",tooltip=" "];
  Node47 -> Node15 [dir="back",color="midnightblue",fontsize="10",style="solid"];
  Node47 -> Node43 [dir="back",color="midnightblue",fontsize="10",style="solid"];
  Node44 -> Node15 [dir="back",color="midnightblue",fontsize="10",style="solid"];
  Node36 -> Node34 [dir="back",color="midnightblue",fontsize="10",style="solid"];
  Node36 -> Node31 [dir="back",color="midnightblue",fontsize="10",style="solid"];
  Node36 -> Node51 [dir="back",color="midnightblue",fontsize="10",style="solid"];
  Node51 [label="sources/Factories/ECS\l/components/CubeComponent.cpp",height=0.2,width=0.4,color="black", fillcolor="white", style="filled",URL="$_cube_component_8cpp.html",tooltip=" "];
  Node10 -> Node52 [dir="back",color="midnightblue",fontsize="10",style="solid"];
  Node52 [label="includes/Factories\l/ECS/components/MeshComponent.hpp",height=0.2,width=0.4,color="black", fillcolor="white", style="filled",URL="$_mesh_component_8hpp.html",tooltip=" "];
  Node52 -> Node30 [dir="back",color="midnightblue",fontsize="10",style="solid"];
  Node52 -> Node34 [dir="back",color="midnightblue",fontsize="10",style="solid"];
  Node52 -> Node53 [dir="back",color="midnightblue",fontsize="10",style="solid"];
  Node53 [label="sources/Factories/ECS\l/components/MeshComponent.cpp",height=0.2,width=0.4,color="black", fillcolor="white", style="filled",URL="$_mesh_component_8cpp.html",tooltip=" "];
  Node10 -> Node54 [dir="back",color="midnightblue",fontsize="10",style="solid"];
  Node54 [label="includes/Factories\l/ECS/components/TextureComponent.hpp",height=0.2,width=0.4,color="black", fillcolor="white", style="filled",URL="$_texture_component_8hpp.html",tooltip=" "];
  Node54 -> Node11 [dir="back",color="midnightblue",fontsize="10",style="solid"];
  Node54 -> Node37 [dir="back",color="midnightblue",fontsize="10",style="solid"];
  Node54 -> Node34 [dir="back",color="midnightblue",fontsize="10",style="solid"];
  Node54 -> Node55 [dir="back",color="midnightblue",fontsize="10",style="solid"];
  Node55 [label="sources/Factories/ECS\l/components/TextureComponent.cpp",height=0.2,width=0.4,color="black", fillcolor="white", style="filled",URL="$_texture_component_8cpp.html",tooltip=" "];
  Node10 -> Node56 [dir="back",color="midnightblue",fontsize="10",style="solid"];
  Node56 [label="includes/GameObjects\l/Particuls.hpp",height=0.2,width=0.4,color="black", fillcolor="white", style="filled",URL="$_particuls_8hpp.html",tooltip=" "];
  Node56 -> Node34 [dir="back",color="midnightblue",fontsize="10",style="solid"];
  Node56 -> Node57 [dir="back",color="midnightblue",fontsize="10",style="solid"];
  Node57 [label="sources/GameObjects\l/Particuls.cpp",height=0.2,width=0.4,color="black", fillcolor="white", style="filled",URL="$_particuls_8cpp.html",tooltip=" "];
  Node56 -> Node28 [dir="back",color="midnightblue",fontsize="10",style="solid"];
  Node10 -> Node34 [dir="back",color="midnightblue",fontsize="10",style="solid"];
  Node10 -> Node58 [dir="back",color="midnightblue",fontsize="10",style="solid"];
  Node58 [label="includes/Graphical\l/handleInput.hpp",height=0.2,width=0.4,color="black", fillcolor="white", style="filled",URL="$handle_input_8hpp.html",tooltip=" "];
  Node58 -> Node34 [dir="back",color="midnightblue",fontsize="10",style="solid"];
  Node58 -> Node59 [dir="back",color="midnightblue",fontsize="10",style="solid"];
  Node59 [label="sources/Graphical/handle\lInput.cpp",height=0.2,width=0.4,color="black", fillcolor="white", style="filled",URL="$handle_input_8cpp.html",tooltip=" "];
  Node10 -> Node47 [dir="back",color="midnightblue",fontsize="10",style="solid"];
  Node6 -> Node10 [dir="back",color="midnightblue",fontsize="10",style="solid"];
  Node5 -> Node60 [dir="back",color="midnightblue",fontsize="10",style="solid"];
  Node60 [label="cmake/include/IQ3LevelMesh.h",height=0.2,width=0.4,color="black", fillcolor="white", style="filled",URL="$_i_q3_level_mesh_8h.html",tooltip=" "];
  Node60 -> Node10 [dir="back",color="midnightblue",fontsize="10",style="solid"];
  Node5 -> Node10 [dir="back",color="midnightblue",fontsize="10",style="solid"];
  Node4 -> Node10 [dir="back",color="midnightblue",fontsize="10",style="solid"];
  Node2 -> Node10 [dir="back",color="midnightblue",fontsize="10",style="solid"];
  Node1 -> Node5 [dir="back",color="midnightblue",fontsize="10",style="solid"];
  Node1 -> Node61 [dir="back",color="midnightblue",fontsize="10",style="solid"];
  Node61 [label="cmake/include/IImageWriter.h",height=0.2,width=0.4,color="black", fillcolor="white", style="filled",URL="$_i_image_writer_8h.html",tooltip=" "];
  Node61 -> Node10 [dir="back",color="midnightblue",fontsize="10",style="solid"];
  Node1 -> Node10 [dir="back",color="midnightblue",fontsize="10",style="solid"];
}
