digraph "sources/Factories" {
  compound=true
  node [ fontsize="10", fontname="Helvetica"];
  edge [ labelfontsize="10", labelfontname="Helvetica"];
  subgraph clusterdir_08d237fc27d4ecd563f71c5d52f2fecc {
    graph [ bgcolor="#ddddee", pencolor="black", label="sources" fontname="Helvetica", fontsize="10", URL="dir_08d237fc27d4ecd563f71c5d52f2fecc.html"]
  subgraph clusterdir_6d09a17887c64bdee3f21ad9728aee3e {
    graph [ bgcolor="#eeeeff", pencolor="black", label="" URL="dir_6d09a17887c64bdee3f21ad9728aee3e.html"];
    dir_6d09a17887c64bdee3f21ad9728aee3e [shape=plaintext label="Factories"];
    dir_e5f029b6443073795b09d958959b0f7e [shape=box label="ECS" color="red" fillcolor="white" style="filled" URL="dir_e5f029b6443073795b09d958959b0f7e.html"];
  }
  }
  dir_09e761304027c904456130627fd4dcf5 [shape=box label="includes" fillcolor="white" style="filled" color="red" URL="dir_09e761304027c904456130627fd4dcf5.html"];
  dir_e5f029b6443073795b09d958959b0f7e->dir_09e761304027c904456130627fd4dcf5 [headlabel="15", labeldistance=1.5 headhref="dir_000051_000030.html"];
}
