digraph "cmake/SFML-2.5.1/examples/voip" {
  compound=true
  node [ fontsize="10", fontname="Helvetica"];
  edge [ labelfontsize="10", labelfontname="Helvetica"];
  subgraph clusterdir_b61360cec6a50eb52ea893cca6a09974 {
    graph [ bgcolor="#ddddee", pencolor="black", label="examples" fontname="Helvetica", fontsize="10", URL="dir_b61360cec6a50eb52ea893cca6a09974.html"]
  dir_9c091eeeeb15a3a4a660c8c89e38ba3b [shape=box, label="voip", style="filled", fillcolor="#eeeeff", pencolor="black", URL="dir_9c091eeeeb15a3a4a660c8c89e38ba3b.html"];
  }
  dir_4ba8122569beabfcf98057e8bea5f28a [shape=box label="include" fillcolor="white" style="filled" color="red" URL="dir_4ba8122569beabfcf98057e8bea5f28a.html"];
  dir_9c091eeeeb15a3a4a660c8c89e38ba3b->dir_4ba8122569beabfcf98057e8bea5f28a [headlabel="4", labeldistance=1.5 headhref="dir_000020_000023.html"];
}
