digraph "includes/Factories/ECS" {
  compound=true
  node [ fontsize="10", fontname="Helvetica"];
  edge [ labelfontsize="10", labelfontname="Helvetica"];
  subgraph clusterdir_09cadccfa751faa0ad8ef93ef9b1c119 {
    graph [ bgcolor="#ddddee", pencolor="black", label="Factories" fontname="Helvetica", fontsize="10", URL="dir_09cadccfa751faa0ad8ef93ef9b1c119.html"]
  subgraph clusterdir_ee3e9e7edb47d6f79fea09197fcb3067 {
    graph [ bgcolor="#eeeeff", pencolor="black", label="" URL="dir_ee3e9e7edb47d6f79fea09197fcb3067.html"];
    dir_ee3e9e7edb47d6f79fea09197fcb3067 [shape=plaintext label="ECS"];
    dir_d949d0d614417e36ae488e29628a8494 [shape=box label="components" color="black" fillcolor="white" style="filled" URL="dir_d949d0d614417e36ae488e29628a8494.html"];
    dir_93deaee857a20560a94c5d2fe293e5aa [shape=box label="entities" color="black" fillcolor="white" style="filled" URL="dir_93deaee857a20560a94c5d2fe293e5aa.html"];
    dir_c843d3cbc22739de61d9c0c4fc2ec6c2 [shape=box label="ID" color="black" fillcolor="white" style="filled" URL="dir_c843d3cbc22739de61d9c0c4fc2ec6c2.html"];
    dir_3c4bcf27503a6363d6aa251c57401c40 [shape=box label="systems" color="black" fillcolor="white" style="filled" URL="dir_3c4bcf27503a6363d6aa251c57401c40.html"];
  }
  }
  dir_4122424aa3a58f882634205f8e45a684 [shape=box label="GameObjects" URL="dir_4122424aa3a58f882634205f8e45a684.html"];
  dir_a5bdbfbbaa7895161d62825676df7980 [shape=box label="cmake" fillcolor="white" style="filled" color="red" URL="dir_a5bdbfbbaa7895161d62825676df7980.html"];
  dir_a1b616d2a70084f166e9f5362f8e3124 [shape=box label="Errors" URL="dir_a1b616d2a70084f166e9f5362f8e3124.html"];
  dir_3c4bcf27503a6363d6aa251c57401c40->dir_93deaee857a20560a94c5d2fe293e5aa [headlabel="1", labeldistance=1.5 headhref="dir_000033_000039.html"];
  dir_4122424aa3a58f882634205f8e45a684->dir_93deaee857a20560a94c5d2fe293e5aa [headlabel="1", labeldistance=1.5 headhref="dir_000041_000039.html"];
  dir_4122424aa3a58f882634205f8e45a684->dir_a5bdbfbbaa7895161d62825676df7980 [headlabel="1", labeldistance=1.5 headhref="dir_000041_000007.html"];
  dir_4122424aa3a58f882634205f8e45a684->dir_d949d0d614417e36ae488e29628a8494 [headlabel="4", labeldistance=1.5 headhref="dir_000041_000038.html"];
  dir_4122424aa3a58f882634205f8e45a684->dir_ee3e9e7edb47d6f79fea09197fcb3067 [headlabel="5", labeldistance=1.5 headhref="dir_000041_000032.html"];
  dir_93deaee857a20560a94c5d2fe293e5aa->dir_4122424aa3a58f882634205f8e45a684 [headlabel="1", labeldistance=1.5 headhref="dir_000039_000041.html"];
  dir_93deaee857a20560a94c5d2fe293e5aa->dir_d949d0d614417e36ae488e29628a8494 [headlabel="6", labeldistance=1.5 headhref="dir_000039_000038.html"];
  dir_93deaee857a20560a94c5d2fe293e5aa->dir_c843d3cbc22739de61d9c0c4fc2ec6c2 [headlabel="1", labeldistance=1.5 headhref="dir_000039_000040.html"];
  dir_d949d0d614417e36ae488e29628a8494->dir_93deaee857a20560a94c5d2fe293e5aa [headlabel="2", labeldistance=1.5 headhref="dir_000038_000039.html"];
  dir_d949d0d614417e36ae488e29628a8494->dir_a5bdbfbbaa7895161d62825676df7980 [headlabel="4", labeldistance=1.5 headhref="dir_000038_000007.html"];
  dir_d949d0d614417e36ae488e29628a8494->dir_a1b616d2a70084f166e9f5362f8e3124 [headlabel="2", labeldistance=1.5 headhref="dir_000038_000037.html"];
}
