digraph "includes/Factories/ECS/components" {
  compound=true
  node [ fontsize="10", fontname="Helvetica"];
  edge [ labelfontsize="10", labelfontname="Helvetica"];
  subgraph clusterdir_ee3e9e7edb47d6f79fea09197fcb3067 {
    graph [ bgcolor="#ddddee", pencolor="black", label="ECS" fontname="Helvetica", fontsize="10", URL="dir_ee3e9e7edb47d6f79fea09197fcb3067.html"]
  dir_d949d0d614417e36ae488e29628a8494 [shape=box, label="components", style="filled", fillcolor="#eeeeff", pencolor="black", URL="dir_d949d0d614417e36ae488e29628a8494.html"];
  }
  dir_93deaee857a20560a94c5d2fe293e5aa [shape=box label="entities" URL="dir_93deaee857a20560a94c5d2fe293e5aa.html"];
  dir_a5bdbfbbaa7895161d62825676df7980 [shape=box label="cmake" fillcolor="white" style="filled" color="red" URL="dir_a5bdbfbbaa7895161d62825676df7980.html"];
  dir_a1b616d2a70084f166e9f5362f8e3124 [shape=box label="Errors" URL="dir_a1b616d2a70084f166e9f5362f8e3124.html"];
  dir_93deaee857a20560a94c5d2fe293e5aa->dir_d949d0d614417e36ae488e29628a8494 [headlabel="6", labeldistance=1.5 headhref="dir_000039_000038.html"];
  dir_d949d0d614417e36ae488e29628a8494->dir_93deaee857a20560a94c5d2fe293e5aa [headlabel="2", labeldistance=1.5 headhref="dir_000038_000039.html"];
  dir_d949d0d614417e36ae488e29628a8494->dir_a5bdbfbbaa7895161d62825676df7980 [headlabel="4", labeldistance=1.5 headhref="dir_000038_000007.html"];
  dir_d949d0d614417e36ae488e29628a8494->dir_a1b616d2a70084f166e9f5362f8e3124 [headlabel="2", labeldistance=1.5 headhref="dir_000038_000037.html"];
}
