digraph "cmake/include/heapsort.h"
{
 // LATEX_PDF_SIZE
  edge [fontname="Helvetica",fontsize="10",labelfontname="Helvetica",labelfontsize="10"];
  node [fontname="Helvetica",fontsize="10",shape=record];
  Node1 [label="cmake/include/heapsort.h",height=0.2,width=0.4,color="black", fillcolor="grey75", style="filled", fontcolor="black",tooltip=" "];
  Node1 -> Node2 [dir="back",color="midnightblue",fontsize="10",style="solid"];
  Node2 [label="cmake/include/irrArray.h",height=0.2,width=0.4,color="black", fillcolor="white", style="filled",URL="$irr_array_8h.html",tooltip=" "];
  Node2 -> Node3 [dir="back",color="midnightblue",fontsize="10",style="solid"];
  Node3 [label="cmake/include/SMaterial.h",height=0.2,width=0.4,color="black", fillcolor="white", style="filled",URL="$_s_material_8h.html",tooltip=" "];
  Node3 -> Node4 [dir="back",color="midnightblue",fontsize="10",style="solid"];
  Node4 [label="cmake/include/IMeshBuffer.h",height=0.2,width=0.4,color="red", fillcolor="white", style="filled",URL="$_i_mesh_buffer_8h.html",tooltip=" "];
  Node4 -> Node5 [dir="back",color="midnightblue",fontsize="10",style="solid"];
  Node5 [label="cmake/include/IDynamicMesh\lBuffer.h",height=0.2,width=0.4,color="red", fillcolor="white", style="filled",URL="$_i_dynamic_mesh_buffer_8h.html",tooltip=" "];
  Node5 -> Node7 [dir="back",color="midnightblue",fontsize="10",style="solid"];
  Node7 [label="cmake/include/irrlicht.h",height=0.2,width=0.4,color="black", fillcolor="white", style="filled",URL="$irrlicht_8h.html",tooltip="Main header file of the irrlicht, the only file needed to include."];
  Node7 -> Node8 [dir="back",color="midnightblue",fontsize="10",style="solid"];
  Node8 [label="includes/Factories\l/Button.hpp",height=0.2,width=0.4,color="red", fillcolor="white", style="filled",URL="$_button_8hpp.html",tooltip=" "];
  Node8 -> Node9 [dir="back",color="midnightblue",fontsize="10",style="solid"];
  Node9 [label="includes/Scenes/Menu.hpp",height=0.2,width=0.4,color="red", fillcolor="white", style="filled",URL="$_menu_8hpp.html",tooltip=" "];
  Node8 -> Node14 [dir="back",color="midnightblue",fontsize="10",style="solid"];
  Node14 [label="includes/Scenes/Options.hpp",height=0.2,width=0.4,color="red", fillcolor="white", style="filled",URL="$_options_8hpp.html",tooltip=" "];
  Node8 -> Node16 [dir="back",color="midnightblue",fontsize="10",style="solid"];
  Node16 [label="includes/Scenes/SelectPlayer.hpp",height=0.2,width=0.4,color="red", fillcolor="white", style="filled",URL="$_select_player_8hpp.html",tooltip=" "];
  Node7 -> Node23 [dir="back",color="midnightblue",fontsize="10",style="solid"];
  Node23 [label="includes/Factories\l/Collision.hpp",height=0.2,width=0.4,color="red", fillcolor="white", style="filled",URL="$_collision_8hpp.html",tooltip=" "];
  Node7 -> Node26 [dir="back",color="midnightblue",fontsize="10",style="solid"];
  Node26 [label="includes/Factories\l/ECS/components/ActionComponent.hpp",height=0.2,width=0.4,color="red", fillcolor="white", style="filled",URL="$_action_component_8hpp.html",tooltip=" "];
  Node26 -> Node31 [dir="back",color="midnightblue",fontsize="10",style="solid"];
  Node31 [label="includes/Graphical\l/Graphical.hpp",height=0.2,width=0.4,color="red", fillcolor="white", style="filled",URL="$_graphical_8hpp.html",tooltip=" "];
  Node31 -> Node9 [dir="back",color="midnightblue",fontsize="10",style="solid"];
  Node31 -> Node14 [dir="back",color="midnightblue",fontsize="10",style="solid"];
  Node31 -> Node16 [dir="back",color="midnightblue",fontsize="10",style="solid"];
  Node7 -> Node33 [dir="back",color="midnightblue",fontsize="10",style="solid"];
  Node33 [label="includes/Factories\l/ECS/components/CubeComponent.hpp",height=0.2,width=0.4,color="red", fillcolor="white", style="filled",URL="$_cube_component_8hpp.html",tooltip=" "];
  Node33 -> Node31 [dir="back",color="midnightblue",fontsize="10",style="solid"];
  Node7 -> Node49 [dir="back",color="midnightblue",fontsize="10",style="solid"];
  Node49 [label="includes/Factories\l/ECS/components/MeshComponent.hpp",height=0.2,width=0.4,color="red", fillcolor="white", style="filled",URL="$_mesh_component_8hpp.html",tooltip=" "];
  Node49 -> Node31 [dir="back",color="midnightblue",fontsize="10",style="solid"];
  Node7 -> Node51 [dir="back",color="midnightblue",fontsize="10",style="solid"];
  Node51 [label="includes/Factories\l/ECS/components/TextureComponent.hpp",height=0.2,width=0.4,color="red", fillcolor="white", style="filled",URL="$_texture_component_8hpp.html",tooltip=" "];
  Node51 -> Node8 [dir="back",color="midnightblue",fontsize="10",style="solid"];
  Node51 -> Node31 [dir="back",color="midnightblue",fontsize="10",style="solid"];
  Node7 -> Node53 [dir="back",color="midnightblue",fontsize="10",style="solid"];
  Node53 [label="includes/GameObjects\l/Particuls.hpp",height=0.2,width=0.4,color="red", fillcolor="white", style="filled",URL="$_particuls_8hpp.html",tooltip=" "];
  Node53 -> Node31 [dir="back",color="midnightblue",fontsize="10",style="solid"];
  Node7 -> Node31 [dir="back",color="midnightblue",fontsize="10",style="solid"];
  Node7 -> Node55 [dir="back",color="midnightblue",fontsize="10",style="solid"];
  Node55 [label="includes/Graphical\l/handleInput.hpp",height=0.2,width=0.4,color="red", fillcolor="white", style="filled",URL="$handle_input_8hpp.html",tooltip=" "];
  Node55 -> Node31 [dir="back",color="midnightblue",fontsize="10",style="solid"];
  Node7 -> Node44 [dir="back",color="midnightblue",fontsize="10",style="solid"];
  Node44 [label="includes/Render/Render.hpp",height=0.2,width=0.4,color="red", fillcolor="white", style="filled",URL="$_render_8hpp.html",tooltip=" "];
  Node5 -> Node57 [dir="back",color="midnightblue",fontsize="10",style="solid"];
  Node57 [label="cmake/include/ITerrainScene\lNode.h",height=0.2,width=0.4,color="black", fillcolor="white", style="filled",URL="$_i_terrain_scene_node_8h.html",tooltip=" "];
  Node57 -> Node7 [dir="back",color="midnightblue",fontsize="10",style="solid"];
  Node4 -> Node58 [dir="back",color="midnightblue",fontsize="10",style="solid"];
  Node58 [label="cmake/include/CMeshBuffer.h",height=0.2,width=0.4,color="black", fillcolor="white", style="filled",URL="$_c_mesh_buffer_8h.html",tooltip=" "];
  Node58 -> Node7 [dir="back",color="midnightblue",fontsize="10",style="solid"];
  Node58 -> Node59 [dir="back",color="midnightblue",fontsize="10",style="solid"];
  Node59 [label="cmake/include/SMeshBuffer.h",height=0.2,width=0.4,color="black", fillcolor="white", style="filled",URL="$_s_mesh_buffer_8h.html",tooltip=" "];
  Node59 -> Node7 [dir="back",color="midnightblue",fontsize="10",style="solid"];
  Node58 -> Node60 [dir="back",color="midnightblue",fontsize="10",style="solid"];
  Node60 [label="cmake/include/SMeshBuffer\lLightMap.h",height=0.2,width=0.4,color="black", fillcolor="white", style="filled",URL="$_s_mesh_buffer_light_map_8h.html",tooltip=" "];
  Node60 -> Node7 [dir="back",color="midnightblue",fontsize="10",style="solid"];
  Node58 -> Node61 [dir="back",color="midnightblue",fontsize="10",style="solid"];
  Node61 [label="cmake/include/SMeshBuffer\lTangents.h",height=0.2,width=0.4,color="black", fillcolor="white", style="filled",URL="$_s_mesh_buffer_tangents_8h.html",tooltip=" "];
  Node61 -> Node7 [dir="back",color="midnightblue",fontsize="10",style="solid"];
  Node4 -> Node62 [dir="back",color="midnightblue",fontsize="10",style="solid"];
  Node62 [label="cmake/include/IVideoDriver.h",height=0.2,width=0.4,color="black", fillcolor="white", style="filled",URL="$_i_video_driver_8h.html",tooltip=" "];
  Node62 -> Node63 [dir="back",color="midnightblue",fontsize="10",style="solid"];
  Node63 [label="cmake/include/IrrlichtDevice.h",height=0.2,width=0.4,color="red", fillcolor="white", style="filled",URL="$_irrlicht_device_8h.html",tooltip=" "];
  Node63 -> Node7 [dir="back",color="midnightblue",fontsize="10",style="solid"];
  Node62 -> Node65 [dir="back",color="midnightblue",fontsize="10",style="solid"];
  Node65 [label="cmake/include/IQ3Shader.h",height=0.2,width=0.4,color="black", fillcolor="white", style="filled",URL="$_i_q3_shader_8h.html",tooltip=" "];
  Node65 -> Node66 [dir="back",color="midnightblue",fontsize="10",style="solid"];
  Node66 [label="cmake/include/IAnimatedMesh\lMD3.h",height=0.2,width=0.4,color="red", fillcolor="white", style="filled",URL="$_i_animated_mesh_m_d3_8h.html",tooltip=" "];
  Node66 -> Node7 [dir="back",color="midnightblue",fontsize="10",style="solid"];
  Node65 -> Node70 [dir="back",color="midnightblue",fontsize="10",style="solid"];
  Node70 [label="cmake/include/IQ3LevelMesh.h",height=0.2,width=0.4,color="black", fillcolor="white", style="filled",URL="$_i_q3_level_mesh_8h.html",tooltip=" "];
  Node70 -> Node7 [dir="back",color="midnightblue",fontsize="10",style="solid"];
  Node65 -> Node7 [dir="back",color="midnightblue",fontsize="10",style="solid"];
  Node62 -> Node7 [dir="back",color="midnightblue",fontsize="10",style="solid"];
  Node62 -> Node71 [dir="back",color="midnightblue",fontsize="10",style="solid"];
  Node71 [label="cmake/include/SViewFrustum.h",height=0.2,width=0.4,color="black", fillcolor="white", style="filled",URL="$_s_view_frustum_8h.html",tooltip=" "];
  Node71 -> Node7 [dir="back",color="midnightblue",fontsize="10",style="solid"];
  Node4 -> Node7 [dir="back",color="midnightblue",fontsize="10",style="solid"];
  Node4 -> Node76 [dir="back",color="midnightblue",fontsize="10",style="solid"];
  Node76 [label="cmake/include/SMesh.h",height=0.2,width=0.4,color="black", fillcolor="white", style="filled",URL="$_s_mesh_8h.html",tooltip=" "];
  Node76 -> Node7 [dir="back",color="midnightblue",fontsize="10",style="solid"];
  Node4 -> Node77 [dir="back",color="midnightblue",fontsize="10",style="solid"];
  Node77 [label="cmake/include/SSharedMesh\lBuffer.h",height=0.2,width=0.4,color="black", fillcolor="white", style="filled",URL="$_s_shared_mesh_buffer_8h.html",tooltip=" "];
  Node77 -> Node7 [dir="back",color="midnightblue",fontsize="10",style="solid"];
  Node3 -> Node62 [dir="back",color="midnightblue",fontsize="10",style="solid"];
  Node3 -> Node78 [dir="back",color="midnightblue",fontsize="10",style="solid"];
  Node78 [label="cmake/include/IMesh.h",height=0.2,width=0.4,color="red", fillcolor="white", style="filled",URL="$_i_mesh_8h.html",tooltip=" "];
  Node78 -> Node7 [dir="back",color="midnightblue",fontsize="10",style="solid"];
  Node78 -> Node82 [dir="back",color="midnightblue",fontsize="10",style="solid"];
  Node82 [label="cmake/include/SAnimatedMesh.h",height=0.2,width=0.4,color="black", fillcolor="white", style="filled",URL="$_s_animated_mesh_8h.html",tooltip=" "];
  Node82 -> Node7 [dir="back",color="midnightblue",fontsize="10",style="solid"];
  Node78 -> Node76 [dir="back",color="midnightblue",fontsize="10",style="solid"];
  Node3 -> Node85 [dir="back",color="midnightblue",fontsize="10",style="solid"];
  Node85 [label="cmake/include/ISceneNode.h",height=0.2,width=0.4,color="red", fillcolor="white", style="filled",URL="$_i_scene_node_8h.html",tooltip=" "];
  Node85 -> Node81 [dir="back",color="midnightblue",fontsize="10",style="solid"];
  Node81 [label="cmake/include/IColladaMesh\lWriter.h",height=0.2,width=0.4,color="black", fillcolor="white", style="filled",URL="$_i_collada_mesh_writer_8h.html",tooltip=" "];
  Node81 -> Node7 [dir="back",color="midnightblue",fontsize="10",style="solid"];
  Node85 -> Node7 [dir="back",color="midnightblue",fontsize="10",style="solid"];
  Node85 -> Node57 [dir="back",color="midnightblue",fontsize="10",style="solid"];
  Node3 -> Node81 [dir="back",color="midnightblue",fontsize="10",style="solid"];
  Node3 -> Node97 [dir="back",color="midnightblue",fontsize="10",style="solid"];
  Node97 [label="cmake/include/IMaterialRenderer.h",height=0.2,width=0.4,color="black", fillcolor="white", style="filled",URL="$_i_material_renderer_8h.html",tooltip=" "];
  Node97 -> Node7 [dir="back",color="midnightblue",fontsize="10",style="solid"];
  Node3 -> Node98 [dir="back",color="midnightblue",fontsize="10",style="solid"];
  Node98 [label="cmake/include/IMaterialRenderer\lServices.h",height=0.2,width=0.4,color="black", fillcolor="white", style="filled",URL="$_i_material_renderer_services_8h.html",tooltip=" "];
  Node98 -> Node7 [dir="back",color="midnightblue",fontsize="10",style="solid"];
  Node3 -> Node7 [dir="back",color="midnightblue",fontsize="10",style="solid"];
  Node2 -> Node99 [dir="back",color="midnightblue",fontsize="10",style="solid"];
  Node99 [label="cmake/include/IVertexBuffer.h",height=0.2,width=0.4,color="black", fillcolor="white", style="filled",URL="$_i_vertex_buffer_8h.html",tooltip=" "];
  Node99 -> Node5 [dir="back",color="midnightblue",fontsize="10",style="solid"];
  Node99 -> Node100 [dir="back",color="midnightblue",fontsize="10",style="solid"];
  Node100 [label="cmake/include/CVertexBuffer.h",height=0.2,width=0.4,color="red", fillcolor="white", style="filled",URL="$_c_vertex_buffer_8h.html",tooltip=" "];
  Node100 -> Node7 [dir="back",color="midnightblue",fontsize="10",style="solid"];
  Node99 -> Node7 [dir="back",color="midnightblue",fontsize="10",style="solid"];
  Node2 -> Node101 [dir="back",color="midnightblue",fontsize="10",style="solid"];
  Node101 [label="cmake/include/IIndexBuffer.h",height=0.2,width=0.4,color="black", fillcolor="white", style="filled",URL="$_i_index_buffer_8h.html",tooltip=" "];
  Node101 -> Node5 [dir="back",color="midnightblue",fontsize="10",style="solid"];
  Node101 -> Node102 [dir="back",color="midnightblue",fontsize="10",style="solid"];
  Node102 [label="cmake/include/CIndexBuffer.h",height=0.2,width=0.4,color="red", fillcolor="white", style="filled",URL="$_c_index_buffer_8h.html",tooltip=" "];
  Node102 -> Node7 [dir="back",color="midnightblue",fontsize="10",style="solid"];
  Node101 -> Node7 [dir="back",color="midnightblue",fontsize="10",style="solid"];
  Node2 -> Node58 [dir="back",color="midnightblue",fontsize="10",style="solid"];
  Node2 -> Node62 [dir="back",color="midnightblue",fontsize="10",style="solid"];
  Node2 -> Node65 [dir="back",color="midnightblue",fontsize="10",style="solid"];
  Node2 -> Node103 [dir="back",color="midnightblue",fontsize="10",style="solid"];
  Node103 [label="cmake/include/IAttributes.h",height=0.2,width=0.4,color="black", fillcolor="white", style="filled",URL="$_i_attributes_8h.html",tooltip=" "];
  Node103 -> Node85 [dir="back",color="midnightblue",fontsize="10",style="solid"];
  Node103 -> Node104 [dir="back",color="midnightblue",fontsize="10",style="solid"];
  Node104 [label="cmake/include/IGUIElement.h",height=0.2,width=0.4,color="red", fillcolor="white", style="filled",URL="$_i_g_u_i_element_8h.html",tooltip=" "];
  Node104 -> Node7 [dir="back",color="midnightblue",fontsize="10",style="solid"];
  Node103 -> Node7 [dir="back",color="midnightblue",fontsize="10",style="solid"];
  Node2 -> Node125 [dir="back",color="midnightblue",fontsize="10",style="solid"];
  Node125 [label="cmake/include/IGUISprite\lBank.h",height=0.2,width=0.4,color="black", fillcolor="white", style="filled",URL="$_i_g_u_i_sprite_bank_8h.html",tooltip=" "];
  Node125 -> Node7 [dir="back",color="midnightblue",fontsize="10",style="solid"];
  Node2 -> Node126 [dir="back",color="midnightblue",fontsize="10",style="solid"];
  Node126 [label="cmake/include/ILightManager.h",height=0.2,width=0.4,color="black", fillcolor="white", style="filled",URL="$_i_light_manager_8h.html",tooltip=" "];
  Node126 -> Node7 [dir="back",color="midnightblue",fontsize="10",style="solid"];
  Node2 -> Node7 [dir="back",color="midnightblue",fontsize="10",style="solid"];
  Node2 -> Node75 [dir="back",color="midnightblue",fontsize="10",style="solid"];
  Node75 [label="cmake/include/ISceneManager.h",height=0.2,width=0.4,color="black", fillcolor="white", style="filled",URL="$_i_scene_manager_8h.html",tooltip=" "];
  Node75 -> Node7 [dir="back",color="midnightblue",fontsize="10",style="solid"];
  Node2 -> Node74 [dir="back",color="midnightblue",fontsize="10",style="solid"];
  Node74 [label="cmake/include/ISkinnedMesh.h",height=0.2,width=0.4,color="black", fillcolor="white", style="filled",URL="$_i_skinned_mesh_8h.html",tooltip=" "];
  Node74 -> Node75 [dir="back",color="midnightblue",fontsize="10",style="solid"];
  Node74 -> Node7 [dir="back",color="midnightblue",fontsize="10",style="solid"];
  Node2 -> Node127 [dir="back",color="midnightblue",fontsize="10",style="solid"];
  Node127 [label="cmake/include/ISceneNode\lAnimatorCameraFPS.h",height=0.2,width=0.4,color="black", fillcolor="white", style="filled",URL="$_i_scene_node_animator_camera_f_p_s_8h.html",tooltip=" "];
  Node127 -> Node7 [dir="back",color="midnightblue",fontsize="10",style="solid"];
  Node2 -> Node57 [dir="back",color="midnightblue",fontsize="10",style="solid"];
  Node2 -> Node128 [dir="back",color="midnightblue",fontsize="10",style="solid"];
  Node128 [label="cmake/include/IXMLWriter.h",height=0.2,width=0.4,color="black", fillcolor="white", style="filled",URL="$_i_x_m_l_writer_8h.html",tooltip=" "];
  Node128 -> Node7 [dir="back",color="midnightblue",fontsize="10",style="solid"];
  Node2 -> Node82 [dir="back",color="midnightblue",fontsize="10",style="solid"];
  Node2 -> Node76 [dir="back",color="midnightblue",fontsize="10",style="solid"];
  Node2 -> Node77 [dir="back",color="midnightblue",fontsize="10",style="solid"];
  Node1 -> Node7 [dir="back",color="midnightblue",fontsize="10",style="solid"];
}
