digraph "cmake/include/irrArray.h"
{
 // LATEX_PDF_SIZE
  edge [fontname="Helvetica",fontsize="10",labelfontname="Helvetica",labelfontsize="10"];
  node [fontname="Helvetica",fontsize="10",shape=record];
  Node1 [label="cmake/include/irrArray.h",height=0.2,width=0.4,color="black", fillcolor="grey75", style="filled", fontcolor="black",tooltip=" "];
  Node1 -> Node2 [dir="back",color="midnightblue",fontsize="10",style="solid"];
  Node2 [label="cmake/include/SMaterial.h",height=0.2,width=0.4,color="black", fillcolor="white", style="filled",URL="$_s_material_8h.html",tooltip=" "];
  Node2 -> Node3 [dir="back",color="midnightblue",fontsize="10",style="solid"];
  Node3 [label="cmake/include/IMeshBuffer.h",height=0.2,width=0.4,color="black", fillcolor="white", style="filled",URL="$_i_mesh_buffer_8h.html",tooltip=" "];
  Node3 -> Node4 [dir="back",color="midnightblue",fontsize="10",style="solid"];
  Node4 [label="cmake/include/IDynamicMesh\lBuffer.h",height=0.2,width=0.4,color="red", fillcolor="white", style="filled",URL="$_i_dynamic_mesh_buffer_8h.html",tooltip=" "];
  Node4 -> Node6 [dir="back",color="midnightblue",fontsize="10",style="solid"];
  Node6 [label="cmake/include/irrlicht.h",height=0.2,width=0.4,color="black", fillcolor="white", style="filled",URL="$irrlicht_8h.html",tooltip="Main header file of the irrlicht, the only file needed to include."];
  Node6 -> Node7 [dir="back",color="midnightblue",fontsize="10",style="solid"];
  Node7 [label="includes/Factories\l/Button.hpp",height=0.2,width=0.4,color="red", fillcolor="white", style="filled",URL="$_button_8hpp.html",tooltip=" "];
  Node6 -> Node22 [dir="back",color="midnightblue",fontsize="10",style="solid"];
  Node22 [label="includes/Factories\l/Collision.hpp",height=0.2,width=0.4,color="red", fillcolor="white", style="filled",URL="$_collision_8hpp.html",tooltip=" "];
  Node6 -> Node25 [dir="back",color="midnightblue",fontsize="10",style="solid"];
  Node25 [label="includes/Factories\l/ECS/components/ActionComponent.hpp",height=0.2,width=0.4,color="red", fillcolor="white", style="filled",URL="$_action_component_8hpp.html",tooltip=" "];
  Node25 -> Node30 [dir="back",color="midnightblue",fontsize="10",style="solid"];
  Node30 [label="includes/Graphical\l/Graphical.hpp",height=0.2,width=0.4,color="red", fillcolor="white", style="filled",URL="$_graphical_8hpp.html",tooltip=" "];
  Node6 -> Node32 [dir="back",color="midnightblue",fontsize="10",style="solid"];
  Node32 [label="includes/Factories\l/ECS/components/CubeComponent.hpp",height=0.2,width=0.4,color="red", fillcolor="white", style="filled",URL="$_cube_component_8hpp.html",tooltip=" "];
  Node32 -> Node30 [dir="back",color="midnightblue",fontsize="10",style="solid"];
  Node6 -> Node48 [dir="back",color="midnightblue",fontsize="10",style="solid"];
  Node48 [label="includes/Factories\l/ECS/components/MeshComponent.hpp",height=0.2,width=0.4,color="red", fillcolor="white", style="filled",URL="$_mesh_component_8hpp.html",tooltip=" "];
  Node48 -> Node30 [dir="back",color="midnightblue",fontsize="10",style="solid"];
  Node6 -> Node50 [dir="back",color="midnightblue",fontsize="10",style="solid"];
  Node50 [label="includes/Factories\l/ECS/components/TextureComponent.hpp",height=0.2,width=0.4,color="red", fillcolor="white", style="filled",URL="$_texture_component_8hpp.html",tooltip=" "];
  Node50 -> Node7 [dir="back",color="midnightblue",fontsize="10",style="solid"];
  Node50 -> Node30 [dir="back",color="midnightblue",fontsize="10",style="solid"];
  Node6 -> Node52 [dir="back",color="midnightblue",fontsize="10",style="solid"];
  Node52 [label="includes/GameObjects\l/Particuls.hpp",height=0.2,width=0.4,color="red", fillcolor="white", style="filled",URL="$_particuls_8hpp.html",tooltip=" "];
  Node52 -> Node30 [dir="back",color="midnightblue",fontsize="10",style="solid"];
  Node6 -> Node30 [dir="back",color="midnightblue",fontsize="10",style="solid"];
  Node6 -> Node54 [dir="back",color="midnightblue",fontsize="10",style="solid"];
  Node54 [label="includes/Graphical\l/handleInput.hpp",height=0.2,width=0.4,color="red", fillcolor="white", style="filled",URL="$handle_input_8hpp.html",tooltip=" "];
  Node54 -> Node30 [dir="back",color="midnightblue",fontsize="10",style="solid"];
  Node6 -> Node43 [dir="back",color="midnightblue",fontsize="10",style="solid"];
  Node43 [label="includes/Render/Render.hpp",height=0.2,width=0.4,color="red", fillcolor="white", style="filled",URL="$_render_8hpp.html",tooltip=" "];
  Node4 -> Node56 [dir="back",color="midnightblue",fontsize="10",style="solid"];
  Node56 [label="cmake/include/ITerrainScene\lNode.h",height=0.2,width=0.4,color="black", fillcolor="white", style="filled",URL="$_i_terrain_scene_node_8h.html",tooltip=" "];
  Node56 -> Node6 [dir="back",color="midnightblue",fontsize="10",style="solid"];
  Node3 -> Node57 [dir="back",color="midnightblue",fontsize="10",style="solid"];
  Node57 [label="cmake/include/CMeshBuffer.h",height=0.2,width=0.4,color="black", fillcolor="white", style="filled",URL="$_c_mesh_buffer_8h.html",tooltip=" "];
  Node57 -> Node6 [dir="back",color="midnightblue",fontsize="10",style="solid"];
  Node57 -> Node58 [dir="back",color="midnightblue",fontsize="10",style="solid"];
  Node58 [label="cmake/include/SMeshBuffer.h",height=0.2,width=0.4,color="black", fillcolor="white", style="filled",URL="$_s_mesh_buffer_8h.html",tooltip=" "];
  Node58 -> Node6 [dir="back",color="midnightblue",fontsize="10",style="solid"];
  Node57 -> Node59 [dir="back",color="midnightblue",fontsize="10",style="solid"];
  Node59 [label="cmake/include/SMeshBuffer\lLightMap.h",height=0.2,width=0.4,color="black", fillcolor="white", style="filled",URL="$_s_mesh_buffer_light_map_8h.html",tooltip=" "];
  Node59 -> Node6 [dir="back",color="midnightblue",fontsize="10",style="solid"];
  Node57 -> Node60 [dir="back",color="midnightblue",fontsize="10",style="solid"];
  Node60 [label="cmake/include/SMeshBuffer\lTangents.h",height=0.2,width=0.4,color="black", fillcolor="white", style="filled",URL="$_s_mesh_buffer_tangents_8h.html",tooltip=" "];
  Node60 -> Node6 [dir="back",color="midnightblue",fontsize="10",style="solid"];
  Node3 -> Node61 [dir="back",color="midnightblue",fontsize="10",style="solid"];
  Node61 [label="cmake/include/IVideoDriver.h",height=0.2,width=0.4,color="black", fillcolor="white", style="filled",URL="$_i_video_driver_8h.html",tooltip=" "];
  Node61 -> Node62 [dir="back",color="midnightblue",fontsize="10",style="solid"];
  Node62 [label="cmake/include/IrrlichtDevice.h",height=0.2,width=0.4,color="red", fillcolor="white", style="filled",URL="$_irrlicht_device_8h.html",tooltip=" "];
  Node62 -> Node6 [dir="back",color="midnightblue",fontsize="10",style="solid"];
  Node61 -> Node64 [dir="back",color="midnightblue",fontsize="10",style="solid"];
  Node64 [label="cmake/include/IQ3Shader.h",height=0.2,width=0.4,color="black", fillcolor="white", style="filled",URL="$_i_q3_shader_8h.html",tooltip=" "];
  Node64 -> Node65 [dir="back",color="midnightblue",fontsize="10",style="solid"];
  Node65 [label="cmake/include/IAnimatedMesh\lMD3.h",height=0.2,width=0.4,color="red", fillcolor="white", style="filled",URL="$_i_animated_mesh_m_d3_8h.html",tooltip=" "];
  Node65 -> Node6 [dir="back",color="midnightblue",fontsize="10",style="solid"];
  Node64 -> Node69 [dir="back",color="midnightblue",fontsize="10",style="solid"];
  Node69 [label="cmake/include/IQ3LevelMesh.h",height=0.2,width=0.4,color="black", fillcolor="white", style="filled",URL="$_i_q3_level_mesh_8h.html",tooltip=" "];
  Node69 -> Node6 [dir="back",color="midnightblue",fontsize="10",style="solid"];
  Node64 -> Node6 [dir="back",color="midnightblue",fontsize="10",style="solid"];
  Node61 -> Node6 [dir="back",color="midnightblue",fontsize="10",style="solid"];
  Node61 -> Node70 [dir="back",color="midnightblue",fontsize="10",style="solid"];
  Node70 [label="cmake/include/SViewFrustum.h",height=0.2,width=0.4,color="black", fillcolor="white", style="filled",URL="$_s_view_frustum_8h.html",tooltip=" "];
  Node70 -> Node6 [dir="back",color="midnightblue",fontsize="10",style="solid"];
  Node3 -> Node71 [dir="back",color="midnightblue",fontsize="10",style="solid"];
  Node71 [label="cmake/include/IMeshManipulator.h",height=0.2,width=0.4,color="black", fillcolor="white", style="filled",URL="$_i_mesh_manipulator_8h.html",tooltip=" "];
  Node71 -> Node6 [dir="back",color="midnightblue",fontsize="10",style="solid"];
  Node3 -> Node6 [dir="back",color="midnightblue",fontsize="10",style="solid"];
  Node3 -> Node72 [dir="back",color="midnightblue",fontsize="10",style="solid"];
  Node72 [label="cmake/include/SSkinMeshBuffer.h",height=0.2,width=0.4,color="black", fillcolor="white", style="filled",URL="$_s_skin_mesh_buffer_8h.html",tooltip=" "];
  Node72 -> Node73 [dir="back",color="midnightblue",fontsize="10",style="solid"];
  Node73 [label="cmake/include/ISkinnedMesh.h",height=0.2,width=0.4,color="black", fillcolor="white", style="filled",URL="$_i_skinned_mesh_8h.html",tooltip=" "];
  Node73 -> Node74 [dir="back",color="midnightblue",fontsize="10",style="solid"];
  Node74 [label="cmake/include/ISceneManager.h",height=0.2,width=0.4,color="black", fillcolor="white", style="filled",URL="$_i_scene_manager_8h.html",tooltip=" "];
  Node74 -> Node6 [dir="back",color="midnightblue",fontsize="10",style="solid"];
  Node73 -> Node6 [dir="back",color="midnightblue",fontsize="10",style="solid"];
  Node72 -> Node6 [dir="back",color="midnightblue",fontsize="10",style="solid"];
  Node3 -> Node75 [dir="back",color="midnightblue",fontsize="10",style="solid"];
  Node75 [label="cmake/include/SMesh.h",height=0.2,width=0.4,color="black", fillcolor="white", style="filled",URL="$_s_mesh_8h.html",tooltip=" "];
  Node75 -> Node6 [dir="back",color="midnightblue",fontsize="10",style="solid"];
  Node3 -> Node76 [dir="back",color="midnightblue",fontsize="10",style="solid"];
  Node76 [label="cmake/include/SSharedMesh\lBuffer.h",height=0.2,width=0.4,color="black", fillcolor="white", style="filled",URL="$_s_shared_mesh_buffer_8h.html",tooltip=" "];
  Node76 -> Node6 [dir="back",color="midnightblue",fontsize="10",style="solid"];
  Node2 -> Node61 [dir="back",color="midnightblue",fontsize="10",style="solid"];
  Node2 -> Node77 [dir="back",color="midnightblue",fontsize="10",style="solid"];
  Node77 [label="cmake/include/IMesh.h",height=0.2,width=0.4,color="red", fillcolor="white", style="filled",URL="$_i_mesh_8h.html",tooltip=" "];
  Node77 -> Node78 [dir="back",color="midnightblue",fontsize="10",style="solid"];
  Node78 [label="cmake/include/IAnimatedMesh.h",height=0.2,width=0.4,color="red", fillcolor="white", style="filled",URL="$_i_animated_mesh_8h.html",tooltip=" "];
  Node78 -> Node65 [dir="back",color="midnightblue",fontsize="10",style="solid"];
  Node78 -> Node80 [dir="back",color="midnightblue",fontsize="10",style="solid"];
  Node80 [label="cmake/include/IColladaMesh\lWriter.h",height=0.2,width=0.4,color="black", fillcolor="white", style="filled",URL="$_i_collada_mesh_writer_8h.html",tooltip=" "];
  Node80 -> Node6 [dir="back",color="midnightblue",fontsize="10",style="solid"];
  Node78 -> Node71 [dir="back",color="midnightblue",fontsize="10",style="solid"];
  Node78 -> Node69 [dir="back",color="midnightblue",fontsize="10",style="solid"];
  Node78 -> Node6 [dir="back",color="midnightblue",fontsize="10",style="solid"];
  Node78 -> Node73 [dir="back",color="midnightblue",fontsize="10",style="solid"];
  Node78 -> Node81 [dir="back",color="midnightblue",fontsize="10",style="solid"];
  Node81 [label="cmake/include/SAnimatedMesh.h",height=0.2,width=0.4,color="black", fillcolor="white", style="filled",URL="$_s_animated_mesh_8h.html",tooltip=" "];
  Node81 -> Node6 [dir="back",color="midnightblue",fontsize="10",style="solid"];
  Node77 -> Node82 [dir="back",color="midnightblue",fontsize="10",style="solid"];
  Node82 [label="cmake/include/IGeometryCreator.h",height=0.2,width=0.4,color="black", fillcolor="white", style="filled",URL="$_i_geometry_creator_8h.html",tooltip=" "];
  Node82 -> Node6 [dir="back",color="midnightblue",fontsize="10",style="solid"];
  Node82 -> Node74 [dir="back",color="midnightblue",fontsize="10",style="solid"];
  Node77 -> Node6 [dir="back",color="midnightblue",fontsize="10",style="solid"];
  Node77 -> Node81 [dir="back",color="midnightblue",fontsize="10",style="solid"];
  Node77 -> Node75 [dir="back",color="midnightblue",fontsize="10",style="solid"];
  Node2 -> Node84 [dir="back",color="midnightblue",fontsize="10",style="solid"];
  Node84 [label="cmake/include/ISceneNode.h",height=0.2,width=0.4,color="red", fillcolor="white", style="filled",URL="$_i_scene_node_8h.html",tooltip=" "];
  Node84 -> Node80 [dir="back",color="midnightblue",fontsize="10",style="solid"];
  Node84 -> Node6 [dir="back",color="midnightblue",fontsize="10",style="solid"];
  Node84 -> Node56 [dir="back",color="midnightblue",fontsize="10",style="solid"];
  Node2 -> Node80 [dir="back",color="midnightblue",fontsize="10",style="solid"];
  Node2 -> Node96 [dir="back",color="midnightblue",fontsize="10",style="solid"];
  Node96 [label="cmake/include/IMaterialRenderer.h",height=0.2,width=0.4,color="black", fillcolor="white", style="filled",URL="$_i_material_renderer_8h.html",tooltip=" "];
  Node96 -> Node6 [dir="back",color="midnightblue",fontsize="10",style="solid"];
  Node2 -> Node97 [dir="back",color="midnightblue",fontsize="10",style="solid"];
  Node97 [label="cmake/include/IMaterialRenderer\lServices.h",height=0.2,width=0.4,color="black", fillcolor="white", style="filled",URL="$_i_material_renderer_services_8h.html",tooltip=" "];
  Node97 -> Node6 [dir="back",color="midnightblue",fontsize="10",style="solid"];
  Node2 -> Node6 [dir="back",color="midnightblue",fontsize="10",style="solid"];
  Node1 -> Node98 [dir="back",color="midnightblue",fontsize="10",style="solid"];
  Node98 [label="cmake/include/IVertexBuffer.h",height=0.2,width=0.4,color="black", fillcolor="white", style="filled",URL="$_i_vertex_buffer_8h.html",tooltip=" "];
  Node98 -> Node4 [dir="back",color="midnightblue",fontsize="10",style="solid"];
  Node98 -> Node99 [dir="back",color="midnightblue",fontsize="10",style="solid"];
  Node99 [label="cmake/include/CVertexBuffer.h",height=0.2,width=0.4,color="red", fillcolor="white", style="filled",URL="$_c_vertex_buffer_8h.html",tooltip=" "];
  Node99 -> Node6 [dir="back",color="midnightblue",fontsize="10",style="solid"];
  Node98 -> Node6 [dir="back",color="midnightblue",fontsize="10",style="solid"];
  Node1 -> Node100 [dir="back",color="midnightblue",fontsize="10",style="solid"];
  Node100 [label="cmake/include/IIndexBuffer.h",height=0.2,width=0.4,color="black", fillcolor="white", style="filled",URL="$_i_index_buffer_8h.html",tooltip=" "];
  Node100 -> Node4 [dir="back",color="midnightblue",fontsize="10",style="solid"];
  Node100 -> Node101 [dir="back",color="midnightblue",fontsize="10",style="solid"];
  Node101 [label="cmake/include/CIndexBuffer.h",height=0.2,width=0.4,color="red", fillcolor="white", style="filled",URL="$_c_index_buffer_8h.html",tooltip=" "];
  Node101 -> Node6 [dir="back",color="midnightblue",fontsize="10",style="solid"];
  Node100 -> Node6 [dir="back",color="midnightblue",fontsize="10",style="solid"];
  Node1 -> Node57 [dir="back",color="midnightblue",fontsize="10",style="solid"];
  Node1 -> Node61 [dir="back",color="midnightblue",fontsize="10",style="solid"];
  Node1 -> Node64 [dir="back",color="midnightblue",fontsize="10",style="solid"];
  Node1 -> Node102 [dir="back",color="midnightblue",fontsize="10",style="solid"];
  Node102 [label="cmake/include/IAttributes.h",height=0.2,width=0.4,color="black", fillcolor="white", style="filled",URL="$_i_attributes_8h.html",tooltip=" "];
  Node102 -> Node84 [dir="back",color="midnightblue",fontsize="10",style="solid"];
  Node102 -> Node103 [dir="back",color="midnightblue",fontsize="10",style="solid"];
  Node103 [label="cmake/include/IGUIElement.h",height=0.2,width=0.4,color="red", fillcolor="white", style="filled",URL="$_i_g_u_i_element_8h.html",tooltip=" "];
  Node103 -> Node6 [dir="back",color="midnightblue",fontsize="10",style="solid"];
  Node102 -> Node6 [dir="back",color="midnightblue",fontsize="10",style="solid"];
  Node1 -> Node124 [dir="back",color="midnightblue",fontsize="10",style="solid"];
  Node124 [label="cmake/include/IGUISprite\lBank.h",height=0.2,width=0.4,color="black", fillcolor="white", style="filled",URL="$_i_g_u_i_sprite_bank_8h.html",tooltip=" "];
  Node124 -> Node6 [dir="back",color="midnightblue",fontsize="10",style="solid"];
  Node1 -> Node125 [dir="back",color="midnightblue",fontsize="10",style="solid"];
  Node125 [label="cmake/include/ILightManager.h",height=0.2,width=0.4,color="black", fillcolor="white", style="filled",URL="$_i_light_manager_8h.html",tooltip=" "];
  Node125 -> Node6 [dir="back",color="midnightblue",fontsize="10",style="solid"];
  Node1 -> Node6 [dir="back",color="midnightblue",fontsize="10",style="solid"];
  Node1 -> Node74 [dir="back",color="midnightblue",fontsize="10",style="solid"];
  Node1 -> Node73 [dir="back",color="midnightblue",fontsize="10",style="solid"];
  Node1 -> Node126 [dir="back",color="midnightblue",fontsize="10",style="solid"];
  Node126 [label="cmake/include/ISceneNode\lAnimatorCameraFPS.h",height=0.2,width=0.4,color="black", fillcolor="white", style="filled",URL="$_i_scene_node_animator_camera_f_p_s_8h.html",tooltip=" "];
  Node126 -> Node6 [dir="back",color="midnightblue",fontsize="10",style="solid"];
  Node1 -> Node56 [dir="back",color="midnightblue",fontsize="10",style="solid"];
  Node1 -> Node127 [dir="back",color="midnightblue",fontsize="10",style="solid"];
  Node127 [label="cmake/include/IXMLWriter.h",height=0.2,width=0.4,color="black", fillcolor="white", style="filled",URL="$_i_x_m_l_writer_8h.html",tooltip=" "];
  Node127 -> Node6 [dir="back",color="midnightblue",fontsize="10",style="solid"];
  Node1 -> Node81 [dir="back",color="midnightblue",fontsize="10",style="solid"];
  Node1 -> Node75 [dir="back",color="midnightblue",fontsize="10",style="solid"];
  Node1 -> Node76 [dir="back",color="midnightblue",fontsize="10",style="solid"];
}
