digraph "includes/Factories/map_tools.hpp"
{
 // LATEX_PDF_SIZE
  edge [fontname="Helvetica",fontsize="10",labelfontname="Helvetica",labelfontsize="10"];
  node [fontname="Helvetica",fontsize="10",shape=record];
  Node1 [label="includes/Factories\l/map_tools.hpp",height=0.2,width=0.4,color="black", fillcolor="grey75", style="filled", fontcolor="black",tooltip=" "];
  Node1 -> Node2 [dir="back",color="midnightblue",fontsize="10",style="solid"];
  Node2 [label="includes/Factories\l/MapFactory.hpp",height=0.2,width=0.4,color="black", fillcolor="white", style="filled",URL="$_map_factory_8hpp.html",tooltip=" "];
  Node2 -> Node3 [dir="back",color="midnightblue",fontsize="10",style="solid"];
  Node3 [label="includes/Scenes/GameScene.hpp",height=0.2,width=0.4,color="black", fillcolor="white", style="filled",URL="$_game_scene_8hpp.html",tooltip=" "];
  Node3 -> Node4 [dir="back",color="midnightblue",fontsize="10",style="solid"];
  Node4 [label="includes/Core/Core.hpp",height=0.2,width=0.4,color="black", fillcolor="white", style="filled",URL="$_core_8hpp.html",tooltip=" "];
  Node4 -> Node5 [dir="back",color="midnightblue",fontsize="10",style="solid"];
  Node5 [label="sources/Core/Core.cpp",height=0.2,width=0.4,color="black", fillcolor="white", style="filled",URL="$_core_8cpp.html",tooltip=" "];
  Node4 -> Node6 [dir="back",color="midnightblue",fontsize="10",style="solid"];
  Node6 [label="sources/main.cpp",height=0.2,width=0.4,color="black", fillcolor="white", style="filled",URL="$main_8cpp.html",tooltip=" "];
  Node3 -> Node7 [dir="back",color="midnightblue",fontsize="10",style="solid"];
  Node7 [label="sources/Scenes/GameScene.cpp",height=0.2,width=0.4,color="black", fillcolor="white", style="filled",URL="$_game_scene_8cpp.html",tooltip=" "];
  Node2 -> Node8 [dir="back",color="midnightblue",fontsize="10",style="solid"];
  Node8 [label="sources/Factories/MapFactory.cpp",height=0.2,width=0.4,color="black", fillcolor="white", style="filled",URL="$_map_factory_8cpp.html",tooltip=" "];
  Node2 -> Node6 [dir="back",color="midnightblue",fontsize="10",style="solid"];
  Node1 -> Node9 [dir="back",color="midnightblue",fontsize="10",style="solid"];
  Node9 [label="includes/GameObjects\l/Bomb.hpp",height=0.2,width=0.4,color="black", fillcolor="white", style="filled",URL="$_bomb_8hpp.html",tooltip=" "];
  Node9 -> Node10 [dir="back",color="midnightblue",fontsize="10",style="solid"];
  Node10 [label="includes/Factories\l/ECS/entities/Perso.hpp",height=0.2,width=0.4,color="black", fillcolor="white", style="filled",URL="$_perso_8hpp.html",tooltip=" "];
  Node10 -> Node3 [dir="back",color="midnightblue",fontsize="10",style="solid"];
  Node10 -> Node11 [dir="back",color="midnightblue",fontsize="10",style="solid"];
  Node11 [label="sources/Factories/ECS\l/entities/Perso.cpp",height=0.2,width=0.4,color="black", fillcolor="white", style="filled",URL="$_perso_8cpp.html",tooltip=" "];
  Node10 -> Node6 [dir="back",color="midnightblue",fontsize="10",style="solid"];
  Node9 -> Node12 [dir="back",color="midnightblue",fontsize="10",style="solid"];
  Node12 [label="sources/GameObjects\l/Bomb.cpp",height=0.2,width=0.4,color="black", fillcolor="white", style="filled",URL="$_bomb_8cpp.html",tooltip=" "];
  Node1 -> Node13 [dir="back",color="midnightblue",fontsize="10",style="solid"];
  Node13 [label="includes/GameObjects\l/Map.hpp",height=0.2,width=0.4,color="black", fillcolor="white", style="filled",URL="$_map_8hpp.html",tooltip=" "];
  Node13 -> Node2 [dir="back",color="midnightblue",fontsize="10",style="solid"];
  Node13 -> Node14 [dir="back",color="midnightblue",fontsize="10",style="solid"];
  Node14 [label="includes/Graphical\l/Graphical.hpp",height=0.2,width=0.4,color="black", fillcolor="white", style="filled",URL="$_graphical_8hpp.html",tooltip=" "];
  Node14 -> Node4 [dir="back",color="midnightblue",fontsize="10",style="solid"];
  Node14 -> Node3 [dir="back",color="midnightblue",fontsize="10",style="solid"];
  Node14 -> Node15 [dir="back",color="midnightblue",fontsize="10",style="solid"];
  Node15 [label="includes/Scenes/Menu.hpp",height=0.2,width=0.4,color="black", fillcolor="white", style="filled",URL="$_menu_8hpp.html",tooltip=" "];
  Node15 -> Node4 [dir="back",color="midnightblue",fontsize="10",style="solid"];
  Node15 -> Node16 [dir="back",color="midnightblue",fontsize="10",style="solid"];
  Node16 [label="sources/Scenes/Menu.cpp",height=0.2,width=0.4,color="black", fillcolor="white", style="filled",URL="$_menu_8cpp.html",tooltip=" "];
  Node14 -> Node17 [dir="back",color="midnightblue",fontsize="10",style="solid"];
  Node17 [label="includes/Scenes/Options.hpp",height=0.2,width=0.4,color="black", fillcolor="white", style="filled",URL="$_options_8hpp.html",tooltip=" "];
  Node17 -> Node4 [dir="back",color="midnightblue",fontsize="10",style="solid"];
  Node17 -> Node18 [dir="back",color="midnightblue",fontsize="10",style="solid"];
  Node18 [label="sources/Scenes/Options.cpp",height=0.2,width=0.4,color="black", fillcolor="white", style="filled",URL="$_options_8cpp.html",tooltip=" "];
  Node14 -> Node19 [dir="back",color="midnightblue",fontsize="10",style="solid"];
  Node19 [label="includes/Scenes/SelectPlayer.hpp",height=0.2,width=0.4,color="black", fillcolor="white", style="filled",URL="$_select_player_8hpp.html",tooltip=" "];
  Node19 -> Node4 [dir="back",color="midnightblue",fontsize="10",style="solid"];
  Node19 -> Node20 [dir="back",color="midnightblue",fontsize="10",style="solid"];
  Node20 [label="sources/Scenes/SelectPlayer.cpp",height=0.2,width=0.4,color="black", fillcolor="white", style="filled",URL="$_select_player_8cpp.html",tooltip=" "];
  Node14 -> Node21 [dir="back",color="midnightblue",fontsize="10",style="solid"];
  Node21 [label="includes/Scenes/SelectSave.hpp",height=0.2,width=0.4,color="black", fillcolor="white", style="filled",URL="$_select_save_8hpp.html",tooltip=" "];
  Node21 -> Node4 [dir="back",color="midnightblue",fontsize="10",style="solid"];
  Node21 -> Node22 [dir="back",color="midnightblue",fontsize="10",style="solid"];
  Node22 [label="sources/Scenes/SelectSave.cpp",height=0.2,width=0.4,color="black", fillcolor="white", style="filled",URL="$_select_save_8cpp.html",tooltip=" "];
  Node14 -> Node23 [dir="back",color="midnightblue",fontsize="10",style="solid"];
  Node23 [label="includes/Scenes/Title.hpp",height=0.2,width=0.4,color="black", fillcolor="white", style="filled",URL="$_title_8hpp.html",tooltip=" "];
  Node23 -> Node4 [dir="back",color="midnightblue",fontsize="10",style="solid"];
  Node23 -> Node24 [dir="back",color="midnightblue",fontsize="10",style="solid"];
  Node24 [label="sources/Scenes/Title.cpp",height=0.2,width=0.4,color="black", fillcolor="white", style="filled",URL="$_title_8cpp.html",tooltip=" "];
  Node14 -> Node25 [dir="back",color="midnightblue",fontsize="10",style="solid"];
  Node25 [label="sources/Graphical/Graphical.cpp",height=0.2,width=0.4,color="black", fillcolor="white", style="filled",URL="$_graphical_8cpp.html",tooltip=" "];
  Node14 -> Node6 [dir="back",color="midnightblue",fontsize="10",style="solid"];
  Node13 -> Node26 [dir="back",color="midnightblue",fontsize="10",style="solid"];
  Node26 [label="includes/Render/Render.hpp",height=0.2,width=0.4,color="black", fillcolor="white", style="filled",URL="$_render_8hpp.html",tooltip=" "];
  Node26 -> Node6 [dir="back",color="midnightblue",fontsize="10",style="solid"];
  Node26 -> Node27 [dir="back",color="midnightblue",fontsize="10",style="solid"];
  Node27 [label="sources/Render/Render.cpp",height=0.2,width=0.4,color="black", fillcolor="white", style="filled",URL="$_render_8cpp.html",tooltip=" "];
  Node13 -> Node28 [dir="back",color="midnightblue",fontsize="10",style="solid"];
  Node28 [label="sources/GameObjects\l/Map.cpp",height=0.2,width=0.4,color="black", fillcolor="white", style="filled",URL="$_map_8cpp.html",tooltip=" "];
  Node13 -> Node6 [dir="back",color="midnightblue",fontsize="10",style="solid"];
}
