digraph "irr::video::unpack_textureBlendFunc"
{
 // LATEX_PDF_SIZE
  edge [fontname="Helvetica",fontsize="10",labelfontname="Helvetica",labelfontsize="10"];
  node [fontname="Helvetica",fontsize="10",shape=record];
  rankdir="LR";
  Node1 [label="irr::video::unpack\l_textureBlendFunc",height=0.2,width=0.4,color="black", fillcolor="grey75", style="filled", fontcolor="black",tooltip="EMT_ONETEXTURE_BLEND: unpack srcFact & dstFact and Modulo to MaterialTypeParam."];
  Node1 -> Node2 [color="midnightblue",fontsize="10",style="solid"];
  Node2 [label="irr::core::IR",height=0.2,width=0.4,color="black", fillcolor="white", style="filled",URL="$namespaceirr_1_1core.html#aff42ea2c4d80cb7b45b71d1f63c6a226",tooltip=" "];
}
