digraph "irr::video::getRed"
{
 // LATEX_PDF_SIZE
  edge [fontname="Helvetica",fontsize="10",labelfontname="Helvetica",labelfontsize="10"];
  node [fontname="Helvetica",fontsize="10",shape=record];
  rankdir="RL";
  Node1 [label="irr::video::getRed",height=0.2,width=0.4,color="black", fillcolor="grey75", style="filled", fontcolor="black",tooltip="Returns the red component from A1R5G5B5 color."];
  Node1 -> Node2 [dir="back",color="midnightblue",fontsize="10",style="solid"];
  Node2 [label="irr::video::getAverage",height=0.2,width=0.4,color="black", fillcolor="white", style="filled",URL="$namespaceirr_1_1video.html#ab242fde6c6e19ae4100fe39b0dadd9d0",tooltip="Returns the average from a 16 bit A1R5G5B5 color."];
}
