digraph "irr::core::iszero"
{
 // LATEX_PDF_SIZE
  edge [fontname="Helvetica",fontsize="10",labelfontname="Helvetica",labelfontsize="10"];
  node [fontname="Helvetica",fontsize="10",shape=record];
  rankdir="RL";
  Node1 [label="irr::core::iszero",height=0.2,width=0.4,color="black", fillcolor="grey75", style="filled", fontcolor="black",tooltip="returns if a equals zero, taking rounding errors into account"];
  Node1 -> Node2 [dir="back",color="midnightblue",fontsize="10",style="solid"];
  Node2 [label="irr::core::triangle3d\l::getIntersectionOfPlaneWithLine",height=0.2,width=0.4,color="black", fillcolor="white", style="filled",URL="$classirr_1_1core_1_1triangle3d.html#a860339e3646bf2f7cbb7e88be1cf0783",tooltip="Calculates the intersection between a 3d line and the plane the triangle is on."];
  Node2 -> Node3 [dir="back",color="midnightblue",fontsize="10",style="solid"];
  Node3 [label="irr::core::triangle3d\l::getIntersectionWithLine",height=0.2,width=0.4,color="black", fillcolor="white", style="filled",URL="$classirr_1_1core_1_1triangle3d.html#a70e0d27d17f9f0d14117df912cdaafe1",tooltip="Get an intersection with a 3d line."];
  Node3 -> Node4 [dir="back",color="midnightblue",fontsize="10",style="solid"];
  Node4 [label="irr::core::triangle3d\l::getIntersectionWithLimitedLine",height=0.2,width=0.4,color="black", fillcolor="white", style="filled",URL="$classirr_1_1core_1_1triangle3d.html#a3274d1e1ee1d28050176736c5e6773c2",tooltip="Get an intersection with a 3d line."];
  Node1 -> Node5 [dir="back",color="midnightblue",fontsize="10",style="solid"];
  Node5 [label="irr::core::CMatrix4\l::getInverse",height=0.2,width=0.4,color="black", fillcolor="white", style="filled",URL="$classirr_1_1core_1_1_c_matrix4.html#a323bfa0e327636c9cd4a5d2b781b3a60",tooltip="Gets the inversed matrix of this one."];
  Node5 -> Node6 [dir="back",color="midnightblue",fontsize="10",style="solid"];
  Node6 [label="irr::core::CMatrix4\l::CMatrix4",height=0.2,width=0.4,color="black", fillcolor="white", style="filled",URL="$classirr_1_1core_1_1_c_matrix4.html#acdb7afc2248d97a7e882cd1bdeed07b7",tooltip="Copy constructor."];
  Node1 -> Node7 [dir="back",color="midnightblue",fontsize="10",style="solid"];
  Node7 [label="irr::core::CMatrix4\l::getRotationDegrees",height=0.2,width=0.4,color="black", fillcolor="white", style="filled",URL="$classirr_1_1core_1_1_c_matrix4.html#ad334281fcd12eb5acda020981706b759",tooltip="Returns the rotation, as set by setRotation()."];
  Node1 -> Node8 [dir="back",color="midnightblue",fontsize="10",style="solid"];
  Node8 [label="irr::core::CMatrix4\l::getScale",height=0.2,width=0.4,color="black", fillcolor="white", style="filled",URL="$classirr_1_1core_1_1_c_matrix4.html#a27801e0cb2d3ce458f66ff7cfbe13544",tooltip="Get Scale."];
  Node1 -> Node9 [dir="back",color="midnightblue",fontsize="10",style="solid"];
  Node9 [label="irr::core::CMatrix4\l::isOrthogonal",height=0.2,width=0.4,color="black", fillcolor="white", style="filled",URL="$classirr_1_1core_1_1_c_matrix4.html#a7166c462168855cb8c6aeb2fb76fa3cb",tooltip="Returns true if the matrix is orthogonal."];
  Node1 -> Node10 [dir="back",color="midnightblue",fontsize="10",style="solid"];
  Node10 [label="irr::core::quaternion\l::toAngleAxis",height=0.2,width=0.4,color="black", fillcolor="white", style="filled",URL="$classirr_1_1core_1_1quaternion.html#a8fc3d916f9220440bb49f8c8973429b8",tooltip="Fills an angle (radians) around an axis (unit vector)"];
  Node1 -> Node11 [dir="back",color="midnightblue",fontsize="10",style="solid"];
  Node11 [label="irr::video::SColorHSL\l::toRGB",height=0.2,width=0.4,color="black", fillcolor="white", style="filled",URL="$classirr_1_1video_1_1_s_color_h_s_l.html#a87dfb7cd3c4dab7825fe0bdcac366d62",tooltip=" "];
}
