digraph "irr::scene::quake3::dumpVarGroup"
{
 // LATEX_PDF_SIZE
  edge [fontname="Helvetica",fontsize="10",labelfontname="Helvetica",labelfontsize="10"];
  node [fontname="Helvetica",fontsize="10",shape=record];
  rankdir="RL";
  Node1 [label="irr::scene::quake3\l::dumpVarGroup",height=0.2,width=0.4,color="black", fillcolor="grey75", style="filled", fontcolor="black",tooltip=" "];
  Node1 -> Node2 [dir="back",color="midnightblue",fontsize="10",style="solid"];
  Node2 [label="irr::scene::quake3\l::dumpShader",height=0.2,width=0.4,color="black", fillcolor="white", style="filled",URL="$namespaceirr_1_1scene_1_1quake3.html#a611e0294510751cc156cb24f222b7180",tooltip=" "];
}
