digraph "cmake/include/path.h"
{
 // LATEX_PDF_SIZE
  edge [fontname="Helvetica",fontsize="10",labelfontname="Helvetica",labelfontsize="10"];
  node [fontname="Helvetica",fontsize="10",shape=record];
  Node1 [label="cmake/include/path.h",height=0.2,width=0.4,color="black", fillcolor="grey75", style="filled", fontcolor="black",tooltip=" "];
  Node1 -> Node2 [dir="back",color="midnightblue",fontsize="10",style="solid"];
  Node2 [label="cmake/include/coreutil.h",height=0.2,width=0.4,color="black", fillcolor="white", style="filled",URL="$coreutil_8h.html",tooltip="File containing useful basic utility functions."];
  Node2 -> Node3 [dir="back",color="midnightblue",fontsize="10",style="solid"];
  Node3 [label="cmake/include/IReadFile.h",height=0.2,width=0.4,color="black", fillcolor="white", style="filled",URL="$_i_read_file_8h.html",tooltip=" "];
  Node3 -> Node4 [dir="back",color="midnightblue",fontsize="10",style="solid"];
  Node4 [label="cmake/include/IFileArchive.h",height=0.2,width=0.4,color="black", fillcolor="white", style="filled",URL="$_i_file_archive_8h.html",tooltip=" "];
  Node4 -> Node5 [dir="back",color="midnightblue",fontsize="10",style="solid"];
  Node5 [label="cmake/include/IFileSystem.h",height=0.2,width=0.4,color="black", fillcolor="white", style="filled",URL="$_i_file_system_8h.html",tooltip=" "];
  Node5 -> Node6 [dir="back",color="midnightblue",fontsize="10",style="solid"];
  Node6 [label="cmake/include/IQ3Shader.h",height=0.2,width=0.4,color="black", fillcolor="white", style="filled",URL="$_i_q3_shader_8h.html",tooltip=" "];
  Node6 -> Node7 [dir="back",color="midnightblue",fontsize="10",style="solid"];
  Node7 [label="cmake/include/IAnimatedMesh\lMD3.h",height=0.2,width=0.4,color="black", fillcolor="white", style="filled",URL="$_i_animated_mesh_m_d3_8h.html",tooltip=" "];
  Node7 -> Node8 [dir="back",color="midnightblue",fontsize="10",style="solid"];
  Node8 [label="cmake/include/IAnimatedMesh\lSceneNode.h",height=0.2,width=0.4,color="red", fillcolor="white", style="filled",URL="$_i_animated_mesh_scene_node_8h.html",tooltip=" "];
  Node8 -> Node11 [dir="back",color="midnightblue",fontsize="10",style="solid"];
  Node11 [label="cmake/include/irrlicht.h",height=0.2,width=0.4,color="black", fillcolor="white", style="filled",URL="$irrlicht_8h.html",tooltip="Main header file of the irrlicht, the only file needed to include."];
  Node11 -> Node12 [dir="back",color="midnightblue",fontsize="10",style="solid"];
  Node12 [label="includes/Factories\l/Button.hpp",height=0.2,width=0.4,color="red", fillcolor="white", style="filled",URL="$_button_8hpp.html",tooltip=" "];
  Node11 -> Node27 [dir="back",color="midnightblue",fontsize="10",style="solid"];
  Node27 [label="includes/Factories\l/Collision.hpp",height=0.2,width=0.4,color="red", fillcolor="white", style="filled",URL="$_collision_8hpp.html",tooltip=" "];
  Node11 -> Node30 [dir="back",color="midnightblue",fontsize="10",style="solid"];
  Node30 [label="includes/Factories\l/ECS/components/ActionComponent.hpp",height=0.2,width=0.4,color="red", fillcolor="white", style="filled",URL="$_action_component_8hpp.html",tooltip=" "];
  Node30 -> Node35 [dir="back",color="midnightblue",fontsize="10",style="solid"];
  Node35 [label="includes/Graphical\l/Graphical.hpp",height=0.2,width=0.4,color="red", fillcolor="white", style="filled",URL="$_graphical_8hpp.html",tooltip=" "];
  Node11 -> Node37 [dir="back",color="midnightblue",fontsize="10",style="solid"];
  Node37 [label="includes/Factories\l/ECS/components/CubeComponent.hpp",height=0.2,width=0.4,color="red", fillcolor="white", style="filled",URL="$_cube_component_8hpp.html",tooltip=" "];
  Node37 -> Node35 [dir="back",color="midnightblue",fontsize="10",style="solid"];
  Node11 -> Node53 [dir="back",color="midnightblue",fontsize="10",style="solid"];
  Node53 [label="includes/Factories\l/ECS/components/MeshComponent.hpp",height=0.2,width=0.4,color="red", fillcolor="white", style="filled",URL="$_mesh_component_8hpp.html",tooltip=" "];
  Node53 -> Node35 [dir="back",color="midnightblue",fontsize="10",style="solid"];
  Node11 -> Node55 [dir="back",color="midnightblue",fontsize="10",style="solid"];
  Node55 [label="includes/Factories\l/ECS/components/TextureComponent.hpp",height=0.2,width=0.4,color="red", fillcolor="white", style="filled",URL="$_texture_component_8hpp.html",tooltip=" "];
  Node55 -> Node12 [dir="back",color="midnightblue",fontsize="10",style="solid"];
  Node55 -> Node35 [dir="back",color="midnightblue",fontsize="10",style="solid"];
  Node11 -> Node57 [dir="back",color="midnightblue",fontsize="10",style="solid"];
  Node57 [label="includes/GameObjects\l/Particuls.hpp",height=0.2,width=0.4,color="red", fillcolor="white", style="filled",URL="$_particuls_8hpp.html",tooltip=" "];
  Node57 -> Node35 [dir="back",color="midnightblue",fontsize="10",style="solid"];
  Node11 -> Node35 [dir="back",color="midnightblue",fontsize="10",style="solid"];
  Node11 -> Node59 [dir="back",color="midnightblue",fontsize="10",style="solid"];
  Node59 [label="includes/Graphical\l/handleInput.hpp",height=0.2,width=0.4,color="red", fillcolor="white", style="filled",URL="$handle_input_8hpp.html",tooltip=" "];
  Node59 -> Node35 [dir="back",color="midnightblue",fontsize="10",style="solid"];
  Node11 -> Node48 [dir="back",color="midnightblue",fontsize="10",style="solid"];
  Node48 [label="includes/Render/Render.hpp",height=0.2,width=0.4,color="red", fillcolor="white", style="filled",URL="$_render_8hpp.html",tooltip=" "];
  Node7 -> Node11 [dir="back",color="midnightblue",fontsize="10",style="solid"];
  Node6 -> Node61 [dir="back",color="midnightblue",fontsize="10",style="solid"];
  Node61 [label="cmake/include/IQ3LevelMesh.h",height=0.2,width=0.4,color="black", fillcolor="white", style="filled",URL="$_i_q3_level_mesh_8h.html",tooltip=" "];
  Node61 -> Node11 [dir="back",color="midnightblue",fontsize="10",style="solid"];
  Node6 -> Node11 [dir="back",color="midnightblue",fontsize="10",style="solid"];
  Node5 -> Node11 [dir="back",color="midnightblue",fontsize="10",style="solid"];
  Node3 -> Node11 [dir="back",color="midnightblue",fontsize="10",style="solid"];
  Node2 -> Node6 [dir="back",color="midnightblue",fontsize="10",style="solid"];
  Node2 -> Node62 [dir="back",color="midnightblue",fontsize="10",style="solid"];
  Node62 [label="cmake/include/IImageWriter.h",height=0.2,width=0.4,color="black", fillcolor="white", style="filled",URL="$_i_image_writer_8h.html",tooltip=" "];
  Node62 -> Node11 [dir="back",color="midnightblue",fontsize="10",style="solid"];
  Node2 -> Node11 [dir="back",color="midnightblue",fontsize="10",style="solid"];
  Node1 -> Node63 [dir="back",color="midnightblue",fontsize="10",style="solid"];
  Node63 [label="cmake/include/ITexture.h",height=0.2,width=0.4,color="black", fillcolor="white", style="filled",URL="$_i_texture_8h.html",tooltip=" "];
  Node63 -> Node64 [dir="back",color="midnightblue",fontsize="10",style="solid"];
  Node64 [label="cmake/include/IVideoDriver.h",height=0.2,width=0.4,color="black", fillcolor="white", style="filled",URL="$_i_video_driver_8h.html",tooltip=" "];
  Node64 -> Node65 [dir="back",color="midnightblue",fontsize="10",style="solid"];
  Node65 [label="cmake/include/IrrlichtDevice.h",height=0.2,width=0.4,color="red", fillcolor="white", style="filled",URL="$_irrlicht_device_8h.html",tooltip=" "];
  Node65 -> Node11 [dir="back",color="midnightblue",fontsize="10",style="solid"];
  Node64 -> Node6 [dir="back",color="midnightblue",fontsize="10",style="solid"];
  Node64 -> Node11 [dir="back",color="midnightblue",fontsize="10",style="solid"];
  Node64 -> Node67 [dir="back",color="midnightblue",fontsize="10",style="solid"];
  Node67 [label="cmake/include/SViewFrustum.h",height=0.2,width=0.4,color="black", fillcolor="white", style="filled",URL="$_s_view_frustum_8h.html",tooltip=" "];
  Node67 -> Node11 [dir="back",color="midnightblue",fontsize="10",style="solid"];
  Node63 -> Node11 [dir="back",color="midnightblue",fontsize="10",style="solid"];
  Node1 -> Node68 [dir="back",color="midnightblue",fontsize="10",style="solid"];
  Node68 [label="cmake/include/IFileList.h",height=0.2,width=0.4,color="black", fillcolor="white", style="filled",URL="$_i_file_list_8h.html",tooltip=" "];
  Node68 -> Node4 [dir="back",color="midnightblue",fontsize="10",style="solid"];
  Node68 -> Node11 [dir="back",color="midnightblue",fontsize="10",style="solid"];
  Node1 -> Node69 [dir="back",color="midnightblue",fontsize="10",style="solid"];
  Node69 [label="cmake/include/IAttributes.h",height=0.2,width=0.4,color="black", fillcolor="white", style="filled",URL="$_i_attributes_8h.html",tooltip=" "];
  Node69 -> Node70 [dir="back",color="midnightblue",fontsize="10",style="solid"];
  Node70 [label="cmake/include/ISceneNode.h",height=0.2,width=0.4,color="red", fillcolor="white", style="filled",URL="$_i_scene_node_8h.html",tooltip=" "];
  Node70 -> Node8 [dir="back",color="midnightblue",fontsize="10",style="solid"];
  Node70 -> Node71 [dir="back",color="midnightblue",fontsize="10",style="solid"];
  Node71 [label="cmake/include/IBoneScene\lNode.h",height=0.2,width=0.4,color="red", fillcolor="white", style="filled",URL="$_i_bone_scene_node_8h.html",tooltip=" "];
  Node71 -> Node8 [dir="back",color="midnightblue",fontsize="10",style="solid"];
  Node71 -> Node11 [dir="back",color="midnightblue",fontsize="10",style="solid"];
  Node70 -> Node74 [dir="back",color="midnightblue",fontsize="10",style="solid"];
  Node74 [label="cmake/include/IBillboard\lSceneNode.h",height=0.2,width=0.4,color="red", fillcolor="white", style="filled",URL="$_i_billboard_scene_node_8h.html",tooltip=" "];
  Node74 -> Node11 [dir="back",color="midnightblue",fontsize="10",style="solid"];
  Node70 -> Node76 [dir="back",color="midnightblue",fontsize="10",style="solid"];
  Node76 [label="cmake/include/ICameraScene\lNode.h",height=0.2,width=0.4,color="black", fillcolor="white", style="filled",URL="$_i_camera_scene_node_8h.html",tooltip=" "];
  Node76 -> Node11 [dir="back",color="midnightblue",fontsize="10",style="solid"];
  Node70 -> Node77 [dir="back",color="midnightblue",fontsize="10",style="solid"];
  Node77 [label="cmake/include/IColladaMesh\lWriter.h",height=0.2,width=0.4,color="black", fillcolor="white", style="filled",URL="$_i_collada_mesh_writer_8h.html",tooltip=" "];
  Node77 -> Node11 [dir="back",color="midnightblue",fontsize="10",style="solid"];
  Node70 -> Node78 [dir="back",color="midnightblue",fontsize="10",style="solid"];
  Node78 [label="cmake/include/IDummyTransformation\lSceneNode.h",height=0.2,width=0.4,color="black", fillcolor="white", style="filled",URL="$_i_dummy_transformation_scene_node_8h.html",tooltip=" "];
  Node78 -> Node11 [dir="back",color="midnightblue",fontsize="10",style="solid"];
  Node70 -> Node79 [dir="back",color="midnightblue",fontsize="10",style="solid"];
  Node79 [label="cmake/include/ILightScene\lNode.h",height=0.2,width=0.4,color="black", fillcolor="white", style="filled",URL="$_i_light_scene_node_8h.html",tooltip=" "];
  Node79 -> Node11 [dir="back",color="midnightblue",fontsize="10",style="solid"];
  Node70 -> Node80 [dir="back",color="midnightblue",fontsize="10",style="solid"];
  Node80 [label="cmake/include/IMeshScene\lNode.h",height=0.2,width=0.4,color="black", fillcolor="white", style="filled",URL="$_i_mesh_scene_node_8h.html",tooltip=" "];
  Node80 -> Node11 [dir="back",color="midnightblue",fontsize="10",style="solid"];
  Node70 -> Node10 [dir="back",color="midnightblue",fontsize="10",style="solid"];
  Node10 [label="cmake/include/IParticleSystem\lSceneNode.h",height=0.2,width=0.4,color="black", fillcolor="white", style="filled",URL="$_i_particle_system_scene_node_8h.html",tooltip=" "];
  Node10 -> Node11 [dir="back",color="midnightblue",fontsize="10",style="solid"];
  Node70 -> Node11 [dir="back",color="midnightblue",fontsize="10",style="solid"];
  Node70 -> Node81 [dir="back",color="midnightblue",fontsize="10",style="solid"];
  Node81 [label="cmake/include/ISceneNode\lAnimatorCollisionResponse.h",height=0.2,width=0.4,color="black", fillcolor="white", style="filled",URL="$_i_scene_node_animator_collision_response_8h.html",tooltip=" "];
  Node81 -> Node11 [dir="back",color="midnightblue",fontsize="10",style="solid"];
  Node70 -> Node82 [dir="back",color="midnightblue",fontsize="10",style="solid"];
  Node82 [label="cmake/include/IShadowVolume\lSceneNode.h",height=0.2,width=0.4,color="black", fillcolor="white", style="filled",URL="$_i_shadow_volume_scene_node_8h.html",tooltip=" "];
  Node82 -> Node11 [dir="back",color="midnightblue",fontsize="10",style="solid"];
  Node70 -> Node83 [dir="back",color="midnightblue",fontsize="10",style="solid"];
  Node83 [label="cmake/include/ITerrainScene\lNode.h",height=0.2,width=0.4,color="black", fillcolor="white", style="filled",URL="$_i_terrain_scene_node_8h.html",tooltip=" "];
  Node83 -> Node11 [dir="back",color="midnightblue",fontsize="10",style="solid"];
  Node70 -> Node84 [dir="back",color="midnightblue",fontsize="10",style="solid"];
  Node84 [label="cmake/include/ITextScene\lNode.h",height=0.2,width=0.4,color="black", fillcolor="white", style="filled",URL="$_i_text_scene_node_8h.html",tooltip=" "];
  Node84 -> Node11 [dir="back",color="midnightblue",fontsize="10",style="solid"];
  Node69 -> Node86 [dir="back",color="midnightblue",fontsize="10",style="solid"];
  Node86 [label="cmake/include/IGUIElement.h",height=0.2,width=0.4,color="red", fillcolor="white", style="filled",URL="$_i_g_u_i_element_8h.html",tooltip=" "];
  Node86 -> Node93 [dir="back",color="midnightblue",fontsize="10",style="solid"];
  Node93 [label="cmake/include/IGUIFileOpen\lDialog.h",height=0.2,width=0.4,color="black", fillcolor="white", style="filled",URL="$_i_g_u_i_file_open_dialog_8h.html",tooltip=" "];
  Node93 -> Node11 [dir="back",color="midnightblue",fontsize="10",style="solid"];
  Node86 -> Node11 [dir="back",color="midnightblue",fontsize="10",style="solid"];
  Node69 -> Node11 [dir="back",color="midnightblue",fontsize="10",style="solid"];
  Node1 -> Node107 [dir="back",color="midnightblue",fontsize="10",style="solid"];
  Node107 [label="cmake/include/IGPUProgramming\lServices.h",height=0.2,width=0.4,color="black", fillcolor="white", style="filled",URL="$_i_g_p_u_programming_services_8h.html",tooltip=" "];
  Node107 -> Node11 [dir="back",color="midnightblue",fontsize="10",style="solid"];
  Node1 -> Node108 [dir="back",color="midnightblue",fontsize="10",style="solid"];
  Node108 [label="cmake/include/IGUIEnvironment.h",height=0.2,width=0.4,color="black", fillcolor="white", style="filled",URL="$_i_g_u_i_environment_8h.html",tooltip=" "];
  Node108 -> Node11 [dir="back",color="midnightblue",fontsize="10",style="solid"];
  Node1 -> Node93 [dir="back",color="midnightblue",fontsize="10",style="solid"];
  Node1 -> Node109 [dir="back",color="midnightblue",fontsize="10",style="solid"];
  Node109 [label="cmake/include/IImageLoader.h",height=0.2,width=0.4,color="black", fillcolor="white", style="filled",URL="$_i_image_loader_8h.html",tooltip=" "];
  Node109 -> Node11 [dir="back",color="midnightblue",fontsize="10",style="solid"];
  Node1 -> Node110 [dir="back",color="midnightblue",fontsize="10",style="solid"];
  Node110 [label="cmake/include/IMeshCache.h",height=0.2,width=0.4,color="black", fillcolor="white", style="filled",URL="$_i_mesh_cache_8h.html",tooltip=" "];
  Node110 -> Node11 [dir="back",color="midnightblue",fontsize="10",style="solid"];
  Node1 -> Node111 [dir="back",color="midnightblue",fontsize="10",style="solid"];
  Node111 [label="cmake/include/IMeshLoader.h",height=0.2,width=0.4,color="black", fillcolor="white", style="filled",URL="$_i_mesh_loader_8h.html",tooltip=" "];
  Node111 -> Node11 [dir="back",color="midnightblue",fontsize="10",style="solid"];
  Node1 -> Node11 [dir="back",color="midnightblue",fontsize="10",style="solid"];
  Node1 -> Node112 [dir="back",color="midnightblue",fontsize="10",style="solid"];
  Node112 [label="cmake/include/ISceneLoader.h",height=0.2,width=0.4,color="black", fillcolor="white", style="filled",URL="$_i_scene_loader_8h.html",tooltip=" "];
  Node112 -> Node11 [dir="back",color="midnightblue",fontsize="10",style="solid"];
  Node1 -> Node73 [dir="back",color="midnightblue",fontsize="10",style="solid"];
  Node73 [label="cmake/include/ISceneManager.h",height=0.2,width=0.4,color="black", fillcolor="white", style="filled",URL="$_i_scene_manager_8h.html",tooltip=" "];
  Node73 -> Node11 [dir="back",color="midnightblue",fontsize="10",style="solid"];
  Node1 -> Node113 [dir="back",color="midnightblue",fontsize="10",style="solid"];
  Node113 [label="cmake/include/IWriteFile.h",height=0.2,width=0.4,color="black", fillcolor="white", style="filled",URL="$_i_write_file_8h.html",tooltip=" "];
  Node113 -> Node11 [dir="back",color="midnightblue",fontsize="10",style="solid"];
}
