digraph "irr::scene::SSkinMeshBuffer::recalculateBoundingBox"
{
 // LATEX_PDF_SIZE
  edge [fontname="Helvetica",fontsize="10",labelfontname="Helvetica",labelfontsize="10"];
  node [fontname="Helvetica",fontsize="10",shape=record];
  rankdir="LR";
  Node1 [label="irr::scene::SSkinMeshBuffer\l::recalculateBoundingBox",height=0.2,width=0.4,color="black", fillcolor="grey75", style="filled", fontcolor="black",tooltip="Recalculate bounding box."];
  Node1 -> Node2 [color="midnightblue",fontsize="10",style="solid"];
  Node2 [label="irr::core::aabbox3d\l::addInternalPoint",height=0.2,width=0.4,color="black", fillcolor="white", style="filled",URL="$classirr_1_1core_1_1aabbox3d.html#a49e3765fd2f40a115f8f28bd74d62ccf",tooltip="Adds a point to the bounding box."];
  Node1 -> Node3 [color="midnightblue",fontsize="10",style="solid"];
  Node3 [label="irr::core::aabbox3d\l::reset",height=0.2,width=0.4,color="black", fillcolor="white", style="filled",URL="$classirr_1_1core_1_1aabbox3d.html#afc718e96ed11aa71a30311d32bfc885a",tooltip="Resets the bounding box to a one-point box."];
}
