digraph "irr::scene::SAnimatedMesh::addMesh"
{
 // LATEX_PDF_SIZE
  edge [fontname="Helvetica",fontsize="10",labelfontname="Helvetica",labelfontsize="10"];
  node [fontname="Helvetica",fontsize="10",shape=record];
  rankdir="RL";
  Node1 [label="irr::scene::SAnimatedMesh\l::addMesh",height=0.2,width=0.4,color="black", fillcolor="grey75", style="filled", fontcolor="black",tooltip="adds a Mesh"];
  Node1 -> Node2 [dir="back",color="midnightblue",fontsize="10",style="solid"];
  Node2 [label="irr::scene::SAnimatedMesh\l::SAnimatedMesh",height=0.2,width=0.4,color="black", fillcolor="white", style="filled",URL="$structirr_1_1scene_1_1_s_animated_mesh.html#a9f02f671b75c1009b35bf7d49f277c8d",tooltip="constructor"];
}
