digraph "irr::scene::SViewFrustum::getFarLeftUp"
{
 // LATEX_PDF_SIZE
  edge [fontname="Helvetica",fontsize="10",labelfontname="Helvetica",labelfontsize="10"];
  node [fontname="Helvetica",fontsize="10",shape=record];
  rankdir="LR";
  Node1 [label="irr::scene::SViewFrustum\l::getFarLeftUp",height=0.2,width=0.4,color="black", fillcolor="grey75", style="filled", fontcolor="black",tooltip="returns the point which is on the far left upper corner inside the the view frustum."];
  Node1 -> Node2 [color="midnightblue",fontsize="10",style="solid"];
  Node2 [label="irr::core::plane3d\l::getIntersectionWithPlanes",height=0.2,width=0.4,color="black", fillcolor="white", style="filled",URL="$classirr_1_1core_1_1plane3d.html#aa211e140706ba340cc413e1dfc095efd",tooltip="Get the intersection point with two other planes if there is one."];
}
