digraph "irr::io::SNamedPath::stringw"
{
 // LATEX_PDF_SIZE
  edge [fontname="Helvetica",fontsize="10",labelfontname="Helvetica",labelfontsize="10"];
  node [fontname="Helvetica",fontsize="10",shape=record];
  rankdir="LR";
  Node1 [label="irr::io::SNamedPath\l::stringw",height=0.2,width=0.4,color="black", fillcolor="grey75", style="filled", fontcolor="black",tooltip="Implicit cast to io::path."];
  Node1 -> Node2 [color="midnightblue",fontsize="10",style="solid"];
  Node2 [label="irr::io::SNamedPath\l::getPath",height=0.2,width=0.4,color="black", fillcolor="white", style="filled",URL="$structirr_1_1io_1_1_s_named_path.html#a0e24ca02e0e983decf4cfcb502451c66",tooltip="Get the path."];
}
