digraph "cmake/include/triangle3d.h"
{
 // LATEX_PDF_SIZE
  edge [fontname="Helvetica",fontsize="10",labelfontname="Helvetica",labelfontsize="10"];
  node [fontname="Helvetica",fontsize="10",shape=record];
  Node1 [label="cmake/include/triangle3d.h",height=0.2,width=0.4,color="black", fillcolor="grey75", style="filled", fontcolor="black",tooltip=" "];
  Node1 -> Node2 [dir="back",color="midnightblue",fontsize="10",style="solid"];
  Node2 [label="cmake/include/IVideoDriver.h",height=0.2,width=0.4,color="black", fillcolor="white", style="filled",URL="$_i_video_driver_8h.html",tooltip=" "];
  Node2 -> Node3 [dir="back",color="midnightblue",fontsize="10",style="solid"];
  Node3 [label="cmake/include/IrrlichtDevice.h",height=0.2,width=0.4,color="black", fillcolor="white", style="filled",URL="$_irrlicht_device_8h.html",tooltip=" "];
  Node3 -> Node4 [dir="back",color="midnightblue",fontsize="10",style="solid"];
  Node4 [label="cmake/include/driverChoice.h",height=0.2,width=0.4,color="black", fillcolor="white", style="filled",URL="$driver_choice_8h.html",tooltip=" "];
  Node3 -> Node5 [dir="back",color="midnightblue",fontsize="10",style="solid"];
  Node5 [label="cmake/include/irrlicht.h",height=0.2,width=0.4,color="black", fillcolor="white", style="filled",URL="$irrlicht_8h.html",tooltip="Main header file of the irrlicht, the only file needed to include."];
  Node5 -> Node6 [dir="back",color="midnightblue",fontsize="10",style="solid"];
  Node6 [label="includes/Factories\l/Button.hpp",height=0.2,width=0.4,color="red", fillcolor="white", style="filled",URL="$_button_8hpp.html",tooltip=" "];
  Node5 -> Node21 [dir="back",color="midnightblue",fontsize="10",style="solid"];
  Node21 [label="includes/Factories\l/Collision.hpp",height=0.2,width=0.4,color="red", fillcolor="white", style="filled",URL="$_collision_8hpp.html",tooltip=" "];
  Node5 -> Node24 [dir="back",color="midnightblue",fontsize="10",style="solid"];
  Node24 [label="includes/Factories\l/ECS/components/ActionComponent.hpp",height=0.2,width=0.4,color="red", fillcolor="white", style="filled",URL="$_action_component_8hpp.html",tooltip=" "];
  Node24 -> Node29 [dir="back",color="midnightblue",fontsize="10",style="solid"];
  Node29 [label="includes/Graphical\l/Graphical.hpp",height=0.2,width=0.4,color="red", fillcolor="white", style="filled",URL="$_graphical_8hpp.html",tooltip=" "];
  Node5 -> Node31 [dir="back",color="midnightblue",fontsize="10",style="solid"];
  Node31 [label="includes/Factories\l/ECS/components/CubeComponent.hpp",height=0.2,width=0.4,color="red", fillcolor="white", style="filled",URL="$_cube_component_8hpp.html",tooltip=" "];
  Node31 -> Node29 [dir="back",color="midnightblue",fontsize="10",style="solid"];
  Node5 -> Node47 [dir="back",color="midnightblue",fontsize="10",style="solid"];
  Node47 [label="includes/Factories\l/ECS/components/MeshComponent.hpp",height=0.2,width=0.4,color="red", fillcolor="white", style="filled",URL="$_mesh_component_8hpp.html",tooltip=" "];
  Node47 -> Node29 [dir="back",color="midnightblue",fontsize="10",style="solid"];
  Node5 -> Node49 [dir="back",color="midnightblue",fontsize="10",style="solid"];
  Node49 [label="includes/Factories\l/ECS/components/TextureComponent.hpp",height=0.2,width=0.4,color="red", fillcolor="white", style="filled",URL="$_texture_component_8hpp.html",tooltip=" "];
  Node49 -> Node6 [dir="back",color="midnightblue",fontsize="10",style="solid"];
  Node49 -> Node29 [dir="back",color="midnightblue",fontsize="10",style="solid"];
  Node5 -> Node51 [dir="back",color="midnightblue",fontsize="10",style="solid"];
  Node51 [label="includes/GameObjects\l/Particuls.hpp",height=0.2,width=0.4,color="red", fillcolor="white", style="filled",URL="$_particuls_8hpp.html",tooltip=" "];
  Node51 -> Node29 [dir="back",color="midnightblue",fontsize="10",style="solid"];
  Node5 -> Node29 [dir="back",color="midnightblue",fontsize="10",style="solid"];
  Node5 -> Node53 [dir="back",color="midnightblue",fontsize="10",style="solid"];
  Node53 [label="includes/Graphical\l/handleInput.hpp",height=0.2,width=0.4,color="red", fillcolor="white", style="filled",URL="$handle_input_8hpp.html",tooltip=" "];
  Node53 -> Node29 [dir="back",color="midnightblue",fontsize="10",style="solid"];
  Node5 -> Node42 [dir="back",color="midnightblue",fontsize="10",style="solid"];
  Node42 [label="includes/Render/Render.hpp",height=0.2,width=0.4,color="red", fillcolor="white", style="filled",URL="$_render_8hpp.html",tooltip=" "];
  Node2 -> Node55 [dir="back",color="midnightblue",fontsize="10",style="solid"];
  Node55 [label="cmake/include/IQ3Shader.h",height=0.2,width=0.4,color="black", fillcolor="white", style="filled",URL="$_i_q3_shader_8h.html",tooltip=" "];
  Node55 -> Node56 [dir="back",color="midnightblue",fontsize="10",style="solid"];
  Node56 [label="cmake/include/IAnimatedMesh\lMD3.h",height=0.2,width=0.4,color="black", fillcolor="white", style="filled",URL="$_i_animated_mesh_m_d3_8h.html",tooltip=" "];
  Node56 -> Node57 [dir="back",color="midnightblue",fontsize="10",style="solid"];
  Node57 [label="cmake/include/IAnimatedMesh\lSceneNode.h",height=0.2,width=0.4,color="red", fillcolor="white", style="filled",URL="$_i_animated_mesh_scene_node_8h.html",tooltip=" "];
  Node57 -> Node5 [dir="back",color="midnightblue",fontsize="10",style="solid"];
  Node56 -> Node5 [dir="back",color="midnightblue",fontsize="10",style="solid"];
  Node55 -> Node60 [dir="back",color="midnightblue",fontsize="10",style="solid"];
  Node60 [label="cmake/include/IQ3LevelMesh.h",height=0.2,width=0.4,color="black", fillcolor="white", style="filled",URL="$_i_q3_level_mesh_8h.html",tooltip=" "];
  Node60 -> Node5 [dir="back",color="midnightblue",fontsize="10",style="solid"];
  Node55 -> Node5 [dir="back",color="midnightblue",fontsize="10",style="solid"];
  Node2 -> Node5 [dir="back",color="midnightblue",fontsize="10",style="solid"];
  Node2 -> Node61 [dir="back",color="midnightblue",fontsize="10",style="solid"];
  Node61 [label="cmake/include/SViewFrustum.h",height=0.2,width=0.4,color="black", fillcolor="white", style="filled",URL="$_s_view_frustum_8h.html",tooltip=" "];
  Node61 -> Node5 [dir="back",color="midnightblue",fontsize="10",style="solid"];
  Node1 -> Node62 [dir="back",color="midnightblue",fontsize="10",style="solid"];
  Node62 [label="cmake/include/ITriangleSelector.h",height=0.2,width=0.4,color="black", fillcolor="white", style="filled",URL="$_i_triangle_selector_8h.html",tooltip=" "];
  Node62 -> Node63 [dir="back",color="midnightblue",fontsize="10",style="solid"];
  Node63 [label="cmake/include/ISceneNode.h",height=0.2,width=0.4,color="black", fillcolor="white", style="filled",URL="$_i_scene_node_8h.html",tooltip=" "];
  Node63 -> Node57 [dir="back",color="midnightblue",fontsize="10",style="solid"];
  Node63 -> Node64 [dir="back",color="midnightblue",fontsize="10",style="solid"];
  Node64 [label="cmake/include/IBoneScene\lNode.h",height=0.2,width=0.4,color="red", fillcolor="white", style="filled",URL="$_i_bone_scene_node_8h.html",tooltip=" "];
  Node64 -> Node57 [dir="back",color="midnightblue",fontsize="10",style="solid"];
  Node64 -> Node5 [dir="back",color="midnightblue",fontsize="10",style="solid"];
  Node63 -> Node67 [dir="back",color="midnightblue",fontsize="10",style="solid"];
  Node67 [label="cmake/include/IBillboard\lSceneNode.h",height=0.2,width=0.4,color="red", fillcolor="white", style="filled",URL="$_i_billboard_scene_node_8h.html",tooltip=" "];
  Node67 -> Node5 [dir="back",color="midnightblue",fontsize="10",style="solid"];
  Node63 -> Node69 [dir="back",color="midnightblue",fontsize="10",style="solid"];
  Node69 [label="cmake/include/ICameraScene\lNode.h",height=0.2,width=0.4,color="black", fillcolor="white", style="filled",URL="$_i_camera_scene_node_8h.html",tooltip=" "];
  Node69 -> Node5 [dir="back",color="midnightblue",fontsize="10",style="solid"];
  Node63 -> Node70 [dir="back",color="midnightblue",fontsize="10",style="solid"];
  Node70 [label="cmake/include/IColladaMesh\lWriter.h",height=0.2,width=0.4,color="black", fillcolor="white", style="filled",URL="$_i_collada_mesh_writer_8h.html",tooltip=" "];
  Node70 -> Node5 [dir="back",color="midnightblue",fontsize="10",style="solid"];
  Node63 -> Node71 [dir="back",color="midnightblue",fontsize="10",style="solid"];
  Node71 [label="cmake/include/IDummyTransformation\lSceneNode.h",height=0.2,width=0.4,color="black", fillcolor="white", style="filled",URL="$_i_dummy_transformation_scene_node_8h.html",tooltip=" "];
  Node71 -> Node5 [dir="back",color="midnightblue",fontsize="10",style="solid"];
  Node63 -> Node72 [dir="back",color="midnightblue",fontsize="10",style="solid"];
  Node72 [label="cmake/include/ILightScene\lNode.h",height=0.2,width=0.4,color="black", fillcolor="white", style="filled",URL="$_i_light_scene_node_8h.html",tooltip=" "];
  Node72 -> Node5 [dir="back",color="midnightblue",fontsize="10",style="solid"];
  Node63 -> Node73 [dir="back",color="midnightblue",fontsize="10",style="solid"];
  Node73 [label="cmake/include/IMeshScene\lNode.h",height=0.2,width=0.4,color="black", fillcolor="white", style="filled",URL="$_i_mesh_scene_node_8h.html",tooltip=" "];
  Node73 -> Node5 [dir="back",color="midnightblue",fontsize="10",style="solid"];
  Node63 -> Node59 [dir="back",color="midnightblue",fontsize="10",style="solid"];
  Node59 [label="cmake/include/IParticleSystem\lSceneNode.h",height=0.2,width=0.4,color="black", fillcolor="white", style="filled",URL="$_i_particle_system_scene_node_8h.html",tooltip=" "];
  Node59 -> Node5 [dir="back",color="midnightblue",fontsize="10",style="solid"];
  Node63 -> Node5 [dir="back",color="midnightblue",fontsize="10",style="solid"];
  Node63 -> Node74 [dir="back",color="midnightblue",fontsize="10",style="solid"];
  Node74 [label="cmake/include/ISceneNode\lAnimatorCollisionResponse.h",height=0.2,width=0.4,color="black", fillcolor="white", style="filled",URL="$_i_scene_node_animator_collision_response_8h.html",tooltip=" "];
  Node74 -> Node5 [dir="back",color="midnightblue",fontsize="10",style="solid"];
  Node63 -> Node75 [dir="back",color="midnightblue",fontsize="10",style="solid"];
  Node75 [label="cmake/include/IShadowVolume\lSceneNode.h",height=0.2,width=0.4,color="black", fillcolor="white", style="filled",URL="$_i_shadow_volume_scene_node_8h.html",tooltip=" "];
  Node75 -> Node5 [dir="back",color="midnightblue",fontsize="10",style="solid"];
  Node63 -> Node76 [dir="back",color="midnightblue",fontsize="10",style="solid"];
  Node76 [label="cmake/include/ITerrainScene\lNode.h",height=0.2,width=0.4,color="black", fillcolor="white", style="filled",URL="$_i_terrain_scene_node_8h.html",tooltip=" "];
  Node76 -> Node5 [dir="back",color="midnightblue",fontsize="10",style="solid"];
  Node63 -> Node77 [dir="back",color="midnightblue",fontsize="10",style="solid"];
  Node77 [label="cmake/include/ITextScene\lNode.h",height=0.2,width=0.4,color="black", fillcolor="white", style="filled",URL="$_i_text_scene_node_8h.html",tooltip=" "];
  Node77 -> Node5 [dir="back",color="midnightblue",fontsize="10",style="solid"];
  Node63 -> Node78 [dir="back",color="midnightblue",fontsize="10",style="solid"];
  Node78 [label="cmake/include/IVolumeLight\lSceneNode.h",height=0.2,width=0.4,color="black", fillcolor="white", style="filled",URL="$_i_volume_light_scene_node_8h.html",tooltip=" "];
  Node78 -> Node5 [dir="back",color="midnightblue",fontsize="10",style="solid"];
  Node62 -> Node79 [dir="back",color="midnightblue",fontsize="10",style="solid"];
  Node79 [label="cmake/include/IMetaTriangle\lSelector.h",height=0.2,width=0.4,color="black", fillcolor="white", style="filled",URL="$_i_meta_triangle_selector_8h.html",tooltip=" "];
  Node79 -> Node5 [dir="back",color="midnightblue",fontsize="10",style="solid"];
  Node62 -> Node5 [dir="back",color="midnightblue",fontsize="10",style="solid"];
  Node1 -> Node80 [dir="back",color="midnightblue",fontsize="10",style="solid"];
  Node80 [label="cmake/include/IAttributes.h",height=0.2,width=0.4,color="black", fillcolor="white", style="filled",URL="$_i_attributes_8h.html",tooltip=" "];
  Node80 -> Node63 [dir="back",color="midnightblue",fontsize="10",style="solid"];
  Node80 -> Node81 [dir="back",color="midnightblue",fontsize="10",style="solid"];
  Node81 [label="cmake/include/IGUIElement.h",height=0.2,width=0.4,color="red", fillcolor="white", style="filled",URL="$_i_g_u_i_element_8h.html",tooltip=" "];
  Node81 -> Node82 [dir="back",color="midnightblue",fontsize="10",style="solid"];
  Node82 [label="cmake/include/IGUIButton.h",height=0.2,width=0.4,color="black", fillcolor="white", style="filled",URL="$_i_g_u_i_button_8h.html",tooltip=" "];
  Node82 -> Node5 [dir="back",color="midnightblue",fontsize="10",style="solid"];
  Node81 -> Node83 [dir="back",color="midnightblue",fontsize="10",style="solid"];
  Node83 [label="cmake/include/IGUICheckBox.h",height=0.2,width=0.4,color="black", fillcolor="white", style="filled",URL="$_i_g_u_i_check_box_8h.html",tooltip=" "];
  Node83 -> Node5 [dir="back",color="midnightblue",fontsize="10",style="solid"];
  Node81 -> Node84 [dir="back",color="midnightblue",fontsize="10",style="solid"];
  Node84 [label="cmake/include/IGUIColorSelect\lDialog.h",height=0.2,width=0.4,color="black", fillcolor="white", style="filled",URL="$_i_g_u_i_color_select_dialog_8h.html",tooltip=" "];
  Node84 -> Node5 [dir="back",color="midnightblue",fontsize="10",style="solid"];
  Node81 -> Node85 [dir="back",color="midnightblue",fontsize="10",style="solid"];
  Node85 [label="cmake/include/IGUIComboBox.h",height=0.2,width=0.4,color="black", fillcolor="white", style="filled",URL="$_i_g_u_i_combo_box_8h.html",tooltip=" "];
  Node85 -> Node5 [dir="back",color="midnightblue",fontsize="10",style="solid"];
  Node81 -> Node86 [dir="back",color="midnightblue",fontsize="10",style="solid"];
  Node86 [label="cmake/include/IGUIContext\lMenu.h",height=0.2,width=0.4,color="black", fillcolor="white", style="filled",URL="$_i_g_u_i_context_menu_8h.html",tooltip=" "];
  Node86 -> Node5 [dir="back",color="midnightblue",fontsize="10",style="solid"];
  Node81 -> Node87 [dir="back",color="midnightblue",fontsize="10",style="solid"];
  Node87 [label="cmake/include/IGUIEditBox.h",height=0.2,width=0.4,color="black", fillcolor="white", style="filled",URL="$_i_g_u_i_edit_box_8h.html",tooltip=" "];
  Node87 -> Node5 [dir="back",color="midnightblue",fontsize="10",style="solid"];
  Node81 -> Node88 [dir="back",color="midnightblue",fontsize="10",style="solid"];
  Node88 [label="cmake/include/IGUIFileOpen\lDialog.h",height=0.2,width=0.4,color="black", fillcolor="white", style="filled",URL="$_i_g_u_i_file_open_dialog_8h.html",tooltip=" "];
  Node88 -> Node5 [dir="back",color="midnightblue",fontsize="10",style="solid"];
  Node81 -> Node89 [dir="back",color="midnightblue",fontsize="10",style="solid"];
  Node89 [label="cmake/include/IGUIImage.h",height=0.2,width=0.4,color="black", fillcolor="white", style="filled",URL="$_i_g_u_i_image_8h.html",tooltip=" "];
  Node89 -> Node5 [dir="back",color="midnightblue",fontsize="10",style="solid"];
  Node81 -> Node90 [dir="back",color="midnightblue",fontsize="10",style="solid"];
  Node90 [label="cmake/include/IGUIImageList.h",height=0.2,width=0.4,color="red", fillcolor="white", style="filled",URL="$_i_g_u_i_image_list_8h.html",tooltip=" "];
  Node81 -> Node92 [dir="back",color="midnightblue",fontsize="10",style="solid"];
  Node92 [label="cmake/include/IGUIInOutFader.h",height=0.2,width=0.4,color="black", fillcolor="white", style="filled",URL="$_i_g_u_i_in_out_fader_8h.html",tooltip=" "];
  Node92 -> Node5 [dir="back",color="midnightblue",fontsize="10",style="solid"];
  Node81 -> Node93 [dir="back",color="midnightblue",fontsize="10",style="solid"];
  Node93 [label="cmake/include/IGUIListBox.h",height=0.2,width=0.4,color="black", fillcolor="white", style="filled",URL="$_i_g_u_i_list_box_8h.html",tooltip=" "];
  Node93 -> Node5 [dir="back",color="midnightblue",fontsize="10",style="solid"];
  Node81 -> Node5 [dir="back",color="midnightblue",fontsize="10",style="solid"];
  Node80 -> Node5 [dir="back",color="midnightblue",fontsize="10",style="solid"];
  Node1 -> Node102 [dir="back",color="midnightblue",fontsize="10",style="solid"];
  Node102 [label="cmake/include/ISceneCollision\lManager.h",height=0.2,width=0.4,color="black", fillcolor="white", style="filled",URL="$_i_scene_collision_manager_8h.html",tooltip=" "];
  Node102 -> Node5 [dir="back",color="midnightblue",fontsize="10",style="solid"];
  Node1 -> Node5 [dir="back",color="midnightblue",fontsize="10",style="solid"];
}
