digraph "includes/Factories/Collision.hpp"
{
 // LATEX_PDF_SIZE
  edge [fontname="Helvetica",fontsize="10",labelfontname="Helvetica",labelfontsize="10"];
  node [fontname="Helvetica",fontsize="10",shape=record];
  Node1 [label="includes/Factories\l/Collision.hpp",height=0.2,width=0.4,color="black", fillcolor="grey75", style="filled", fontcolor="black",tooltip=" "];
  Node1 -> Node2 [color="midnightblue",fontsize="10",style="solid",fontname="Helvetica"];
  Node2 [label="irrlicht.h",height=0.2,width=0.4,color="red", fillcolor="white", style="filled",URL="$irrlicht_8h.html",tooltip="Main header file of the irrlicht, the only file needed to include."];
  Node2 -> Node3 [color="midnightblue",fontsize="10",style="solid",fontname="Helvetica"];
  Node3 [label="IrrCompileConfig.h",height=0.2,width=0.4,color="red", fillcolor="white", style="filled",URL="$_irr_compile_config_8h.html",tooltip=" "];
  Node2 -> Node5 [color="midnightblue",fontsize="10",style="solid",fontname="Helvetica"];
  Node5 [label="aabbox3d.h",height=0.2,width=0.4,color="red", fillcolor="white", style="filled",URL="$aabbox3d_8h.html",tooltip=" "];
  Node2 -> Node16 [color="midnightblue",fontsize="10",style="solid",fontname="Helvetica"];
  Node16 [label="CDynamicMeshBuffer.h",height=0.2,width=0.4,color="black", fillcolor="white", style="filled",URL="$_c_dynamic_mesh_buffer_8h.html",tooltip=" "];
  Node16 -> Node17 [color="midnightblue",fontsize="10",style="solid",fontname="Helvetica"];
  Node17 [label="IDynamicMeshBuffer.h",height=0.2,width=0.4,color="red", fillcolor="white", style="filled",URL="$_i_dynamic_mesh_buffer_8h.html",tooltip=" "];
  Node16 -> Node43 [color="midnightblue",fontsize="10",style="solid",fontname="Helvetica"];
  Node43 [label="CVertexBuffer.h",height=0.2,width=0.4,color="red", fillcolor="white", style="filled",URL="$_c_vertex_buffer_8h.html",tooltip=" "];
  Node16 -> Node44 [color="midnightblue",fontsize="10",style="solid",fontname="Helvetica"];
  Node44 [label="CIndexBuffer.h",height=0.2,width=0.4,color="red", fillcolor="white", style="filled",URL="$_c_index_buffer_8h.html",tooltip=" "];
  Node2 -> Node44 [color="midnightblue",fontsize="10",style="solid",fontname="Helvetica"];
  Node2 -> Node45 [color="midnightblue",fontsize="10",style="solid",fontname="Helvetica"];
  Node45 [label="CMeshBuffer.h",height=0.2,width=0.4,color="red", fillcolor="white", style="filled",URL="$_c_mesh_buffer_8h.html",tooltip=" "];
  Node2 -> Node46 [color="midnightblue",fontsize="10",style="solid",fontname="Helvetica"];
  Node46 [label="coreutil.h",height=0.2,width=0.4,color="red", fillcolor="white", style="filled",URL="$coreutil_8h.html",tooltip="File containing useful basic utility functions."];
  Node2 -> Node43 [color="midnightblue",fontsize="10",style="solid",fontname="Helvetica"];
  Node2 -> Node24 [color="midnightblue",fontsize="10",style="solid",fontname="Helvetica"];
  Node24 [label="dimension2d.h",height=0.2,width=0.4,color="red", fillcolor="white", style="filled",URL="$dimension2d_8h.html",tooltip=" "];
  Node2 -> Node48 [color="midnightblue",fontsize="10",style="solid",fontname="Helvetica"];
  Node48 [label="ECullingTypes.h",height=0.2,width=0.4,color="red", fillcolor="white", style="filled",URL="$_e_culling_types_8h.html",tooltip=" "];
  Node2 -> Node49 [color="midnightblue",fontsize="10",style="solid",fontname="Helvetica"];
  Node49 [label="EDebugSceneTypes.h",height=0.2,width=0.4,color="black", fillcolor="white", style="filled",URL="$_e_debug_scene_types_8h.html",tooltip=" "];
  Node2 -> Node50 [color="midnightblue",fontsize="10",style="solid",fontname="Helvetica"];
  Node50 [label="EDriverFeatures.h",height=0.2,width=0.4,color="black", fillcolor="white", style="filled",URL="$_e_driver_features_8h.html",tooltip=" "];
  Node2 -> Node51 [color="midnightblue",fontsize="10",style="solid",fontname="Helvetica"];
  Node51 [label="EDriverTypes.h",height=0.2,width=0.4,color="black", fillcolor="white", style="filled",URL="$_e_driver_types_8h.html",tooltip=" "];
  Node2 -> Node52 [color="midnightblue",fontsize="10",style="solid",fontname="Helvetica"];
  Node52 [label="EGUIAlignment.h",height=0.2,width=0.4,color="black", fillcolor="white", style="filled",URL="$_e_g_u_i_alignment_8h.html",tooltip=" "];
  Node2 -> Node53 [color="midnightblue",fontsize="10",style="solid",fontname="Helvetica"];
  Node53 [label="EGUIElementTypes.h",height=0.2,width=0.4,color="red", fillcolor="white", style="filled",URL="$_e_g_u_i_element_types_8h.html",tooltip=" "];
  Node2 -> Node39 [color="midnightblue",fontsize="10",style="solid",fontname="Helvetica"];
  Node39 [label="EHardwareBufferFlags.h",height=0.2,width=0.4,color="black", fillcolor="white", style="filled",URL="$_e_hardware_buffer_flags_8h.html",tooltip=" "];
  Node2 -> Node35 [color="midnightblue",fontsize="10",style="solid",fontname="Helvetica"];
  Node35 [label="EMaterialFlags.h",height=0.2,width=0.4,color="black", fillcolor="white", style="filled",URL="$_e_material_flags_8h.html",tooltip=" "];
  Node2 -> Node34 [color="midnightblue",fontsize="10",style="solid",fontname="Helvetica"];
  Node34 [label="EMaterialTypes.h",height=0.2,width=0.4,color="black", fillcolor="white", style="filled",URL="$_e_material_types_8h.html",tooltip=" "];
  Node2 -> Node54 [color="midnightblue",fontsize="10",style="solid",fontname="Helvetica"];
  Node54 [label="EMeshWriterEnums.h",height=0.2,width=0.4,color="red", fillcolor="white", style="filled",URL="$_e_mesh_writer_enums_8h.html",tooltip=" "];
  Node2 -> Node55 [color="midnightblue",fontsize="10",style="solid",fontname="Helvetica"];
  Node55 [label="EMessageBoxFlags.h",height=0.2,width=0.4,color="black", fillcolor="white", style="filled",URL="$_e_message_box_flags_8h.html",tooltip=" "];
  Node2 -> Node56 [color="midnightblue",fontsize="10",style="solid",fontname="Helvetica"];
  Node56 [label="ESceneNodeAnimatorTypes.h",height=0.2,width=0.4,color="black", fillcolor="white", style="filled",URL="$_e_scene_node_animator_types_8h.html",tooltip=" "];
  Node2 -> Node57 [color="midnightblue",fontsize="10",style="solid",fontname="Helvetica"];
  Node57 [label="ESceneNodeTypes.h",height=0.2,width=0.4,color="red", fillcolor="white", style="filled",URL="$_e_scene_node_types_8h.html",tooltip=" "];
  Node2 -> Node58 [color="midnightblue",fontsize="10",style="solid",fontname="Helvetica"];
  Node58 [label="ETerrainElements.h",height=0.2,width=0.4,color="black", fillcolor="white", style="filled",URL="$_e_terrain_elements_8h.html",tooltip=" "];
  Node2 -> Node59 [color="midnightblue",fontsize="10",style="solid",fontname="Helvetica"];
  Node59 [label="fast_atof.h",height=0.2,width=0.4,color="red", fillcolor="white", style="filled",URL="$fast__atof_8h.html",tooltip=" "];
  Node2 -> Node33 [color="midnightblue",fontsize="10",style="solid",fontname="Helvetica"];
  Node33 [label="heapsort.h",height=0.2,width=0.4,color="red", fillcolor="white", style="filled",URL="$heapsort_8h.html",tooltip=" "];
  Node2 -> Node60 [color="midnightblue",fontsize="10",style="solid",fontname="Helvetica"];
  Node60 [label="IAnimatedMesh.h",height=0.2,width=0.4,color="red", fillcolor="white", style="filled",URL="$_i_animated_mesh_8h.html",tooltip=" "];
  Node60 -> Node5 [color="midnightblue",fontsize="10",style="solid",fontname="Helvetica"];
  Node2 -> Node62 [color="midnightblue",fontsize="10",style="solid",fontname="Helvetica"];
  Node62 [label="IAnimatedMeshMD2.h",height=0.2,width=0.4,color="black", fillcolor="white", style="filled",URL="$_i_animated_mesh_m_d2_8h.html",tooltip=" "];
  Node62 -> Node60 [color="midnightblue",fontsize="10",style="solid",fontname="Helvetica"];
  Node2 -> Node63 [color="midnightblue",fontsize="10",style="solid",fontname="Helvetica"];
  Node63 [label="IAnimatedMeshMD3.h",height=0.2,width=0.4,color="red", fillcolor="white", style="filled",URL="$_i_animated_mesh_m_d3_8h.html",tooltip=" "];
  Node63 -> Node60 [color="midnightblue",fontsize="10",style="solid",fontname="Helvetica"];
  Node2 -> Node79 [color="midnightblue",fontsize="10",style="solid",fontname="Helvetica"];
  Node79 [label="IAnimatedMeshSceneNode.h",height=0.2,width=0.4,color="red", fillcolor="white", style="filled",URL="$_i_animated_mesh_scene_node_8h.html",tooltip=" "];
  Node79 -> Node91 [color="midnightblue",fontsize="10",style="solid",fontname="Helvetica"];
  Node91 [label="IBoneSceneNode.h",height=0.2,width=0.4,color="red", fillcolor="white", style="filled",URL="$_i_bone_scene_node_8h.html",tooltip=" "];
  Node79 -> Node62 [color="midnightblue",fontsize="10",style="solid",fontname="Helvetica"];
  Node79 -> Node63 [color="midnightblue",fontsize="10",style="solid",fontname="Helvetica"];
  Node2 -> Node81 [color="midnightblue",fontsize="10",style="solid",fontname="Helvetica"];
  Node81 [label="IAttributeExchangingObject.h",height=0.2,width=0.4,color="red", fillcolor="white", style="filled",URL="$_i_attribute_exchanging_object_8h.html",tooltip=" "];
  Node2 -> Node88 [color="midnightblue",fontsize="10",style="solid",fontname="Helvetica"];
  Node88 [label="IAttributes.h",height=0.2,width=0.4,color="red", fillcolor="white", style="filled",URL="$_i_attributes_8h.html",tooltip=" "];
  Node88 -> Node24 [color="midnightblue",fontsize="10",style="solid",fontname="Helvetica"];
  Node2 -> Node92 [color="midnightblue",fontsize="10",style="solid",fontname="Helvetica"];
  Node92 [label="IBillboardSceneNode.h",height=0.2,width=0.4,color="red", fillcolor="white", style="filled",URL="$_i_billboard_scene_node_8h.html",tooltip=" "];
  Node2 -> Node93 [color="midnightblue",fontsize="10",style="solid",fontname="Helvetica"];
  Node93 [label="IBillboardTextSceneNode.h",height=0.2,width=0.4,color="black", fillcolor="white", style="filled",URL="$_i_billboard_text_scene_node_8h.html",tooltip=" "];
  Node93 -> Node92 [color="midnightblue",fontsize="10",style="solid",fontname="Helvetica"];
  Node2 -> Node91 [color="midnightblue",fontsize="10",style="solid",fontname="Helvetica"];
  Node2 -> Node94 [color="midnightblue",fontsize="10",style="solid",fontname="Helvetica"];
  Node94 [label="ICameraSceneNode.h",height=0.2,width=0.4,color="red", fillcolor="white", style="filled",URL="$_i_camera_scene_node_8h.html",tooltip=" "];
  Node94 -> Node83 [color="midnightblue",fontsize="10",style="solid",fontname="Helvetica"];
  Node83 [label="IEventReceiver.h",height=0.2,width=0.4,color="red", fillcolor="white", style="filled",URL="$_i_event_receiver_8h.html",tooltip=" "];
  Node2 -> Node95 [color="midnightblue",fontsize="10",style="solid",fontname="Helvetica"];
  Node95 [label="ICursorControl.h",height=0.2,width=0.4,color="red", fillcolor="white", style="filled",URL="$_i_cursor_control_8h.html",tooltip=" "];
  Node2 -> Node96 [color="midnightblue",fontsize="10",style="solid",fontname="Helvetica"];
  Node96 [label="IDummyTransformationScene\lNode.h",height=0.2,width=0.4,color="red", fillcolor="white", style="filled",URL="$_i_dummy_transformation_scene_node_8h.html",tooltip=" "];
  Node2 -> Node17 [color="midnightblue",fontsize="10",style="solid",fontname="Helvetica"];
  Node2 -> Node83 [color="midnightblue",fontsize="10",style="solid",fontname="Helvetica"];
  Node2 -> Node70 [color="midnightblue",fontsize="10",style="solid",fontname="Helvetica"];
  Node70 [label="IFileList.h",height=0.2,width=0.4,color="red", fillcolor="white", style="filled",URL="$_i_file_list_8h.html",tooltip=" "];
  Node2 -> Node65 [color="midnightblue",fontsize="10",style="solid",fontname="Helvetica"];
  Node65 [label="IFileSystem.h",height=0.2,width=0.4,color="red", fillcolor="white", style="filled",URL="$_i_file_system_8h.html",tooltip=" "];
  Node2 -> Node97 [color="midnightblue",fontsize="10",style="solid",fontname="Helvetica"];
  Node97 [label="IGeometryCreator.h",height=0.2,width=0.4,color="red", fillcolor="white", style="filled",URL="$_i_geometry_creator_8h.html",tooltip=" "];
  Node2 -> Node98 [color="midnightblue",fontsize="10",style="solid",fontname="Helvetica"];
  Node98 [label="IGPUProgrammingServices.h",height=0.2,width=0.4,color="red", fillcolor="white", style="filled",URL="$_i_g_p_u_programming_services_8h.html",tooltip=" "];
  Node98 -> Node34 [color="midnightblue",fontsize="10",style="solid",fontname="Helvetica"];
  Node2 -> Node100 [color="midnightblue",fontsize="10",style="solid",fontname="Helvetica"];
  Node100 [label="IGUIButton.h",height=0.2,width=0.4,color="red", fillcolor="white", style="filled",URL="$_i_g_u_i_button_8h.html",tooltip=" "];
  Node2 -> Node102 [color="midnightblue",fontsize="10",style="solid",fontname="Helvetica"];
  Node102 [label="IGUICheckBox.h",height=0.2,width=0.4,color="red", fillcolor="white", style="filled",URL="$_i_g_u_i_check_box_8h.html",tooltip=" "];
  Node2 -> Node103 [color="midnightblue",fontsize="10",style="solid",fontname="Helvetica"];
  Node103 [label="IGUIColorSelectDialog.h",height=0.2,width=0.4,color="red", fillcolor="white", style="filled",URL="$_i_g_u_i_color_select_dialog_8h.html",tooltip=" "];
  Node2 -> Node104 [color="midnightblue",fontsize="10",style="solid",fontname="Helvetica"];
  Node104 [label="IGUIComboBox.h",height=0.2,width=0.4,color="red", fillcolor="white", style="filled",URL="$_i_g_u_i_combo_box_8h.html",tooltip=" "];
  Node2 -> Node105 [color="midnightblue",fontsize="10",style="solid",fontname="Helvetica"];
  Node105 [label="IGUIContextMenu.h",height=0.2,width=0.4,color="red", fillcolor="white", style="filled",URL="$_i_g_u_i_context_menu_8h.html",tooltip=" "];
  Node2 -> Node106 [color="midnightblue",fontsize="10",style="solid",fontname="Helvetica"];
  Node106 [label="IGUIEditBox.h",height=0.2,width=0.4,color="red", fillcolor="white", style="filled",URL="$_i_g_u_i_edit_box_8h.html",tooltip=" "];
}
