digraph "sources/Factories/ECS/components/Component.cpp"
{
 // LATEX_PDF_SIZE
  edge [fontname="Helvetica",fontsize="10",labelfontname="Helvetica",labelfontsize="10"];
  node [fontname="Helvetica",fontsize="10",shape=record];
  Node1 [label="sources/Factories/ECS\l/components/Component.cpp",height=0.2,width=0.4,color="black", fillcolor="grey75", style="filled", fontcolor="black",tooltip=" "];
  Node1 -> Node2 [color="midnightblue",fontsize="10",style="solid",fontname="Helvetica"];
  Node2 [label="Component.hpp",height=0.2,width=0.4,color="black", fillcolor="white", style="filled",URL="$_component_8hpp.html",tooltip=" "];
}
