digraph "cmake/include/ECullingTypes.h"
{
 // LATEX_PDF_SIZE
  edge [fontname="Helvetica",fontsize="10",labelfontname="Helvetica",labelfontsize="10"];
  node [fontname="Helvetica",fontsize="10",shape=record];
  Node1 [label="cmake/include/ECullingTypes.h",height=0.2,width=0.4,color="black", fillcolor="grey75", style="filled", fontcolor="black",tooltip=" "];
  Node1 -> Node2 [dir="back",color="midnightblue",fontsize="10",style="solid",fontname="Helvetica"];
  Node2 [label="cmake/include/ISceneNode.h",height=0.2,width=0.4,color="black", fillcolor="white", style="filled",URL="$_i_scene_node_8h.html",tooltip=" "];
  Node2 -> Node3 [dir="back",color="midnightblue",fontsize="10",style="solid",fontname="Helvetica"];
  Node3 [label="cmake/include/IAnimatedMesh\lSceneNode.h",height=0.2,width=0.4,color="black", fillcolor="white", style="filled",URL="$_i_animated_mesh_scene_node_8h.html",tooltip=" "];
  Node3 -> Node4 [dir="back",color="midnightblue",fontsize="10",style="solid",fontname="Helvetica"];
  Node4 [label="cmake/include/IParticleAnimated\lMeshSceneNodeEmitter.h",height=0.2,width=0.4,color="black", fillcolor="white", style="filled",URL="$_i_particle_animated_mesh_scene_node_emitter_8h.html",tooltip=" "];
  Node4 -> Node5 [dir="back",color="midnightblue",fontsize="10",style="solid",fontname="Helvetica"];
  Node5 [label="cmake/include/IParticleSystem\lSceneNode.h",height=0.2,width=0.4,color="black", fillcolor="white", style="filled",URL="$_i_particle_system_scene_node_8h.html",tooltip=" "];
  Node5 -> Node6 [dir="back",color="midnightblue",fontsize="10",style="solid",fontname="Helvetica"];
  Node6 [label="cmake/include/irrlicht.h",height=0.2,width=0.4,color="black", fillcolor="white", style="filled",URL="$irrlicht_8h.html",tooltip="Main header file of the irrlicht, the only file needed to include."];
  Node6 -> Node7 [dir="back",color="midnightblue",fontsize="10",style="solid",fontname="Helvetica"];
  Node7 [label="includes/Factories\l/Button.hpp",height=0.2,width=0.4,color="black", fillcolor="white", style="filled",URL="$_button_8hpp.html",tooltip=" "];
  Node7 -> Node8 [dir="back",color="midnightblue",fontsize="10",style="solid",fontname="Helvetica"];
  Node8 [label="includes/Scenes/Menu.hpp",height=0.2,width=0.4,color="red", fillcolor="white", style="filled",URL="$_menu_8hpp.html",tooltip=" "];
  Node8 -> Node9 [dir="back",color="midnightblue",fontsize="10",style="solid",fontname="Helvetica"];
  Node9 [label="includes/Core/Core.hpp",height=0.2,width=0.4,color="red", fillcolor="white", style="filled",URL="$_core_8hpp.html",tooltip=" "];
  Node9 -> Node11 [dir="back",color="midnightblue",fontsize="10",style="solid",fontname="Helvetica"];
  Node11 [label="sources/main.cpp",height=0.2,width=0.4,color="black", fillcolor="white", style="filled",URL="$main_8cpp.html",tooltip=" "];
  Node7 -> Node13 [dir="back",color="midnightblue",fontsize="10",style="solid",fontname="Helvetica"];
  Node13 [label="includes/Scenes/Options.hpp",height=0.2,width=0.4,color="red", fillcolor="white", style="filled",URL="$_options_8hpp.html",tooltip=" "];
  Node13 -> Node9 [dir="back",color="midnightblue",fontsize="10",style="solid",fontname="Helvetica"];
  Node7 -> Node15 [dir="back",color="midnightblue",fontsize="10",style="solid",fontname="Helvetica"];
  Node15 [label="includes/Scenes/SelectPlayer.hpp",height=0.2,width=0.4,color="red", fillcolor="white", style="filled",URL="$_select_player_8hpp.html",tooltip=" "];
  Node15 -> Node9 [dir="back",color="midnightblue",fontsize="10",style="solid",fontname="Helvetica"];
  Node7 -> Node17 [dir="back",color="midnightblue",fontsize="10",style="solid",fontname="Helvetica"];
  Node17 [label="includes/Scenes/SelectSave.hpp",height=0.2,width=0.4,color="red", fillcolor="white", style="filled",URL="$_select_save_8hpp.html",tooltip=" "];
  Node17 -> Node9 [dir="back",color="midnightblue",fontsize="10",style="solid",fontname="Helvetica"];
  Node7 -> Node19 [dir="back",color="midnightblue",fontsize="10",style="solid",fontname="Helvetica"];
  Node19 [label="includes/Scenes/Title.hpp",height=0.2,width=0.4,color="red", fillcolor="white", style="filled",URL="$_title_8hpp.html",tooltip=" "];
  Node19 -> Node9 [dir="back",color="midnightblue",fontsize="10",style="solid",fontname="Helvetica"];
  Node7 -> Node21 [dir="back",color="midnightblue",fontsize="10",style="solid",fontname="Helvetica"];
  Node21 [label="sources/Factories/Button.cpp",height=0.2,width=0.4,color="black", fillcolor="white", style="filled",URL="$_button_8cpp.html",tooltip=" "];
  Node6 -> Node22 [dir="back",color="midnightblue",fontsize="10",style="solid",fontname="Helvetica"];
  Node22 [label="includes/Factories\l/Collision.hpp",height=0.2,width=0.4,color="black", fillcolor="white", style="filled",URL="$_collision_8hpp.html",tooltip=" "];
  Node22 -> Node23 [dir="back",color="midnightblue",fontsize="10",style="solid",fontname="Helvetica"];
  Node23 [label="sources/Factories/Collision.cpp",height=0.2,width=0.4,color="black", fillcolor="white", style="filled",URL="$_collision_8cpp.html",tooltip=" "];
  Node22 -> Node24 [dir="back",color="midnightblue",fontsize="10",style="solid",fontname="Helvetica"];
  Node24 [label="sources/Graphical/Graphical.cpp",height=0.2,width=0.4,color="black", fillcolor="white", style="filled",URL="$_graphical_8cpp.html",tooltip=" "];
  Node6 -> Node25 [dir="back",color="midnightblue",fontsize="10",style="solid",fontname="Helvetica"];
  Node25 [label="includes/Factories\l/ECS/components/ActionComponent.hpp",height=0.2,width=0.4,color="black", fillcolor="white", style="filled",URL="$_action_component_8hpp.html",tooltip=" "];
  Node25 -> Node26 [dir="back",color="midnightblue",fontsize="10",style="solid",fontname="Helvetica"];
  Node26 [label="includes/Factories\l/ECS/entities/Perso.hpp",height=0.2,width=0.4,color="red", fillcolor="white", style="filled",URL="$_perso_8hpp.html",tooltip=" "];
  Node26 -> Node27 [dir="back",color="midnightblue",fontsize="10",style="solid",fontname="Helvetica"];
  Node27 [label="includes/Scenes/GameScene.hpp",height=0.2,width=0.4,color="red", fillcolor="white", style="filled",URL="$_game_scene_8hpp.html",tooltip=" "];
  Node27 -> Node9 [dir="back",color="midnightblue",fontsize="10",style="solid",fontname="Helvetica"];
  Node26 -> Node11 [dir="back",color="midnightblue",fontsize="10",style="solid",fontname="Helvetica"];
  Node25 -> Node30 [dir="back",color="midnightblue",fontsize="10",style="solid",fontname="Helvetica"];
  Node30 [label="includes/Graphical\l/Graphical.hpp",height=0.2,width=0.4,color="black", fillcolor="white", style="filled",URL="$_graphical_8hpp.html",tooltip=" "];
  Node30 -> Node9 [dir="back",color="midnightblue",fontsize="10",style="solid",fontname="Helvetica"];
  Node30 -> Node27 [dir="back",color="midnightblue",fontsize="10",style="solid",fontname="Helvetica"];
  Node30 -> Node8 [dir="back",color="midnightblue",fontsize="10",style="solid",fontname="Helvetica"];
  Node30 -> Node13 [dir="back",color="midnightblue",fontsize="10",style="solid",fontname="Helvetica"];
  Node30 -> Node15 [dir="back",color="midnightblue",fontsize="10",style="solid",fontname="Helvetica"];
  Node30 -> Node17 [dir="back",color="midnightblue",fontsize="10",style="solid",fontname="Helvetica"];
  Node30 -> Node19 [dir="back",color="midnightblue",fontsize="10",style="solid",fontname="Helvetica"];
  Node30 -> Node24 [dir="back",color="midnightblue",fontsize="10",style="solid",fontname="Helvetica"];
  Node30 -> Node11 [dir="back",color="midnightblue",fontsize="10",style="solid",fontname="Helvetica"];
  Node25 -> Node31 [dir="back",color="midnightblue",fontsize="10",style="solid",fontname="Helvetica"];
  Node31 [label="sources/Factories/ECS\l/components/ActionComponent.cpp",height=0.2,width=0.4,color="black", fillcolor="white", style="filled",URL="$_action_component_8cpp.html",tooltip=" "];
  Node6 -> Node32 [dir="back",color="midnightblue",fontsize="10",style="solid",fontname="Helvetica"];
  Node32 [label="includes/Factories\l/ECS/components/CubeComponent.hpp",height=0.2,width=0.4,color="black", fillcolor="white", style="filled",URL="$_cube_component_8hpp.html",tooltip=" "];
  Node32 -> Node33 [dir="back",color="midnightblue",fontsize="10",style="solid",fontname="Helvetica"];
  Node33 [label="includes/GameObjects\l/Block.hpp",height=0.2,width=0.4,color="red", fillcolor="white", style="filled",URL="$_block_8hpp.html",tooltip=" "];
  Node32 -> Node30 [dir="back",color="midnightblue",fontsize="10",style="solid",fontname="Helvetica"];
  Node32 -> Node27 [dir="back",color="midnightblue",fontsize="10",style="solid",fontname="Helvetica"];
  Node32 -> Node47 [dir="back",color="midnightblue",fontsize="10",style="solid",fontname="Helvetica"];
  Node47 [label="sources/Factories/ECS\l/components/CubeComponent.cpp",height=0.2,width=0.4,color="black", fillcolor="white", style="filled",URL="$_cube_component_8cpp.html",tooltip=" "];
  Node6 -> Node48 [dir="back",color="midnightblue",fontsize="10",style="solid",fontname="Helvetica"];
  Node48 [label="includes/Factories\l/ECS/components/MeshComponent.hpp",height=0.2,width=0.4,color="black", fillcolor="white", style="filled",URL="$_mesh_component_8hpp.html",tooltip=" "];
  Node48 -> Node26 [dir="back",color="midnightblue",fontsize="10",style="solid",fontname="Helvetica"];
  Node48 -> Node30 [dir="back",color="midnightblue",fontsize="10",style="solid",fontname="Helvetica"];
  Node48 -> Node49 [dir="back",color="midnightblue",fontsize="10",style="solid",fontname="Helvetica"];
  Node49 [label="sources/Factories/ECS\l/components/MeshComponent.cpp",height=0.2,width=0.4,color="black", fillcolor="white", style="filled",URL="$_mesh_component_8cpp.html",tooltip=" "];
  Node6 -> Node50 [dir="back",color="midnightblue",fontsize="10",style="solid",fontname="Helvetica"];
  Node50 [label="includes/Factories\l/ECS/components/TextureComponent.hpp",height=0.2,width=0.4,color="black", fillcolor="white", style="filled",URL="$_texture_component_8hpp.html",tooltip=" "];
  Node50 -> Node7 [dir="back",color="midnightblue",fontsize="10",style="solid",fontname="Helvetica"];
  Node50 -> Node33 [dir="back",color="midnightblue",fontsize="10",style="solid",fontname="Helvetica"];
  Node50 -> Node30 [dir="back",color="midnightblue",fontsize="10",style="solid",fontname="Helvetica"];
  Node50 -> Node51 [dir="back",color="midnightblue",fontsize="10",style="solid",fontname="Helvetica"];
  Node51 [label="sources/Factories/ECS\l/components/TextureComponent.cpp",height=0.2,width=0.4,color="black", fillcolor="white", style="filled",URL="$_texture_component_8cpp.html",tooltip=" "];
  Node6 -> Node52 [dir="back",color="midnightblue",fontsize="10",style="solid",fontname="Helvetica"];
  Node52 [label="includes/GameObjects\l/Particuls.hpp",height=0.2,width=0.4,color="black", fillcolor="white", style="filled",URL="$_particuls_8hpp.html",tooltip=" "];
  Node52 -> Node30 [dir="back",color="midnightblue",fontsize="10",style="solid",fontname="Helvetica"];
  Node52 -> Node53 [dir="back",color="midnightblue",fontsize="10",style="solid",fontname="Helvetica"];
  Node53 [label="sources/GameObjects\l/Particuls.cpp",height=0.2,width=0.4,color="black", fillcolor="white", style="filled",URL="$_particuls_8cpp.html",tooltip=" "];
  Node52 -> Node24 [dir="back",color="midnightblue",fontsize="10",style="solid",fontname="Helvetica"];
  Node6 -> Node30 [dir="back",color="midnightblue",fontsize="10",style="solid",fontname="Helvetica"];
  Node6 -> Node54 [dir="back",color="midnightblue",fontsize="10",style="solid",fontname="Helvetica"];
  Node54 [label="includes/Graphical\l/handleInput.hpp",height=0.2,width=0.4,color="black", fillcolor="white", style="filled",URL="$handle_input_8hpp.html",tooltip=" "];
  Node54 -> Node30 [dir="back",color="midnightblue",fontsize="10",style="solid",fontname="Helvetica"];
  Node54 -> Node55 [dir="back",color="midnightblue",fontsize="10",style="solid",fontname="Helvetica"];
  Node55 [label="sources/Graphical/handle\lInput.cpp",height=0.2,width=0.4,color="black", fillcolor="white", style="filled",URL="$handle_input_8cpp.html",tooltip=" "];
  Node6 -> Node43 [dir="back",color="midnightblue",fontsize="10",style="solid",fontname="Helvetica"];
  Node43 [label="includes/Render/Render.hpp",height=0.2,width=0.4,color="black", fillcolor="white", style="filled",URL="$_render_8hpp.html",tooltip=" "];
  Node43 -> Node11 [dir="back",color="midnightblue",fontsize="10",style="solid",fontname="Helvetica"];
  Node43 -> Node39 [dir="back",color="midnightblue",fontsize="10",style="solid",fontname="Helvetica"];
  Node39 [label="sources/Render/Render.cpp",height=0.2,width=0.4,color="black", fillcolor="white", style="filled",URL="$_render_8cpp.html",tooltip=" "];
  Node3 -> Node6 [dir="back",color="midnightblue",fontsize="10",style="solid",fontname="Helvetica"];
  Node2 -> Node56 [dir="back",color="midnightblue",fontsize="10",style="solid",fontname="Helvetica"];
  Node56 [label="cmake/include/IBoneScene\lNode.h",height=0.2,width=0.4,color="black", fillcolor="white", style="filled",URL="$_i_bone_scene_node_8h.html",tooltip=" "];
  Node56 -> Node3 [dir="back",color="midnightblue",fontsize="10",style="solid",fontname="Helvetica"];
  Node56 -> Node6 [dir="back",color="midnightblue",fontsize="10",style="solid",fontname="Helvetica"];
  Node56 -> Node57 [dir="back",color="midnightblue",fontsize="10",style="solid",fontname="Helvetica"];
  Node57 [label="cmake/include/ISkinnedMesh.h",height=0.2,width=0.4,color="red", fillcolor="white", style="filled",URL="$_i_skinned_mesh_8h.html",tooltip=" "];
  Node57 -> Node6 [dir="back",color="midnightblue",fontsize="10",style="solid",fontname="Helvetica"];
  Node2 -> Node59 [dir="back",color="midnightblue",fontsize="10",style="solid",fontname="Helvetica"];
  Node59 [label="cmake/include/IBillboard\lSceneNode.h",height=0.2,width=0.4,color="black", fillcolor="white", style="filled",URL="$_i_billboard_scene_node_8h.html",tooltip=" "];
  Node59 -> Node60 [dir="back",color="midnightblue",fontsize="10",style="solid",fontname="Helvetica"];
  Node60 [label="cmake/include/IBillboard\lTextSceneNode.h",height=0.2,width=0.4,color="black", fillcolor="white", style="filled",URL="$_i_billboard_text_scene_node_8h.html",tooltip=" "];
  Node60 -> Node6 [dir="back",color="midnightblue",fontsize="10",style="solid",fontname="Helvetica"];
  Node59 -> Node6 [dir="back",color="midnightblue",fontsize="10",style="solid",fontname="Helvetica"];
  Node2 -> Node61 [dir="back",color="midnightblue",fontsize="10",style="solid",fontname="Helvetica"];
  Node61 [label="cmake/include/ICameraScene\lNode.h",height=0.2,width=0.4,color="black", fillcolor="white", style="filled",URL="$_i_camera_scene_node_8h.html",tooltip=" "];
  Node61 -> Node6 [dir="back",color="midnightblue",fontsize="10",style="solid",fontname="Helvetica"];
  Node2 -> Node62 [dir="back",color="midnightblue",fontsize="10",style="solid",fontname="Helvetica"];
  Node62 [label="cmake/include/IColladaMesh\lWriter.h",height=0.2,width=0.4,color="black", fillcolor="white", style="filled",URL="$_i_collada_mesh_writer_8h.html",tooltip=" "];
  Node62 -> Node6 [dir="back",color="midnightblue",fontsize="10",style="solid",fontname="Helvetica"];
  Node2 -> Node63 [dir="back",color="midnightblue",fontsize="10",style="solid",fontname="Helvetica"];
  Node63 [label="cmake/include/IDummyTransformation\lSceneNode.h",height=0.2,width=0.4,color="black", fillcolor="white", style="filled",URL="$_i_dummy_transformation_scene_node_8h.html",tooltip=" "];
  Node63 -> Node6 [dir="back",color="midnightblue",fontsize="10",style="solid",fontname="Helvetica"];
  Node2 -> Node64 [dir="back",color="midnightblue",fontsize="10",style="solid",fontname="Helvetica"];
  Node64 [label="cmake/include/ILightScene\lNode.h",height=0.2,width=0.4,color="black", fillcolor="white", style="filled",URL="$_i_light_scene_node_8h.html",tooltip=" "];
  Node64 -> Node6 [dir="back",color="midnightblue",fontsize="10",style="solid",fontname="Helvetica"];
  Node2 -> Node65 [dir="back",color="midnightblue",fontsize="10",style="solid",fontname="Helvetica"];
  Node65 [label="cmake/include/IMeshScene\lNode.h",height=0.2,width=0.4,color="black", fillcolor="white", style="filled",URL="$_i_mesh_scene_node_8h.html",tooltip=" "];
  Node65 -> Node6 [dir="back",color="midnightblue",fontsize="10",style="solid",fontname="Helvetica"];
  Node2 -> Node5 [dir="back",color="midnightblue",fontsize="10",style="solid",fontname="Helvetica"];
  Node2 -> Node6 [dir="back",color="midnightblue",fontsize="10",style="solid",fontname="Helvetica"];
  Node2 -> Node66 [dir="back",color="midnightblue",fontsize="10",style="solid",fontname="Helvetica"];
  Node66 [label="cmake/include/ISceneNode\lAnimatorCollisionResponse.h",height=0.2,width=0.4,color="black", fillcolor="white", style="filled",URL="$_i_scene_node_animator_collision_response_8h.html",tooltip=" "];
  Node66 -> Node6 [dir="back",color="midnightblue",fontsize="10",style="solid",fontname="Helvetica"];
  Node2 -> Node67 [dir="back",color="midnightblue",fontsize="10",style="solid",fontname="Helvetica"];
  Node67 [label="cmake/include/IShadowVolume\lSceneNode.h",height=0.2,width=0.4,color="black", fillcolor="white", style="filled",URL="$_i_shadow_volume_scene_node_8h.html",tooltip=" "];
  Node67 -> Node6 [dir="back",color="midnightblue",fontsize="10",style="solid",fontname="Helvetica"];
  Node2 -> Node68 [dir="back",color="midnightblue",fontsize="10",style="solid",fontname="Helvetica"];
  Node68 [label="cmake/include/ITerrainScene\lNode.h",height=0.2,width=0.4,color="black", fillcolor="white", style="filled",URL="$_i_terrain_scene_node_8h.html",tooltip=" "];
  Node68 -> Node6 [dir="back",color="midnightblue",fontsize="10",style="solid",fontname="Helvetica"];
  Node2 -> Node69 [dir="back",color="midnightblue",fontsize="10",style="solid",fontname="Helvetica"];
  Node69 [label="cmake/include/ITextScene\lNode.h",height=0.2,width=0.4,color="black", fillcolor="white", style="filled",URL="$_i_text_scene_node_8h.html",tooltip=" "];
  Node69 -> Node6 [dir="back",color="midnightblue",fontsize="10",style="solid",fontname="Helvetica"];
  Node2 -> Node70 [dir="back",color="midnightblue",fontsize="10",style="solid",fontname="Helvetica"];
  Node70 [label="cmake/include/IVolumeLight\lSceneNode.h",height=0.2,width=0.4,color="black", fillcolor="white", style="filled",URL="$_i_volume_light_scene_node_8h.html",tooltip=" "];
  Node70 -> Node6 [dir="back",color="midnightblue",fontsize="10",style="solid",fontname="Helvetica"];
  Node1 -> Node6 [dir="back",color="midnightblue",fontsize="10",style="solid",fontname="Helvetica"];
}
