digraph "cmake/include/EGUIElementTypes.h"
{
 // LATEX_PDF_SIZE
  edge [fontname="Helvetica",fontsize="10",labelfontname="Helvetica",labelfontsize="10"];
  node [fontname="Helvetica",fontsize="10",shape=record];
  Node1 [label="cmake/include/EGUIElement\lTypes.h",height=0.2,width=0.4,color="black", fillcolor="grey75", style="filled", fontcolor="black",tooltip=" "];
  Node1 -> Node2 [dir="back",color="midnightblue",fontsize="10",style="solid",fontname="Helvetica"];
  Node2 [label="cmake/include/IGUIElement.h",height=0.2,width=0.4,color="black", fillcolor="white", style="filled",URL="$_i_g_u_i_element_8h.html",tooltip=" "];
  Node2 -> Node3 [dir="back",color="midnightblue",fontsize="10",style="solid",fontname="Helvetica"];
  Node3 [label="cmake/include/IGUIButton.h",height=0.2,width=0.4,color="black", fillcolor="white", style="filled",URL="$_i_g_u_i_button_8h.html",tooltip=" "];
  Node3 -> Node4 [dir="back",color="midnightblue",fontsize="10",style="solid",fontname="Helvetica"];
  Node4 [label="cmake/include/irrlicht.h",height=0.2,width=0.4,color="black", fillcolor="white", style="filled",URL="$irrlicht_8h.html",tooltip="Main header file of the irrlicht, the only file needed to include."];
  Node4 -> Node5 [dir="back",color="midnightblue",fontsize="10",style="solid",fontname="Helvetica"];
  Node5 [label="includes/Factories\l/Button.hpp",height=0.2,width=0.4,color="black", fillcolor="white", style="filled",URL="$_button_8hpp.html",tooltip=" "];
  Node5 -> Node6 [dir="back",color="midnightblue",fontsize="10",style="solid",fontname="Helvetica"];
  Node6 [label="includes/Scenes/Menu.hpp",height=0.2,width=0.4,color="red", fillcolor="white", style="filled",URL="$_menu_8hpp.html",tooltip=" "];
  Node5 -> Node11 [dir="back",color="midnightblue",fontsize="10",style="solid",fontname="Helvetica"];
  Node11 [label="includes/Scenes/Options.hpp",height=0.2,width=0.4,color="red", fillcolor="white", style="filled",URL="$_options_8hpp.html",tooltip=" "];
  Node5 -> Node13 [dir="back",color="midnightblue",fontsize="10",style="solid",fontname="Helvetica"];
  Node13 [label="includes/Scenes/SelectPlayer.hpp",height=0.2,width=0.4,color="red", fillcolor="white", style="filled",URL="$_select_player_8hpp.html",tooltip=" "];
  Node5 -> Node15 [dir="back",color="midnightblue",fontsize="10",style="solid",fontname="Helvetica"];
  Node15 [label="includes/Scenes/SelectSave.hpp",height=0.2,width=0.4,color="red", fillcolor="white", style="filled",URL="$_select_save_8hpp.html",tooltip=" "];
  Node5 -> Node17 [dir="back",color="midnightblue",fontsize="10",style="solid",fontname="Helvetica"];
  Node17 [label="includes/Scenes/Title.hpp",height=0.2,width=0.4,color="red", fillcolor="white", style="filled",URL="$_title_8hpp.html",tooltip=" "];
  Node5 -> Node19 [dir="back",color="midnightblue",fontsize="10",style="solid",fontname="Helvetica"];
  Node19 [label="sources/Factories/Button.cpp",height=0.2,width=0.4,color="black", fillcolor="white", style="filled",URL="$_button_8cpp.html",tooltip=" "];
  Node4 -> Node20 [dir="back",color="midnightblue",fontsize="10",style="solid",fontname="Helvetica"];
  Node20 [label="includes/Factories\l/Collision.hpp",height=0.2,width=0.4,color="black", fillcolor="white", style="filled",URL="$_collision_8hpp.html",tooltip=" "];
  Node20 -> Node21 [dir="back",color="midnightblue",fontsize="10",style="solid",fontname="Helvetica"];
  Node21 [label="sources/Factories/Collision.cpp",height=0.2,width=0.4,color="black", fillcolor="white", style="filled",URL="$_collision_8cpp.html",tooltip=" "];
  Node20 -> Node22 [dir="back",color="midnightblue",fontsize="10",style="solid",fontname="Helvetica"];
  Node22 [label="sources/Graphical/Graphical.cpp",height=0.2,width=0.4,color="black", fillcolor="white", style="filled",URL="$_graphical_8cpp.html",tooltip=" "];
  Node4 -> Node23 [dir="back",color="midnightblue",fontsize="10",style="solid",fontname="Helvetica"];
  Node23 [label="includes/Factories\l/ECS/components/ActionComponent.hpp",height=0.2,width=0.4,color="black", fillcolor="white", style="filled",URL="$_action_component_8hpp.html",tooltip=" "];
  Node23 -> Node24 [dir="back",color="midnightblue",fontsize="10",style="solid",fontname="Helvetica"];
  Node24 [label="includes/Factories\l/ECS/entities/Perso.hpp",height=0.2,width=0.4,color="red", fillcolor="white", style="filled",URL="$_perso_8hpp.html",tooltip=" "];
  Node24 -> Node25 [dir="back",color="midnightblue",fontsize="10",style="solid",fontname="Helvetica"];
  Node25 [label="includes/Scenes/GameScene.hpp",height=0.2,width=0.4,color="red", fillcolor="white", style="filled",URL="$_game_scene_8hpp.html",tooltip=" "];
  Node23 -> Node28 [dir="back",color="midnightblue",fontsize="10",style="solid",fontname="Helvetica"];
  Node28 [label="includes/Graphical\l/Graphical.hpp",height=0.2,width=0.4,color="red", fillcolor="white", style="filled",URL="$_graphical_8hpp.html",tooltip=" "];
  Node28 -> Node25 [dir="back",color="midnightblue",fontsize="10",style="solid",fontname="Helvetica"];
  Node28 -> Node6 [dir="back",color="midnightblue",fontsize="10",style="solid",fontname="Helvetica"];
  Node28 -> Node11 [dir="back",color="midnightblue",fontsize="10",style="solid",fontname="Helvetica"];
  Node28 -> Node13 [dir="back",color="midnightblue",fontsize="10",style="solid",fontname="Helvetica"];
  Node28 -> Node15 [dir="back",color="midnightblue",fontsize="10",style="solid",fontname="Helvetica"];
  Node28 -> Node17 [dir="back",color="midnightblue",fontsize="10",style="solid",fontname="Helvetica"];
  Node28 -> Node22 [dir="back",color="midnightblue",fontsize="10",style="solid",fontname="Helvetica"];
  Node23 -> Node29 [dir="back",color="midnightblue",fontsize="10",style="solid",fontname="Helvetica"];
  Node29 [label="sources/Factories/ECS\l/components/ActionComponent.cpp",height=0.2,width=0.4,color="black", fillcolor="white", style="filled",URL="$_action_component_8cpp.html",tooltip=" "];
  Node4 -> Node30 [dir="back",color="midnightblue",fontsize="10",style="solid",fontname="Helvetica"];
  Node30 [label="includes/Factories\l/ECS/components/CubeComponent.hpp",height=0.2,width=0.4,color="black", fillcolor="white", style="filled",URL="$_cube_component_8hpp.html",tooltip=" "];
  Node30 -> Node31 [dir="back",color="midnightblue",fontsize="10",style="solid",fontname="Helvetica"];
  Node31 [label="includes/GameObjects\l/Block.hpp",height=0.2,width=0.4,color="red", fillcolor="white", style="filled",URL="$_block_8hpp.html",tooltip=" "];
  Node30 -> Node28 [dir="back",color="midnightblue",fontsize="10",style="solid",fontname="Helvetica"];
  Node30 -> Node25 [dir="back",color="midnightblue",fontsize="10",style="solid",fontname="Helvetica"];
  Node30 -> Node45 [dir="back",color="midnightblue",fontsize="10",style="solid",fontname="Helvetica"];
  Node45 [label="sources/Factories/ECS\l/components/CubeComponent.cpp",height=0.2,width=0.4,color="black", fillcolor="white", style="filled",URL="$_cube_component_8cpp.html",tooltip=" "];
  Node4 -> Node46 [dir="back",color="midnightblue",fontsize="10",style="solid",fontname="Helvetica"];
  Node46 [label="includes/Factories\l/ECS/components/MeshComponent.hpp",height=0.2,width=0.4,color="black", fillcolor="white", style="filled",URL="$_mesh_component_8hpp.html",tooltip=" "];
  Node46 -> Node24 [dir="back",color="midnightblue",fontsize="10",style="solid",fontname="Helvetica"];
  Node46 -> Node28 [dir="back",color="midnightblue",fontsize="10",style="solid",fontname="Helvetica"];
  Node46 -> Node47 [dir="back",color="midnightblue",fontsize="10",style="solid",fontname="Helvetica"];
  Node47 [label="sources/Factories/ECS\l/components/MeshComponent.cpp",height=0.2,width=0.4,color="black", fillcolor="white", style="filled",URL="$_mesh_component_8cpp.html",tooltip=" "];
  Node4 -> Node48 [dir="back",color="midnightblue",fontsize="10",style="solid",fontname="Helvetica"];
  Node48 [label="includes/Factories\l/ECS/components/TextureComponent.hpp",height=0.2,width=0.4,color="black", fillcolor="white", style="filled",URL="$_texture_component_8hpp.html",tooltip=" "];
  Node48 -> Node5 [dir="back",color="midnightblue",fontsize="10",style="solid",fontname="Helvetica"];
  Node48 -> Node31 [dir="back",color="midnightblue",fontsize="10",style="solid",fontname="Helvetica"];
  Node48 -> Node28 [dir="back",color="midnightblue",fontsize="10",style="solid",fontname="Helvetica"];
  Node48 -> Node49 [dir="back",color="midnightblue",fontsize="10",style="solid",fontname="Helvetica"];
  Node49 [label="sources/Factories/ECS\l/components/TextureComponent.cpp",height=0.2,width=0.4,color="black", fillcolor="white", style="filled",URL="$_texture_component_8cpp.html",tooltip=" "];
  Node4 -> Node50 [dir="back",color="midnightblue",fontsize="10",style="solid",fontname="Helvetica"];
  Node50 [label="includes/GameObjects\l/Particuls.hpp",height=0.2,width=0.4,color="black", fillcolor="white", style="filled",URL="$_particuls_8hpp.html",tooltip=" "];
  Node50 -> Node28 [dir="back",color="midnightblue",fontsize="10",style="solid",fontname="Helvetica"];
  Node50 -> Node51 [dir="back",color="midnightblue",fontsize="10",style="solid",fontname="Helvetica"];
  Node51 [label="sources/GameObjects\l/Particuls.cpp",height=0.2,width=0.4,color="black", fillcolor="white", style="filled",URL="$_particuls_8cpp.html",tooltip=" "];
  Node50 -> Node22 [dir="back",color="midnightblue",fontsize="10",style="solid",fontname="Helvetica"];
  Node4 -> Node28 [dir="back",color="midnightblue",fontsize="10",style="solid",fontname="Helvetica"];
  Node4 -> Node52 [dir="back",color="midnightblue",fontsize="10",style="solid",fontname="Helvetica"];
  Node52 [label="includes/Graphical\l/handleInput.hpp",height=0.2,width=0.4,color="red", fillcolor="white", style="filled",URL="$handle_input_8hpp.html",tooltip=" "];
  Node52 -> Node28 [dir="back",color="midnightblue",fontsize="10",style="solid",fontname="Helvetica"];
  Node4 -> Node41 [dir="back",color="midnightblue",fontsize="10",style="solid",fontname="Helvetica"];
  Node41 [label="includes/Render/Render.hpp",height=0.2,width=0.4,color="red", fillcolor="white", style="filled",URL="$_render_8hpp.html",tooltip=" "];
  Node2 -> Node54 [dir="back",color="midnightblue",fontsize="10",style="solid",fontname="Helvetica"];
  Node54 [label="cmake/include/IGUICheckBox.h",height=0.2,width=0.4,color="black", fillcolor="white", style="filled",URL="$_i_g_u_i_check_box_8h.html",tooltip=" "];
  Node54 -> Node4 [dir="back",color="midnightblue",fontsize="10",style="solid",fontname="Helvetica"];
  Node2 -> Node55 [dir="back",color="midnightblue",fontsize="10",style="solid",fontname="Helvetica"];
  Node55 [label="cmake/include/IGUIColorSelect\lDialog.h",height=0.2,width=0.4,color="black", fillcolor="white", style="filled",URL="$_i_g_u_i_color_select_dialog_8h.html",tooltip=" "];
  Node55 -> Node4 [dir="back",color="midnightblue",fontsize="10",style="solid",fontname="Helvetica"];
  Node2 -> Node56 [dir="back",color="midnightblue",fontsize="10",style="solid",fontname="Helvetica"];
  Node56 [label="cmake/include/IGUIComboBox.h",height=0.2,width=0.4,color="black", fillcolor="white", style="filled",URL="$_i_g_u_i_combo_box_8h.html",tooltip=" "];
  Node56 -> Node4 [dir="back",color="midnightblue",fontsize="10",style="solid",fontname="Helvetica"];
  Node2 -> Node57 [dir="back",color="midnightblue",fontsize="10",style="solid",fontname="Helvetica"];
  Node57 [label="cmake/include/IGUIContext\lMenu.h",height=0.2,width=0.4,color="black", fillcolor="white", style="filled",URL="$_i_g_u_i_context_menu_8h.html",tooltip=" "];
  Node57 -> Node4 [dir="back",color="midnightblue",fontsize="10",style="solid",fontname="Helvetica"];
  Node2 -> Node58 [dir="back",color="midnightblue",fontsize="10",style="solid",fontname="Helvetica"];
  Node58 [label="cmake/include/IGUIEditBox.h",height=0.2,width=0.4,color="black", fillcolor="white", style="filled",URL="$_i_g_u_i_edit_box_8h.html",tooltip=" "];
  Node58 -> Node4 [dir="back",color="midnightblue",fontsize="10",style="solid",fontname="Helvetica"];
  Node2 -> Node59 [dir="back",color="midnightblue",fontsize="10",style="solid",fontname="Helvetica"];
  Node59 [label="cmake/include/IGUIFileOpen\lDialog.h",height=0.2,width=0.4,color="black", fillcolor="white", style="filled",URL="$_i_g_u_i_file_open_dialog_8h.html",tooltip=" "];
  Node59 -> Node4 [dir="back",color="midnightblue",fontsize="10",style="solid",fontname="Helvetica"];
  Node2 -> Node60 [dir="back",color="midnightblue",fontsize="10",style="solid",fontname="Helvetica"];
  Node60 [label="cmake/include/IGUIImage.h",height=0.2,width=0.4,color="black", fillcolor="white", style="filled",URL="$_i_g_u_i_image_8h.html",tooltip=" "];
  Node60 -> Node4 [dir="back",color="midnightblue",fontsize="10",style="solid",fontname="Helvetica"];
  Node2 -> Node61 [dir="back",color="midnightblue",fontsize="10",style="solid",fontname="Helvetica"];
  Node61 [label="cmake/include/IGUIImageList.h",height=0.2,width=0.4,color="black", fillcolor="white", style="filled",URL="$_i_g_u_i_image_list_8h.html",tooltip=" "];
  Node61 -> Node62 [dir="back",color="midnightblue",fontsize="10",style="solid",fontname="Helvetica"];
  Node62 [label="cmake/include/IGUITreeView.h",height=0.2,width=0.4,color="black", fillcolor="white", style="filled",URL="$_i_g_u_i_tree_view_8h.html",tooltip=" "];
  Node62 -> Node4 [dir="back",color="midnightblue",fontsize="10",style="solid",fontname="Helvetica"];
  Node2 -> Node63 [dir="back",color="midnightblue",fontsize="10",style="solid",fontname="Helvetica"];
  Node63 [label="cmake/include/IGUIInOutFader.h",height=0.2,width=0.4,color="black", fillcolor="white", style="filled",URL="$_i_g_u_i_in_out_fader_8h.html",tooltip=" "];
  Node63 -> Node4 [dir="back",color="midnightblue",fontsize="10",style="solid",fontname="Helvetica"];
  Node2 -> Node64 [dir="back",color="midnightblue",fontsize="10",style="solid",fontname="Helvetica"];
  Node64 [label="cmake/include/IGUIListBox.h",height=0.2,width=0.4,color="black", fillcolor="white", style="filled",URL="$_i_g_u_i_list_box_8h.html",tooltip=" "];
  Node64 -> Node4 [dir="back",color="midnightblue",fontsize="10",style="solid",fontname="Helvetica"];
  Node2 -> Node65 [dir="back",color="midnightblue",fontsize="10",style="solid",fontname="Helvetica"];
  Node65 [label="cmake/include/IGUIMeshViewer.h",height=0.2,width=0.4,color="black", fillcolor="white", style="filled",URL="$_i_g_u_i_mesh_viewer_8h.html",tooltip=" "];
  Node65 -> Node4 [dir="back",color="midnightblue",fontsize="10",style="solid",fontname="Helvetica"];
  Node2 -> Node66 [dir="back",color="midnightblue",fontsize="10",style="solid",fontname="Helvetica"];
  Node66 [label="cmake/include/IGUIScroll\lBar.h",height=0.2,width=0.4,color="black", fillcolor="white", style="filled",URL="$_i_g_u_i_scroll_bar_8h.html",tooltip=" "];
  Node66 -> Node4 [dir="back",color="midnightblue",fontsize="10",style="solid",fontname="Helvetica"];
  Node2 -> Node67 [dir="back",color="midnightblue",fontsize="10",style="solid",fontname="Helvetica"];
  Node67 [label="cmake/include/IGUISpinBox.h",height=0.2,width=0.4,color="black", fillcolor="white", style="filled",URL="$_i_g_u_i_spin_box_8h.html",tooltip=" "];
  Node67 -> Node4 [dir="back",color="midnightblue",fontsize="10",style="solid",fontname="Helvetica"];
  Node2 -> Node68 [dir="back",color="midnightblue",fontsize="10",style="solid",fontname="Helvetica"];
  Node68 [label="cmake/include/IGUIStatic\lText.h",height=0.2,width=0.4,color="black", fillcolor="white", style="filled",URL="$_i_g_u_i_static_text_8h.html",tooltip=" "];
  Node68 -> Node4 [dir="back",color="midnightblue",fontsize="10",style="solid",fontname="Helvetica"];
  Node2 -> Node69 [dir="back",color="midnightblue",fontsize="10",style="solid",fontname="Helvetica"];
  Node69 [label="cmake/include/IGUITabControl.h",height=0.2,width=0.4,color="black", fillcolor="white", style="filled",URL="$_i_g_u_i_tab_control_8h.html",tooltip=" "];
  Node69 -> Node4 [dir="back",color="midnightblue",fontsize="10",style="solid",fontname="Helvetica"];
  Node2 -> Node70 [dir="back",color="midnightblue",fontsize="10",style="solid",fontname="Helvetica"];
  Node70 [label="cmake/include/IGUITable.h",height=0.2,width=0.4,color="black", fillcolor="white", style="filled",URL="$_i_g_u_i_table_8h.html",tooltip=" "];
  Node70 -> Node4 [dir="back",color="midnightblue",fontsize="10",style="solid",fontname="Helvetica"];
  Node2 -> Node71 [dir="back",color="midnightblue",fontsize="10",style="solid",fontname="Helvetica"];
  Node71 [label="cmake/include/IGUIToolbar.h",height=0.2,width=0.4,color="black", fillcolor="white", style="filled",URL="$_i_g_u_i_toolbar_8h.html",tooltip=" "];
  Node71 -> Node4 [dir="back",color="midnightblue",fontsize="10",style="solid",fontname="Helvetica"];
  Node2 -> Node62 [dir="back",color="midnightblue",fontsize="10",style="solid",fontname="Helvetica"];
  Node2 -> Node72 [dir="back",color="midnightblue",fontsize="10",style="solid",fontname="Helvetica"];
  Node72 [label="cmake/include/IGUIWindow.h",height=0.2,width=0.4,color="black", fillcolor="white", style="filled",URL="$_i_g_u_i_window_8h.html",tooltip=" "];
  Node72 -> Node4 [dir="back",color="midnightblue",fontsize="10",style="solid",fontname="Helvetica"];
  Node2 -> Node4 [dir="back",color="midnightblue",fontsize="10",style="solid",fontname="Helvetica"];
  Node1 -> Node73 [dir="back",color="midnightblue",fontsize="10",style="solid",fontname="Helvetica"];
  Node73 [label="cmake/include/IGUIElement\lFactory.h",height=0.2,width=0.4,color="black", fillcolor="white", style="filled",URL="$_i_g_u_i_element_factory_8h.html",tooltip=" "];
  Node73 -> Node4 [dir="back",color="midnightblue",fontsize="10",style="solid",fontname="Helvetica"];
  Node1 -> Node4 [dir="back",color="midnightblue",fontsize="10",style="solid",fontname="Helvetica"];
}
