digraph "cmake/include/EMaterialFlags.h"
{
 // LATEX_PDF_SIZE
  edge [fontname="Helvetica",fontsize="10",labelfontname="Helvetica",labelfontsize="10"];
  node [fontname="Helvetica",fontsize="10",shape=record];
  Node1 [label="cmake/include/EMaterialFlags.h",height=0.2,width=0.4,color="black", fillcolor="grey75", style="filled", fontcolor="black",tooltip=" "];
  Node1 -> Node2 [dir="back",color="midnightblue",fontsize="10",style="solid",fontname="Helvetica"];
  Node2 [label="cmake/include/SMaterial.h",height=0.2,width=0.4,color="black", fillcolor="white", style="filled",URL="$_s_material_8h.html",tooltip=" "];
  Node2 -> Node3 [dir="back",color="midnightblue",fontsize="10",style="solid",fontname="Helvetica"];
  Node3 [label="cmake/include/IMeshBuffer.h",height=0.2,width=0.4,color="black", fillcolor="white", style="filled",URL="$_i_mesh_buffer_8h.html",tooltip=" "];
  Node3 -> Node4 [dir="back",color="midnightblue",fontsize="10",style="solid",fontname="Helvetica"];
  Node4 [label="cmake/include/IDynamicMesh\lBuffer.h",height=0.2,width=0.4,color="red", fillcolor="white", style="filled",URL="$_i_dynamic_mesh_buffer_8h.html",tooltip=" "];
  Node4 -> Node6 [dir="back",color="midnightblue",fontsize="10",style="solid",fontname="Helvetica"];
  Node6 [label="cmake/include/irrlicht.h",height=0.2,width=0.4,color="black", fillcolor="white", style="filled",URL="$irrlicht_8h.html",tooltip="Main header file of the irrlicht, the only file needed to include."];
  Node6 -> Node7 [dir="back",color="midnightblue",fontsize="10",style="solid",fontname="Helvetica"];
  Node7 [label="includes/Factories\l/Button.hpp",height=0.2,width=0.4,color="red", fillcolor="white", style="filled",URL="$_button_8hpp.html",tooltip=" "];
  Node7 -> Node8 [dir="back",color="midnightblue",fontsize="10",style="solid",fontname="Helvetica"];
  Node8 [label="includes/Scenes/Menu.hpp",height=0.2,width=0.4,color="red", fillcolor="white", style="filled",URL="$_menu_8hpp.html",tooltip=" "];
  Node7 -> Node13 [dir="back",color="midnightblue",fontsize="10",style="solid",fontname="Helvetica"];
  Node13 [label="includes/Scenes/Options.hpp",height=0.2,width=0.4,color="red", fillcolor="white", style="filled",URL="$_options_8hpp.html",tooltip=" "];
  Node7 -> Node15 [dir="back",color="midnightblue",fontsize="10",style="solid",fontname="Helvetica"];
  Node15 [label="includes/Scenes/SelectPlayer.hpp",height=0.2,width=0.4,color="red", fillcolor="white", style="filled",URL="$_select_player_8hpp.html",tooltip=" "];
  Node7 -> Node17 [dir="back",color="midnightblue",fontsize="10",style="solid",fontname="Helvetica"];
  Node17 [label="includes/Scenes/SelectSave.hpp",height=0.2,width=0.4,color="red", fillcolor="white", style="filled",URL="$_select_save_8hpp.html",tooltip=" "];
  Node6 -> Node22 [dir="back",color="midnightblue",fontsize="10",style="solid",fontname="Helvetica"];
  Node22 [label="includes/Factories\l/Collision.hpp",height=0.2,width=0.4,color="red", fillcolor="white", style="filled",URL="$_collision_8hpp.html",tooltip=" "];
  Node6 -> Node25 [dir="back",color="midnightblue",fontsize="10",style="solid",fontname="Helvetica"];
  Node25 [label="includes/Factories\l/ECS/components/ActionComponent.hpp",height=0.2,width=0.4,color="red", fillcolor="white", style="filled",URL="$_action_component_8hpp.html",tooltip=" "];
  Node25 -> Node30 [dir="back",color="midnightblue",fontsize="10",style="solid",fontname="Helvetica"];
  Node30 [label="includes/Graphical\l/Graphical.hpp",height=0.2,width=0.4,color="red", fillcolor="white", style="filled",URL="$_graphical_8hpp.html",tooltip=" "];
  Node30 -> Node8 [dir="back",color="midnightblue",fontsize="10",style="solid",fontname="Helvetica"];
  Node30 -> Node13 [dir="back",color="midnightblue",fontsize="10",style="solid",fontname="Helvetica"];
  Node30 -> Node15 [dir="back",color="midnightblue",fontsize="10",style="solid",fontname="Helvetica"];
  Node30 -> Node17 [dir="back",color="midnightblue",fontsize="10",style="solid",fontname="Helvetica"];
  Node6 -> Node32 [dir="back",color="midnightblue",fontsize="10",style="solid",fontname="Helvetica"];
  Node32 [label="includes/Factories\l/ECS/components/CubeComponent.hpp",height=0.2,width=0.4,color="red", fillcolor="white", style="filled",URL="$_cube_component_8hpp.html",tooltip=" "];
  Node32 -> Node30 [dir="back",color="midnightblue",fontsize="10",style="solid",fontname="Helvetica"];
  Node6 -> Node48 [dir="back",color="midnightblue",fontsize="10",style="solid",fontname="Helvetica"];
  Node48 [label="includes/Factories\l/ECS/components/MeshComponent.hpp",height=0.2,width=0.4,color="red", fillcolor="white", style="filled",URL="$_mesh_component_8hpp.html",tooltip=" "];
  Node48 -> Node30 [dir="back",color="midnightblue",fontsize="10",style="solid",fontname="Helvetica"];
  Node6 -> Node50 [dir="back",color="midnightblue",fontsize="10",style="solid",fontname="Helvetica"];
  Node50 [label="includes/Factories\l/ECS/components/TextureComponent.hpp",height=0.2,width=0.4,color="red", fillcolor="white", style="filled",URL="$_texture_component_8hpp.html",tooltip=" "];
  Node50 -> Node7 [dir="back",color="midnightblue",fontsize="10",style="solid",fontname="Helvetica"];
  Node50 -> Node30 [dir="back",color="midnightblue",fontsize="10",style="solid",fontname="Helvetica"];
  Node6 -> Node52 [dir="back",color="midnightblue",fontsize="10",style="solid",fontname="Helvetica"];
  Node52 [label="includes/GameObjects\l/Particuls.hpp",height=0.2,width=0.4,color="red", fillcolor="white", style="filled",URL="$_particuls_8hpp.html",tooltip=" "];
  Node52 -> Node30 [dir="back",color="midnightblue",fontsize="10",style="solid",fontname="Helvetica"];
  Node6 -> Node30 [dir="back",color="midnightblue",fontsize="10",style="solid",fontname="Helvetica"];
  Node6 -> Node54 [dir="back",color="midnightblue",fontsize="10",style="solid",fontname="Helvetica"];
  Node54 [label="includes/Graphical\l/handleInput.hpp",height=0.2,width=0.4,color="red", fillcolor="white", style="filled",URL="$handle_input_8hpp.html",tooltip=" "];
  Node54 -> Node30 [dir="back",color="midnightblue",fontsize="10",style="solid",fontname="Helvetica"];
  Node6 -> Node43 [dir="back",color="midnightblue",fontsize="10",style="solid",fontname="Helvetica"];
  Node43 [label="includes/Render/Render.hpp",height=0.2,width=0.4,color="red", fillcolor="white", style="filled",URL="$_render_8hpp.html",tooltip=" "];
  Node4 -> Node56 [dir="back",color="midnightblue",fontsize="10",style="solid",fontname="Helvetica"];
  Node56 [label="cmake/include/ITerrainScene\lNode.h",height=0.2,width=0.4,color="black", fillcolor="white", style="filled",URL="$_i_terrain_scene_node_8h.html",tooltip=" "];
  Node56 -> Node6 [dir="back",color="midnightblue",fontsize="10",style="solid",fontname="Helvetica"];
  Node3 -> Node57 [dir="back",color="midnightblue",fontsize="10",style="solid",fontname="Helvetica"];
  Node57 [label="cmake/include/CMeshBuffer.h",height=0.2,width=0.4,color="red", fillcolor="white", style="filled",URL="$_c_mesh_buffer_8h.html",tooltip=" "];
  Node57 -> Node6 [dir="back",color="midnightblue",fontsize="10",style="solid",fontname="Helvetica"];
  Node3 -> Node61 [dir="back",color="midnightblue",fontsize="10",style="solid",fontname="Helvetica"];
  Node61 [label="cmake/include/IVideoDriver.h",height=0.2,width=0.4,color="black", fillcolor="white", style="filled",URL="$_i_video_driver_8h.html",tooltip=" "];
  Node61 -> Node62 [dir="back",color="midnightblue",fontsize="10",style="solid",fontname="Helvetica"];
  Node62 [label="cmake/include/IrrlichtDevice.h",height=0.2,width=0.4,color="red", fillcolor="white", style="filled",URL="$_irrlicht_device_8h.html",tooltip=" "];
  Node62 -> Node6 [dir="back",color="midnightblue",fontsize="10",style="solid",fontname="Helvetica"];
  Node61 -> Node64 [dir="back",color="midnightblue",fontsize="10",style="solid",fontname="Helvetica"];
  Node64 [label="cmake/include/IQ3Shader.h",height=0.2,width=0.4,color="red", fillcolor="white", style="filled",URL="$_i_q3_shader_8h.html",tooltip=" "];
  Node64 -> Node6 [dir="back",color="midnightblue",fontsize="10",style="solid",fontname="Helvetica"];
  Node61 -> Node6 [dir="back",color="midnightblue",fontsize="10",style="solid",fontname="Helvetica"];
  Node61 -> Node70 [dir="back",color="midnightblue",fontsize="10",style="solid",fontname="Helvetica"];
  Node70 [label="cmake/include/SViewFrustum.h",height=0.2,width=0.4,color="black", fillcolor="white", style="filled",URL="$_s_view_frustum_8h.html",tooltip=" "];
  Node70 -> Node6 [dir="back",color="midnightblue",fontsize="10",style="solid",fontname="Helvetica"];
  Node3 -> Node71 [dir="back",color="midnightblue",fontsize="10",style="solid",fontname="Helvetica"];
  Node71 [label="cmake/include/IMeshManipulator.h",height=0.2,width=0.4,color="black", fillcolor="white", style="filled",URL="$_i_mesh_manipulator_8h.html",tooltip=" "];
  Node71 -> Node6 [dir="back",color="midnightblue",fontsize="10",style="solid",fontname="Helvetica"];
  Node3 -> Node6 [dir="back",color="midnightblue",fontsize="10",style="solid",fontname="Helvetica"];
  Node3 -> Node72 [dir="back",color="midnightblue",fontsize="10",style="solid",fontname="Helvetica"];
  Node72 [label="cmake/include/SSkinMeshBuffer.h",height=0.2,width=0.4,color="red", fillcolor="white", style="filled",URL="$_s_skin_mesh_buffer_8h.html",tooltip=" "];
  Node72 -> Node6 [dir="back",color="midnightblue",fontsize="10",style="solid",fontname="Helvetica"];
  Node3 -> Node75 [dir="back",color="midnightblue",fontsize="10",style="solid",fontname="Helvetica"];
  Node75 [label="cmake/include/SMesh.h",height=0.2,width=0.4,color="black", fillcolor="white", style="filled",URL="$_s_mesh_8h.html",tooltip=" "];
  Node75 -> Node6 [dir="back",color="midnightblue",fontsize="10",style="solid",fontname="Helvetica"];
  Node3 -> Node76 [dir="back",color="midnightblue",fontsize="10",style="solid",fontname="Helvetica"];
  Node76 [label="cmake/include/SSharedMesh\lBuffer.h",height=0.2,width=0.4,color="black", fillcolor="white", style="filled",URL="$_s_shared_mesh_buffer_8h.html",tooltip=" "];
  Node76 -> Node6 [dir="back",color="midnightblue",fontsize="10",style="solid",fontname="Helvetica"];
  Node2 -> Node61 [dir="back",color="midnightblue",fontsize="10",style="solid",fontname="Helvetica"];
  Node2 -> Node77 [dir="back",color="midnightblue",fontsize="10",style="solid",fontname="Helvetica"];
  Node77 [label="cmake/include/IMesh.h",height=0.2,width=0.4,color="black", fillcolor="white", style="filled",URL="$_i_mesh_8h.html",tooltip=" "];
  Node77 -> Node78 [dir="back",color="midnightblue",fontsize="10",style="solid",fontname="Helvetica"];
  Node78 [label="cmake/include/IAnimatedMesh.h",height=0.2,width=0.4,color="red", fillcolor="white", style="filled",URL="$_i_animated_mesh_8h.html",tooltip=" "];
  Node78 -> Node80 [dir="back",color="midnightblue",fontsize="10",style="solid",fontname="Helvetica"];
  Node80 [label="cmake/include/IColladaMesh\lWriter.h",height=0.2,width=0.4,color="black", fillcolor="white", style="filled",URL="$_i_collada_mesh_writer_8h.html",tooltip=" "];
  Node80 -> Node6 [dir="back",color="midnightblue",fontsize="10",style="solid",fontname="Helvetica"];
  Node78 -> Node71 [dir="back",color="midnightblue",fontsize="10",style="solid",fontname="Helvetica"];
  Node78 -> Node6 [dir="back",color="midnightblue",fontsize="10",style="solid",fontname="Helvetica"];
  Node78 -> Node81 [dir="back",color="midnightblue",fontsize="10",style="solid",fontname="Helvetica"];
  Node81 [label="cmake/include/SAnimatedMesh.h",height=0.2,width=0.4,color="black", fillcolor="white", style="filled",URL="$_s_animated_mesh_8h.html",tooltip=" "];
  Node81 -> Node6 [dir="back",color="midnightblue",fontsize="10",style="solid",fontname="Helvetica"];
  Node77 -> Node82 [dir="back",color="midnightblue",fontsize="10",style="solid",fontname="Helvetica"];
  Node82 [label="cmake/include/IGeometryCreator.h",height=0.2,width=0.4,color="red", fillcolor="white", style="filled",URL="$_i_geometry_creator_8h.html",tooltip=" "];
  Node82 -> Node6 [dir="back",color="midnightblue",fontsize="10",style="solid",fontname="Helvetica"];
  Node77 -> Node83 [dir="back",color="midnightblue",fontsize="10",style="solid",fontname="Helvetica"];
  Node83 [label="cmake/include/IParticleMesh\lEmitter.h",height=0.2,width=0.4,color="black", fillcolor="white", style="filled",URL="$_i_particle_mesh_emitter_8h.html",tooltip=" "];
  Node83 -> Node68 [dir="back",color="midnightblue",fontsize="10",style="solid",fontname="Helvetica"];
  Node68 [label="cmake/include/IParticleSystem\lSceneNode.h",height=0.2,width=0.4,color="black", fillcolor="white", style="filled",URL="$_i_particle_system_scene_node_8h.html",tooltip=" "];
  Node68 -> Node6 [dir="back",color="midnightblue",fontsize="10",style="solid",fontname="Helvetica"];
  Node77 -> Node6 [dir="back",color="midnightblue",fontsize="10",style="solid",fontname="Helvetica"];
  Node77 -> Node81 [dir="back",color="midnightblue",fontsize="10",style="solid",fontname="Helvetica"];
  Node77 -> Node75 [dir="back",color="midnightblue",fontsize="10",style="solid",fontname="Helvetica"];
  Node2 -> Node84 [dir="back",color="midnightblue",fontsize="10",style="solid",fontname="Helvetica"];
  Node84 [label="cmake/include/ISceneNode.h",height=0.2,width=0.4,color="black", fillcolor="white", style="filled",URL="$_i_scene_node_8h.html",tooltip=" "];
  Node84 -> Node66 [dir="back",color="midnightblue",fontsize="10",style="solid",fontname="Helvetica"];
  Node66 [label="cmake/include/IAnimatedMesh\lSceneNode.h",height=0.2,width=0.4,color="red", fillcolor="white", style="filled",URL="$_i_animated_mesh_scene_node_8h.html",tooltip=" "];
  Node66 -> Node6 [dir="back",color="midnightblue",fontsize="10",style="solid",fontname="Helvetica"];
  Node84 -> Node85 [dir="back",color="midnightblue",fontsize="10",style="solid",fontname="Helvetica"];
  Node85 [label="cmake/include/IBoneScene\lNode.h",height=0.2,width=0.4,color="red", fillcolor="white", style="filled",URL="$_i_bone_scene_node_8h.html",tooltip=" "];
  Node85 -> Node66 [dir="back",color="midnightblue",fontsize="10",style="solid",fontname="Helvetica"];
  Node85 -> Node6 [dir="back",color="midnightblue",fontsize="10",style="solid",fontname="Helvetica"];
  Node84 -> Node86 [dir="back",color="midnightblue",fontsize="10",style="solid",fontname="Helvetica"];
  Node86 [label="cmake/include/IBillboard\lSceneNode.h",height=0.2,width=0.4,color="red", fillcolor="white", style="filled",URL="$_i_billboard_scene_node_8h.html",tooltip=" "];
  Node86 -> Node6 [dir="back",color="midnightblue",fontsize="10",style="solid",fontname="Helvetica"];
  Node84 -> Node88 [dir="back",color="midnightblue",fontsize="10",style="solid",fontname="Helvetica"];
  Node88 [label="cmake/include/ICameraScene\lNode.h",height=0.2,width=0.4,color="black", fillcolor="white", style="filled",URL="$_i_camera_scene_node_8h.html",tooltip=" "];
  Node88 -> Node6 [dir="back",color="midnightblue",fontsize="10",style="solid",fontname="Helvetica"];
  Node84 -> Node80 [dir="back",color="midnightblue",fontsize="10",style="solid",fontname="Helvetica"];
  Node84 -> Node89 [dir="back",color="midnightblue",fontsize="10",style="solid",fontname="Helvetica"];
  Node89 [label="cmake/include/IDummyTransformation\lSceneNode.h",height=0.2,width=0.4,color="black", fillcolor="white", style="filled",URL="$_i_dummy_transformation_scene_node_8h.html",tooltip=" "];
  Node89 -> Node6 [dir="back",color="midnightblue",fontsize="10",style="solid",fontname="Helvetica"];
  Node84 -> Node90 [dir="back",color="midnightblue",fontsize="10",style="solid",fontname="Helvetica"];
  Node90 [label="cmake/include/ILightScene\lNode.h",height=0.2,width=0.4,color="black", fillcolor="white", style="filled",URL="$_i_light_scene_node_8h.html",tooltip=" "];
  Node90 -> Node6 [dir="back",color="midnightblue",fontsize="10",style="solid",fontname="Helvetica"];
  Node84 -> Node91 [dir="back",color="midnightblue",fontsize="10",style="solid",fontname="Helvetica"];
  Node91 [label="cmake/include/IMeshScene\lNode.h",height=0.2,width=0.4,color="black", fillcolor="white", style="filled",URL="$_i_mesh_scene_node_8h.html",tooltip=" "];
  Node91 -> Node6 [dir="back",color="midnightblue",fontsize="10",style="solid",fontname="Helvetica"];
  Node84 -> Node68 [dir="back",color="midnightblue",fontsize="10",style="solid",fontname="Helvetica"];
  Node84 -> Node6 [dir="back",color="midnightblue",fontsize="10",style="solid",fontname="Helvetica"];
  Node84 -> Node92 [dir="back",color="midnightblue",fontsize="10",style="solid",fontname="Helvetica"];
  Node92 [label="cmake/include/ISceneNode\lAnimatorCollisionResponse.h",height=0.2,width=0.4,color="black", fillcolor="white", style="filled",URL="$_i_scene_node_animator_collision_response_8h.html",tooltip=" "];
  Node92 -> Node6 [dir="back",color="midnightblue",fontsize="10",style="solid",fontname="Helvetica"];
  Node84 -> Node93 [dir="back",color="midnightblue",fontsize="10",style="solid",fontname="Helvetica"];
  Node93 [label="cmake/include/IShadowVolume\lSceneNode.h",height=0.2,width=0.4,color="black", fillcolor="white", style="filled",URL="$_i_shadow_volume_scene_node_8h.html",tooltip=" "];
  Node93 -> Node6 [dir="back",color="midnightblue",fontsize="10",style="solid",fontname="Helvetica"];
  Node84 -> Node56 [dir="back",color="midnightblue",fontsize="10",style="solid",fontname="Helvetica"];
  Node84 -> Node94 [dir="back",color="midnightblue",fontsize="10",style="solid",fontname="Helvetica"];
  Node94 [label="cmake/include/ITextScene\lNode.h",height=0.2,width=0.4,color="black", fillcolor="white", style="filled",URL="$_i_text_scene_node_8h.html",tooltip=" "];
  Node94 -> Node6 [dir="back",color="midnightblue",fontsize="10",style="solid",fontname="Helvetica"];
  Node84 -> Node95 [dir="back",color="midnightblue",fontsize="10",style="solid",fontname="Helvetica"];
  Node95 [label="cmake/include/IVolumeLight\lSceneNode.h",height=0.2,width=0.4,color="black", fillcolor="white", style="filled",URL="$_i_volume_light_scene_node_8h.html",tooltip=" "];
  Node95 -> Node6 [dir="back",color="midnightblue",fontsize="10",style="solid",fontname="Helvetica"];
  Node2 -> Node80 [dir="back",color="midnightblue",fontsize="10",style="solid",fontname="Helvetica"];
  Node2 -> Node96 [dir="back",color="midnightblue",fontsize="10",style="solid",fontname="Helvetica"];
  Node96 [label="cmake/include/IMaterialRenderer.h",height=0.2,width=0.4,color="black", fillcolor="white", style="filled",URL="$_i_material_renderer_8h.html",tooltip=" "];
  Node96 -> Node6 [dir="back",color="midnightblue",fontsize="10",style="solid",fontname="Helvetica"];
  Node2 -> Node97 [dir="back",color="midnightblue",fontsize="10",style="solid",fontname="Helvetica"];
  Node97 [label="cmake/include/IMaterialRenderer\lServices.h",height=0.2,width=0.4,color="black", fillcolor="white", style="filled",URL="$_i_material_renderer_services_8h.html",tooltip=" "];
  Node97 -> Node6 [dir="back",color="midnightblue",fontsize="10",style="solid",fontname="Helvetica"];
  Node2 -> Node6 [dir="back",color="midnightblue",fontsize="10",style="solid",fontname="Helvetica"];
  Node1 -> Node6 [dir="back",color="midnightblue",fontsize="10",style="solid",fontname="Helvetica"];
}
