digraph "includes/Factories/ECS/entities/Entity.hpp"
{
 // LATEX_PDF_SIZE
  edge [fontname="Helvetica",fontsize="10",labelfontname="Helvetica",labelfontsize="10"];
  node [fontname="Helvetica",fontsize="10",shape=record];
  Node1 [label="includes/Factories\l/ECS/entities/Entity.hpp",height=0.2,width=0.4,color="black", fillcolor="grey75", style="filled", fontcolor="black",tooltip=" "];
  Node1 -> Node2 [dir="back",color="midnightblue",fontsize="10",style="solid",fontname="Helvetica"];
  Node2 [label="includes/Factories\l/Button.hpp",height=0.2,width=0.4,color="black", fillcolor="white", style="filled",URL="$_button_8hpp.html",tooltip=" "];
  Node2 -> Node3 [dir="back",color="midnightblue",fontsize="10",style="solid",fontname="Helvetica"];
  Node3 [label="includes/Scenes/Menu.hpp",height=0.2,width=0.4,color="black", fillcolor="white", style="filled",URL="$_menu_8hpp.html",tooltip=" "];
  Node3 -> Node4 [dir="back",color="midnightblue",fontsize="10",style="solid",fontname="Helvetica"];
  Node4 [label="includes/Core/Core.hpp",height=0.2,width=0.4,color="black", fillcolor="white", style="filled",URL="$_core_8hpp.html",tooltip=" "];
  Node4 -> Node5 [dir="back",color="midnightblue",fontsize="10",style="solid",fontname="Helvetica"];
  Node5 [label="sources/Core/Core.cpp",height=0.2,width=0.4,color="black", fillcolor="white", style="filled",URL="$_core_8cpp.html",tooltip=" "];
  Node4 -> Node6 [dir="back",color="midnightblue",fontsize="10",style="solid",fontname="Helvetica"];
  Node6 [label="sources/main.cpp",height=0.2,width=0.4,color="black", fillcolor="white", style="filled",URL="$main_8cpp.html",tooltip=" "];
  Node3 -> Node7 [dir="back",color="midnightblue",fontsize="10",style="solid",fontname="Helvetica"];
  Node7 [label="sources/Scenes/Menu.cpp",height=0.2,width=0.4,color="black", fillcolor="white", style="filled",URL="$_menu_8cpp.html",tooltip=" "];
  Node2 -> Node8 [dir="back",color="midnightblue",fontsize="10",style="solid",fontname="Helvetica"];
  Node8 [label="includes/Scenes/Options.hpp",height=0.2,width=0.4,color="black", fillcolor="white", style="filled",URL="$_options_8hpp.html",tooltip=" "];
  Node8 -> Node4 [dir="back",color="midnightblue",fontsize="10",style="solid",fontname="Helvetica"];
  Node8 -> Node9 [dir="back",color="midnightblue",fontsize="10",style="solid",fontname="Helvetica"];
  Node9 [label="sources/Scenes/Options.cpp",height=0.2,width=0.4,color="black", fillcolor="white", style="filled",URL="$_options_8cpp.html",tooltip=" "];
  Node2 -> Node10 [dir="back",color="midnightblue",fontsize="10",style="solid",fontname="Helvetica"];
  Node10 [label="includes/Scenes/SelectPlayer.hpp",height=0.2,width=0.4,color="black", fillcolor="white", style="filled",URL="$_select_player_8hpp.html",tooltip=" "];
  Node10 -> Node4 [dir="back",color="midnightblue",fontsize="10",style="solid",fontname="Helvetica"];
  Node10 -> Node11 [dir="back",color="midnightblue",fontsize="10",style="solid",fontname="Helvetica"];
  Node11 [label="sources/Scenes/SelectPlayer.cpp",height=0.2,width=0.4,color="black", fillcolor="white", style="filled",URL="$_select_player_8cpp.html",tooltip=" "];
  Node2 -> Node12 [dir="back",color="midnightblue",fontsize="10",style="solid",fontname="Helvetica"];
  Node12 [label="includes/Scenes/SelectSave.hpp",height=0.2,width=0.4,color="black", fillcolor="white", style="filled",URL="$_select_save_8hpp.html",tooltip=" "];
  Node12 -> Node4 [dir="back",color="midnightblue",fontsize="10",style="solid",fontname="Helvetica"];
  Node12 -> Node13 [dir="back",color="midnightblue",fontsize="10",style="solid",fontname="Helvetica"];
  Node13 [label="sources/Scenes/SelectSave.cpp",height=0.2,width=0.4,color="black", fillcolor="white", style="filled",URL="$_select_save_8cpp.html",tooltip=" "];
  Node2 -> Node14 [dir="back",color="midnightblue",fontsize="10",style="solid",fontname="Helvetica"];
  Node14 [label="includes/Scenes/Title.hpp",height=0.2,width=0.4,color="black", fillcolor="white", style="filled",URL="$_title_8hpp.html",tooltip=" "];
  Node14 -> Node4 [dir="back",color="midnightblue",fontsize="10",style="solid",fontname="Helvetica"];
  Node14 -> Node15 [dir="back",color="midnightblue",fontsize="10",style="solid",fontname="Helvetica"];
  Node15 [label="sources/Scenes/Title.cpp",height=0.2,width=0.4,color="black", fillcolor="white", style="filled",URL="$_title_8cpp.html",tooltip=" "];
  Node2 -> Node16 [dir="back",color="midnightblue",fontsize="10",style="solid",fontname="Helvetica"];
  Node16 [label="sources/Factories/Button.cpp",height=0.2,width=0.4,color="black", fillcolor="white", style="filled",URL="$_button_8cpp.html",tooltip=" "];
  Node1 -> Node17 [dir="back",color="midnightblue",fontsize="10",style="solid",fontname="Helvetica"];
  Node17 [label="includes/Factories\l/ECS/components/CubeComponent.hpp",height=0.2,width=0.4,color="black", fillcolor="white", style="filled",URL="$_cube_component_8hpp.html",tooltip=" "];
  Node17 -> Node18 [dir="back",color="midnightblue",fontsize="10",style="solid",fontname="Helvetica"];
  Node18 [label="includes/GameObjects\l/Block.hpp",height=0.2,width=0.4,color="black", fillcolor="white", style="filled",URL="$_block_8hpp.html",tooltip=" "];
  Node18 -> Node19 [dir="back",color="midnightblue",fontsize="10",style="solid",fontname="Helvetica"];
  Node19 [label="includes/GameObjects\l/Bomb.hpp",height=0.2,width=0.4,color="black", fillcolor="white", style="filled",URL="$_bomb_8hpp.html",tooltip=" "];
  Node19 -> Node20 [dir="back",color="midnightblue",fontsize="10",style="solid",fontname="Helvetica"];
  Node20 [label="includes/Factories\l/ECS/entities/Perso.hpp",height=0.2,width=0.4,color="black", fillcolor="white", style="filled",URL="$_perso_8hpp.html",tooltip=" "];
  Node20 -> Node21 [dir="back",color="midnightblue",fontsize="10",style="solid",fontname="Helvetica"];
  Node21 [label="includes/Scenes/GameScene.hpp",height=0.2,width=0.4,color="black", fillcolor="white", style="filled",URL="$_game_scene_8hpp.html",tooltip=" "];
  Node21 -> Node4 [dir="back",color="midnightblue",fontsize="10",style="solid",fontname="Helvetica"];
  Node21 -> Node22 [dir="back",color="midnightblue",fontsize="10",style="solid",fontname="Helvetica"];
  Node22 [label="sources/Scenes/GameScene.cpp",height=0.2,width=0.4,color="black", fillcolor="white", style="filled",URL="$_game_scene_8cpp.html",tooltip=" "];
  Node20 -> Node23 [dir="back",color="midnightblue",fontsize="10",style="solid",fontname="Helvetica"];
  Node23 [label="sources/Factories/ECS\l/entities/Perso.cpp",height=0.2,width=0.4,color="black", fillcolor="white", style="filled",URL="$_perso_8cpp.html",tooltip=" "];
  Node20 -> Node6 [dir="back",color="midnightblue",fontsize="10",style="solid",fontname="Helvetica"];
  Node19 -> Node24 [dir="back",color="midnightblue",fontsize="10",style="solid",fontname="Helvetica"];
  Node24 [label="sources/GameObjects\l/Bomb.cpp",height=0.2,width=0.4,color="black", fillcolor="white", style="filled",URL="$_bomb_8cpp.html",tooltip=" "];
  Node18 -> Node25 [dir="back",color="midnightblue",fontsize="10",style="solid",fontname="Helvetica"];
  Node25 [label="includes/GameObjects\l/Crate.hpp",height=0.2,width=0.4,color="black", fillcolor="white", style="filled",URL="$_crate_8hpp.html",tooltip=" "];
  Node25 -> Node26 [dir="back",color="midnightblue",fontsize="10",style="solid",fontname="Helvetica"];
  Node26 [label="sources/GameObjects\l/Crate.cpp",height=0.2,width=0.4,color="black", fillcolor="white", style="filled",URL="$_crate_8cpp.html",tooltip=" "];
  Node25 -> Node27 [dir="back",color="midnightblue",fontsize="10",style="solid",fontname="Helvetica"];
  Node27 [label="sources/GameObjects\l/Map.cpp",height=0.2,width=0.4,color="black", fillcolor="white", style="filled",URL="$_map_8cpp.html",tooltip=" "];
  Node25 -> Node28 [dir="back",color="midnightblue",fontsize="10",style="solid",fontname="Helvetica"];
  Node28 [label="sources/Graphical/Graphical.cpp",height=0.2,width=0.4,color="black", fillcolor="white", style="filled",URL="$_graphical_8cpp.html",tooltip=" "];
  Node25 -> Node29 [dir="back",color="midnightblue",fontsize="10",style="solid",fontname="Helvetica"];
  Node29 [label="sources/Render/Render.cpp",height=0.2,width=0.4,color="black", fillcolor="white", style="filled",URL="$_render_8cpp.html",tooltip=" "];
  Node18 -> Node30 [dir="back",color="midnightblue",fontsize="10",style="solid",fontname="Helvetica"];
  Node30 [label="includes/GameObjects\l/Map.hpp",height=0.2,width=0.4,color="black", fillcolor="white", style="filled",URL="$_map_8hpp.html",tooltip=" "];
  Node30 -> Node31 [dir="back",color="midnightblue",fontsize="10",style="solid",fontname="Helvetica"];
  Node31 [label="includes/Factories\l/MapFactory.hpp",height=0.2,width=0.4,color="black", fillcolor="white", style="filled",URL="$_map_factory_8hpp.html",tooltip=" "];
  Node31 -> Node21 [dir="back",color="midnightblue",fontsize="10",style="solid",fontname="Helvetica"];
  Node31 -> Node32 [dir="back",color="midnightblue",fontsize="10",style="solid",fontname="Helvetica"];
  Node32 [label="sources/Factories/MapFactory.cpp",height=0.2,width=0.4,color="black", fillcolor="white", style="filled",URL="$_map_factory_8cpp.html",tooltip=" "];
  Node31 -> Node6 [dir="back",color="midnightblue",fontsize="10",style="solid",fontname="Helvetica"];
  Node30 -> Node33 [dir="back",color="midnightblue",fontsize="10",style="solid",fontname="Helvetica"];
  Node33 [label="includes/Graphical\l/Graphical.hpp",height=0.2,width=0.4,color="black", fillcolor="white", style="filled",URL="$_graphical_8hpp.html",tooltip=" "];
  Node33 -> Node4 [dir="back",color="midnightblue",fontsize="10",style="solid",fontname="Helvetica"];
  Node33 -> Node21 [dir="back",color="midnightblue",fontsize="10",style="solid",fontname="Helvetica"];
  Node33 -> Node3 [dir="back",color="midnightblue",fontsize="10",style="solid",fontname="Helvetica"];
  Node33 -> Node8 [dir="back",color="midnightblue",fontsize="10",style="solid",fontname="Helvetica"];
  Node33 -> Node10 [dir="back",color="midnightblue",fontsize="10",style="solid",fontname="Helvetica"];
  Node33 -> Node12 [dir="back",color="midnightblue",fontsize="10",style="solid",fontname="Helvetica"];
  Node33 -> Node14 [dir="back",color="midnightblue",fontsize="10",style="solid",fontname="Helvetica"];
  Node33 -> Node28 [dir="back",color="midnightblue",fontsize="10",style="solid",fontname="Helvetica"];
  Node33 -> Node6 [dir="back",color="midnightblue",fontsize="10",style="solid",fontname="Helvetica"];
  Node30 -> Node34 [dir="back",color="midnightblue",fontsize="10",style="solid",fontname="Helvetica"];
  Node34 [label="includes/Render/Render.hpp",height=0.2,width=0.4,color="black", fillcolor="white", style="filled",URL="$_render_8hpp.html",tooltip=" "];
  Node34 -> Node6 [dir="back",color="midnightblue",fontsize="10",style="solid",fontname="Helvetica"];
  Node34 -> Node29 [dir="back",color="midnightblue",fontsize="10",style="solid",fontname="Helvetica"];
  Node30 -> Node27 [dir="back",color="midnightblue",fontsize="10",style="solid",fontname="Helvetica"];
  Node30 -> Node6 [dir="back",color="midnightblue",fontsize="10",style="solid",fontname="Helvetica"];
  Node18 -> Node35 [dir="back",color="midnightblue",fontsize="10",style="solid",fontname="Helvetica"];
  Node35 [label="includes/GameObjects\l/Wall.hpp",height=0.2,width=0.4,color="black", fillcolor="white", style="filled",URL="$_wall_8hpp.html",tooltip=" "];
  Node35 -> Node27 [dir="back",color="midnightblue",fontsize="10",style="solid",fontname="Helvetica"];
  Node35 -> Node36 [dir="back",color="midnightblue",fontsize="10",style="solid",fontname="Helvetica"];
  Node36 [label="sources/GameObjects\l/Wall.cpp",height=0.2,width=0.4,color="black", fillcolor="white", style="filled",URL="$_wall_8cpp.html",tooltip=" "];
  Node35 -> Node28 [dir="back",color="midnightblue",fontsize="10",style="solid",fontname="Helvetica"];
  Node35 -> Node29 [dir="back",color="midnightblue",fontsize="10",style="solid",fontname="Helvetica"];
  Node18 -> Node37 [dir="back",color="midnightblue",fontsize="10",style="solid",fontname="Helvetica"];
  Node37 [label="sources/GameObjects\l/Block.cpp",height=0.2,width=0.4,color="black", fillcolor="white", style="filled",URL="$_block_8cpp.html",tooltip=" "];
  Node18 -> Node27 [dir="back",color="midnightblue",fontsize="10",style="solid",fontname="Helvetica"];
  Node17 -> Node33 [dir="back",color="midnightblue",fontsize="10",style="solid",fontname="Helvetica"];
  Node17 -> Node21 [dir="back",color="midnightblue",fontsize="10",style="solid",fontname="Helvetica"];
  Node17 -> Node38 [dir="back",color="midnightblue",fontsize="10",style="solid",fontname="Helvetica"];
  Node38 [label="sources/Factories/ECS\l/components/CubeComponent.cpp",height=0.2,width=0.4,color="black", fillcolor="white", style="filled",URL="$_cube_component_8cpp.html",tooltip=" "];
  Node1 -> Node39 [dir="back",color="midnightblue",fontsize="10",style="solid",fontname="Helvetica"];
  Node39 [label="includes/Factories\l/ECS/components/MeshComponent.hpp",height=0.2,width=0.4,color="black", fillcolor="white", style="filled",URL="$_mesh_component_8hpp.html",tooltip=" "];
  Node39 -> Node20 [dir="back",color="midnightblue",fontsize="10",style="solid",fontname="Helvetica"];
  Node39 -> Node33 [dir="back",color="midnightblue",fontsize="10",style="solid",fontname="Helvetica"];
  Node39 -> Node40 [dir="back",color="midnightblue",fontsize="10",style="solid",fontname="Helvetica"];
  Node40 [label="sources/Factories/ECS\l/components/MeshComponent.cpp",height=0.2,width=0.4,color="black", fillcolor="white", style="filled",URL="$_mesh_component_8cpp.html",tooltip=" "];
  Node1 -> Node20 [dir="back",color="midnightblue",fontsize="10",style="solid",fontname="Helvetica"];
  Node1 -> Node41 [dir="back",color="midnightblue",fontsize="10",style="solid",fontname="Helvetica"];
  Node41 [label="includes/Factories\l/ECS/systems/System.hpp",height=0.2,width=0.4,color="black", fillcolor="white", style="filled",URL="$includes_2_factories_2_e_c_s_2systems_2_system_8hpp.html",tooltip=" "];
  Node41 -> Node42 [dir="back",color="midnightblue",fontsize="10",style="solid",fontname="Helvetica"];
  Node42 [label="sources/Factories/ECS\l/systems/System.cpp",height=0.2,width=0.4,color="black", fillcolor="white", style="filled",URL="$_system_8cpp.html",tooltip=" "];
  Node1 -> Node18 [dir="back",color="midnightblue",fontsize="10",style="solid",fontname="Helvetica"];
  Node1 -> Node43 [dir="back",color="midnightblue",fontsize="10",style="solid",fontname="Helvetica"];
  Node43 [label="includes/Interfaces\l/IGraphical.hpp",height=0.2,width=0.4,color="black", fillcolor="white", style="filled",URL="$_i_graphical_8hpp.html",tooltip=" "];
  Node43 -> Node33 [dir="back",color="midnightblue",fontsize="10",style="solid",fontname="Helvetica"];
  Node1 -> Node21 [dir="back",color="midnightblue",fontsize="10",style="solid",fontname="Helvetica"];
  Node1 -> Node44 [dir="back",color="midnightblue",fontsize="10",style="solid",fontname="Helvetica"];
  Node44 [label="sources/Factories/ECS\l/entities/Entity.cpp",height=0.2,width=0.4,color="black", fillcolor="white", style="filled",URL="$_entity_8cpp.html",tooltip=" "];
}
