digraph "cmake/SFML-2.5.1/include/SFML/Window/GlResource.hpp"
{
 // LATEX_PDF_SIZE
  edge [fontname="Helvetica",fontsize="10",labelfontname="Helvetica",labelfontsize="10"];
  node [fontname="Helvetica",fontsize="10",shape=record];
  Node1 [label="cmake/SFML-2.5.1/include\l/SFML/Window/GlResource.hpp",height=0.2,width=0.4,color="black", fillcolor="grey75", style="filled", fontcolor="black",tooltip=" "];
  Node1 -> Node2 [color="midnightblue",fontsize="10",style="solid",fontname="Helvetica"];
  Node2 [label="SFML/Window/Export.hpp",height=0.2,width=0.4,color="black", fillcolor="white", style="filled",URL="$_window_2_export_8hpp.html",tooltip=" "];
  Node2 -> Node3 [color="midnightblue",fontsize="10",style="solid",fontname="Helvetica"];
  Node3 [label="SFML/Config.hpp",height=0.2,width=0.4,color="black", fillcolor="white", style="filled",URL="$_config_8hpp.html",tooltip=" "];
  Node1 -> Node4 [color="midnightblue",fontsize="10",style="solid",fontname="Helvetica"];
  Node4 [label="SFML/System/NonCopyable.hpp",height=0.2,width=0.4,color="black", fillcolor="white", style="filled",URL="$_non_copyable_8hpp.html",tooltip=" "];
  Node4 -> Node5 [color="midnightblue",fontsize="10",style="solid",fontname="Helvetica"];
  Node5 [label="SFML/System/Export.hpp",height=0.2,width=0.4,color="black", fillcolor="white", style="filled",URL="$_system_2_export_8hpp.html",tooltip=" "];
  Node5 -> Node3 [color="midnightblue",fontsize="10",style="solid",fontname="Helvetica"];
}
