digraph "copyVector"
{
 // LATEX_PDF_SIZE
  edge [fontname="Helvetica",fontsize="10",labelfontname="Helvetica",labelfontsize="10"];
  node [fontname="Helvetica",fontsize="10",shape=record];
  rankdir="RL";
  Node1 [label="copyVector",height=0.2,width=0.4,color="black", fillcolor="grey75", style="filled", fontcolor="black",tooltip="Helper functions to copy sf::Color to sf::Glsl::Vec4/Ivec4."];
  Node1 -> Node2 [dir="back",color="midnightblue",fontsize="10",style="solid",fontname="Helvetica"];
  Node2 [label="Vector4::Vector4",height=0.2,width=0.4,color="black", fillcolor="white", style="filled",URL="$struct_vector4.html#af1da65a743ddbb5c779b41eae766c00d",tooltip="Construct float vector implicitly from color."];
}
