digraph "copyMatrix"
{
 // LATEX_PDF_SIZE
  edge [fontname="Helvetica",fontsize="10",labelfontname="Helvetica",labelfontsize="10"];
  node [fontname="Helvetica",fontsize="10",shape=record];
  rankdir="RL";
  Node1 [label="copyMatrix",height=0.2,width=0.4,color="black", fillcolor="grey75", style="filled", fontcolor="black",tooltip="Helper functions to copy sf::Transform to sf::Glsl::Mat3/4."];
  Node1 -> Node2 [dir="back",color="midnightblue",fontsize="10",style="solid",fontname="Helvetica"];
  Node2 [label="Matrix::Matrix",height=0.2,width=0.4,color="black", fillcolor="white", style="filled",URL="$struct_matrix.html#ad40da72f526bcd6854d83496d2f62e01",tooltip="Construct from raw data."];
}
