digraph "includes/Graphical/Graphical.hpp"
{
 // LATEX_PDF_SIZE
  edge [fontname="Helvetica",fontsize="10",labelfontname="Helvetica",labelfontsize="10"];
  node [fontname="Helvetica",fontsize="10",shape=record];
  Node1 [label="includes/Graphical\l/Graphical.hpp",height=0.2,width=0.4,color="black", fillcolor="grey75", style="filled", fontcolor="black",tooltip=" "];
  Node1 -> Node2 [color="midnightblue",fontsize="10",style="solid",fontname="Helvetica"];
  Node2 [label="iostream",height=0.2,width=0.4,color="grey75", fillcolor="white", style="filled",tooltip=" "];
  Node1 -> Node3 [color="midnightblue",fontsize="10",style="solid",fontname="Helvetica"];
  Node3 [label="irrlicht.h",height=0.2,width=0.4,color="red", fillcolor="white", style="filled",URL="$irrlicht_8h.html",tooltip="Main header file of the irrlicht, the only file needed to include."];
  Node3 -> Node4 [color="midnightblue",fontsize="10",style="solid",fontname="Helvetica"];
  Node4 [label="IrrCompileConfig.h",height=0.2,width=0.4,color="red", fillcolor="white", style="filled",URL="$_irr_compile_config_8h.html",tooltip=" "];
  Node3 -> Node6 [color="midnightblue",fontsize="10",style="solid",fontname="Helvetica"];
  Node6 [label="aabbox3d.h",height=0.2,width=0.4,color="red", fillcolor="white", style="filled",URL="$aabbox3d_8h.html",tooltip=" "];
  Node3 -> Node17 [color="midnightblue",fontsize="10",style="solid",fontname="Helvetica"];
  Node17 [label="CDynamicMeshBuffer.h",height=0.2,width=0.4,color="red", fillcolor="white", style="filled",URL="$_c_dynamic_mesh_buffer_8h.html",tooltip=" "];
  Node17 -> Node44 [color="midnightblue",fontsize="10",style="solid",fontname="Helvetica"];
  Node44 [label="CVertexBuffer.h",height=0.2,width=0.4,color="red", fillcolor="white", style="filled",URL="$_c_vertex_buffer_8h.html",tooltip=" "];
  Node17 -> Node45 [color="midnightblue",fontsize="10",style="solid",fontname="Helvetica"];
  Node45 [label="CIndexBuffer.h",height=0.2,width=0.4,color="red", fillcolor="white", style="filled",URL="$_c_index_buffer_8h.html",tooltip=" "];
  Node3 -> Node45 [color="midnightblue",fontsize="10",style="solid",fontname="Helvetica"];
  Node3 -> Node46 [color="midnightblue",fontsize="10",style="solid",fontname="Helvetica"];
  Node46 [label="CMeshBuffer.h",height=0.2,width=0.4,color="red", fillcolor="white", style="filled",URL="$_c_mesh_buffer_8h.html",tooltip=" "];
  Node3 -> Node47 [color="midnightblue",fontsize="10",style="solid",fontname="Helvetica"];
  Node47 [label="coreutil.h",height=0.2,width=0.4,color="red", fillcolor="white", style="filled",URL="$coreutil_8h.html",tooltip="File containing useful basic utility functions."];
  Node3 -> Node44 [color="midnightblue",fontsize="10",style="solid",fontname="Helvetica"];
  Node3 -> Node25 [color="midnightblue",fontsize="10",style="solid",fontname="Helvetica"];
  Node25 [label="dimension2d.h",height=0.2,width=0.4,color="red", fillcolor="white", style="filled",URL="$dimension2d_8h.html",tooltip=" "];
  Node3 -> Node49 [color="midnightblue",fontsize="10",style="solid",fontname="Helvetica"];
  Node49 [label="ECullingTypes.h",height=0.2,width=0.4,color="red", fillcolor="white", style="filled",URL="$_e_culling_types_8h.html",tooltip=" "];
  Node3 -> Node50 [color="midnightblue",fontsize="10",style="solid",fontname="Helvetica"];
  Node50 [label="EDebugSceneTypes.h",height=0.2,width=0.4,color="black", fillcolor="white", style="filled",URL="$_e_debug_scene_types_8h.html",tooltip=" "];
  Node3 -> Node51 [color="midnightblue",fontsize="10",style="solid",fontname="Helvetica"];
  Node51 [label="EDriverFeatures.h",height=0.2,width=0.4,color="black", fillcolor="white", style="filled",URL="$_e_driver_features_8h.html",tooltip=" "];
  Node3 -> Node52 [color="midnightblue",fontsize="10",style="solid",fontname="Helvetica"];
  Node52 [label="EDriverTypes.h",height=0.2,width=0.4,color="black", fillcolor="white", style="filled",URL="$_e_driver_types_8h.html",tooltip=" "];
  Node3 -> Node53 [color="midnightblue",fontsize="10",style="solid",fontname="Helvetica"];
  Node53 [label="EGUIAlignment.h",height=0.2,width=0.4,color="black", fillcolor="white", style="filled",URL="$_e_g_u_i_alignment_8h.html",tooltip=" "];
  Node3 -> Node54 [color="midnightblue",fontsize="10",style="solid",fontname="Helvetica"];
  Node54 [label="EGUIElementTypes.h",height=0.2,width=0.4,color="red", fillcolor="white", style="filled",URL="$_e_g_u_i_element_types_8h.html",tooltip=" "];
  Node3 -> Node40 [color="midnightblue",fontsize="10",style="solid",fontname="Helvetica"];
  Node40 [label="EHardwareBufferFlags.h",height=0.2,width=0.4,color="black", fillcolor="white", style="filled",URL="$_e_hardware_buffer_flags_8h.html",tooltip=" "];
  Node3 -> Node36 [color="midnightblue",fontsize="10",style="solid",fontname="Helvetica"];
  Node36 [label="EMaterialFlags.h",height=0.2,width=0.4,color="black", fillcolor="white", style="filled",URL="$_e_material_flags_8h.html",tooltip=" "];
  Node3 -> Node35 [color="midnightblue",fontsize="10",style="solid",fontname="Helvetica"];
  Node35 [label="EMaterialTypes.h",height=0.2,width=0.4,color="black", fillcolor="white", style="filled",URL="$_e_material_types_8h.html",tooltip=" "];
  Node3 -> Node55 [color="midnightblue",fontsize="10",style="solid",fontname="Helvetica"];
  Node55 [label="EMeshWriterEnums.h",height=0.2,width=0.4,color="red", fillcolor="white", style="filled",URL="$_e_mesh_writer_enums_8h.html",tooltip=" "];
  Node3 -> Node56 [color="midnightblue",fontsize="10",style="solid",fontname="Helvetica"];
  Node56 [label="EMessageBoxFlags.h",height=0.2,width=0.4,color="black", fillcolor="white", style="filled",URL="$_e_message_box_flags_8h.html",tooltip=" "];
  Node3 -> Node57 [color="midnightblue",fontsize="10",style="solid",fontname="Helvetica"];
  Node57 [label="ESceneNodeAnimatorTypes.h",height=0.2,width=0.4,color="black", fillcolor="white", style="filled",URL="$_e_scene_node_animator_types_8h.html",tooltip=" "];
  Node3 -> Node58 [color="midnightblue",fontsize="10",style="solid",fontname="Helvetica"];
  Node58 [label="ESceneNodeTypes.h",height=0.2,width=0.4,color="red", fillcolor="white", style="filled",URL="$_e_scene_node_types_8h.html",tooltip=" "];
  Node3 -> Node59 [color="midnightblue",fontsize="10",style="solid",fontname="Helvetica"];
  Node59 [label="ETerrainElements.h",height=0.2,width=0.4,color="black", fillcolor="white", style="filled",URL="$_e_terrain_elements_8h.html",tooltip=" "];
  Node3 -> Node60 [color="midnightblue",fontsize="10",style="solid",fontname="Helvetica"];
  Node60 [label="fast_atof.h",height=0.2,width=0.4,color="red", fillcolor="white", style="filled",URL="$fast__atof_8h.html",tooltip=" "];
  Node3 -> Node34 [color="midnightblue",fontsize="10",style="solid",fontname="Helvetica"];
  Node34 [label="heapsort.h",height=0.2,width=0.4,color="red", fillcolor="white", style="filled",URL="$heapsort_8h.html",tooltip=" "];
  Node3 -> Node61 [color="midnightblue",fontsize="10",style="solid",fontname="Helvetica"];
  Node61 [label="IAnimatedMesh.h",height=0.2,width=0.4,color="red", fillcolor="white", style="filled",URL="$_i_animated_mesh_8h.html",tooltip=" "];
  Node61 -> Node6 [color="midnightblue",fontsize="10",style="solid",fontname="Helvetica"];
  Node3 -> Node63 [color="midnightblue",fontsize="10",style="solid",fontname="Helvetica"];
  Node63 [label="IAnimatedMeshMD2.h",height=0.2,width=0.4,color="black", fillcolor="white", style="filled",URL="$_i_animated_mesh_m_d2_8h.html",tooltip=" "];
  Node63 -> Node61 [color="midnightblue",fontsize="10",style="solid",fontname="Helvetica"];
  Node3 -> Node64 [color="midnightblue",fontsize="10",style="solid",fontname="Helvetica"];
  Node64 [label="IAnimatedMeshMD3.h",height=0.2,width=0.4,color="red", fillcolor="white", style="filled",URL="$_i_animated_mesh_m_d3_8h.html",tooltip=" "];
  Node64 -> Node61 [color="midnightblue",fontsize="10",style="solid",fontname="Helvetica"];
  Node3 -> Node80 [color="midnightblue",fontsize="10",style="solid",fontname="Helvetica"];
  Node80 [label="IAnimatedMeshSceneNode.h",height=0.2,width=0.4,color="red", fillcolor="white", style="filled",URL="$_i_animated_mesh_scene_node_8h.html",tooltip=" "];
  Node80 -> Node63 [color="midnightblue",fontsize="10",style="solid",fontname="Helvetica"];
  Node80 -> Node64 [color="midnightblue",fontsize="10",style="solid",fontname="Helvetica"];
  Node3 -> Node82 [color="midnightblue",fontsize="10",style="solid",fontname="Helvetica"];
  Node82 [label="IAttributeExchangingObject.h",height=0.2,width=0.4,color="red", fillcolor="white", style="filled",URL="$_i_attribute_exchanging_object_8h.html",tooltip=" "];
  Node1 -> Node193 [color="midnightblue",fontsize="10",style="solid",fontname="Helvetica"];
  Node193 [label="string",height=0.2,width=0.4,color="grey75", fillcolor="white", style="filled",tooltip=" "];
  Node1 -> Node194 [color="midnightblue",fontsize="10",style="solid",fontname="Helvetica"];
  Node194 [label="chrono",height=0.2,width=0.4,color="grey75", fillcolor="white", style="filled",tooltip=" "];
  Node1 -> Node195 [color="midnightblue",fontsize="10",style="solid",fontname="Helvetica"];
  Node195 [label="unordered_map",height=0.2,width=0.4,color="grey75", fillcolor="white", style="filled",tooltip=" "];
  Node1 -> Node196 [color="midnightblue",fontsize="10",style="solid",fontname="Helvetica"];
  Node196 [label="IGraphical.hpp",height=0.2,width=0.4,color="red", fillcolor="white", style="filled",URL="$_i_graphical_8hpp.html",tooltip=" "];
  Node1 -> Node203 [color="midnightblue",fontsize="10",style="solid",fontname="Helvetica"];
  Node203 [label="DeviceError.hpp",height=0.2,width=0.4,color="red", fillcolor="white", style="filled",URL="$_device_error_8hpp.html",tooltip=" "];
  Node1 -> Node206 [color="midnightblue",fontsize="10",style="solid",fontname="Helvetica"];
  Node206 [label="TextureError.hpp",height=0.2,width=0.4,color="red", fillcolor="white", style="filled",URL="$_texture_error_8hpp.html",tooltip=" "];
  Node1 -> Node207 [color="midnightblue",fontsize="10",style="solid",fontname="Helvetica"];
  Node207 [label="handleInput.hpp",height=0.2,width=0.4,color="red", fillcolor="white", style="filled",URL="$handle_input_8hpp.html",tooltip=" "];
  Node207 -> Node2 [color="midnightblue",fontsize="10",style="solid",fontname="Helvetica"];
  Node207 -> Node3 [color="midnightblue",fontsize="10",style="solid",fontname="Helvetica"];
  Node1 -> Node208 [color="midnightblue",fontsize="10",style="solid",fontname="Helvetica"];
  Node208 [label="Map.hpp",height=0.2,width=0.4,color="red", fillcolor="white", style="filled",URL="$_map_8hpp.html",tooltip=" "];
  Node1 -> Node217 [color="midnightblue",fontsize="10",style="solid",fontname="Helvetica"];
  Node217 [label="Particuls.hpp",height=0.2,width=0.4,color="black", fillcolor="white", style="filled",URL="$_particuls_8hpp.html",tooltip=" "];
  Node217 -> Node3 [color="midnightblue",fontsize="10",style="solid",fontname="Helvetica"];
  Node1 -> Node218 [color="midnightblue",fontsize="10",style="solid",fontname="Helvetica"];
  Node218 [label="SizeComponent.hpp",height=0.2,width=0.4,color="red", fillcolor="white", style="filled",URL="$_size_component_8hpp.html",tooltip=" "];
  Node1 -> Node211 [color="midnightblue",fontsize="10",style="solid",fontname="Helvetica"];
  Node211 [label="TextureComponent.hpp",height=0.2,width=0.4,color="red", fillcolor="white", style="filled",URL="$_texture_component_8hpp.html",tooltip=" "];
  Node211 -> Node3 [color="midnightblue",fontsize="10",style="solid",fontname="Helvetica"];
  Node211 -> Node2 [color="midnightblue",fontsize="10",style="solid",fontname="Helvetica"];
  Node211 -> Node206 [color="midnightblue",fontsize="10",style="solid",fontname="Helvetica"];
  Node1 -> Node219 [color="midnightblue",fontsize="10",style="solid",fontname="Helvetica"];
  Node219 [label="MeshComponent.hpp",height=0.2,width=0.4,color="red", fillcolor="white", style="filled",URL="$_mesh_component_8hpp.html",tooltip=" "];
  Node219 -> Node3 [color="midnightblue",fontsize="10",style="solid",fontname="Helvetica"];
  Node219 -> Node2 [color="midnightblue",fontsize="10",style="solid",fontname="Helvetica"];
  Node1 -> Node221 [color="midnightblue",fontsize="10",style="solid",fontname="Helvetica"];
  Node221 [label="StringComponent.hpp",height=0.2,width=0.4,color="red", fillcolor="white", style="filled",URL="$_string_component_8hpp.html",tooltip=" "];
  Node221 -> Node193 [color="midnightblue",fontsize="10",style="solid",fontname="Helvetica"];
  Node1 -> Node222 [color="midnightblue",fontsize="10",style="solid",fontname="Helvetica"];
  Node222 [label="ColorComponent.hpp",height=0.2,width=0.4,color="red", fillcolor="white", style="filled",URL="$_color_component_8hpp.html",tooltip=" "];
  Node1 -> Node210 [color="midnightblue",fontsize="10",style="solid",fontname="Helvetica"];
  Node210 [label="PositionComponent.hpp",height=0.2,width=0.4,color="red", fillcolor="white", style="filled",URL="$_position_component_8hpp.html",tooltip=" "];
  Node1 -> Node212 [color="midnightblue",fontsize="10",style="solid",fontname="Helvetica"];
  Node212 [label="ColliderComponent.hpp",height=0.2,width=0.4,color="red", fillcolor="white", style="filled",URL="$_collider_component_8hpp.html",tooltip=" "];
  Node1 -> Node223 [color="midnightblue",fontsize="10",style="solid",fontname="Helvetica"];
  Node223 [label="ActionComponent.hpp",height=0.2,width=0.4,color="red", fillcolor="white", style="filled",URL="$_action_component_8hpp.html",tooltip=" "];
  Node223 -> Node3 [color="midnightblue",fontsize="10",style="solid",fontname="Helvetica"];
  Node1 -> Node213 [color="midnightblue",fontsize="10",style="solid",fontname="Helvetica"];
  Node213 [label="CubeComponent.hpp",height=0.2,width=0.4,color="red", fillcolor="white", style="filled",URL="$_cube_component_8hpp.html",tooltip=" "];
  Node213 -> Node3 [color="midnightblue",fontsize="10",style="solid",fontname="Helvetica"];
  Node213 -> Node2 [color="midnightblue",fontsize="10",style="solid",fontname="Helvetica"];
}
