digraph "cmake/include/IQ3LevelMesh.h"
{
 // LATEX_PDF_SIZE
  edge [fontname="Helvetica",fontsize="10",labelfontname="Helvetica",labelfontsize="10"];
  node [fontname="Helvetica",fontsize="10",shape=record];
  Node1 [label="cmake/include/IQ3LevelMesh.h",height=0.2,width=0.4,color="black", fillcolor="grey75", style="filled", fontcolor="black",tooltip=" "];
  Node1 -> Node2 [color="midnightblue",fontsize="10",style="solid",fontname="Helvetica"];
  Node2 [label="IAnimatedMesh.h",height=0.2,width=0.4,color="black", fillcolor="white", style="filled",URL="$_i_animated_mesh_8h.html",tooltip=" "];
  Node2 -> Node3 [color="midnightblue",fontsize="10",style="solid",fontname="Helvetica"];
  Node3 [label="aabbox3d.h",height=0.2,width=0.4,color="black", fillcolor="white", style="filled",URL="$aabbox3d_8h.html",tooltip=" "];
  Node3 -> Node4 [color="midnightblue",fontsize="10",style="solid",fontname="Helvetica"];
  Node4 [label="irrMath.h",height=0.2,width=0.4,color="black", fillcolor="white", style="filled",URL="$irr_math_8h.html",tooltip=" "];
  Node4 -> Node5 [color="midnightblue",fontsize="10",style="solid",fontname="Helvetica"];
  Node5 [label="IrrCompileConfig.h",height=0.2,width=0.4,color="black", fillcolor="white", style="filled",URL="$_irr_compile_config_8h.html",tooltip=" "];
  Node5 -> Node6 [color="midnightblue",fontsize="10",style="solid",fontname="Helvetica"];
  Node6 [label="stdio.h",height=0.2,width=0.4,color="grey75", fillcolor="white", style="filled",tooltip=" "];
  Node4 -> Node7 [color="midnightblue",fontsize="10",style="solid",fontname="Helvetica"];
  Node7 [label="irrTypes.h",height=0.2,width=0.4,color="black", fillcolor="white", style="filled",URL="$irr_types_8h.html",tooltip=" "];
  Node7 -> Node5 [color="midnightblue",fontsize="10",style="solid",fontname="Helvetica"];
  Node7 -> Node8 [color="midnightblue",fontsize="10",style="solid",fontname="Helvetica"];
  Node8 [label="wchar.h",height=0.2,width=0.4,color="grey75", fillcolor="white", style="filled",tooltip=" "];
  Node4 -> Node9 [color="midnightblue",fontsize="10",style="solid",fontname="Helvetica"];
  Node9 [label="math.h",height=0.2,width=0.4,color="grey75", fillcolor="white", style="filled",tooltip=" "];
  Node4 -> Node10 [color="midnightblue",fontsize="10",style="solid",fontname="Helvetica"];
  Node10 [label="float.h",height=0.2,width=0.4,color="grey75", fillcolor="white", style="filled",tooltip=" "];
  Node4 -> Node11 [color="midnightblue",fontsize="10",style="solid",fontname="Helvetica"];
  Node11 [label="stdlib.h",height=0.2,width=0.4,color="grey75", fillcolor="white", style="filled",tooltip=" "];
  Node4 -> Node12 [color="midnightblue",fontsize="10",style="solid",fontname="Helvetica"];
  Node12 [label="limits.h",height=0.2,width=0.4,color="grey75", fillcolor="white", style="filled",tooltip=" "];
  Node3 -> Node13 [color="midnightblue",fontsize="10",style="solid",fontname="Helvetica"];
  Node13 [label="plane3d.h",height=0.2,width=0.4,color="black", fillcolor="white", style="filled",URL="$plane3d_8h.html",tooltip=" "];
  Node13 -> Node4 [color="midnightblue",fontsize="10",style="solid",fontname="Helvetica"];
  Node13 -> Node14 [color="midnightblue",fontsize="10",style="solid",fontname="Helvetica"];
  Node14 [label="vector3d.h",height=0.2,width=0.4,color="black", fillcolor="white", style="filled",URL="$vector3d_8h.html",tooltip=" "];
  Node14 -> Node4 [color="midnightblue",fontsize="10",style="solid",fontname="Helvetica"];
  Node3 -> Node15 [color="midnightblue",fontsize="10",style="solid",fontname="Helvetica"];
  Node15 [label="line3d.h",height=0.2,width=0.4,color="black", fillcolor="white", style="filled",URL="$line3d_8h.html",tooltip=" "];
  Node15 -> Node7 [color="midnightblue",fontsize="10",style="solid",fontname="Helvetica"];
  Node15 -> Node14 [color="midnightblue",fontsize="10",style="solid",fontname="Helvetica"];
  Node2 -> Node16 [color="midnightblue",fontsize="10",style="solid",fontname="Helvetica"];
  Node16 [label="IMesh.h",height=0.2,width=0.4,color="black", fillcolor="white", style="filled",URL="$_i_mesh_8h.html",tooltip=" "];
  Node16 -> Node17 [color="midnightblue",fontsize="10",style="solid",fontname="Helvetica"];
  Node17 [label="IReferenceCounted.h",height=0.2,width=0.4,color="black", fillcolor="white", style="filled",URL="$_i_reference_counted_8h.html",tooltip=" "];
  Node17 -> Node7 [color="midnightblue",fontsize="10",style="solid",fontname="Helvetica"];
  Node16 -> Node18 [color="midnightblue",fontsize="10",style="solid",fontname="Helvetica"];
  Node18 [label="SMaterial.h",height=0.2,width=0.4,color="black", fillcolor="white", style="filled",URL="$_s_material_8h.html",tooltip=" "];
  Node18 -> Node19 [color="midnightblue",fontsize="10",style="solid",fontname="Helvetica"];
  Node19 [label="SColor.h",height=0.2,width=0.4,color="black", fillcolor="white", style="filled",URL="$_s_color_8h.html",tooltip=" "];
  Node19 -> Node7 [color="midnightblue",fontsize="10",style="solid",fontname="Helvetica"];
  Node19 -> Node4 [color="midnightblue",fontsize="10",style="solid",fontname="Helvetica"];
  Node18 -> Node20 [color="midnightblue",fontsize="10",style="solid",fontname="Helvetica"];
  Node20 [label="matrix4.h",height=0.2,width=0.4,color="red", fillcolor="white", style="filled",URL="$matrix4_8h.html",tooltip=" "];
  Node20 -> Node4 [color="midnightblue",fontsize="10",style="solid",fontname="Helvetica"];
  Node20 -> Node14 [color="midnightblue",fontsize="10",style="solid",fontname="Helvetica"];
  Node20 -> Node13 [color="midnightblue",fontsize="10",style="solid",fontname="Helvetica"];
  Node20 -> Node3 [color="midnightblue",fontsize="10",style="solid",fontname="Helvetica"];
  Node20 -> Node23 [color="midnightblue",fontsize="10",style="solid",fontname="Helvetica"];
  Node23 [label="rect.h",height=0.2,width=0.4,color="black", fillcolor="white", style="filled",URL="$rect_8h.html",tooltip=" "];
  Node23 -> Node7 [color="midnightblue",fontsize="10",style="solid",fontname="Helvetica"];
  Node23 -> Node22 [color="midnightblue",fontsize="10",style="solid",fontname="Helvetica"];
  Node22 [label="dimension2d.h",height=0.2,width=0.4,color="black", fillcolor="white", style="filled",URL="$dimension2d_8h.html",tooltip=" "];
  Node22 -> Node7 [color="midnightblue",fontsize="10",style="solid",fontname="Helvetica"];
  Node22 -> Node4 [color="midnightblue",fontsize="10",style="solid",fontname="Helvetica"];
  Node23 -> Node24 [color="midnightblue",fontsize="10",style="solid",fontname="Helvetica"];
  Node24 [label="position2d.h",height=0.2,width=0.4,color="red", fillcolor="white", style="filled",URL="$position2d_8h.html",tooltip=" "];
  Node20 -> Node25 [color="midnightblue",fontsize="10",style="solid",fontname="Helvetica"];
  Node25 [label="irrString.h",height=0.2,width=0.4,color="black", fillcolor="white", style="filled",URL="$irr_string_8h.html",tooltip=" "];
  Node25 -> Node7 [color="midnightblue",fontsize="10",style="solid",fontname="Helvetica"];
  Node25 -> Node26 [color="midnightblue",fontsize="10",style="solid",fontname="Helvetica"];
  Node26 [label="irrAllocator.h",height=0.2,width=0.4,color="black", fillcolor="white", style="filled",URL="$irr_allocator_8h.html",tooltip=" "];
  Node26 -> Node7 [color="midnightblue",fontsize="10",style="solid",fontname="Helvetica"];
  Node26 -> Node27 [color="midnightblue",fontsize="10",style="solid",fontname="Helvetica"];
  Node27 [label="new",height=0.2,width=0.4,color="grey75", fillcolor="white", style="filled",tooltip=" "];
  Node26 -> Node28 [color="midnightblue",fontsize="10",style="solid",fontname="Helvetica"];
  Node28 [label="memory.h",height=0.2,width=0.4,color="grey75", fillcolor="white", style="filled",tooltip=" "];
  Node25 -> Node4 [color="midnightblue",fontsize="10",style="solid",fontname="Helvetica"];
  Node25 -> Node6 [color="midnightblue",fontsize="10",style="solid",fontname="Helvetica"];
  Node25 -> Node29 [color="midnightblue",fontsize="10",style="solid",fontname="Helvetica"];
  Node29 [label="string.h",height=0.2,width=0.4,color="grey75", fillcolor="white", style="filled",tooltip=" "];
  Node25 -> Node11 [color="midnightblue",fontsize="10",style="solid",fontname="Helvetica"];
  Node18 -> Node30 [color="midnightblue",fontsize="10",style="solid",fontname="Helvetica"];
  Node30 [label="irrArray.h",height=0.2,width=0.4,color="black", fillcolor="white", style="filled",URL="$irr_array_8h.html",tooltip=" "];
  Node30 -> Node7 [color="midnightblue",fontsize="10",style="solid",fontname="Helvetica"];
  Node30 -> Node31 [color="midnightblue",fontsize="10",style="solid",fontname="Helvetica"];
  Node31 [label="heapsort.h",height=0.2,width=0.4,color="black", fillcolor="white", style="filled",URL="$heapsort_8h.html",tooltip=" "];
  Node31 -> Node7 [color="midnightblue",fontsize="10",style="solid",fontname="Helvetica"];
  Node30 -> Node26 [color="midnightblue",fontsize="10",style="solid",fontname="Helvetica"];
  Node30 -> Node4 [color="midnightblue",fontsize="10",style="solid",fontname="Helvetica"];
  Node18 -> Node4 [color="midnightblue",fontsize="10",style="solid",fontname="Helvetica"];
  Node18 -> Node32 [color="midnightblue",fontsize="10",style="solid",fontname="Helvetica"];
  Node32 [label="EMaterialTypes.h",height=0.2,width=0.4,color="black", fillcolor="white", style="filled",URL="$_e_material_types_8h.html",tooltip=" "];
  Node18 -> Node33 [color="midnightblue",fontsize="10",style="solid",fontname="Helvetica"];
  Node33 [label="EMaterialFlags.h",height=0.2,width=0.4,color="black", fillcolor="white", style="filled",URL="$_e_material_flags_8h.html",tooltip=" "];
  Node18 -> Node34 [color="midnightblue",fontsize="10",style="solid",fontname="Helvetica"];
  Node34 [label="SMaterialLayer.h",height=0.2,width=0.4,color="black", fillcolor="white", style="filled",URL="$_s_material_layer_8h.html",tooltip=" "];
  Node34 -> Node20 [color="midnightblue",fontsize="10",style="solid",fontname="Helvetica"];
  Node34 -> Node26 [color="midnightblue",fontsize="10",style="solid",fontname="Helvetica"];
  Node16 -> Node35 [color="midnightblue",fontsize="10",style="solid",fontname="Helvetica"];
  Node35 [label="EHardwareBufferFlags.h",height=0.2,width=0.4,color="black", fillcolor="white", style="filled",URL="$_e_hardware_buffer_flags_8h.html",tooltip=" "];
  Node1 -> Node36 [color="midnightblue",fontsize="10",style="solid",fontname="Helvetica"];
  Node36 [label="IQ3Shader.h",height=0.2,width=0.4,color="black", fillcolor="white", style="filled",URL="$_i_q3_shader_8h.html",tooltip=" "];
  Node36 -> Node30 [color="midnightblue",fontsize="10",style="solid",fontname="Helvetica"];
  Node36 -> Node37 [color="midnightblue",fontsize="10",style="solid",fontname="Helvetica"];
  Node37 [label="fast_atof.h",height=0.2,width=0.4,color="black", fillcolor="white", style="filled",URL="$fast__atof_8h.html",tooltip=" "];
  Node37 -> Node4 [color="midnightblue",fontsize="10",style="solid",fontname="Helvetica"];
  Node37 -> Node25 [color="midnightblue",fontsize="10",style="solid",fontname="Helvetica"];
  Node36 -> Node38 [color="midnightblue",fontsize="10",style="solid",fontname="Helvetica"];
  Node38 [label="IFileSystem.h",height=0.2,width=0.4,color="black", fillcolor="white", style="filled",URL="$_i_file_system_8h.html",tooltip=" "];
  Node38 -> Node17 [color="midnightblue",fontsize="10",style="solid",fontname="Helvetica"];
  Node38 -> Node39 [color="midnightblue",fontsize="10",style="solid",fontname="Helvetica"];
  Node39 [label="IXMLReader.h",height=0.2,width=0.4,color="black", fillcolor="white", style="filled",URL="$_i_x_m_l_reader_8h.html",tooltip=" "];
  Node39 -> Node17 [color="midnightblue",fontsize="10",style="solid",fontname="Helvetica"];
  Node39 -> Node40 [color="midnightblue",fontsize="10",style="solid",fontname="Helvetica"];
  Node40 [label="irrXML.h",height=0.2,width=0.4,color="black", fillcolor="white", style="filled",URL="$irr_x_m_l_8h.html",tooltip="Header file of the irrXML, the Irrlicht XML parser."];
  Node40 -> Node6 [color="midnightblue",fontsize="10",style="solid",fontname="Helvetica"];
  Node40 -> Node5 [color="midnightblue",fontsize="10",style="solid",fontname="Helvetica"];
  Node38 -> Node41 [color="midnightblue",fontsize="10",style="solid",fontname="Helvetica"];
  Node41 [label="IFileArchive.h",height=0.2,width=0.4,color="red", fillcolor="white", style="filled",URL="$_i_file_archive_8h.html",tooltip=" "];
  Node41 -> Node42 [color="midnightblue",fontsize="10",style="solid",fontname="Helvetica"];
  Node42 [label="IReadFile.h",height=0.2,width=0.4,color="black", fillcolor="white", style="filled",URL="$_i_read_file_8h.html",tooltip=" "];
  Node42 -> Node17 [color="midnightblue",fontsize="10",style="solid",fontname="Helvetica"];
  Node42 -> Node43 [color="midnightblue",fontsize="10",style="solid",fontname="Helvetica"];
  Node43 [label="coreutil.h",height=0.2,width=0.4,color="black", fillcolor="white", style="filled",URL="$coreutil_8h.html",tooltip="File containing useful basic utility functions."];
  Node43 -> Node25 [color="midnightblue",fontsize="10",style="solid",fontname="Helvetica"];
  Node43 -> Node44 [color="midnightblue",fontsize="10",style="solid",fontname="Helvetica"];
  Node44 [label="path.h",height=0.2,width=0.4,color="black", fillcolor="white", style="filled",URL="$path_8h.html",tooltip=" "];
  Node44 -> Node25 [color="midnightblue",fontsize="10",style="solid",fontname="Helvetica"];
  Node36 -> Node46 [color="midnightblue",fontsize="10",style="solid",fontname="Helvetica"];
  Node46 [label="IVideoDriver.h",height=0.2,width=0.4,color="black", fillcolor="white", style="filled",URL="$_i_video_driver_8h.html",tooltip=" "];
  Node46 -> Node23 [color="midnightblue",fontsize="10",style="solid",fontname="Helvetica"];
  Node46 -> Node19 [color="midnightblue",fontsize="10",style="solid",fontname="Helvetica"];
  Node46 -> Node47 [color="midnightblue",fontsize="10",style="solid",fontname="Helvetica"];
  Node47 [label="ITexture.h",height=0.2,width=0.4,color="red", fillcolor="white", style="filled",URL="$_i_texture_8h.html",tooltip=" "];
  Node47 -> Node17 [color="midnightblue",fontsize="10",style="solid",fontname="Helvetica"];
  Node47 -> Node22 [color="midnightblue",fontsize="10",style="solid",fontname="Helvetica"];
  Node47 -> Node49 [color="midnightblue",fontsize="10",style="solid",fontname="Helvetica"];
  Node49 [label="EDriverTypes.h",height=0.2,width=0.4,color="black", fillcolor="white", style="filled",URL="$_e_driver_types_8h.html",tooltip=" "];
  Node47 -> Node44 [color="midnightblue",fontsize="10",style="solid",fontname="Helvetica"];
  Node47 -> Node20 [color="midnightblue",fontsize="10",style="solid",fontname="Helvetica"];
  Node46 -> Node30 [color="midnightblue",fontsize="10",style="solid",fontname="Helvetica"];
  Node46 -> Node20 [color="midnightblue",fontsize="10",style="solid",fontname="Helvetica"];
  Node46 -> Node13 [color="midnightblue",fontsize="10",style="solid",fontname="Helvetica"];
  Node46 -> Node22 [color="midnightblue",fontsize="10",style="solid",fontname="Helvetica"];
  Node46 -> Node24 [color="midnightblue",fontsize="10",style="solid",fontname="Helvetica"];
  Node46 -> Node18 [color="midnightblue",fontsize="10",style="solid",fontname="Helvetica"];
  Node46 -> Node50 [color="midnightblue",fontsize="10",style="solid",fontname="Helvetica"];
  Node50 [label="IMeshBuffer.h",height=0.2,width=0.4,color="red", fillcolor="white", style="filled",URL="$_i_mesh_buffer_8h.html",tooltip=" "];
  Node50 -> Node17 [color="midnightblue",fontsize="10",style="solid",fontname="Helvetica"];
  Node50 -> Node18 [color="midnightblue",fontsize="10",style="solid",fontname="Helvetica"];
  Node50 -> Node3 [color="midnightblue",fontsize="10",style="solid",fontname="Helvetica"];
  Node50 -> Node35 [color="midnightblue",fontsize="10",style="solid",fontname="Helvetica"];
  Node46 -> Node54 [color="midnightblue",fontsize="10",style="solid",fontname="Helvetica"];
  Node54 [label="triangle3d.h",height=0.2,width=0.4,color="black", fillcolor="white", style="filled",URL="$triangle3d_8h.html",tooltip=" "];
  Node54 -> Node14 [color="midnightblue",fontsize="10",style="solid",fontname="Helvetica"];
  Node54 -> Node15 [color="midnightblue",fontsize="10",style="solid",fontname="Helvetica"];
  Node54 -> Node13 [color="midnightblue",fontsize="10",style="solid",fontname="Helvetica"];
  Node54 -> Node3 [color="midnightblue",fontsize="10",style="solid",fontname="Helvetica"];
  Node46 -> Node49 [color="midnightblue",fontsize="10",style="solid",fontname="Helvetica"];
  Node46 -> Node55 [color="midnightblue",fontsize="10",style="solid",fontname="Helvetica"];
  Node55 [label="EDriverFeatures.h",height=0.2,width=0.4,color="black", fillcolor="white", style="filled",URL="$_e_driver_features_8h.html",tooltip=" "];
  Node46 -> Node56 [color="midnightblue",fontsize="10",style="solid",fontname="Helvetica"];
  Node56 [label="SExposedVideoData.h",height=0.2,width=0.4,color="black", fillcolor="white", style="filled",URL="$_s_exposed_video_data_8h.html",tooltip=" "];
  Node36 -> Node43 [color="midnightblue",fontsize="10",style="solid",fontname="Helvetica"];
}
