digraph "cmake/include/IVolumeLightSceneNode.h"
{
 // LATEX_PDF_SIZE
  edge [fontname="Helvetica",fontsize="10",labelfontname="Helvetica",labelfontsize="10"];
  node [fontname="Helvetica",fontsize="10",shape=record];
  Node1 [label="cmake/include/IVolumeLight\lSceneNode.h",height=0.2,width=0.4,color="black", fillcolor="grey75", style="filled", fontcolor="black",tooltip=" "];
  Node1 -> Node2 [color="midnightblue",fontsize="10",style="solid",fontname="Helvetica"];
  Node2 [label="ISceneNode.h",height=0.2,width=0.4,color="black", fillcolor="white", style="filled",URL="$_i_scene_node_8h.html",tooltip=" "];
  Node2 -> Node3 [color="midnightblue",fontsize="10",style="solid",fontname="Helvetica"];
  Node3 [label="IAttributeExchangingObject.h",height=0.2,width=0.4,color="black", fillcolor="white", style="filled",URL="$_i_attribute_exchanging_object_8h.html",tooltip=" "];
  Node3 -> Node4 [color="midnightblue",fontsize="10",style="solid",fontname="Helvetica"];
  Node4 [label="IReferenceCounted.h",height=0.2,width=0.4,color="black", fillcolor="white", style="filled",URL="$_i_reference_counted_8h.html",tooltip=" "];
  Node4 -> Node5 [color="midnightblue",fontsize="10",style="solid",fontname="Helvetica"];
  Node5 [label="irrTypes.h",height=0.2,width=0.4,color="black", fillcolor="white", style="filled",URL="$irr_types_8h.html",tooltip=" "];
  Node5 -> Node6 [color="midnightblue",fontsize="10",style="solid",fontname="Helvetica"];
  Node6 [label="IrrCompileConfig.h",height=0.2,width=0.4,color="black", fillcolor="white", style="filled",URL="$_irr_compile_config_8h.html",tooltip=" "];
  Node6 -> Node7 [color="midnightblue",fontsize="10",style="solid",fontname="Helvetica"];
  Node7 [label="stdio.h",height=0.2,width=0.4,color="grey75", fillcolor="white", style="filled",tooltip=" "];
  Node5 -> Node8 [color="midnightblue",fontsize="10",style="solid",fontname="Helvetica"];
  Node8 [label="wchar.h",height=0.2,width=0.4,color="grey75", fillcolor="white", style="filled",tooltip=" "];
  Node2 -> Node9 [color="midnightblue",fontsize="10",style="solid",fontname="Helvetica"];
  Node9 [label="ESceneNodeTypes.h",height=0.2,width=0.4,color="black", fillcolor="white", style="filled",URL="$_e_scene_node_types_8h.html",tooltip=" "];
  Node9 -> Node5 [color="midnightblue",fontsize="10",style="solid",fontname="Helvetica"];
  Node2 -> Node10 [color="midnightblue",fontsize="10",style="solid",fontname="Helvetica"];
  Node10 [label="ECullingTypes.h",height=0.2,width=0.4,color="black", fillcolor="white", style="filled",URL="$_e_culling_types_8h.html",tooltip=" "];
  Node10 -> Node5 [color="midnightblue",fontsize="10",style="solid",fontname="Helvetica"];
  Node2 -> Node11 [color="midnightblue",fontsize="10",style="solid",fontname="Helvetica"];
  Node11 [label="EDebugSceneTypes.h",height=0.2,width=0.4,color="black", fillcolor="white", style="filled",URL="$_e_debug_scene_types_8h.html",tooltip=" "];
  Node2 -> Node12 [color="midnightblue",fontsize="10",style="solid",fontname="Helvetica"];
  Node12 [label="ISceneNodeAnimator.h",height=0.2,width=0.4,color="black", fillcolor="white", style="filled",URL="$_i_scene_node_animator_8h.html",tooltip=" "];
  Node12 -> Node4 [color="midnightblue",fontsize="10",style="solid",fontname="Helvetica"];
  Node12 -> Node13 [color="midnightblue",fontsize="10",style="solid",fontname="Helvetica"];
  Node13 [label="vector3d.h",height=0.2,width=0.4,color="black", fillcolor="white", style="filled",URL="$vector3d_8h.html",tooltip=" "];
  Node13 -> Node14 [color="midnightblue",fontsize="10",style="solid",fontname="Helvetica"];
  Node14 [label="irrMath.h",height=0.2,width=0.4,color="black", fillcolor="white", style="filled",URL="$irr_math_8h.html",tooltip=" "];
  Node14 -> Node6 [color="midnightblue",fontsize="10",style="solid",fontname="Helvetica"];
  Node14 -> Node5 [color="midnightblue",fontsize="10",style="solid",fontname="Helvetica"];
  Node14 -> Node15 [color="midnightblue",fontsize="10",style="solid",fontname="Helvetica"];
  Node15 [label="math.h",height=0.2,width=0.4,color="grey75", fillcolor="white", style="filled",tooltip=" "];
  Node14 -> Node16 [color="midnightblue",fontsize="10",style="solid",fontname="Helvetica"];
  Node16 [label="float.h",height=0.2,width=0.4,color="grey75", fillcolor="white", style="filled",tooltip=" "];
  Node14 -> Node17 [color="midnightblue",fontsize="10",style="solid",fontname="Helvetica"];
  Node17 [label="stdlib.h",height=0.2,width=0.4,color="grey75", fillcolor="white", style="filled",tooltip=" "];
  Node14 -> Node18 [color="midnightblue",fontsize="10",style="solid",fontname="Helvetica"];
  Node18 [label="limits.h",height=0.2,width=0.4,color="grey75", fillcolor="white", style="filled",tooltip=" "];
  Node12 -> Node19 [color="midnightblue",fontsize="10",style="solid",fontname="Helvetica"];
  Node19 [label="ESceneNodeAnimatorTypes.h",height=0.2,width=0.4,color="black", fillcolor="white", style="filled",URL="$_e_scene_node_animator_types_8h.html",tooltip=" "];
  Node12 -> Node3 [color="midnightblue",fontsize="10",style="solid",fontname="Helvetica"];
  Node12 -> Node20 [color="midnightblue",fontsize="10",style="solid",fontname="Helvetica"];
  Node20 [label="IEventReceiver.h",height=0.2,width=0.4,color="black", fillcolor="white", style="filled",URL="$_i_event_receiver_8h.html",tooltip=" "];
  Node20 -> Node21 [color="midnightblue",fontsize="10",style="solid",fontname="Helvetica"];
  Node21 [label="ILogger.h",height=0.2,width=0.4,color="black", fillcolor="white", style="filled",URL="$_i_logger_8h.html",tooltip=" "];
  Node21 -> Node4 [color="midnightblue",fontsize="10",style="solid",fontname="Helvetica"];
  Node20 -> Node22 [color="midnightblue",fontsize="10",style="solid",fontname="Helvetica"];
  Node22 [label="Keycodes.h",height=0.2,width=0.4,color="black", fillcolor="white", style="filled",URL="$_keycodes_8h.html",tooltip=" "];
  Node20 -> Node23 [color="midnightblue",fontsize="10",style="solid",fontname="Helvetica"];
  Node23 [label="irrString.h",height=0.2,width=0.4,color="black", fillcolor="white", style="filled",URL="$irr_string_8h.html",tooltip=" "];
  Node23 -> Node5 [color="midnightblue",fontsize="10",style="solid",fontname="Helvetica"];
  Node23 -> Node24 [color="midnightblue",fontsize="10",style="solid",fontname="Helvetica"];
  Node24 [label="irrAllocator.h",height=0.2,width=0.4,color="red", fillcolor="white", style="filled",URL="$irr_allocator_8h.html",tooltip=" "];
  Node24 -> Node5 [color="midnightblue",fontsize="10",style="solid",fontname="Helvetica"];
  Node24 -> Node25 [color="midnightblue",fontsize="10",style="solid",fontname="Helvetica"];
  Node25 [label="new",height=0.2,width=0.4,color="grey75", fillcolor="white", style="filled",tooltip=" "];
  Node23 -> Node14 [color="midnightblue",fontsize="10",style="solid",fontname="Helvetica"];
  Node23 -> Node7 [color="midnightblue",fontsize="10",style="solid",fontname="Helvetica"];
  Node23 -> Node27 [color="midnightblue",fontsize="10",style="solid",fontname="Helvetica"];
  Node27 [label="string.h",height=0.2,width=0.4,color="grey75", fillcolor="white", style="filled",tooltip=" "];
  Node23 -> Node17 [color="midnightblue",fontsize="10",style="solid",fontname="Helvetica"];
  Node2 -> Node28 [color="midnightblue",fontsize="10",style="solid",fontname="Helvetica"];
  Node28 [label="ITriangleSelector.h",height=0.2,width=0.4,color="black", fillcolor="white", style="filled",URL="$_i_triangle_selector_8h.html",tooltip=" "];
  Node28 -> Node4 [color="midnightblue",fontsize="10",style="solid",fontname="Helvetica"];
  Node28 -> Node29 [color="midnightblue",fontsize="10",style="solid",fontname="Helvetica"];
  Node29 [label="triangle3d.h",height=0.2,width=0.4,color="black", fillcolor="white", style="filled",URL="$triangle3d_8h.html",tooltip=" "];
  Node29 -> Node13 [color="midnightblue",fontsize="10",style="solid",fontname="Helvetica"];
  Node29 -> Node30 [color="midnightblue",fontsize="10",style="solid",fontname="Helvetica"];
  Node30 [label="line3d.h",height=0.2,width=0.4,color="black", fillcolor="white", style="filled",URL="$line3d_8h.html",tooltip=" "];
  Node30 -> Node5 [color="midnightblue",fontsize="10",style="solid",fontname="Helvetica"];
  Node30 -> Node13 [color="midnightblue",fontsize="10",style="solid",fontname="Helvetica"];
  Node29 -> Node31 [color="midnightblue",fontsize="10",style="solid",fontname="Helvetica"];
  Node31 [label="plane3d.h",height=0.2,width=0.4,color="black", fillcolor="white", style="filled",URL="$plane3d_8h.html",tooltip=" "];
  Node31 -> Node14 [color="midnightblue",fontsize="10",style="solid",fontname="Helvetica"];
  Node31 -> Node13 [color="midnightblue",fontsize="10",style="solid",fontname="Helvetica"];
  Node29 -> Node32 [color="midnightblue",fontsize="10",style="solid",fontname="Helvetica"];
  Node32 [label="aabbox3d.h",height=0.2,width=0.4,color="black", fillcolor="white", style="filled",URL="$aabbox3d_8h.html",tooltip=" "];
  Node32 -> Node14 [color="midnightblue",fontsize="10",style="solid",fontname="Helvetica"];
  Node32 -> Node31 [color="midnightblue",fontsize="10",style="solid",fontname="Helvetica"];
  Node32 -> Node30 [color="midnightblue",fontsize="10",style="solid",fontname="Helvetica"];
  Node28 -> Node32 [color="midnightblue",fontsize="10",style="solid",fontname="Helvetica"];
  Node28 -> Node33 [color="midnightblue",fontsize="10",style="solid",fontname="Helvetica"];
  Node33 [label="matrix4.h",height=0.2,width=0.4,color="black", fillcolor="white", style="filled",URL="$matrix4_8h.html",tooltip=" "];
  Node33 -> Node14 [color="midnightblue",fontsize="10",style="solid",fontname="Helvetica"];
  Node33 -> Node13 [color="midnightblue",fontsize="10",style="solid",fontname="Helvetica"];
  Node33 -> Node34 [color="midnightblue",fontsize="10",style="solid",fontname="Helvetica"];
  Node34 [label="vector2d.h",height=0.2,width=0.4,color="black", fillcolor="white", style="filled",URL="$vector2d_8h.html",tooltip=" "];
  Node34 -> Node14 [color="midnightblue",fontsize="10",style="solid",fontname="Helvetica"];
  Node34 -> Node35 [color="midnightblue",fontsize="10",style="solid",fontname="Helvetica"];
  Node35 [label="dimension2d.h",height=0.2,width=0.4,color="black", fillcolor="white", style="filled",URL="$dimension2d_8h.html",tooltip=" "];
  Node35 -> Node5 [color="midnightblue",fontsize="10",style="solid",fontname="Helvetica"];
  Node35 -> Node14 [color="midnightblue",fontsize="10",style="solid",fontname="Helvetica"];
  Node33 -> Node31 [color="midnightblue",fontsize="10",style="solid",fontname="Helvetica"];
  Node33 -> Node32 [color="midnightblue",fontsize="10",style="solid",fontname="Helvetica"];
  Node33 -> Node36 [color="midnightblue",fontsize="10",style="solid",fontname="Helvetica"];
  Node36 [label="rect.h",height=0.2,width=0.4,color="black", fillcolor="white", style="filled",URL="$rect_8h.html",tooltip=" "];
  Node36 -> Node5 [color="midnightblue",fontsize="10",style="solid",fontname="Helvetica"];
  Node36 -> Node35 [color="midnightblue",fontsize="10",style="solid",fontname="Helvetica"];
  Node36 -> Node37 [color="midnightblue",fontsize="10",style="solid",fontname="Helvetica"];
  Node37 [label="position2d.h",height=0.2,width=0.4,color="black", fillcolor="white", style="filled",URL="$position2d_8h.html",tooltip=" "];
  Node37 -> Node34 [color="midnightblue",fontsize="10",style="solid",fontname="Helvetica"];
  Node33 -> Node23 [color="midnightblue",fontsize="10",style="solid",fontname="Helvetica"];
  Node28 -> Node30 [color="midnightblue",fontsize="10",style="solid",fontname="Helvetica"];
  Node2 -> Node38 [color="midnightblue",fontsize="10",style="solid",fontname="Helvetica"];
  Node38 [label="SMaterial.h",height=0.2,width=0.4,color="black", fillcolor="white", style="filled",URL="$_s_material_8h.html",tooltip=" "];
  Node38 -> Node39 [color="midnightblue",fontsize="10",style="solid",fontname="Helvetica"];
  Node39 [label="SColor.h",height=0.2,width=0.4,color="black", fillcolor="white", style="filled",URL="$_s_color_8h.html",tooltip=" "];
  Node39 -> Node5 [color="midnightblue",fontsize="10",style="solid",fontname="Helvetica"];
  Node39 -> Node14 [color="midnightblue",fontsize="10",style="solid",fontname="Helvetica"];
  Node38 -> Node33 [color="midnightblue",fontsize="10",style="solid",fontname="Helvetica"];
  Node38 -> Node40 [color="midnightblue",fontsize="10",style="solid",fontname="Helvetica"];
  Node40 [label="irrArray.h",height=0.2,width=0.4,color="black", fillcolor="white", style="filled",URL="$irr_array_8h.html",tooltip=" "];
  Node40 -> Node5 [color="midnightblue",fontsize="10",style="solid",fontname="Helvetica"];
  Node40 -> Node41 [color="midnightblue",fontsize="10",style="solid",fontname="Helvetica"];
  Node41 [label="heapsort.h",height=0.2,width=0.4,color="black", fillcolor="white", style="filled",URL="$heapsort_8h.html",tooltip=" "];
  Node41 -> Node5 [color="midnightblue",fontsize="10",style="solid",fontname="Helvetica"];
  Node40 -> Node24 [color="midnightblue",fontsize="10",style="solid",fontname="Helvetica"];
  Node40 -> Node14 [color="midnightblue",fontsize="10",style="solid",fontname="Helvetica"];
  Node38 -> Node14 [color="midnightblue",fontsize="10",style="solid",fontname="Helvetica"];
  Node38 -> Node42 [color="midnightblue",fontsize="10",style="solid",fontname="Helvetica"];
  Node42 [label="EMaterialTypes.h",height=0.2,width=0.4,color="black", fillcolor="white", style="filled",URL="$_e_material_types_8h.html",tooltip=" "];
  Node38 -> Node43 [color="midnightblue",fontsize="10",style="solid",fontname="Helvetica"];
  Node43 [label="EMaterialFlags.h",height=0.2,width=0.4,color="black", fillcolor="white", style="filled",URL="$_e_material_flags_8h.html",tooltip=" "];
  Node38 -> Node44 [color="midnightblue",fontsize="10",style="solid",fontname="Helvetica"];
  Node44 [label="SMaterialLayer.h",height=0.2,width=0.4,color="black", fillcolor="white", style="filled",URL="$_s_material_layer_8h.html",tooltip=" "];
  Node44 -> Node33 [color="midnightblue",fontsize="10",style="solid",fontname="Helvetica"];
  Node44 -> Node24 [color="midnightblue",fontsize="10",style="solid",fontname="Helvetica"];
  Node2 -> Node23 [color="midnightblue",fontsize="10",style="solid",fontname="Helvetica"];
  Node2 -> Node32 [color="midnightblue",fontsize="10",style="solid",fontname="Helvetica"];
  Node2 -> Node33 [color="midnightblue",fontsize="10",style="solid",fontname="Helvetica"];
  Node2 -> Node45 [color="midnightblue",fontsize="10",style="solid",fontname="Helvetica"];
  Node45 [label="irrList.h",height=0.2,width=0.4,color="black", fillcolor="white", style="filled",URL="$irr_list_8h.html",tooltip=" "];
  Node45 -> Node5 [color="midnightblue",fontsize="10",style="solid",fontname="Helvetica"];
  Node45 -> Node24 [color="midnightblue",fontsize="10",style="solid",fontname="Helvetica"];
  Node45 -> Node14 [color="midnightblue",fontsize="10",style="solid",fontname="Helvetica"];
  Node2 -> Node46 [color="midnightblue",fontsize="10",style="solid",fontname="Helvetica"];
  Node46 [label="IAttributes.h",height=0.2,width=0.4,color="black", fillcolor="white", style="filled",URL="$_i_attributes_8h.html",tooltip=" "];
  Node46 -> Node4 [color="midnightblue",fontsize="10",style="solid",fontname="Helvetica"];
  Node46 -> Node39 [color="midnightblue",fontsize="10",style="solid",fontname="Helvetica"];
  Node46 -> Node13 [color="midnightblue",fontsize="10",style="solid",fontname="Helvetica"];
  Node46 -> Node34 [color="midnightblue",fontsize="10",style="solid",fontname="Helvetica"];
  Node46 -> Node47 [color="midnightblue",fontsize="10",style="solid",fontname="Helvetica"];
  Node47 [label="line2d.h",height=0.2,width=0.4,color="black", fillcolor="white", style="filled",URL="$line2d_8h.html",tooltip=" "];
  Node47 -> Node5 [color="midnightblue",fontsize="10",style="solid",fontname="Helvetica"];
  Node47 -> Node34 [color="midnightblue",fontsize="10",style="solid",fontname="Helvetica"];
  Node46 -> Node30 [color="midnightblue",fontsize="10",style="solid",fontname="Helvetica"];
  Node46 -> Node29 [color="midnightblue",fontsize="10",style="solid",fontname="Helvetica"];
  Node46 -> Node37 [color="midnightblue",fontsize="10",style="solid",fontname="Helvetica"];
  Node46 -> Node36 [color="midnightblue",fontsize="10",style="solid",fontname="Helvetica"];
  Node46 -> Node35 [color="midnightblue",fontsize="10",style="solid",fontname="Helvetica"];
  Node46 -> Node33 [color="midnightblue",fontsize="10",style="solid",fontname="Helvetica"];
  Node46 -> Node48 [color="midnightblue",fontsize="10",style="solid",fontname="Helvetica"];
  Node48 [label="quaternion.h",height=0.2,width=0.4,color="black", fillcolor="white", style="filled",URL="$quaternion_8h.html",tooltip=" "];
  Node48 -> Node5 [color="midnightblue",fontsize="10",style="solid",fontname="Helvetica"];
  Node48 -> Node14 [color="midnightblue",fontsize="10",style="solid",fontname="Helvetica"];
  Node48 -> Node33 [color="midnightblue",fontsize="10",style="solid",fontname="Helvetica"];
  Node48 -> Node13 [color="midnightblue",fontsize="10",style="solid",fontname="Helvetica"];
  Node46 -> Node31 [color="midnightblue",fontsize="10",style="solid",fontname="Helvetica"];
  Node46 -> Node23 [color="midnightblue",fontsize="10",style="solid",fontname="Helvetica"];
  Node46 -> Node40 [color="midnightblue",fontsize="10",style="solid",fontname="Helvetica"];
  Node46 -> Node49 [color="midnightblue",fontsize="10",style="solid",fontname="Helvetica"];
  Node49 [label="IXMLReader.h",height=0.2,width=0.4,color="red", fillcolor="white", style="filled",URL="$_i_x_m_l_reader_8h.html",tooltip=" "];
  Node49 -> Node4 [color="midnightblue",fontsize="10",style="solid",fontname="Helvetica"];
  Node46 -> Node51 [color="midnightblue",fontsize="10",style="solid",fontname="Helvetica"];
  Node51 [label="EAttributes.h",height=0.2,width=0.4,color="black", fillcolor="white", style="filled",URL="$_e_attributes_8h.html",tooltip=" "];
  Node46 -> Node52 [color="midnightblue",fontsize="10",style="solid",fontname="Helvetica"];
  Node52 [label="path.h",height=0.2,width=0.4,color="black", fillcolor="white", style="filled",URL="$path_8h.html",tooltip=" "];
  Node52 -> Node23 [color="midnightblue",fontsize="10",style="solid",fontname="Helvetica"];
}
