digraph "cmake/SFML-2.5.1/include/SFML/Audio/InputSoundFile.hpp"
{
 // LATEX_PDF_SIZE
  edge [fontname="Helvetica",fontsize="10",labelfontname="Helvetica",labelfontsize="10"];
  node [fontname="Helvetica",fontsize="10",shape=record];
  Node1 [label="cmake/SFML-2.5.1/include\l/SFML/Audio/InputSoundFile.hpp",height=0.2,width=0.4,color="black", fillcolor="grey75", style="filled", fontcolor="black",tooltip=" "];
  Node1 -> Node2 [dir="back",color="midnightblue",fontsize="10",style="solid",fontname="Helvetica"];
  Node2 [label="cmake/SFML-2.5.1/include\l/SFML/Audio/Music.hpp",height=0.2,width=0.4,color="black", fillcolor="white", style="filled",URL="$_music_8hpp.html",tooltip=" "];
  Node2 -> Node3 [dir="back",color="midnightblue",fontsize="10",style="solid",fontname="Helvetica"];
  Node3 [label="cmake/SFML-2.5.1/include\l/SFML/Audio.hpp",height=0.2,width=0.4,color="black", fillcolor="white", style="filled",URL="$_audio_8hpp.html",tooltip=" "];
  Node3 -> Node4 [dir="back",color="midnightblue",fontsize="10",style="solid",fontname="Helvetica"];
  Node4 [label="cmake/SFML-2.5.1/examples\l/pong/Pong.cpp",height=0.2,width=0.4,color="black", fillcolor="white", style="filled",URL="$_pong_8cpp.html",tooltip=" "];
  Node3 -> Node5 [dir="back",color="midnightblue",fontsize="10",style="solid",fontname="Helvetica"];
  Node5 [label="cmake/SFML-2.5.1/examples\l/sound/Sound.cpp",height=0.2,width=0.4,color="black", fillcolor="white", style="filled",URL="$_sound_8cpp.html",tooltip=" "];
  Node3 -> Node6 [dir="back",color="midnightblue",fontsize="10",style="solid",fontname="Helvetica"];
  Node6 [label="cmake/SFML-2.5.1/examples\l/sound-capture/SoundCapture.cpp",height=0.2,width=0.4,color="black", fillcolor="white", style="filled",URL="$_sound_capture_8cpp.html",tooltip=" "];
  Node3 -> Node7 [dir="back",color="midnightblue",fontsize="10",style="solid",fontname="Helvetica"];
  Node7 [label="cmake/SFML-2.5.1/examples\l/voip/Client.cpp",height=0.2,width=0.4,color="black", fillcolor="white", style="filled",URL="$_client_8cpp.html",tooltip=" "];
  Node3 -> Node8 [dir="back",color="midnightblue",fontsize="10",style="solid",fontname="Helvetica"];
  Node8 [label="cmake/SFML-2.5.1/examples\l/voip/Server.cpp",height=0.2,width=0.4,color="black", fillcolor="white", style="filled",URL="$_server_8cpp.html",tooltip=" "];
  Node3 -> Node9 [dir="back",color="midnightblue",fontsize="10",style="solid",fontname="Helvetica"];
  Node9 [label="includes/JukeBox/JukeBox.hpp",height=0.2,width=0.4,color="black", fillcolor="white", style="filled",URL="$_juke_box_8hpp.html",tooltip=" "];
  Node9 -> Node10 [dir="back",color="midnightblue",fontsize="10",style="solid",fontname="Helvetica"];
  Node10 [label="includes/Core/Core.hpp",height=0.2,width=0.4,color="black", fillcolor="white", style="filled",URL="$_core_8hpp.html",tooltip=" "];
  Node10 -> Node11 [dir="back",color="midnightblue",fontsize="10",style="solid",fontname="Helvetica"];
  Node11 [label="sources/Core/Core.cpp",height=0.2,width=0.4,color="black", fillcolor="white", style="filled",URL="$_core_8cpp.html",tooltip=" "];
  Node10 -> Node12 [dir="back",color="midnightblue",fontsize="10",style="solid",fontname="Helvetica"];
  Node12 [label="sources/main.cpp",height=0.2,width=0.4,color="black", fillcolor="white", style="filled",URL="$main_8cpp.html",tooltip=" "];
  Node9 -> Node13 [dir="back",color="midnightblue",fontsize="10",style="solid",fontname="Helvetica"];
  Node13 [label="includes/Scenes/GameScene.hpp",height=0.2,width=0.4,color="black", fillcolor="white", style="filled",URL="$_game_scene_8hpp.html",tooltip=" "];
  Node13 -> Node10 [dir="back",color="midnightblue",fontsize="10",style="solid",fontname="Helvetica"];
  Node13 -> Node14 [dir="back",color="midnightblue",fontsize="10",style="solid",fontname="Helvetica"];
  Node14 [label="sources/Scenes/GameScene.cpp",height=0.2,width=0.4,color="black", fillcolor="white", style="filled",URL="$_game_scene_8cpp.html",tooltip=" "];
  Node9 -> Node15 [dir="back",color="midnightblue",fontsize="10",style="solid",fontname="Helvetica"];
  Node15 [label="includes/Scenes/Menu.hpp",height=0.2,width=0.4,color="black", fillcolor="white", style="filled",URL="$_menu_8hpp.html",tooltip=" "];
  Node15 -> Node10 [dir="back",color="midnightblue",fontsize="10",style="solid",fontname="Helvetica"];
  Node15 -> Node16 [dir="back",color="midnightblue",fontsize="10",style="solid",fontname="Helvetica"];
  Node16 [label="sources/Scenes/Menu.cpp",height=0.2,width=0.4,color="black", fillcolor="white", style="filled",URL="$_menu_8cpp.html",tooltip=" "];
  Node9 -> Node17 [dir="back",color="midnightblue",fontsize="10",style="solid",fontname="Helvetica"];
  Node17 [label="includes/Scenes/Options.hpp",height=0.2,width=0.4,color="black", fillcolor="white", style="filled",URL="$_options_8hpp.html",tooltip=" "];
  Node17 -> Node10 [dir="back",color="midnightblue",fontsize="10",style="solid",fontname="Helvetica"];
  Node17 -> Node18 [dir="back",color="midnightblue",fontsize="10",style="solid",fontname="Helvetica"];
  Node18 [label="sources/Scenes/Options.cpp",height=0.2,width=0.4,color="black", fillcolor="white", style="filled",URL="$_options_8cpp.html",tooltip=" "];
  Node9 -> Node19 [dir="back",color="midnightblue",fontsize="10",style="solid",fontname="Helvetica"];
  Node19 [label="includes/Scenes/SelectPlayer.hpp",height=0.2,width=0.4,color="black", fillcolor="white", style="filled",URL="$_select_player_8hpp.html",tooltip=" "];
  Node19 -> Node10 [dir="back",color="midnightblue",fontsize="10",style="solid",fontname="Helvetica"];
  Node19 -> Node20 [dir="back",color="midnightblue",fontsize="10",style="solid",fontname="Helvetica"];
  Node20 [label="sources/Scenes/SelectPlayer.cpp",height=0.2,width=0.4,color="black", fillcolor="white", style="filled",URL="$_select_player_8cpp.html",tooltip=" "];
  Node9 -> Node21 [dir="back",color="midnightblue",fontsize="10",style="solid",fontname="Helvetica"];
  Node21 [label="includes/Scenes/SelectSave.hpp",height=0.2,width=0.4,color="black", fillcolor="white", style="filled",URL="$_select_save_8hpp.html",tooltip=" "];
  Node21 -> Node10 [dir="back",color="midnightblue",fontsize="10",style="solid",fontname="Helvetica"];
  Node21 -> Node22 [dir="back",color="midnightblue",fontsize="10",style="solid",fontname="Helvetica"];
  Node22 [label="sources/Scenes/SelectSave.cpp",height=0.2,width=0.4,color="black", fillcolor="white", style="filled",URL="$_select_save_8cpp.html",tooltip=" "];
  Node9 -> Node23 [dir="back",color="midnightblue",fontsize="10",style="solid",fontname="Helvetica"];
  Node23 [label="includes/Scenes/Title.hpp",height=0.2,width=0.4,color="black", fillcolor="white", style="filled",URL="$_title_8hpp.html",tooltip=" "];
  Node23 -> Node10 [dir="back",color="midnightblue",fontsize="10",style="solid",fontname="Helvetica"];
  Node23 -> Node24 [dir="back",color="midnightblue",fontsize="10",style="solid",fontname="Helvetica"];
  Node24 [label="sources/Scenes/Title.cpp",height=0.2,width=0.4,color="black", fillcolor="white", style="filled",URL="$_title_8cpp.html",tooltip=" "];
  Node9 -> Node25 [dir="back",color="midnightblue",fontsize="10",style="solid",fontname="Helvetica"];
  Node25 [label="sources/JukeBox/JukeBox.cpp",height=0.2,width=0.4,color="black", fillcolor="white", style="filled",URL="$_juke_box_8cpp.html",tooltip=" "];
  Node1 -> Node3 [dir="back",color="midnightblue",fontsize="10",style="solid",fontname="Helvetica"];
}
