digraph "getMoisture"
{
 // LATEX_PDF_SIZE
  edge [fontname="Helvetica",fontsize="10",labelfontname="Helvetica",labelfontsize="10"];
  node [fontname="Helvetica",fontsize="10",shape=record];
  rankdir="RL";
  Node1 [label="getMoisture",height=0.2,width=0.4,color="black", fillcolor="grey75", style="filled", fontcolor="black",tooltip=" "];
  Node1 -> Node2 [dir="back",color="midnightblue",fontsize="10",style="solid",fontname="Helvetica"];
  Node2 [label="processWorkItem",height=0.2,width=0.4,color="black", fillcolor="white", style="filled",URL="$_island_8cpp.html#ae562e6fdcd2292b778c8b88369c9290d",tooltip=" "];
  Node2 -> Node3 [dir="back",color="midnightblue",fontsize="10",style="solid",fontname="Helvetica"];
  Node3 [label="threadFunction",height=0.2,width=0.4,color="black", fillcolor="white", style="filled",URL="$_island_8cpp.html#a58030615808181acc26b9ea47e0405ef",tooltip=" "];
  Node3 -> Node4 [dir="back",color="midnightblue",fontsize="10",style="solid",fontname="Helvetica"];
  Node4 [label="main",height=0.2,width=0.4,color="black", fillcolor="white", style="filled",URL="$_island_8cpp.html#ae66f6b31b5ad750f1fe042a706a4e3d4",tooltip=" "];
}
