digraph "generateTerrain"
{
 // LATEX_PDF_SIZE
  edge [fontname="Helvetica",fontsize="10",labelfontname="Helvetica",labelfontsize="10"];
  node [fontname="Helvetica",fontsize="10",shape=record];
  rankdir="LR";
  Node1 [label="generateTerrain",height=0.2,width=0.4,color="black", fillcolor="grey75", style="filled", fontcolor="black",tooltip=" "];
  Node1 -> Node2 [color="midnightblue",fontsize="10",style="solid",fontname="Helvetica"];
  Node2 [label="sf::sleep",height=0.2,width=0.4,color="black", fillcolor="white", style="filled",URL="$group__system.html#ga2f2620831533dee0ed432ed982342e09",tooltip="Make the current thread sleep for a given duration."];
}
