digraph "getHighlandsTerrainColor"
{
 // LATEX_PDF_SIZE
  edge [fontname="Helvetica",fontsize="10",labelfontname="Helvetica",labelfontsize="10"];
  node [fontname="Helvetica",fontsize="10",shape=record];
  rankdir="RL";
  Node1 [label="getHighlandsTerrainColor",height=0.2,width=0.4,color="black", fillcolor="grey75", style="filled", fontcolor="black",tooltip=" "];
  Node1 -> Node2 [dir="back",color="midnightblue",fontsize="10",style="solid",fontname="Helvetica"];
  Node2 [label="getSnowcapTerrainColor",height=0.2,width=0.4,color="black", fillcolor="white", style="filled",URL="$_island_8cpp.html#a44ec648e02c291ec5ed3779cbdbd9c92",tooltip=" "];
  Node2 -> Node3 [dir="back",color="midnightblue",fontsize="10",style="solid",fontname="Helvetica"];
  Node3 [label="getTerrainColor",height=0.2,width=0.4,color="black", fillcolor="white", style="filled",URL="$_island_8cpp.html#a1ad42f0af617e224034fd49c16c47927",tooltip=" "];
  Node3 -> Node4 [dir="back",color="midnightblue",fontsize="10",style="solid",fontname="Helvetica"];
  Node4 [label="processWorkItem",height=0.2,width=0.4,color="black", fillcolor="white", style="filled",URL="$_island_8cpp.html#ae562e6fdcd2292b778c8b88369c9290d",tooltip=" "];
  Node4 -> Node5 [dir="back",color="midnightblue",fontsize="10",style="solid",fontname="Helvetica"];
  Node5 [label="threadFunction",height=0.2,width=0.4,color="black", fillcolor="white", style="filled",URL="$_island_8cpp.html#a58030615808181acc26b9ea47e0405ef",tooltip=" "];
  Node5 -> Node6 [dir="back",color="midnightblue",fontsize="10",style="solid",fontname="Helvetica"];
  Node6 [label="main",height=0.2,width=0.4,color="black", fillcolor="white", style="filled",URL="$_island_8cpp.html#ae66f6b31b5ad750f1fe042a706a4e3d4",tooltip=" "];
  Node1 -> Node3 [dir="back",color="midnightblue",fontsize="10",style="solid",fontname="Helvetica"];
}
