digraph "sources/GameObjects/Map.cpp"
{
 // LATEX_PDF_SIZE
  edge [fontname="Helvetica",fontsize="10",labelfontname="Helvetica",labelfontsize="10"];
  node [fontname="Helvetica",fontsize="10",shape=record];
  Node1 [label="sources/GameObjects\l/Map.cpp",height=0.2,width=0.4,color="black", fillcolor="grey75", style="filled", fontcolor="black",tooltip=" "];
  Node1 -> Node2 [color="midnightblue",fontsize="10",style="solid",fontname="Helvetica"];
  Node2 [label="Map.hpp",height=0.2,width=0.4,color="black", fillcolor="white", style="filled",URL="$_map_8hpp.html",tooltip=" "];
  Node2 -> Node3 [color="midnightblue",fontsize="10",style="solid",fontname="Helvetica"];
  Node3 [label="Block.hpp",height=0.2,width=0.4,color="black", fillcolor="white", style="filled",URL="$_block_8hpp.html",tooltip=" "];
  Node3 -> Node4 [color="midnightblue",fontsize="10",style="solid",fontname="Helvetica"];
  Node4 [label="Entity.hpp",height=0.2,width=0.4,color="black", fillcolor="white", style="filled",URL="$_entity_8hpp.html",tooltip=" "];
  Node4 -> Node5 [color="midnightblue",fontsize="10",style="solid",fontname="Helvetica"];
  Node5 [label="vector",height=0.2,width=0.4,color="grey75", fillcolor="white", style="filled",tooltip=" "];
  Node4 -> Node6 [color="midnightblue",fontsize="10",style="solid",fontname="Helvetica"];
  Node6 [label="map",height=0.2,width=0.4,color="grey75", fillcolor="white", style="filled",tooltip=" "];
  Node4 -> Node7 [color="midnightblue",fontsize="10",style="solid",fontname="Helvetica"];
  Node7 [label="memory",height=0.2,width=0.4,color="grey75", fillcolor="white", style="filled",tooltip=" "];
  Node4 -> Node8 [color="midnightblue",fontsize="10",style="solid",fontname="Helvetica"];
  Node8 [label="../components/Component.hpp",height=0.2,width=0.4,color="black", fillcolor="white", style="filled",URL="$_component_8hpp.html",tooltip=" "];
  Node4 -> Node9 [color="midnightblue",fontsize="10",style="solid",fontname="Helvetica"];
  Node9 [label="../ID/ID.hpp",height=0.2,width=0.4,color="black", fillcolor="white", style="filled",URL="$_i_d_8hpp.html",tooltip=" "];
  Node3 -> Node10 [color="midnightblue",fontsize="10",style="solid",fontname="Helvetica"];
  Node10 [label="PositionComponent.hpp",height=0.2,width=0.4,color="black", fillcolor="white", style="filled",URL="$_position_component_8hpp.html",tooltip=" "];
  Node10 -> Node8 [color="midnightblue",fontsize="10",style="solid",fontname="Helvetica"];
  Node3 -> Node11 [color="midnightblue",fontsize="10",style="solid",fontname="Helvetica"];
  Node11 [label="TextureComponent.hpp",height=0.2,width=0.4,color="black", fillcolor="white", style="filled",URL="$_texture_component_8hpp.html",tooltip=" "];
  Node11 -> Node12 [color="midnightblue",fontsize="10",style="solid",fontname="Helvetica"];
  Node12 [label="irrlicht.h",height=0.2,width=0.4,color="red", fillcolor="white", style="filled",URL="$irrlicht_8h.html",tooltip="Main header file of the irrlicht, the only file needed to include."];
  Node12 -> Node13 [color="midnightblue",fontsize="10",style="solid",fontname="Helvetica"];
  Node13 [label="IrrCompileConfig.h",height=0.2,width=0.4,color="red", fillcolor="white", style="filled",URL="$_irr_compile_config_8h.html",tooltip=" "];
  Node12 -> Node15 [color="midnightblue",fontsize="10",style="solid",fontname="Helvetica"];
  Node15 [label="aabbox3d.h",height=0.2,width=0.4,color="red", fillcolor="white", style="filled",URL="$aabbox3d_8h.html",tooltip=" "];
  Node12 -> Node26 [color="midnightblue",fontsize="10",style="solid",fontname="Helvetica"];
  Node26 [label="CDynamicMeshBuffer.h",height=0.2,width=0.4,color="red", fillcolor="white", style="filled",URL="$_c_dynamic_mesh_buffer_8h.html",tooltip=" "];
  Node26 -> Node53 [color="midnightblue",fontsize="10",style="solid",fontname="Helvetica"];
  Node53 [label="CVertexBuffer.h",height=0.2,width=0.4,color="red", fillcolor="white", style="filled",URL="$_c_vertex_buffer_8h.html",tooltip=" "];
  Node26 -> Node54 [color="midnightblue",fontsize="10",style="solid",fontname="Helvetica"];
  Node54 [label="CIndexBuffer.h",height=0.2,width=0.4,color="red", fillcolor="white", style="filled",URL="$_c_index_buffer_8h.html",tooltip=" "];
  Node12 -> Node54 [color="midnightblue",fontsize="10",style="solid",fontname="Helvetica"];
  Node12 -> Node55 [color="midnightblue",fontsize="10",style="solid",fontname="Helvetica"];
  Node55 [label="CMeshBuffer.h",height=0.2,width=0.4,color="red", fillcolor="white", style="filled",URL="$_c_mesh_buffer_8h.html",tooltip=" "];
  Node12 -> Node56 [color="midnightblue",fontsize="10",style="solid",fontname="Helvetica"];
  Node56 [label="coreutil.h",height=0.2,width=0.4,color="red", fillcolor="white", style="filled",URL="$coreutil_8h.html",tooltip="File containing useful basic utility functions."];
  Node12 -> Node53 [color="midnightblue",fontsize="10",style="solid",fontname="Helvetica"];
  Node12 -> Node34 [color="midnightblue",fontsize="10",style="solid",fontname="Helvetica"];
  Node34 [label="dimension2d.h",height=0.2,width=0.4,color="red", fillcolor="white", style="filled",URL="$dimension2d_8h.html",tooltip=" "];
  Node12 -> Node58 [color="midnightblue",fontsize="10",style="solid",fontname="Helvetica"];
  Node58 [label="ECullingTypes.h",height=0.2,width=0.4,color="red", fillcolor="white", style="filled",URL="$_e_culling_types_8h.html",tooltip=" "];
  Node12 -> Node59 [color="midnightblue",fontsize="10",style="solid",fontname="Helvetica"];
  Node59 [label="EDebugSceneTypes.h",height=0.2,width=0.4,color="black", fillcolor="white", style="filled",URL="$_e_debug_scene_types_8h.html",tooltip=" "];
  Node12 -> Node60 [color="midnightblue",fontsize="10",style="solid",fontname="Helvetica"];
  Node60 [label="EDriverFeatures.h",height=0.2,width=0.4,color="black", fillcolor="white", style="filled",URL="$_e_driver_features_8h.html",tooltip=" "];
  Node12 -> Node61 [color="midnightblue",fontsize="10",style="solid",fontname="Helvetica"];
  Node61 [label="EDriverTypes.h",height=0.2,width=0.4,color="black", fillcolor="white", style="filled",URL="$_e_driver_types_8h.html",tooltip=" "];
  Node12 -> Node62 [color="midnightblue",fontsize="10",style="solid",fontname="Helvetica"];
  Node62 [label="EGUIAlignment.h",height=0.2,width=0.4,color="black", fillcolor="white", style="filled",URL="$_e_g_u_i_alignment_8h.html",tooltip=" "];
  Node12 -> Node63 [color="midnightblue",fontsize="10",style="solid",fontname="Helvetica"];
  Node63 [label="EGUIElementTypes.h",height=0.2,width=0.4,color="red", fillcolor="white", style="filled",URL="$_e_g_u_i_element_types_8h.html",tooltip=" "];
  Node12 -> Node49 [color="midnightblue",fontsize="10",style="solid",fontname="Helvetica"];
  Node49 [label="EHardwareBufferFlags.h",height=0.2,width=0.4,color="black", fillcolor="white", style="filled",URL="$_e_hardware_buffer_flags_8h.html",tooltip=" "];
  Node12 -> Node45 [color="midnightblue",fontsize="10",style="solid",fontname="Helvetica"];
  Node45 [label="EMaterialFlags.h",height=0.2,width=0.4,color="black", fillcolor="white", style="filled",URL="$_e_material_flags_8h.html",tooltip=" "];
  Node12 -> Node44 [color="midnightblue",fontsize="10",style="solid",fontname="Helvetica"];
  Node44 [label="EMaterialTypes.h",height=0.2,width=0.4,color="black", fillcolor="white", style="filled",URL="$_e_material_types_8h.html",tooltip=" "];
  Node12 -> Node64 [color="midnightblue",fontsize="10",style="solid",fontname="Helvetica"];
  Node64 [label="EMeshWriterEnums.h",height=0.2,width=0.4,color="red", fillcolor="white", style="filled",URL="$_e_mesh_writer_enums_8h.html",tooltip=" "];
  Node12 -> Node65 [color="midnightblue",fontsize="10",style="solid",fontname="Helvetica"];
  Node65 [label="EMessageBoxFlags.h",height=0.2,width=0.4,color="black", fillcolor="white", style="filled",URL="$_e_message_box_flags_8h.html",tooltip=" "];
  Node12 -> Node66 [color="midnightblue",fontsize="10",style="solid",fontname="Helvetica"];
  Node66 [label="ESceneNodeAnimatorTypes.h",height=0.2,width=0.4,color="black", fillcolor="white", style="filled",URL="$_e_scene_node_animator_types_8h.html",tooltip=" "];
  Node12 -> Node67 [color="midnightblue",fontsize="10",style="solid",fontname="Helvetica"];
  Node67 [label="ESceneNodeTypes.h",height=0.2,width=0.4,color="red", fillcolor="white", style="filled",URL="$_e_scene_node_types_8h.html",tooltip=" "];
  Node12 -> Node68 [color="midnightblue",fontsize="10",style="solid",fontname="Helvetica"];
  Node68 [label="ETerrainElements.h",height=0.2,width=0.4,color="black", fillcolor="white", style="filled",URL="$_e_terrain_elements_8h.html",tooltip=" "];
  Node12 -> Node69 [color="midnightblue",fontsize="10",style="solid",fontname="Helvetica"];
  Node69 [label="fast_atof.h",height=0.2,width=0.4,color="red", fillcolor="white", style="filled",URL="$fast__atof_8h.html",tooltip=" "];
  Node12 -> Node43 [color="midnightblue",fontsize="10",style="solid",fontname="Helvetica"];
  Node43 [label="heapsort.h",height=0.2,width=0.4,color="red", fillcolor="white", style="filled",URL="$heapsort_8h.html",tooltip=" "];
  Node12 -> Node70 [color="midnightblue",fontsize="10",style="solid",fontname="Helvetica"];
  Node70 [label="IAnimatedMesh.h",height=0.2,width=0.4,color="red", fillcolor="white", style="filled",URL="$_i_animated_mesh_8h.html",tooltip=" "];
  Node70 -> Node15 [color="midnightblue",fontsize="10",style="solid",fontname="Helvetica"];
  Node12 -> Node72 [color="midnightblue",fontsize="10",style="solid",fontname="Helvetica"];
  Node72 [label="IAnimatedMeshMD2.h",height=0.2,width=0.4,color="black", fillcolor="white", style="filled",URL="$_i_animated_mesh_m_d2_8h.html",tooltip=" "];
  Node72 -> Node70 [color="midnightblue",fontsize="10",style="solid",fontname="Helvetica"];
  Node12 -> Node73 [color="midnightblue",fontsize="10",style="solid",fontname="Helvetica"];
  Node73 [label="IAnimatedMeshMD3.h",height=0.2,width=0.4,color="red", fillcolor="white", style="filled",URL="$_i_animated_mesh_m_d3_8h.html",tooltip=" "];
  Node73 -> Node70 [color="midnightblue",fontsize="10",style="solid",fontname="Helvetica"];
  Node12 -> Node89 [color="midnightblue",fontsize="10",style="solid",fontname="Helvetica"];
  Node89 [label="IAnimatedMeshSceneNode.h",height=0.2,width=0.4,color="red", fillcolor="white", style="filled",URL="$_i_animated_mesh_scene_node_8h.html",tooltip=" "];
  Node89 -> Node72 [color="midnightblue",fontsize="10",style="solid",fontname="Helvetica"];
  Node89 -> Node73 [color="midnightblue",fontsize="10",style="solid",fontname="Helvetica"];
  Node12 -> Node91 [color="midnightblue",fontsize="10",style="solid",fontname="Helvetica"];
  Node91 [label="IAttributeExchangingObject.h",height=0.2,width=0.4,color="red", fillcolor="white", style="filled",URL="$_i_attribute_exchanging_object_8h.html",tooltip=" "];
  Node11 -> Node202 [color="midnightblue",fontsize="10",style="solid",fontname="Helvetica"];
  Node202 [label="iostream",height=0.2,width=0.4,color="grey75", fillcolor="white", style="filled",tooltip=" "];
  Node11 -> Node8 [color="midnightblue",fontsize="10",style="solid",fontname="Helvetica"];
  Node11 -> Node203 [color="midnightblue",fontsize="10",style="solid",fontname="Helvetica"];
  Node203 [label="TextureError.hpp",height=0.2,width=0.4,color="red", fillcolor="white", style="filled",URL="$_texture_error_8hpp.html",tooltip=" "];
  Node3 -> Node207 [color="midnightblue",fontsize="10",style="solid",fontname="Helvetica"];
  Node207 [label="ColliderComponent.hpp",height=0.2,width=0.4,color="black", fillcolor="white", style="filled",URL="$_collider_component_8hpp.html",tooltip=" "];
  Node207 -> Node8 [color="midnightblue",fontsize="10",style="solid",fontname="Helvetica"];
  Node3 -> Node208 [color="midnightblue",fontsize="10",style="solid",fontname="Helvetica"];
  Node208 [label="CubeComponent.hpp",height=0.2,width=0.4,color="black", fillcolor="white", style="filled",URL="$_cube_component_8hpp.html",tooltip=" "];
  Node208 -> Node12 [color="midnightblue",fontsize="10",style="solid",fontname="Helvetica"];
  Node208 -> Node202 [color="midnightblue",fontsize="10",style="solid",fontname="Helvetica"];
  Node208 -> Node4 [color="midnightblue",fontsize="10",style="solid",fontname="Helvetica"];
  Node208 -> Node8 [color="midnightblue",fontsize="10",style="solid",fontname="Helvetica"];
  Node2 -> Node209 [color="midnightblue",fontsize="10",style="solid",fontname="Helvetica"];
  Node209 [label="map_tools.hpp",height=0.2,width=0.4,color="black", fillcolor="white", style="filled",URL="$map__tools_8hpp.html",tooltip=" "];
  Node209 -> Node210 [color="midnightblue",fontsize="10",style="solid",fontname="Helvetica"];
  Node210 [label="fstream",height=0.2,width=0.4,color="grey75", fillcolor="white", style="filled",tooltip=" "];
  Node209 -> Node5 [color="midnightblue",fontsize="10",style="solid",fontname="Helvetica"];
  Node2 -> Node211 [color="midnightblue",fontsize="10",style="solid",fontname="Helvetica"];
  Node211 [label="algorithm",height=0.2,width=0.4,color="grey75", fillcolor="white", style="filled",tooltip=" "];
  Node1 -> Node3 [color="midnightblue",fontsize="10",style="solid",fontname="Helvetica"];
  Node1 -> Node212 [color="midnightblue",fontsize="10",style="solid",fontname="Helvetica"];
  Node212 [label="Wall.hpp",height=0.2,width=0.4,color="black", fillcolor="white", style="filled",URL="$_wall_8hpp.html",tooltip=" "];
  Node212 -> Node3 [color="midnightblue",fontsize="10",style="solid",fontname="Helvetica"];
  Node1 -> Node213 [color="midnightblue",fontsize="10",style="solid",fontname="Helvetica"];
  Node213 [label="Crate.hpp",height=0.2,width=0.4,color="black", fillcolor="white", style="filled",URL="$_crate_8hpp.html",tooltip=" "];
  Node213 -> Node3 [color="midnightblue",fontsize="10",style="solid",fontname="Helvetica"];
  Node1 -> Node202 [color="midnightblue",fontsize="10",style="solid",fontname="Helvetica"];
}
