digraph "includes/Factories/ECS/entities/Perso.hpp"
{
 // LATEX_PDF_SIZE
  edge [fontname="Helvetica",fontsize="10",labelfontname="Helvetica",labelfontsize="10"];
  node [fontname="Helvetica",fontsize="10",shape=record];
  Node1 [label="includes/Factories\l/ECS/entities/Perso.hpp",height=0.2,width=0.4,color="black", fillcolor="grey75", style="filled", fontcolor="black",tooltip=" "];
  Node1 -> Node2 [color="midnightblue",fontsize="10",style="solid",fontname="Helvetica"];
  Node2 [label="vector",height=0.2,width=0.4,color="grey75", fillcolor="white", style="filled",tooltip=" "];
  Node1 -> Node3 [color="midnightblue",fontsize="10",style="solid",fontname="Helvetica"];
  Node3 [label="algorithm",height=0.2,width=0.4,color="grey75", fillcolor="white", style="filled",tooltip=" "];
  Node1 -> Node4 [color="midnightblue",fontsize="10",style="solid",fontname="Helvetica"];
  Node4 [label="ColliderComponent.hpp",height=0.2,width=0.4,color="black", fillcolor="white", style="filled",URL="$_collider_component_8hpp.html",tooltip=" "];
  Node4 -> Node5 [color="midnightblue",fontsize="10",style="solid",fontname="Helvetica"];
  Node5 [label="Component.hpp",height=0.2,width=0.4,color="black", fillcolor="white", style="filled",URL="$_component_8hpp.html",tooltip=" "];
  Node1 -> Node6 [color="midnightblue",fontsize="10",style="solid",fontname="Helvetica"];
  Node6 [label="NameComponent.hpp",height=0.2,width=0.4,color="black", fillcolor="white", style="filled",URL="$_name_component_8hpp.html",tooltip=" "];
  Node6 -> Node7 [color="midnightblue",fontsize="10",style="solid",fontname="Helvetica"];
  Node7 [label="string",height=0.2,width=0.4,color="grey75", fillcolor="white", style="filled",tooltip=" "];
  Node6 -> Node5 [color="midnightblue",fontsize="10",style="solid",fontname="Helvetica"];
  Node1 -> Node8 [color="midnightblue",fontsize="10",style="solid",fontname="Helvetica"];
  Node8 [label="PositionComponent.hpp",height=0.2,width=0.4,color="black", fillcolor="white", style="filled",URL="$_position_component_8hpp.html",tooltip=" "];
  Node8 -> Node5 [color="midnightblue",fontsize="10",style="solid",fontname="Helvetica"];
  Node1 -> Node9 [color="midnightblue",fontsize="10",style="solid",fontname="Helvetica"];
  Node9 [label="MeshComponent.hpp",height=0.2,width=0.4,color="black", fillcolor="white", style="filled",URL="$_mesh_component_8hpp.html",tooltip=" "];
  Node9 -> Node10 [color="midnightblue",fontsize="10",style="solid",fontname="Helvetica"];
  Node10 [label="irrlicht.h",height=0.2,width=0.4,color="red", fillcolor="white", style="filled",URL="$irrlicht_8h.html",tooltip="Main header file of the irrlicht, the only file needed to include."];
  Node10 -> Node11 [color="midnightblue",fontsize="10",style="solid",fontname="Helvetica"];
  Node11 [label="IrrCompileConfig.h",height=0.2,width=0.4,color="red", fillcolor="white", style="filled",URL="$_irr_compile_config_8h.html",tooltip=" "];
  Node10 -> Node13 [color="midnightblue",fontsize="10",style="solid",fontname="Helvetica"];
  Node13 [label="aabbox3d.h",height=0.2,width=0.4,color="red", fillcolor="white", style="filled",URL="$aabbox3d_8h.html",tooltip=" "];
  Node10 -> Node24 [color="midnightblue",fontsize="10",style="solid",fontname="Helvetica"];
  Node24 [label="CDynamicMeshBuffer.h",height=0.2,width=0.4,color="red", fillcolor="white", style="filled",URL="$_c_dynamic_mesh_buffer_8h.html",tooltip=" "];
  Node24 -> Node51 [color="midnightblue",fontsize="10",style="solid",fontname="Helvetica"];
  Node51 [label="CVertexBuffer.h",height=0.2,width=0.4,color="red", fillcolor="white", style="filled",URL="$_c_vertex_buffer_8h.html",tooltip=" "];
  Node24 -> Node52 [color="midnightblue",fontsize="10",style="solid",fontname="Helvetica"];
  Node52 [label="CIndexBuffer.h",height=0.2,width=0.4,color="red", fillcolor="white", style="filled",URL="$_c_index_buffer_8h.html",tooltip=" "];
  Node10 -> Node52 [color="midnightblue",fontsize="10",style="solid",fontname="Helvetica"];
  Node10 -> Node53 [color="midnightblue",fontsize="10",style="solid",fontname="Helvetica"];
  Node53 [label="CMeshBuffer.h",height=0.2,width=0.4,color="red", fillcolor="white", style="filled",URL="$_c_mesh_buffer_8h.html",tooltip=" "];
  Node10 -> Node54 [color="midnightblue",fontsize="10",style="solid",fontname="Helvetica"];
  Node54 [label="coreutil.h",height=0.2,width=0.4,color="red", fillcolor="white", style="filled",URL="$coreutil_8h.html",tooltip="File containing useful basic utility functions."];
  Node10 -> Node51 [color="midnightblue",fontsize="10",style="solid",fontname="Helvetica"];
  Node10 -> Node32 [color="midnightblue",fontsize="10",style="solid",fontname="Helvetica"];
  Node32 [label="dimension2d.h",height=0.2,width=0.4,color="red", fillcolor="white", style="filled",URL="$dimension2d_8h.html",tooltip=" "];
  Node10 -> Node56 [color="midnightblue",fontsize="10",style="solid",fontname="Helvetica"];
  Node56 [label="ECullingTypes.h",height=0.2,width=0.4,color="red", fillcolor="white", style="filled",URL="$_e_culling_types_8h.html",tooltip=" "];
  Node10 -> Node57 [color="midnightblue",fontsize="10",style="solid",fontname="Helvetica"];
  Node57 [label="EDebugSceneTypes.h",height=0.2,width=0.4,color="black", fillcolor="white", style="filled",URL="$_e_debug_scene_types_8h.html",tooltip=" "];
  Node10 -> Node58 [color="midnightblue",fontsize="10",style="solid",fontname="Helvetica"];
  Node58 [label="EDriverFeatures.h",height=0.2,width=0.4,color="black", fillcolor="white", style="filled",URL="$_e_driver_features_8h.html",tooltip=" "];
  Node10 -> Node59 [color="midnightblue",fontsize="10",style="solid",fontname="Helvetica"];
  Node59 [label="EDriverTypes.h",height=0.2,width=0.4,color="black", fillcolor="white", style="filled",URL="$_e_driver_types_8h.html",tooltip=" "];
  Node10 -> Node60 [color="midnightblue",fontsize="10",style="solid",fontname="Helvetica"];
  Node60 [label="EGUIAlignment.h",height=0.2,width=0.4,color="black", fillcolor="white", style="filled",URL="$_e_g_u_i_alignment_8h.html",tooltip=" "];
  Node10 -> Node61 [color="midnightblue",fontsize="10",style="solid",fontname="Helvetica"];
  Node61 [label="EGUIElementTypes.h",height=0.2,width=0.4,color="red", fillcolor="white", style="filled",URL="$_e_g_u_i_element_types_8h.html",tooltip=" "];
  Node10 -> Node47 [color="midnightblue",fontsize="10",style="solid",fontname="Helvetica"];
  Node47 [label="EHardwareBufferFlags.h",height=0.2,width=0.4,color="black", fillcolor="white", style="filled",URL="$_e_hardware_buffer_flags_8h.html",tooltip=" "];
  Node10 -> Node43 [color="midnightblue",fontsize="10",style="solid",fontname="Helvetica"];
  Node43 [label="EMaterialFlags.h",height=0.2,width=0.4,color="black", fillcolor="white", style="filled",URL="$_e_material_flags_8h.html",tooltip=" "];
  Node10 -> Node42 [color="midnightblue",fontsize="10",style="solid",fontname="Helvetica"];
  Node42 [label="EMaterialTypes.h",height=0.2,width=0.4,color="black", fillcolor="white", style="filled",URL="$_e_material_types_8h.html",tooltip=" "];
  Node10 -> Node62 [color="midnightblue",fontsize="10",style="solid",fontname="Helvetica"];
  Node62 [label="EMeshWriterEnums.h",height=0.2,width=0.4,color="red", fillcolor="white", style="filled",URL="$_e_mesh_writer_enums_8h.html",tooltip=" "];
  Node10 -> Node63 [color="midnightblue",fontsize="10",style="solid",fontname="Helvetica"];
  Node63 [label="EMessageBoxFlags.h",height=0.2,width=0.4,color="black", fillcolor="white", style="filled",URL="$_e_message_box_flags_8h.html",tooltip=" "];
  Node10 -> Node64 [color="midnightblue",fontsize="10",style="solid",fontname="Helvetica"];
  Node64 [label="ESceneNodeAnimatorTypes.h",height=0.2,width=0.4,color="black", fillcolor="white", style="filled",URL="$_e_scene_node_animator_types_8h.html",tooltip=" "];
  Node10 -> Node65 [color="midnightblue",fontsize="10",style="solid",fontname="Helvetica"];
  Node65 [label="ESceneNodeTypes.h",height=0.2,width=0.4,color="red", fillcolor="white", style="filled",URL="$_e_scene_node_types_8h.html",tooltip=" "];
  Node10 -> Node66 [color="midnightblue",fontsize="10",style="solid",fontname="Helvetica"];
  Node66 [label="ETerrainElements.h",height=0.2,width=0.4,color="black", fillcolor="white", style="filled",URL="$_e_terrain_elements_8h.html",tooltip=" "];
  Node10 -> Node67 [color="midnightblue",fontsize="10",style="solid",fontname="Helvetica"];
  Node67 [label="fast_atof.h",height=0.2,width=0.4,color="red", fillcolor="white", style="filled",URL="$fast__atof_8h.html",tooltip=" "];
  Node10 -> Node41 [color="midnightblue",fontsize="10",style="solid",fontname="Helvetica"];
  Node41 [label="heapsort.h",height=0.2,width=0.4,color="red", fillcolor="white", style="filled",URL="$heapsort_8h.html",tooltip=" "];
  Node10 -> Node68 [color="midnightblue",fontsize="10",style="solid",fontname="Helvetica"];
  Node68 [label="IAnimatedMesh.h",height=0.2,width=0.4,color="red", fillcolor="white", style="filled",URL="$_i_animated_mesh_8h.html",tooltip=" "];
  Node68 -> Node13 [color="midnightblue",fontsize="10",style="solid",fontname="Helvetica"];
  Node10 -> Node70 [color="midnightblue",fontsize="10",style="solid",fontname="Helvetica"];
  Node70 [label="IAnimatedMeshMD2.h",height=0.2,width=0.4,color="black", fillcolor="white", style="filled",URL="$_i_animated_mesh_m_d2_8h.html",tooltip=" "];
  Node70 -> Node68 [color="midnightblue",fontsize="10",style="solid",fontname="Helvetica"];
  Node10 -> Node71 [color="midnightblue",fontsize="10",style="solid",fontname="Helvetica"];
  Node71 [label="IAnimatedMeshMD3.h",height=0.2,width=0.4,color="red", fillcolor="white", style="filled",URL="$_i_animated_mesh_m_d3_8h.html",tooltip=" "];
  Node71 -> Node68 [color="midnightblue",fontsize="10",style="solid",fontname="Helvetica"];
  Node10 -> Node87 [color="midnightblue",fontsize="10",style="solid",fontname="Helvetica"];
  Node87 [label="IAnimatedMeshSceneNode.h",height=0.2,width=0.4,color="red", fillcolor="white", style="filled",URL="$_i_animated_mesh_scene_node_8h.html",tooltip=" "];
  Node87 -> Node70 [color="midnightblue",fontsize="10",style="solid",fontname="Helvetica"];
  Node87 -> Node71 [color="midnightblue",fontsize="10",style="solid",fontname="Helvetica"];
  Node9 -> Node200 [color="midnightblue",fontsize="10",style="solid",fontname="Helvetica"];
  Node200 [label="iostream",height=0.2,width=0.4,color="grey75", fillcolor="white", style="filled",tooltip=" "];
  Node9 -> Node201 [color="midnightblue",fontsize="10",style="solid",fontname="Helvetica"];
  Node201 [label="Entity.hpp",height=0.2,width=0.4,color="black", fillcolor="white", style="filled",URL="$_entity_8hpp.html",tooltip=" "];
  Node201 -> Node2 [color="midnightblue",fontsize="10",style="solid",fontname="Helvetica"];
  Node201 -> Node202 [color="midnightblue",fontsize="10",style="solid",fontname="Helvetica"];
  Node202 [label="map",height=0.2,width=0.4,color="grey75", fillcolor="white", style="filled",tooltip=" "];
  Node201 -> Node203 [color="midnightblue",fontsize="10",style="solid",fontname="Helvetica"];
  Node203 [label="memory",height=0.2,width=0.4,color="grey75", fillcolor="white", style="filled",tooltip=" "];
  Node201 -> Node5 [color="midnightblue",fontsize="10",style="solid",fontname="Helvetica"];
  Node201 -> Node204 [color="midnightblue",fontsize="10",style="solid",fontname="Helvetica"];
  Node204 [label="../ID/ID.hpp",height=0.2,width=0.4,color="black", fillcolor="white", style="filled",URL="$_i_d_8hpp.html",tooltip=" "];
  Node9 -> Node205 [color="midnightblue",fontsize="10",style="solid",fontname="Helvetica"];
  Node205 [label="MeshError.hpp",height=0.2,width=0.4,color="red", fillcolor="white", style="filled",URL="$_mesh_error_8hpp.html",tooltip=" "];
  Node9 -> Node5 [color="midnightblue",fontsize="10",style="solid",fontname="Helvetica"];
  Node1 -> Node208 [color="midnightblue",fontsize="10",style="solid",fontname="Helvetica"];
  Node208 [label="ActionComponent.hpp",height=0.2,width=0.4,color="black", fillcolor="white", style="filled",URL="$_action_component_8hpp.html",tooltip=" "];
  Node208 -> Node10 [color="midnightblue",fontsize="10",style="solid",fontname="Helvetica"];
  Node208 -> Node209 [color="midnightblue",fontsize="10",style="solid",fontname="Helvetica"];
  Node209 [label="cmath",height=0.2,width=0.4,color="grey75", fillcolor="white", style="filled",tooltip=" "];
  Node208 -> Node5 [color="midnightblue",fontsize="10",style="solid",fontname="Helvetica"];
  Node1 -> Node201 [color="midnightblue",fontsize="10",style="solid",fontname="Helvetica"];
  Node1 -> Node210 [color="midnightblue",fontsize="10",style="solid",fontname="Helvetica"];
  Node210 [label="Bomb.hpp",height=0.2,width=0.4,color="black", fillcolor="white", style="filled",URL="$_bomb_8hpp.html",tooltip=" "];
  Node210 -> Node211 [color="midnightblue",fontsize="10",style="solid",fontname="Helvetica"];
  Node211 [label="Block.hpp",height=0.2,width=0.4,color="red", fillcolor="white", style="filled",URL="$_block_8hpp.html",tooltip=" "];
  Node211 -> Node201 [color="midnightblue",fontsize="10",style="solid",fontname="Helvetica"];
  Node211 -> Node8 [color="midnightblue",fontsize="10",style="solid",fontname="Helvetica"];
  Node211 -> Node4 [color="midnightblue",fontsize="10",style="solid",fontname="Helvetica"];
  Node210 -> Node215 [color="midnightblue",fontsize="10",style="solid",fontname="Helvetica"];
  Node215 [label="chrono",height=0.2,width=0.4,color="grey75", fillcolor="white", style="filled",tooltip=" "];
  Node210 -> Node216 [color="midnightblue",fontsize="10",style="solid",fontname="Helvetica"];
  Node216 [label="map_tools.hpp",height=0.2,width=0.4,color="red", fillcolor="white", style="filled",URL="$map__tools_8hpp.html",tooltip=" "];
  Node216 -> Node2 [color="midnightblue",fontsize="10",style="solid",fontname="Helvetica"];
}
