digraph "cmake/SFML-2.5.1/include/SFML/Graphics/Rect.hpp"
{
 // LATEX_PDF_SIZE
  edge [fontname="Helvetica",fontsize="10",labelfontname="Helvetica",labelfontsize="10"];
  node [fontname="Helvetica",fontsize="10",shape=record];
  Node1 [label="cmake/SFML-2.5.1/include\l/SFML/Graphics/Rect.hpp",height=0.2,width=0.4,color="black", fillcolor="grey75", style="filled", fontcolor="black",tooltip=" "];
  Node1 -> Node2 [color="midnightblue",fontsize="10",style="solid",fontname="Helvetica"];
  Node2 [label="SFML/System/Vector2.hpp",height=0.2,width=0.4,color="black", fillcolor="white", style="filled",URL="$_vector2_8hpp.html",tooltip=" "];
  Node2 -> Node3 [color="midnightblue",fontsize="10",style="solid",fontname="Helvetica"];
  Node3 [label="SFML/System/Vector2.inl",height=0.2,width=0.4,color="black", fillcolor="white", style="filled",URL="$_vector2_8inl.html",tooltip=" "];
  Node1 -> Node4 [color="midnightblue",fontsize="10",style="solid",fontname="Helvetica"];
  Node4 [label="algorithm",height=0.2,width=0.4,color="grey75", fillcolor="white", style="filled",tooltip=" "];
  Node1 -> Node5 [color="midnightblue",fontsize="10",style="solid",fontname="Helvetica"];
  Node5 [label="SFML/Graphics/Rect.inl",height=0.2,width=0.4,color="black", fillcolor="white", style="filled",URL="$_rect_8inl.html",tooltip=" "];
}
