digraph "playMusic"
{
 // LATEX_PDF_SIZE
  edge [fontname="Helvetica",fontsize="10",labelfontname="Helvetica",labelfontsize="10"];
  node [fontname="Helvetica",fontsize="10",shape=record];
  rankdir="LR";
  Node1 [label="playMusic",height=0.2,width=0.4,color="black", fillcolor="grey75", style="filled", fontcolor="black",tooltip=" "];
  Node1 -> Node2 [color="midnightblue",fontsize="10",style="solid",fontname="Helvetica"];
  Node2 [label="sf::Time::asSeconds",height=0.2,width=0.4,color="black", fillcolor="white", style="filled",URL="$classsf_1_1_time.html#aa3df2f992d0b0041b4eb02258d43f0e3",tooltip="Return the time value as a number of seconds."];
  Node1 -> Node3 [color="midnightblue",fontsize="10",style="solid",fontname="Helvetica"];
  Node3 [label="sf::SoundStream::getChannel\lCount",height=0.2,width=0.4,color="black", fillcolor="white", style="filled",URL="$classsf_1_1_sound_stream.html#a1f70933912dd9498f4dc99feefed27f3",tooltip="Return the number of channels of the stream."];
  Node1 -> Node4 [color="midnightblue",fontsize="10",style="solid",fontname="Helvetica"];
  Node4 [label="sf::Music::getDuration",height=0.2,width=0.4,color="black", fillcolor="white", style="filled",URL="$classsf_1_1_music.html#a288ef6f552a136b0e56952dcada3d672",tooltip="Get the total duration of the music."];
  Node1 -> Node5 [color="midnightblue",fontsize="10",style="solid",fontname="Helvetica"];
  Node5 [label="sf::SoundStream::getPlaying\lOffset",height=0.2,width=0.4,color="black", fillcolor="white", style="filled",URL="$classsf_1_1_sound_stream.html#ae288f3c72edbad9cc7ee938ce5b907c1",tooltip="Get the current playing position of the stream."];
  Node1 -> Node6 [color="midnightblue",fontsize="10",style="solid",fontname="Helvetica"];
  Node6 [label="sf::SoundStream::getSampleRate",height=0.2,width=0.4,color="black", fillcolor="white", style="filled",URL="$classsf_1_1_sound_stream.html#a7da448dc40d81a33b8dc555fbf0d3fbf",tooltip="Get the stream sample rate of the stream."];
  Node1 -> Node7 [color="midnightblue",fontsize="10",style="solid",fontname="Helvetica"];
  Node7 [label="sf::SoundStream::getStatus",height=0.2,width=0.4,color="black", fillcolor="white", style="filled",URL="$classsf_1_1_sound_stream.html#a64a8193ed728da37c115c65de015849f",tooltip="Get the current status of the stream (stopped, paused, playing)"];
  Node1 -> Node8 [color="midnightblue",fontsize="10",style="solid",fontname="Helvetica"];
  Node8 [label="sf::Music::openFromFile",height=0.2,width=0.4,color="black", fillcolor="white", style="filled",URL="$classsf_1_1_music.html#a3edc66e5f5b3f11e84b90eaec9c7d7c0",tooltip="Open a music from an audio file."];
  Node1 -> Node9 [color="midnightblue",fontsize="10",style="solid",fontname="Helvetica"];
  Node9 [label="sf::SoundStream::play",height=0.2,width=0.4,color="black", fillcolor="white", style="filled",URL="$classsf_1_1_sound_stream.html#afdc08b69cab5f243d9324940a85a1144",tooltip="Start or resume playing the audio stream."];
  Node1 -> Node10 [color="midnightblue",fontsize="10",style="solid",fontname="Helvetica"];
  Node10 [label="sf::sleep",height=0.2,width=0.4,color="black", fillcolor="white", style="filled",URL="$group__system.html#ga2f2620831533dee0ed432ed982342e09",tooltip="Make the current thread sleep for a given duration."];
}
