digraph "cmake/SFML-2.5.1/include/SFML/System/String.hpp"
{
 // LATEX_PDF_SIZE
  edge [fontname="Helvetica",fontsize="10",labelfontname="Helvetica",labelfontsize="10"];
  node [fontname="Helvetica",fontsize="10",shape=record];
  Node1 [label="cmake/SFML-2.5.1/include\l/SFML/System/String.hpp",height=0.2,width=0.4,color="black", fillcolor="grey75", style="filled", fontcolor="black",tooltip=" "];
  Node1 -> Node2 [dir="back",color="midnightblue",fontsize="10",style="solid",fontname="Helvetica"];
  Node2 [label="cmake/SFML-2.5.1/include\l/SFML/Graphics/Font.hpp",height=0.2,width=0.4,color="black", fillcolor="white", style="filled",URL="$_font_8hpp.html",tooltip=" "];
  Node2 -> Node3 [dir="back",color="midnightblue",fontsize="10",style="solid",fontname="Helvetica"];
  Node3 [label="cmake/SFML-2.5.1/include\l/SFML/Graphics/Text.hpp",height=0.2,width=0.4,color="black", fillcolor="white", style="filled",URL="$_text_8hpp.html",tooltip=" "];
  Node3 -> Node4 [dir="back",color="midnightblue",fontsize="10",style="solid",fontname="Helvetica"];
  Node4 [label="cmake/SFML-2.5.1/include\l/SFML/Graphics.hpp",height=0.2,width=0.4,color="black", fillcolor="white", style="filled",URL="$_graphics_8hpp.html",tooltip=" "];
  Node4 -> Node5 [dir="back",color="midnightblue",fontsize="10",style="solid",fontname="Helvetica"];
  Node5 [label="cmake/SFML-2.5.1/examples\l/island/Island.cpp",height=0.2,width=0.4,color="black", fillcolor="white", style="filled",URL="$_island_8cpp.html",tooltip=" "];
  Node4 -> Node6 [dir="back",color="midnightblue",fontsize="10",style="solid",fontname="Helvetica"];
  Node6 [label="cmake/SFML-2.5.1/examples\l/joystick/Joystick.cpp",height=0.2,width=0.4,color="black", fillcolor="white", style="filled",URL="$_joystick_8cpp.html",tooltip=" "];
  Node4 -> Node7 [dir="back",color="midnightblue",fontsize="10",style="solid",fontname="Helvetica"];
  Node7 [label="cmake/SFML-2.5.1/examples\l/opengl/OpenGL.cpp",height=0.2,width=0.4,color="black", fillcolor="white", style="filled",URL="$_open_g_l_8cpp.html",tooltip=" "];
  Node4 -> Node8 [dir="back",color="midnightblue",fontsize="10",style="solid",fontname="Helvetica"];
  Node8 [label="cmake/SFML-2.5.1/examples\l/pong/Pong.cpp",height=0.2,width=0.4,color="black", fillcolor="white", style="filled",URL="$_pong_8cpp.html",tooltip=" "];
  Node4 -> Node9 [dir="back",color="midnightblue",fontsize="10",style="solid",fontname="Helvetica"];
  Node9 [label="cmake/SFML-2.5.1/examples\l/shader/Effect.hpp",height=0.2,width=0.4,color="black", fillcolor="white", style="filled",URL="$_effect_8hpp.html",tooltip=" "];
  Node9 -> Node10 [dir="back",color="midnightblue",fontsize="10",style="solid",fontname="Helvetica"];
  Node10 [label="cmake/SFML-2.5.1/examples\l/shader/Shader.cpp",height=0.2,width=0.4,color="black", fillcolor="white", style="filled",URL="$_shader_8cpp.html",tooltip=" "];
  Node4 -> Node11 [dir="back",color="midnightblue",fontsize="10",style="solid",fontname="Helvetica"];
  Node11 [label="cmake/SFML-2.5.1/examples\l/win32/Win32.cpp",height=0.2,width=0.4,color="black", fillcolor="white", style="filled",URL="$_win32_8cpp.html",tooltip=" "];
  Node2 -> Node4 [dir="back",color="midnightblue",fontsize="10",style="solid",fontname="Helvetica"];
  Node1 -> Node3 [dir="back",color="midnightblue",fontsize="10",style="solid",fontname="Helvetica"];
  Node1 -> Node12 [dir="back",color="midnightblue",fontsize="10",style="solid",fontname="Helvetica"];
  Node12 [label="cmake/SFML-2.5.1/include\l/SFML/System.hpp",height=0.2,width=0.4,color="black", fillcolor="white", style="filled",URL="$cmake_2_s_f_m_l-2_85_81_2include_2_s_f_m_l_2_system_8hpp.html",tooltip=" "];
  Node12 -> Node13 [dir="back",color="midnightblue",fontsize="10",style="solid",fontname="Helvetica"];
  Node13 [label="cmake/SFML-2.5.1/include\l/SFML/Audio.hpp",height=0.2,width=0.4,color="black", fillcolor="white", style="filled",URL="$_audio_8hpp.html",tooltip=" "];
  Node13 -> Node8 [dir="back",color="midnightblue",fontsize="10",style="solid",fontname="Helvetica"];
  Node13 -> Node14 [dir="back",color="midnightblue",fontsize="10",style="solid",fontname="Helvetica"];
  Node14 [label="cmake/SFML-2.5.1/examples\l/sound/Sound.cpp",height=0.2,width=0.4,color="black", fillcolor="white", style="filled",URL="$_sound_8cpp.html",tooltip=" "];
  Node13 -> Node15 [dir="back",color="midnightblue",fontsize="10",style="solid",fontname="Helvetica"];
  Node15 [label="cmake/SFML-2.5.1/examples\l/sound-capture/SoundCapture.cpp",height=0.2,width=0.4,color="black", fillcolor="white", style="filled",URL="$_sound_capture_8cpp.html",tooltip=" "];
  Node13 -> Node16 [dir="back",color="midnightblue",fontsize="10",style="solid",fontname="Helvetica"];
  Node16 [label="cmake/SFML-2.5.1/examples\l/voip/Client.cpp",height=0.2,width=0.4,color="black", fillcolor="white", style="filled",URL="$_client_8cpp.html",tooltip=" "];
  Node13 -> Node17 [dir="back",color="midnightblue",fontsize="10",style="solid",fontname="Helvetica"];
  Node17 [label="cmake/SFML-2.5.1/examples\l/voip/Server.cpp",height=0.2,width=0.4,color="black", fillcolor="white", style="filled",URL="$_server_8cpp.html",tooltip=" "];
  Node13 -> Node18 [dir="back",color="midnightblue",fontsize="10",style="solid",fontname="Helvetica"];
  Node18 [label="includes/JukeBox/JukeBox.hpp",height=0.2,width=0.4,color="black", fillcolor="white", style="filled",URL="$_juke_box_8hpp.html",tooltip=" "];
  Node18 -> Node19 [dir="back",color="midnightblue",fontsize="10",style="solid",fontname="Helvetica"];
  Node19 [label="includes/Core/Core.hpp",height=0.2,width=0.4,color="black", fillcolor="white", style="filled",URL="$_core_8hpp.html",tooltip=" "];
  Node19 -> Node20 [dir="back",color="midnightblue",fontsize="10",style="solid",fontname="Helvetica"];
  Node20 [label="sources/Core/Core.cpp",height=0.2,width=0.4,color="black", fillcolor="white", style="filled",URL="$_core_8cpp.html",tooltip=" "];
  Node19 -> Node21 [dir="back",color="midnightblue",fontsize="10",style="solid",fontname="Helvetica"];
  Node21 [label="sources/main.cpp",height=0.2,width=0.4,color="black", fillcolor="white", style="filled",URL="$main_8cpp.html",tooltip=" "];
  Node18 -> Node22 [dir="back",color="midnightblue",fontsize="10",style="solid",fontname="Helvetica"];
  Node22 [label="includes/Scenes/GameScene.hpp",height=0.2,width=0.4,color="black", fillcolor="white", style="filled",URL="$_game_scene_8hpp.html",tooltip=" "];
  Node22 -> Node19 [dir="back",color="midnightblue",fontsize="10",style="solid",fontname="Helvetica"];
  Node22 -> Node23 [dir="back",color="midnightblue",fontsize="10",style="solid",fontname="Helvetica"];
  Node23 [label="sources/Scenes/GameScene.cpp",height=0.2,width=0.4,color="black", fillcolor="white", style="filled",URL="$_game_scene_8cpp.html",tooltip=" "];
  Node18 -> Node24 [dir="back",color="midnightblue",fontsize="10",style="solid",fontname="Helvetica"];
  Node24 [label="includes/Scenes/Menu.hpp",height=0.2,width=0.4,color="black", fillcolor="white", style="filled",URL="$_menu_8hpp.html",tooltip=" "];
  Node24 -> Node19 [dir="back",color="midnightblue",fontsize="10",style="solid",fontname="Helvetica"];
  Node24 -> Node25 [dir="back",color="midnightblue",fontsize="10",style="solid",fontname="Helvetica"];
  Node25 [label="sources/Scenes/Menu.cpp",height=0.2,width=0.4,color="black", fillcolor="white", style="filled",URL="$_menu_8cpp.html",tooltip=" "];
  Node18 -> Node26 [dir="back",color="midnightblue",fontsize="10",style="solid",fontname="Helvetica"];
  Node26 [label="includes/Scenes/Options.hpp",height=0.2,width=0.4,color="black", fillcolor="white", style="filled",URL="$_options_8hpp.html",tooltip=" "];
  Node26 -> Node19 [dir="back",color="midnightblue",fontsize="10",style="solid",fontname="Helvetica"];
  Node26 -> Node27 [dir="back",color="midnightblue",fontsize="10",style="solid",fontname="Helvetica"];
  Node27 [label="sources/Scenes/Options.cpp",height=0.2,width=0.4,color="black", fillcolor="white", style="filled",URL="$_options_8cpp.html",tooltip=" "];
  Node18 -> Node28 [dir="back",color="midnightblue",fontsize="10",style="solid",fontname="Helvetica"];
  Node28 [label="includes/Scenes/SelectPlayer.hpp",height=0.2,width=0.4,color="black", fillcolor="white", style="filled",URL="$_select_player_8hpp.html",tooltip=" "];
  Node28 -> Node19 [dir="back",color="midnightblue",fontsize="10",style="solid",fontname="Helvetica"];
  Node28 -> Node29 [dir="back",color="midnightblue",fontsize="10",style="solid",fontname="Helvetica"];
  Node29 [label="sources/Scenes/SelectPlayer.cpp",height=0.2,width=0.4,color="black", fillcolor="white", style="filled",URL="$_select_player_8cpp.html",tooltip=" "];
  Node18 -> Node30 [dir="back",color="midnightblue",fontsize="10",style="solid",fontname="Helvetica"];
  Node30 [label="includes/Scenes/SelectSave.hpp",height=0.2,width=0.4,color="black", fillcolor="white", style="filled",URL="$_select_save_8hpp.html",tooltip=" "];
  Node30 -> Node19 [dir="back",color="midnightblue",fontsize="10",style="solid",fontname="Helvetica"];
  Node30 -> Node31 [dir="back",color="midnightblue",fontsize="10",style="solid",fontname="Helvetica"];
  Node31 [label="sources/Scenes/SelectSave.cpp",height=0.2,width=0.4,color="black", fillcolor="white", style="filled",URL="$_select_save_8cpp.html",tooltip=" "];
  Node18 -> Node32 [dir="back",color="midnightblue",fontsize="10",style="solid",fontname="Helvetica"];
  Node32 [label="includes/Scenes/Title.hpp",height=0.2,width=0.4,color="black", fillcolor="white", style="filled",URL="$_title_8hpp.html",tooltip=" "];
  Node32 -> Node19 [dir="back",color="midnightblue",fontsize="10",style="solid",fontname="Helvetica"];
  Node32 -> Node33 [dir="back",color="midnightblue",fontsize="10",style="solid",fontname="Helvetica"];
  Node33 [label="sources/Scenes/Title.cpp",height=0.2,width=0.4,color="black", fillcolor="white", style="filled",URL="$_title_8cpp.html",tooltip=" "];
  Node18 -> Node34 [dir="back",color="midnightblue",fontsize="10",style="solid",fontname="Helvetica"];
  Node34 [label="sources/JukeBox/JukeBox.cpp",height=0.2,width=0.4,color="black", fillcolor="white", style="filled",URL="$_juke_box_8cpp.html",tooltip=" "];
  Node12 -> Node35 [dir="back",color="midnightblue",fontsize="10",style="solid",fontname="Helvetica"];
  Node35 [label="cmake/SFML-2.5.1/include\l/SFML/Network.hpp",height=0.2,width=0.4,color="black", fillcolor="white", style="filled",URL="$_network_8hpp.html",tooltip=" "];
  Node35 -> Node36 [dir="back",color="midnightblue",fontsize="10",style="solid",fontname="Helvetica"];
  Node36 [label="cmake/SFML-2.5.1/examples\l/ftp/Ftp.cpp",height=0.2,width=0.4,color="black", fillcolor="white", style="filled",URL="$_ftp_8cpp.html",tooltip=" "];
  Node35 -> Node37 [dir="back",color="midnightblue",fontsize="10",style="solid",fontname="Helvetica"];
  Node37 [label="cmake/SFML-2.5.1/examples\l/sockets/TCP.cpp",height=0.2,width=0.4,color="black", fillcolor="white", style="filled",URL="$_t_c_p_8cpp.html",tooltip=" "];
  Node35 -> Node38 [dir="back",color="midnightblue",fontsize="10",style="solid",fontname="Helvetica"];
  Node38 [label="cmake/SFML-2.5.1/examples\l/sockets/UDP.cpp",height=0.2,width=0.4,color="black", fillcolor="white", style="filled",URL="$_u_d_p_8cpp.html",tooltip=" "];
  Node35 -> Node16 [dir="back",color="midnightblue",fontsize="10",style="solid",fontname="Helvetica"];
  Node35 -> Node17 [dir="back",color="midnightblue",fontsize="10",style="solid",fontname="Helvetica"];
  Node12 -> Node39 [dir="back",color="midnightblue",fontsize="10",style="solid",fontname="Helvetica"];
  Node39 [label="cmake/SFML-2.5.1/include\l/SFML/Window.hpp",height=0.2,width=0.4,color="black", fillcolor="white", style="filled",URL="$_window_8hpp.html",tooltip=" "];
  Node39 -> Node40 [dir="back",color="midnightblue",fontsize="10",style="solid",fontname="Helvetica"];
  Node40 [label="cmake/SFML-2.5.1/examples\l/window/Window.cpp",height=0.2,width=0.4,color="black", fillcolor="white", style="filled",URL="$_window_8cpp.html",tooltip=" "];
  Node39 -> Node4 [dir="back",color="midnightblue",fontsize="10",style="solid",fontname="Helvetica"];
  Node1 -> Node41 [dir="back",color="midnightblue",fontsize="10",style="solid",fontname="Helvetica"];
  Node41 [label="cmake/SFML-2.5.1/include\l/SFML/Window/Clipboard.hpp",height=0.2,width=0.4,color="black", fillcolor="white", style="filled",URL="$_clipboard_8hpp.html",tooltip=" "];
  Node41 -> Node39 [dir="back",color="midnightblue",fontsize="10",style="solid",fontname="Helvetica"];
  Node1 -> Node42 [dir="back",color="midnightblue",fontsize="10",style="solid",fontname="Helvetica"];
  Node42 [label="cmake/SFML-2.5.1/include\l/SFML/Window/Joystick.hpp",height=0.2,width=0.4,color="black", fillcolor="white", style="filled",URL="$_joystick_8hpp.html",tooltip=" "];
  Node42 -> Node43 [dir="back",color="midnightblue",fontsize="10",style="solid",fontname="Helvetica"];
  Node43 [label="cmake/SFML-2.5.1/include\l/SFML/Window/Event.hpp",height=0.2,width=0.4,color="black", fillcolor="white", style="filled",URL="$_event_8hpp.html",tooltip=" "];
  Node43 -> Node39 [dir="back",color="midnightblue",fontsize="10",style="solid",fontname="Helvetica"];
  Node42 -> Node39 [dir="back",color="midnightblue",fontsize="10",style="solid",fontname="Helvetica"];
  Node1 -> Node44 [dir="back",color="midnightblue",fontsize="10",style="solid",fontname="Helvetica"];
  Node44 [label="cmake/SFML-2.5.1/include\l/SFML/Window/Window.hpp",height=0.2,width=0.4,color="black", fillcolor="white", style="filled",URL="$_window_2_window_8hpp.html",tooltip=" "];
  Node44 -> Node45 [dir="back",color="midnightblue",fontsize="10",style="solid",fontname="Helvetica"];
  Node45 [label="cmake/SFML-2.5.1/include\l/SFML/Graphics/RenderWindow.hpp",height=0.2,width=0.4,color="black", fillcolor="white", style="filled",URL="$_render_window_8hpp.html",tooltip=" "];
  Node45 -> Node4 [dir="back",color="midnightblue",fontsize="10",style="solid",fontname="Helvetica"];
  Node44 -> Node39 [dir="back",color="midnightblue",fontsize="10",style="solid",fontname="Helvetica"];
}
