digraph "runTcpServer"
{
 // LATEX_PDF_SIZE
  edge [fontname="Helvetica",fontsize="10",labelfontname="Helvetica",labelfontsize="10"];
  node [fontname="Helvetica",fontsize="10",shape=record];
  rankdir="LR";
  Node1 [label="runTcpServer",height=0.2,width=0.4,color="black", fillcolor="grey75", style="filled", fontcolor="black",tooltip=" "];
  Node1 -> Node2 [color="midnightblue",fontsize="10",style="solid",fontname="Helvetica"];
  Node2 [label="sf::TcpListener::accept",height=0.2,width=0.4,color="black", fillcolor="white", style="filled",URL="$classsf_1_1_tcp_listener.html#ae2c83ce5a64d50b68180c46bef0a7346",tooltip="Accept a new connection."];
  Node1 -> Node3 [color="midnightblue",fontsize="10",style="solid",fontname="Helvetica"];
  Node3 [label="sf::TcpSocket::getRemote\lAddress",height=0.2,width=0.4,color="black", fillcolor="white", style="filled",URL="$classsf_1_1_tcp_socket.html#aa8579c203b1fd21beb74d7f76444a94c",tooltip="Get the address of the connected peer."];
  Node1 -> Node4 [color="midnightblue",fontsize="10",style="solid",fontname="Helvetica"];
  Node4 [label="sf::TcpListener::listen",height=0.2,width=0.4,color="black", fillcolor="white", style="filled",URL="$classsf_1_1_tcp_listener.html#a9504758ea3570e62cb20b209c11776a1",tooltip="Start listening for incoming connection attempts."];
  Node1 -> Node5 [color="midnightblue",fontsize="10",style="solid",fontname="Helvetica"];
  Node5 [label="sf::TcpSocket::receive",height=0.2,width=0.4,color="black", fillcolor="white", style="filled",URL="$classsf_1_1_tcp_socket.html#a90ce50811ea61d4f00efc62bb99ae1af",tooltip="Receive raw data from the remote peer."];
  Node1 -> Node6 [color="midnightblue",fontsize="10",style="solid",fontname="Helvetica"];
  Node6 [label="sf::TcpSocket::send",height=0.2,width=0.4,color="black", fillcolor="white", style="filled",URL="$classsf_1_1_tcp_socket.html#affce26ab3bcc4f5b9269dad79db544c0",tooltip="Send raw data to the remote peer."];
}
