digraph "includes/Scenes/Title.hpp"
{
 // LATEX_PDF_SIZE
  edge [fontname="Helvetica",fontsize="10",labelfontname="Helvetica",labelfontsize="10"];
  node [fontname="Helvetica",fontsize="10",shape=record];
  Node1 [label="includes/Scenes/Title.hpp",height=0.2,width=0.4,color="black", fillcolor="grey75", style="filled", fontcolor="black",tooltip=" "];
  Node1 -> Node2 [color="midnightblue",fontsize="10",style="solid",fontname="Helvetica"];
  Node2 [label="IScene.hpp",height=0.2,width=0.4,color="black", fillcolor="white", style="filled",URL="$_i_scene_8hpp.html",tooltip=" "];
  Node1 -> Node3 [color="midnightblue",fontsize="10",style="solid",fontname="Helvetica"];
  Node3 [label="Button.hpp",height=0.2,width=0.4,color="black", fillcolor="white", style="filled",URL="$_button_8hpp.html",tooltip=" "];
  Node3 -> Node4 [color="midnightblue",fontsize="10",style="solid",fontname="Helvetica"];
  Node4 [label="iostream",height=0.2,width=0.4,color="grey75", fillcolor="white", style="filled",tooltip=" "];
  Node3 -> Node5 [color="midnightblue",fontsize="10",style="solid",fontname="Helvetica"];
  Node5 [label="irrlicht.h",height=0.2,width=0.4,color="red", fillcolor="white", style="filled",URL="$irrlicht_8h.html",tooltip="Main header file of the irrlicht, the only file needed to include."];
  Node5 -> Node6 [color="midnightblue",fontsize="10",style="solid",fontname="Helvetica"];
  Node6 [label="IrrCompileConfig.h",height=0.2,width=0.4,color="red", fillcolor="white", style="filled",URL="$_irr_compile_config_8h.html",tooltip=" "];
  Node5 -> Node8 [color="midnightblue",fontsize="10",style="solid",fontname="Helvetica"];
  Node8 [label="aabbox3d.h",height=0.2,width=0.4,color="red", fillcolor="white", style="filled",URL="$aabbox3d_8h.html",tooltip=" "];
  Node5 -> Node19 [color="midnightblue",fontsize="10",style="solid",fontname="Helvetica"];
  Node19 [label="CDynamicMeshBuffer.h",height=0.2,width=0.4,color="red", fillcolor="white", style="filled",URL="$_c_dynamic_mesh_buffer_8h.html",tooltip=" "];
  Node19 -> Node46 [color="midnightblue",fontsize="10",style="solid",fontname="Helvetica"];
  Node46 [label="CVertexBuffer.h",height=0.2,width=0.4,color="red", fillcolor="white", style="filled",URL="$_c_vertex_buffer_8h.html",tooltip=" "];
  Node19 -> Node47 [color="midnightblue",fontsize="10",style="solid",fontname="Helvetica"];
  Node47 [label="CIndexBuffer.h",height=0.2,width=0.4,color="red", fillcolor="white", style="filled",URL="$_c_index_buffer_8h.html",tooltip=" "];
  Node5 -> Node47 [color="midnightblue",fontsize="10",style="solid",fontname="Helvetica"];
  Node5 -> Node48 [color="midnightblue",fontsize="10",style="solid",fontname="Helvetica"];
  Node48 [label="CMeshBuffer.h",height=0.2,width=0.4,color="red", fillcolor="white", style="filled",URL="$_c_mesh_buffer_8h.html",tooltip=" "];
  Node5 -> Node49 [color="midnightblue",fontsize="10",style="solid",fontname="Helvetica"];
  Node49 [label="coreutil.h",height=0.2,width=0.4,color="red", fillcolor="white", style="filled",URL="$coreutil_8h.html",tooltip="File containing useful basic utility functions."];
  Node5 -> Node46 [color="midnightblue",fontsize="10",style="solid",fontname="Helvetica"];
  Node5 -> Node27 [color="midnightblue",fontsize="10",style="solid",fontname="Helvetica"];
  Node27 [label="dimension2d.h",height=0.2,width=0.4,color="red", fillcolor="white", style="filled",URL="$dimension2d_8h.html",tooltip=" "];
  Node5 -> Node51 [color="midnightblue",fontsize="10",style="solid",fontname="Helvetica"];
  Node51 [label="ECullingTypes.h",height=0.2,width=0.4,color="red", fillcolor="white", style="filled",URL="$_e_culling_types_8h.html",tooltip=" "];
  Node5 -> Node52 [color="midnightblue",fontsize="10",style="solid",fontname="Helvetica"];
  Node52 [label="EDebugSceneTypes.h",height=0.2,width=0.4,color="black", fillcolor="white", style="filled",URL="$_e_debug_scene_types_8h.html",tooltip=" "];
  Node5 -> Node53 [color="midnightblue",fontsize="10",style="solid",fontname="Helvetica"];
  Node53 [label="EDriverFeatures.h",height=0.2,width=0.4,color="black", fillcolor="white", style="filled",URL="$_e_driver_features_8h.html",tooltip=" "];
  Node5 -> Node54 [color="midnightblue",fontsize="10",style="solid",fontname="Helvetica"];
  Node54 [label="EDriverTypes.h",height=0.2,width=0.4,color="black", fillcolor="white", style="filled",URL="$_e_driver_types_8h.html",tooltip=" "];
  Node5 -> Node55 [color="midnightblue",fontsize="10",style="solid",fontname="Helvetica"];
  Node55 [label="EGUIAlignment.h",height=0.2,width=0.4,color="black", fillcolor="white", style="filled",URL="$_e_g_u_i_alignment_8h.html",tooltip=" "];
  Node5 -> Node56 [color="midnightblue",fontsize="10",style="solid",fontname="Helvetica"];
  Node56 [label="EGUIElementTypes.h",height=0.2,width=0.4,color="red", fillcolor="white", style="filled",URL="$_e_g_u_i_element_types_8h.html",tooltip=" "];
  Node5 -> Node42 [color="midnightblue",fontsize="10",style="solid",fontname="Helvetica"];
  Node42 [label="EHardwareBufferFlags.h",height=0.2,width=0.4,color="black", fillcolor="white", style="filled",URL="$_e_hardware_buffer_flags_8h.html",tooltip=" "];
  Node5 -> Node38 [color="midnightblue",fontsize="10",style="solid",fontname="Helvetica"];
  Node38 [label="EMaterialFlags.h",height=0.2,width=0.4,color="black", fillcolor="white", style="filled",URL="$_e_material_flags_8h.html",tooltip=" "];
  Node5 -> Node37 [color="midnightblue",fontsize="10",style="solid",fontname="Helvetica"];
  Node37 [label="EMaterialTypes.h",height=0.2,width=0.4,color="black", fillcolor="white", style="filled",URL="$_e_material_types_8h.html",tooltip=" "];
  Node5 -> Node57 [color="midnightblue",fontsize="10",style="solid",fontname="Helvetica"];
  Node57 [label="EMeshWriterEnums.h",height=0.2,width=0.4,color="red", fillcolor="white", style="filled",URL="$_e_mesh_writer_enums_8h.html",tooltip=" "];
  Node5 -> Node58 [color="midnightblue",fontsize="10",style="solid",fontname="Helvetica"];
  Node58 [label="EMessageBoxFlags.h",height=0.2,width=0.4,color="black", fillcolor="white", style="filled",URL="$_e_message_box_flags_8h.html",tooltip=" "];
  Node5 -> Node59 [color="midnightblue",fontsize="10",style="solid",fontname="Helvetica"];
  Node59 [label="ESceneNodeAnimatorTypes.h",height=0.2,width=0.4,color="black", fillcolor="white", style="filled",URL="$_e_scene_node_animator_types_8h.html",tooltip=" "];
  Node5 -> Node60 [color="midnightblue",fontsize="10",style="solid",fontname="Helvetica"];
  Node60 [label="ESceneNodeTypes.h",height=0.2,width=0.4,color="red", fillcolor="white", style="filled",URL="$_e_scene_node_types_8h.html",tooltip=" "];
  Node5 -> Node61 [color="midnightblue",fontsize="10",style="solid",fontname="Helvetica"];
  Node61 [label="ETerrainElements.h",height=0.2,width=0.4,color="black", fillcolor="white", style="filled",URL="$_e_terrain_elements_8h.html",tooltip=" "];
  Node3 -> Node195 [color="midnightblue",fontsize="10",style="solid",fontname="Helvetica"];
  Node195 [label="Entity.hpp",height=0.2,width=0.4,color="red", fillcolor="white", style="filled",URL="$_entity_8hpp.html",tooltip=" "];
  Node195 -> Node199 [color="midnightblue",fontsize="10",style="solid",fontname="Helvetica"];
  Node199 [label="../components/Component.hpp",height=0.2,width=0.4,color="black", fillcolor="white", style="filled",URL="$_component_8hpp.html",tooltip=" "];
  Node3 -> Node2 [color="midnightblue",fontsize="10",style="solid",fontname="Helvetica"];
  Node3 -> Node199 [color="midnightblue",fontsize="10",style="solid",fontname="Helvetica"];
  Node3 -> Node201 [color="midnightblue",fontsize="10",style="solid",fontname="Helvetica"];
  Node201 [label="PositionComponent.hpp",height=0.2,width=0.4,color="black", fillcolor="white", style="filled",URL="$_position_component_8hpp.html",tooltip=" "];
  Node201 -> Node199 [color="midnightblue",fontsize="10",style="solid",fontname="Helvetica"];
  Node3 -> Node202 [color="midnightblue",fontsize="10",style="solid",fontname="Helvetica"];
  Node202 [label="SizeComponent.hpp",height=0.2,width=0.4,color="black", fillcolor="white", style="filled",URL="$_size_component_8hpp.html",tooltip=" "];
  Node202 -> Node199 [color="midnightblue",fontsize="10",style="solid",fontname="Helvetica"];
  Node3 -> Node203 [color="midnightblue",fontsize="10",style="solid",fontname="Helvetica"];
  Node203 [label="TextureComponent.hpp",height=0.2,width=0.4,color="black", fillcolor="white", style="filled",URL="$_texture_component_8hpp.html",tooltip=" "];
  Node203 -> Node5 [color="midnightblue",fontsize="10",style="solid",fontname="Helvetica"];
  Node203 -> Node4 [color="midnightblue",fontsize="10",style="solid",fontname="Helvetica"];
  Node203 -> Node199 [color="midnightblue",fontsize="10",style="solid",fontname="Helvetica"];
  Node203 -> Node204 [color="midnightblue",fontsize="10",style="solid",fontname="Helvetica"];
  Node204 [label="TextureError.hpp",height=0.2,width=0.4,color="red", fillcolor="white", style="filled",URL="$_texture_error_8hpp.html",tooltip=" "];
  Node1 -> Node208 [color="midnightblue",fontsize="10",style="solid",fontname="Helvetica"];
  Node208 [label="Graphical.hpp",height=0.2,width=0.4,color="black", fillcolor="white", style="filled",URL="$_graphical_8hpp.html",tooltip=" "];
  Node208 -> Node4 [color="midnightblue",fontsize="10",style="solid",fontname="Helvetica"];
  Node208 -> Node5 [color="midnightblue",fontsize="10",style="solid",fontname="Helvetica"];
  Node208 -> Node207 [color="midnightblue",fontsize="10",style="solid",fontname="Helvetica"];
  Node207 [label="string",height=0.2,width=0.4,color="grey75", fillcolor="white", style="filled",tooltip=" "];
  Node208 -> Node209 [color="midnightblue",fontsize="10",style="solid",fontname="Helvetica"];
  Node209 [label="chrono",height=0.2,width=0.4,color="grey75", fillcolor="white", style="filled",tooltip=" "];
  Node208 -> Node210 [color="midnightblue",fontsize="10",style="solid",fontname="Helvetica"];
  Node210 [label="unordered_map",height=0.2,width=0.4,color="grey75", fillcolor="white", style="filled",tooltip=" "];
  Node208 -> Node211 [color="midnightblue",fontsize="10",style="solid",fontname="Helvetica"];
  Node211 [label="IGraphical.hpp",height=0.2,width=0.4,color="black", fillcolor="white", style="filled",URL="$_i_graphical_8hpp.html",tooltip=" "];
  Node211 -> Node195 [color="midnightblue",fontsize="10",style="solid",fontname="Helvetica"];
  Node208 -> Node212 [color="midnightblue",fontsize="10",style="solid",fontname="Helvetica"];
  Node212 [label="DeviceError.hpp",height=0.2,width=0.4,color="red", fillcolor="white", style="filled",URL="$_device_error_8hpp.html",tooltip=" "];
  Node208 -> Node204 [color="midnightblue",fontsize="10",style="solid",fontname="Helvetica"];
  Node208 -> Node213 [color="midnightblue",fontsize="10",style="solid",fontname="Helvetica"];
  Node213 [label="handleInput.hpp",height=0.2,width=0.4,color="red", fillcolor="white", style="filled",URL="$handle_input_8hpp.html",tooltip=" "];
  Node213 -> Node4 [color="midnightblue",fontsize="10",style="solid",fontname="Helvetica"];
  Node213 -> Node5 [color="midnightblue",fontsize="10",style="solid",fontname="Helvetica"];
  Node208 -> Node214 [color="midnightblue",fontsize="10",style="solid",fontname="Helvetica"];
  Node214 [label="Map.hpp",height=0.2,width=0.4,color="red", fillcolor="white", style="filled",URL="$_map_8hpp.html",tooltip=" "];
  Node208 -> Node221 [color="midnightblue",fontsize="10",style="solid",fontname="Helvetica"];
  Node221 [label="Particuls.hpp",height=0.2,width=0.4,color="black", fillcolor="white", style="filled",URL="$_particuls_8hpp.html",tooltip=" "];
  Node221 -> Node5 [color="midnightblue",fontsize="10",style="solid",fontname="Helvetica"];
  Node208 -> Node202 [color="midnightblue",fontsize="10",style="solid",fontname="Helvetica"];
  Node208 -> Node203 [color="midnightblue",fontsize="10",style="solid",fontname="Helvetica"];
  Node208 -> Node222 [color="midnightblue",fontsize="10",style="solid",fontname="Helvetica"];
  Node222 [label="MeshComponent.hpp",height=0.2,width=0.4,color="red", fillcolor="white", style="filled",URL="$_mesh_component_8hpp.html",tooltip=" "];
  Node222 -> Node5 [color="midnightblue",fontsize="10",style="solid",fontname="Helvetica"];
  Node222 -> Node4 [color="midnightblue",fontsize="10",style="solid",fontname="Helvetica"];
  Node222 -> Node195 [color="midnightblue",fontsize="10",style="solid",fontname="Helvetica"];
  Node222 -> Node199 [color="midnightblue",fontsize="10",style="solid",fontname="Helvetica"];
  Node208 -> Node224 [color="midnightblue",fontsize="10",style="solid",fontname="Helvetica"];
  Node224 [label="StringComponent.hpp",height=0.2,width=0.4,color="black", fillcolor="white", style="filled",URL="$_string_component_8hpp.html",tooltip=" "];
  Node224 -> Node207 [color="midnightblue",fontsize="10",style="solid",fontname="Helvetica"];
  Node224 -> Node199 [color="midnightblue",fontsize="10",style="solid",fontname="Helvetica"];
  Node208 -> Node225 [color="midnightblue",fontsize="10",style="solid",fontname="Helvetica"];
  Node225 [label="ColorComponent.hpp",height=0.2,width=0.4,color="black", fillcolor="white", style="filled",URL="$_color_component_8hpp.html",tooltip=" "];
  Node225 -> Node199 [color="midnightblue",fontsize="10",style="solid",fontname="Helvetica"];
  Node208 -> Node201 [color="midnightblue",fontsize="10",style="solid",fontname="Helvetica"];
  Node208 -> Node216 [color="midnightblue",fontsize="10",style="solid",fontname="Helvetica"];
  Node216 [label="ColliderComponent.hpp",height=0.2,width=0.4,color="black", fillcolor="white", style="filled",URL="$_collider_component_8hpp.html",tooltip=" "];
  Node216 -> Node199 [color="midnightblue",fontsize="10",style="solid",fontname="Helvetica"];
  Node208 -> Node226 [color="midnightblue",fontsize="10",style="solid",fontname="Helvetica"];
  Node226 [label="ActionComponent.hpp",height=0.2,width=0.4,color="red", fillcolor="white", style="filled",URL="$_action_component_8hpp.html",tooltip=" "];
  Node226 -> Node5 [color="midnightblue",fontsize="10",style="solid",fontname="Helvetica"];
  Node226 -> Node199 [color="midnightblue",fontsize="10",style="solid",fontname="Helvetica"];
  Node208 -> Node217 [color="midnightblue",fontsize="10",style="solid",fontname="Helvetica"];
  Node217 [label="CubeComponent.hpp",height=0.2,width=0.4,color="black", fillcolor="white", style="filled",URL="$_cube_component_8hpp.html",tooltip=" "];
  Node217 -> Node5 [color="midnightblue",fontsize="10",style="solid",fontname="Helvetica"];
  Node217 -> Node4 [color="midnightblue",fontsize="10",style="solid",fontname="Helvetica"];
  Node217 -> Node195 [color="midnightblue",fontsize="10",style="solid",fontname="Helvetica"];
  Node217 -> Node199 [color="midnightblue",fontsize="10",style="solid",fontname="Helvetica"];
  Node1 -> Node228 [color="midnightblue",fontsize="10",style="solid",fontname="Helvetica"];
  Node228 [label="JukeBox.hpp",height=0.2,width=0.4,color="black", fillcolor="white", style="filled",URL="$_juke_box_8hpp.html",tooltip=" "];
  Node228 -> Node2 [color="midnightblue",fontsize="10",style="solid",fontname="Helvetica"];
  Node228 -> Node229 [color="midnightblue",fontsize="10",style="solid",fontname="Helvetica"];
  Node229 [label="SFML/Audio.hpp",height=0.2,width=0.4,color="red", fillcolor="white", style="filled",URL="$_audio_8hpp.html",tooltip=" "];
}
