digraph "cmake/SFML-2.5.1/include/SFML/Window/Export.hpp"
{
 // LATEX_PDF_SIZE
  edge [fontname="Helvetica",fontsize="10",labelfontname="Helvetica",labelfontsize="10"];
  node [fontname="Helvetica",fontsize="10",shape=record];
  Node1 [label="cmake/SFML-2.5.1/include\l/SFML/Window/Export.hpp",height=0.2,width=0.4,color="black", fillcolor="grey75", style="filled", fontcolor="black",tooltip=" "];
  Node1 -> Node2 [dir="back",color="midnightblue",fontsize="10",style="solid",fontname="Helvetica"];
  Node2 [label="cmake/SFML-2.5.1/include\l/SFML/Window/Clipboard.hpp",height=0.2,width=0.4,color="black", fillcolor="white", style="filled",URL="$_clipboard_8hpp.html",tooltip=" "];
  Node2 -> Node3 [dir="back",color="midnightblue",fontsize="10",style="solid",fontname="Helvetica"];
  Node3 [label="cmake/SFML-2.5.1/include\l/SFML/Window.hpp",height=0.2,width=0.4,color="black", fillcolor="white", style="filled",URL="$_window_8hpp.html",tooltip=" "];
  Node3 -> Node4 [dir="back",color="midnightblue",fontsize="10",style="solid",fontname="Helvetica"];
  Node4 [label="cmake/SFML-2.5.1/examples\l/window/Window.cpp",height=0.2,width=0.4,color="black", fillcolor="white", style="filled",URL="$_window_8cpp.html",tooltip=" "];
  Node3 -> Node5 [dir="back",color="midnightblue",fontsize="10",style="solid",fontname="Helvetica"];
  Node5 [label="cmake/SFML-2.5.1/include\l/SFML/Graphics.hpp",height=0.2,width=0.4,color="black", fillcolor="white", style="filled",URL="$_graphics_8hpp.html",tooltip=" "];
  Node5 -> Node6 [dir="back",color="midnightblue",fontsize="10",style="solid",fontname="Helvetica"];
  Node6 [label="cmake/SFML-2.5.1/examples\l/island/Island.cpp",height=0.2,width=0.4,color="black", fillcolor="white", style="filled",URL="$_island_8cpp.html",tooltip=" "];
  Node5 -> Node7 [dir="back",color="midnightblue",fontsize="10",style="solid",fontname="Helvetica"];
  Node7 [label="cmake/SFML-2.5.1/examples\l/joystick/Joystick.cpp",height=0.2,width=0.4,color="black", fillcolor="white", style="filled",URL="$_joystick_8cpp.html",tooltip=" "];
  Node5 -> Node8 [dir="back",color="midnightblue",fontsize="10",style="solid",fontname="Helvetica"];
  Node8 [label="cmake/SFML-2.5.1/examples\l/opengl/OpenGL.cpp",height=0.2,width=0.4,color="black", fillcolor="white", style="filled",URL="$_open_g_l_8cpp.html",tooltip=" "];
  Node5 -> Node9 [dir="back",color="midnightblue",fontsize="10",style="solid",fontname="Helvetica"];
  Node9 [label="cmake/SFML-2.5.1/examples\l/pong/Pong.cpp",height=0.2,width=0.4,color="black", fillcolor="white", style="filled",URL="$_pong_8cpp.html",tooltip=" "];
  Node5 -> Node10 [dir="back",color="midnightblue",fontsize="10",style="solid",fontname="Helvetica"];
  Node10 [label="cmake/SFML-2.5.1/examples\l/shader/Effect.hpp",height=0.2,width=0.4,color="black", fillcolor="white", style="filled",URL="$_effect_8hpp.html",tooltip=" "];
  Node10 -> Node11 [dir="back",color="midnightblue",fontsize="10",style="solid",fontname="Helvetica"];
  Node11 [label="cmake/SFML-2.5.1/examples\l/shader/Shader.cpp",height=0.2,width=0.4,color="black", fillcolor="white", style="filled",URL="$_shader_8cpp.html",tooltip=" "];
  Node5 -> Node12 [dir="back",color="midnightblue",fontsize="10",style="solid",fontname="Helvetica"];
  Node12 [label="cmake/SFML-2.5.1/examples\l/win32/Win32.cpp",height=0.2,width=0.4,color="black", fillcolor="white", style="filled",URL="$_win32_8cpp.html",tooltip=" "];
  Node1 -> Node13 [dir="back",color="midnightblue",fontsize="10",style="solid",fontname="Helvetica"];
  Node13 [label="cmake/SFML-2.5.1/include\l/SFML/Window/Context.hpp",height=0.2,width=0.4,color="black", fillcolor="white", style="filled",URL="$_context_8hpp.html",tooltip=" "];
  Node13 -> Node3 [dir="back",color="midnightblue",fontsize="10",style="solid",fontname="Helvetica"];
  Node1 -> Node14 [dir="back",color="midnightblue",fontsize="10",style="solid",fontname="Helvetica"];
  Node14 [label="cmake/SFML-2.5.1/include\l/SFML/Window/Cursor.hpp",height=0.2,width=0.4,color="black", fillcolor="white", style="filled",URL="$_cursor_8hpp.html",tooltip=" "];
  Node14 -> Node15 [dir="back",color="midnightblue",fontsize="10",style="solid",fontname="Helvetica"];
  Node15 [label="cmake/SFML-2.5.1/include\l/SFML/Window/Window.hpp",height=0.2,width=0.4,color="black", fillcolor="white", style="filled",URL="$_window_2_window_8hpp.html",tooltip=" "];
  Node15 -> Node16 [dir="back",color="midnightblue",fontsize="10",style="solid",fontname="Helvetica"];
  Node16 [label="cmake/SFML-2.5.1/include\l/SFML/Graphics/RenderWindow.hpp",height=0.2,width=0.4,color="black", fillcolor="white", style="filled",URL="$_render_window_8hpp.html",tooltip=" "];
  Node16 -> Node5 [dir="back",color="midnightblue",fontsize="10",style="solid",fontname="Helvetica"];
  Node15 -> Node3 [dir="back",color="midnightblue",fontsize="10",style="solid",fontname="Helvetica"];
  Node14 -> Node3 [dir="back",color="midnightblue",fontsize="10",style="solid",fontname="Helvetica"];
  Node1 -> Node17 [dir="back",color="midnightblue",fontsize="10",style="solid",fontname="Helvetica"];
  Node17 [label="cmake/SFML-2.5.1/include\l/SFML/Window/GlResource.hpp",height=0.2,width=0.4,color="black", fillcolor="white", style="filled",URL="$_gl_resource_8hpp.html",tooltip=" "];
  Node17 -> Node18 [dir="back",color="midnightblue",fontsize="10",style="solid",fontname="Helvetica"];
  Node18 [label="cmake/SFML-2.5.1/include\l/SFML/Graphics/Shader.hpp",height=0.2,width=0.4,color="black", fillcolor="white", style="filled",URL="$_shader_8hpp.html",tooltip=" "];
  Node18 -> Node5 [dir="back",color="midnightblue",fontsize="10",style="solid",fontname="Helvetica"];
  Node17 -> Node19 [dir="back",color="midnightblue",fontsize="10",style="solid",fontname="Helvetica"];
  Node19 [label="cmake/SFML-2.5.1/include\l/SFML/Graphics/Texture.hpp",height=0.2,width=0.4,color="black", fillcolor="white", style="filled",URL="$_texture_8hpp.html",tooltip=" "];
  Node19 -> Node20 [dir="back",color="midnightblue",fontsize="10",style="solid",fontname="Helvetica"];
  Node20 [label="cmake/SFML-2.5.1/include\l/SFML/Graphics/Font.hpp",height=0.2,width=0.4,color="black", fillcolor="white", style="filled",URL="$_font_8hpp.html",tooltip=" "];
  Node20 -> Node21 [dir="back",color="midnightblue",fontsize="10",style="solid",fontname="Helvetica"];
  Node21 [label="cmake/SFML-2.5.1/include\l/SFML/Graphics/Text.hpp",height=0.2,width=0.4,color="black", fillcolor="white", style="filled",URL="$_text_8hpp.html",tooltip=" "];
  Node21 -> Node5 [dir="back",color="midnightblue",fontsize="10",style="solid",fontname="Helvetica"];
  Node20 -> Node5 [dir="back",color="midnightblue",fontsize="10",style="solid",fontname="Helvetica"];
  Node19 -> Node22 [dir="back",color="midnightblue",fontsize="10",style="solid",fontname="Helvetica"];
  Node22 [label="cmake/SFML-2.5.1/include\l/SFML/Graphics/RenderTexture.hpp",height=0.2,width=0.4,color="black", fillcolor="white", style="filled",URL="$_render_texture_8hpp.html",tooltip=" "];
  Node22 -> Node5 [dir="back",color="midnightblue",fontsize="10",style="solid",fontname="Helvetica"];
  Node19 -> Node5 [dir="back",color="midnightblue",fontsize="10",style="solid",fontname="Helvetica"];
  Node17 -> Node23 [dir="back",color="midnightblue",fontsize="10",style="solid",fontname="Helvetica"];
  Node23 [label="cmake/SFML-2.5.1/include\l/SFML/Graphics/VertexBuffer.hpp",height=0.2,width=0.4,color="black", fillcolor="white", style="filled",URL="$_vertex_buffer_8hpp.html",tooltip=" "];
  Node23 -> Node5 [dir="back",color="midnightblue",fontsize="10",style="solid",fontname="Helvetica"];
  Node17 -> Node13 [dir="back",color="midnightblue",fontsize="10",style="solid",fontname="Helvetica"];
  Node17 -> Node15 [dir="back",color="midnightblue",fontsize="10",style="solid",fontname="Helvetica"];
  Node1 -> Node24 [dir="back",color="midnightblue",fontsize="10",style="solid",fontname="Helvetica"];
  Node24 [label="cmake/SFML-2.5.1/include\l/SFML/Window/Joystick.hpp",height=0.2,width=0.4,color="black", fillcolor="white", style="filled",URL="$_joystick_8hpp.html",tooltip=" "];
  Node24 -> Node25 [dir="back",color="midnightblue",fontsize="10",style="solid",fontname="Helvetica"];
  Node25 [label="cmake/SFML-2.5.1/include\l/SFML/Window/Event.hpp",height=0.2,width=0.4,color="black", fillcolor="white", style="filled",URL="$_event_8hpp.html",tooltip=" "];
  Node25 -> Node3 [dir="back",color="midnightblue",fontsize="10",style="solid",fontname="Helvetica"];
  Node24 -> Node3 [dir="back",color="midnightblue",fontsize="10",style="solid",fontname="Helvetica"];
  Node1 -> Node26 [dir="back",color="midnightblue",fontsize="10",style="solid",fontname="Helvetica"];
  Node26 [label="cmake/SFML-2.5.1/include\l/SFML/Window/Keyboard.hpp",height=0.2,width=0.4,color="black", fillcolor="white", style="filled",URL="$_keyboard_8hpp.html",tooltip=" "];
  Node26 -> Node25 [dir="back",color="midnightblue",fontsize="10",style="solid",fontname="Helvetica"];
  Node26 -> Node3 [dir="back",color="midnightblue",fontsize="10",style="solid",fontname="Helvetica"];
  Node1 -> Node27 [dir="back",color="midnightblue",fontsize="10",style="solid",fontname="Helvetica"];
  Node27 [label="cmake/SFML-2.5.1/include\l/SFML/Window/Mouse.hpp",height=0.2,width=0.4,color="black", fillcolor="white", style="filled",URL="$_mouse_8hpp.html",tooltip=" "];
  Node27 -> Node25 [dir="back",color="midnightblue",fontsize="10",style="solid",fontname="Helvetica"];
  Node27 -> Node3 [dir="back",color="midnightblue",fontsize="10",style="solid",fontname="Helvetica"];
  Node1 -> Node28 [dir="back",color="midnightblue",fontsize="10",style="solid",fontname="Helvetica"];
  Node28 [label="cmake/SFML-2.5.1/include\l/SFML/Window/Sensor.hpp",height=0.2,width=0.4,color="black", fillcolor="white", style="filled",URL="$_sensor_8hpp.html",tooltip=" "];
  Node28 -> Node25 [dir="back",color="midnightblue",fontsize="10",style="solid",fontname="Helvetica"];
  Node28 -> Node3 [dir="back",color="midnightblue",fontsize="10",style="solid",fontname="Helvetica"];
  Node1 -> Node29 [dir="back",color="midnightblue",fontsize="10",style="solid",fontname="Helvetica"];
  Node29 [label="cmake/SFML-2.5.1/include\l/SFML/Window/Touch.hpp",height=0.2,width=0.4,color="black", fillcolor="white", style="filled",URL="$_touch_8hpp.html",tooltip=" "];
  Node29 -> Node3 [dir="back",color="midnightblue",fontsize="10",style="solid",fontname="Helvetica"];
  Node1 -> Node30 [dir="back",color="midnightblue",fontsize="10",style="solid",fontname="Helvetica"];
  Node30 [label="cmake/SFML-2.5.1/include\l/SFML/Window/VideoMode.hpp",height=0.2,width=0.4,color="black", fillcolor="white", style="filled",URL="$_video_mode_8hpp.html",tooltip=" "];
  Node30 -> Node15 [dir="back",color="midnightblue",fontsize="10",style="solid",fontname="Helvetica"];
  Node30 -> Node3 [dir="back",color="midnightblue",fontsize="10",style="solid",fontname="Helvetica"];
  Node1 -> Node15 [dir="back",color="midnightblue",fontsize="10",style="solid",fontname="Helvetica"];
}
