digraph "irr::core::triangle3d::isPointInsideFast"
{
 // LATEX_PDF_SIZE
  edge [fontname="Helvetica",fontsize="10",labelfontname="Helvetica",labelfontsize="10"];
  node [fontname="Helvetica",fontsize="10",shape=record];
  rankdir="LR";
  Node1 [label="irr::core::triangle3d\l::isPointInsideFast",height=0.2,width=0.4,color="black", fillcolor="grey75", style="filled", fontcolor="black",tooltip="Check if a point is inside the triangle (border-points count also as inside)"];
  Node1 -> Node2 [color="midnightblue",fontsize="10",style="solid",fontname="Helvetica"];
  Node2 [label="irr::core::vector3d\l::dotProduct",height=0.2,width=0.4,color="black", fillcolor="white", style="filled",URL="$classirr_1_1core_1_1vector3d.html#ae220d3f24173601c5957961382588394",tooltip="Get the dot product with another vector."];
}
