digraph "sf::Ftp::DirectoryResponse"
{
 // LATEX_PDF_SIZE
  edge [fontname="Helvetica",fontsize="10",labelfontname="Helvetica",labelfontsize="10"];
  node [fontname="Helvetica",fontsize="10",shape=record];
  Node1 [label="sf::Ftp::DirectoryResponse",height=0.2,width=0.4,color="black", fillcolor="grey75", style="filled", fontcolor="black",tooltip="Specialization of FTP response returning a directory."];
  Node2 -> Node1 [dir="back",color="midnightblue",fontsize="10",style="solid",fontname="Helvetica"];
  Node2 [label="sf::Ftp::Response",height=0.2,width=0.4,color="black", fillcolor="white", style="filled",URL="$classsf_1_1_ftp_1_1_response.html",tooltip="Define a FTP response."];
}
