digraph "StormBlink::onLoad"
{
 // LATEX_PDF_SIZE
  edge [fontname="Helvetica",fontsize="10",labelfontname="Helvetica",labelfontsize="10"];
  node [fontname="Helvetica",fontsize="10",shape=record];
  rankdir="LR";
  Node1 [label="StormBlink::onLoad",height=0.2,width=0.4,color="black", fillcolor="grey75", style="filled", fontcolor="black",tooltip=" "];
  Node1 -> Node2 [color="midnightblue",fontsize="10",style="solid",fontname="Helvetica"];
  Node2 [label="sf::VertexArray::append",height=0.2,width=0.4,color="black", fillcolor="white", style="filled",URL="$classsf_1_1_vertex_array.html#a80c8f6865e53bd21fc6cb10fffa10035",tooltip="Add a vertex to the array."];
  Node1 -> Node3 [color="midnightblue",fontsize="10",style="solid",fontname="Helvetica"];
  Node3 [label="sf::Shader::loadFromFile",height=0.2,width=0.4,color="black", fillcolor="white", style="filled",URL="$classsf_1_1_shader.html#a053a5632848ebaca2fcd8ba29abe9e6e",tooltip="Load the vertex, geometry or fragment shader from a file."];
  Node1 -> Node4 [color="midnightblue",fontsize="10",style="solid",fontname="Helvetica"];
  Node4 [label="sf::VertexArray::setPrimitiveType",height=0.2,width=0.4,color="black", fillcolor="white", style="filled",URL="$classsf_1_1_vertex_array.html#aa38c10707c28a97f4627ae8b2f3ad969",tooltip="Set the type of primitives to draw."];
}
