digraph "irr::scene::IIndexBuffer::setHardwareMappingHint"
{
 // LATEX_PDF_SIZE
  edge [fontname="Helvetica",fontsize="10",labelfontname="Helvetica",labelfontsize="10"];
  node [fontname="Helvetica",fontsize="10",shape=record];
  rankdir="RL";
  Node1 [label="irr::scene::IIndexBuffer\l::setHardwareMappingHint",height=0.2,width=0.4,color="black", fillcolor="grey75", style="filled", fontcolor="black",tooltip="set the hardware mapping hint, for driver"];
  Node1 -> Node2 [dir="back",color="midnightblue",fontsize="10",style="solid",fontname="Helvetica"];
  Node2 [label="irr::scene::IDynamicMesh\lBuffer::setHardwareMappingHint",height=0.2,width=0.4,color="black", fillcolor="white", style="filled",URL="$classirr_1_1scene_1_1_i_dynamic_mesh_buffer.html#a8286f22fc7967422e2ddb5c183473247",tooltip="set the hardware mapping hint, for driver"];
}
