digraph "sf::UdpSocket"
{
 // LATEX_PDF_SIZE
  edge [fontname="Helvetica",fontsize="10",labelfontname="Helvetica",labelfontsize="10"];
  node [fontname="Helvetica",fontsize="10",shape=record];
  Node1 [label="sf::UdpSocket",height=0.2,width=0.4,color="black", fillcolor="grey75", style="filled", fontcolor="black",tooltip="Specialized socket using the UDP protocol."];
  Node2 -> Node1 [dir="back",color="midnightblue",fontsize="10",style="solid",fontname="Helvetica"];
  Node2 [label="sf::Socket",height=0.2,width=0.4,color="black", fillcolor="white", style="filled",URL="$classsf_1_1_socket.html",tooltip="Base class for all the socket types."];
  Node3 -> Node2 [dir="back",color="firebrick4",fontsize="10",style="solid",fontname="Helvetica"];
  Node3 [label="sf::NonCopyable",height=0.2,width=0.4,color="black", fillcolor="white", style="filled",URL="$classsf_1_1_non_copyable.html",tooltip="Utility class that makes any derived class non-copyable."];
}
