digraph "indie::Graphical::EntityToBlock"
{
 // LATEX_PDF_SIZE
  edge [fontname="Helvetica",fontsize="10",labelfontname="Helvetica",labelfontsize="10"];
  node [fontname="Helvetica",fontsize="10",shape=record];
  rankdir="LR";
  Node1 [label="indie::Graphical::Entity\lToBlock",height=0.2,width=0.4,color="black", fillcolor="grey75", style="filled", fontcolor="black",tooltip=" "];
  Node1 -> Node2 [color="midnightblue",fontsize="10",style="solid",fontname="Helvetica"];
  Node2 [label="CubeComponent::getIsLoad",height=0.2,width=0.4,color="black", fillcolor="white", style="filled",URL="$class_cube_component.html#a4c3cab2fe562586cd6e0e57bb58e7bbe",tooltip=" "];
  Node1 -> Node3 [color="midnightblue",fontsize="10",style="solid",fontname="Helvetica"];
  Node3 [label="CubeComponent::getNode",height=0.2,width=0.4,color="black", fillcolor="white", style="filled",URL="$class_cube_component.html#a0e284f2bd9123742c9dcb91c499fc390",tooltip=" "];
  Node1 -> Node4 [color="midnightblue",fontsize="10",style="solid",fontname="Helvetica"];
  Node4 [label="indie::Collision::setCollision",height=0.2,width=0.4,color="black", fillcolor="white", style="filled",URL="$classindie_1_1_collision.html#abb5bcdefdd8d081adbcde3dd947e5d3d",tooltip=" "];
  Node4 -> Node5 [color="midnightblue",fontsize="10",style="solid",fontname="Helvetica"];
  Node5 [label="irr::scene::ISceneNode\l::addAnimator",height=0.2,width=0.4,color="black", fillcolor="white", style="filled",URL="$classirr_1_1scene_1_1_i_scene_node.html#a0e5cd342cd7293c136e53e2c2c5e0f3a",tooltip="Adds an animator which should animate this node."];
  Node5 -> Node6 [color="midnightblue",fontsize="10",style="solid",fontname="Helvetica"];
  Node6 [label="irr::IReferenceCounted\l::grab",height=0.2,width=0.4,color="black", fillcolor="white", style="filled",URL="$classirr_1_1_i_reference_counted.html#a396f9cdbe311ada278626477b3c6f0f5",tooltip="Grabs the object. Increments the reference counter by one."];
  Node4 -> Node7 [color="midnightblue",fontsize="10",style="solid",fontname="Helvetica"];
  Node7 [label="irr::scene::ISceneManager\l::createCollisionResponseAnimator",height=0.2,width=0.4,color="black", fillcolor="white", style="filled",URL="$classirr_1_1scene_1_1_i_scene_manager.html#a67b266cc40ebd66b5d21c26a78f002be",tooltip="Creates a special scene node animator for doing automatic collision detection and response."];
  Node4 -> Node8 [color="midnightblue",fontsize="10",style="solid",fontname="Helvetica"];
  Node8 [label="irr::scene::ISceneManager\l::createOctreeTriangleSelector",height=0.2,width=0.4,color="black", fillcolor="white", style="filled",URL="$classirr_1_1scene_1_1_i_scene_manager.html#a4ed7d3b34f4d0c70395b6d464fe32b96",tooltip="Creates a Triangle Selector, optimized by an octree."];
  Node4 -> Node9 [color="midnightblue",fontsize="10",style="solid",fontname="Helvetica"];
  Node9 [label="irr::IReferenceCounted\l::drop",height=0.2,width=0.4,color="black", fillcolor="white", style="filled",URL="$classirr_1_1_i_reference_counted.html#a03856a09355b89d178090c4a5f738543",tooltip="Drops the object. Decrements the reference counter by one."];
  Node4 -> Node10 [color="midnightblue",fontsize="10",style="solid",fontname="Helvetica"];
  Node10 [label="irr::scene::ISceneNode\l::getBoundingBox",height=0.2,width=0.4,color="black", fillcolor="white", style="filled",URL="$classirr_1_1scene_1_1_i_scene_node.html#a223f718fc2f4944b5ad28c592f6cc8c6",tooltip="Get the axis aligned, not transformed bounding box of this node."];
  Node4 -> Node11 [color="midnightblue",fontsize="10",style="solid",fontname="Helvetica"];
  Node11 [label="irr::core::aabbox3d\l::getCenter",height=0.2,width=0.4,color="black", fillcolor="white", style="filled",URL="$classirr_1_1core_1_1aabbox3d.html#ad2e956303fd85f900f93c067fd9c2647",tooltip="Get center of the bounding box."];
  Node4 -> Node12 [color="midnightblue",fontsize="10",style="solid",fontname="Helvetica"];
  Node12 [label="irr::scene::IMeshSceneNode\l::getMesh",height=0.2,width=0.4,color="black", fillcolor="white", style="filled",URL="$classirr_1_1scene_1_1_i_mesh_scene_node.html#afe540de69bc3a058919cd5ce465be634",tooltip="Get the currently defined mesh for display."];
  Node4 -> Node13 [color="midnightblue",fontsize="10",style="solid",fontname="Helvetica"];
  Node13 [label="irr::scene::ISceneNode\l::setTriangleSelector",height=0.2,width=0.4,color="black", fillcolor="white", style="filled",URL="$classirr_1_1scene_1_1_i_scene_node.html#a87fb52ec54bf3ae117340d8defd1255f",tooltip="Sets the triangle selector of the scene node."];
  Node13 -> Node9 [color="midnightblue",fontsize="10",style="solid",fontname="Helvetica"];
  Node13 -> Node6 [color="midnightblue",fontsize="10",style="solid",fontname="Helvetica"];
}
