digraph "irr::core::quaternion::set"
{
 // LATEX_PDF_SIZE
  edge [fontname="Helvetica",fontsize="10",labelfontname="Helvetica",labelfontsize="10"];
  node [fontname="Helvetica",fontsize="10",shape=record];
  rankdir="LR";
  Node1 [label="irr::core::quaternion::set",height=0.2,width=0.4,color="black", fillcolor="grey75", style="filled", fontcolor="black",tooltip="Sets new quaternion based on euler angles (radians)"];
  Node1 -> Node2 [color="midnightblue",fontsize="10",style="solid",fontname="Helvetica"];
  Node2 [label="irr::core::quaternion\l::normalize",height=0.2,width=0.4,color="black", fillcolor="white", style="filled",URL="$classirr_1_1core_1_1quaternion.html#aac7a34ffd2a14a78de12d994539b94f9",tooltip="Normalizes the quaternion."];
  Node2 -> Node3 [color="midnightblue",fontsize="10",style="solid",fontname="Helvetica"];
  Node3 [label="irr::core::reciprocal\l_squareroot",height=0.2,width=0.4,color="black", fillcolor="white", style="filled",URL="$namespaceirr_1_1core.html#adaef309f12c2a3386e94610e24f2bfa7",tooltip=" "];
}
