digraph "irr::core::CMatrix4::getTranslation"
{
 // LATEX_PDF_SIZE
  edge [fontname="Helvetica",fontsize="10",labelfontname="Helvetica",labelfontsize="10"];
  node [fontname="Helvetica",fontsize="10",shape=record];
  rankdir="RL";
  Node1 [label="irr::core::CMatrix4\l::getTranslation",height=0.2,width=0.4,color="black", fillcolor="grey75", style="filled", fontcolor="black",tooltip="Gets the current translation."];
  Node1 -> Node2 [dir="back",color="midnightblue",fontsize="10",style="solid",fontname="Helvetica"];
  Node2 [label="irr::scene::ISceneNode\l::getAbsolutePosition",height=0.2,width=0.4,color="black", fillcolor="white", style="filled",URL="$classirr_1_1scene_1_1_i_scene_node.html#a09a1c2ce3cf5448197a0c7b0bb16a516",tooltip="Gets the absolute position of the node in world coordinates."];
}
