digraph "irr::core::plane3d::getIntersectionWithPlanes"
{
 // LATEX_PDF_SIZE
  edge [fontname="Helvetica",fontsize="10",labelfontname="Helvetica",labelfontsize="10"];
  node [fontname="Helvetica",fontsize="10",shape=record];
  rankdir="RL";
  Node1 [label="irr::core::plane3d\l::getIntersectionWithPlanes",height=0.2,width=0.4,color="black", fillcolor="grey75", style="filled", fontcolor="black",tooltip="Get the intersection point with two other planes if there is one."];
  Node1 -> Node2 [dir="back",color="midnightblue",fontsize="10",style="solid",fontname="Helvetica"];
  Node2 [label="irr::scene::SViewFrustum\l::getFarLeftDown",height=0.2,width=0.4,color="black", fillcolor="white", style="filled",URL="$structirr_1_1scene_1_1_s_view_frustum.html#a83216ce3be2990e7e4849bf985d89fd6",tooltip="returns the point which is on the far left bottom corner inside the the view frustum."];
  Node2 -> Node3 [dir="back",color="midnightblue",fontsize="10",style="solid",fontname="Helvetica"];
  Node3 [label="irr::scene::SViewFrustum\l::recalculateBoundingBox",height=0.2,width=0.4,color="black", fillcolor="white", style="filled",URL="$structirr_1_1scene_1_1_s_view_frustum.html#a458eb19a23bcad50da0f9d3163e3621b",tooltip="recalculates the bounding box member based on the planes"];
  Node3 -> Node4 [dir="back",color="midnightblue",fontsize="10",style="solid",fontname="Helvetica"];
  Node4 [label="irr::scene::SViewFrustum\l::setFrom",height=0.2,width=0.4,color="black", fillcolor="white", style="filled",URL="$structirr_1_1scene_1_1_s_view_frustum.html#a2517bde9292aa26119d75b9ff0b92833",tooltip="This constructor creates a view frustum based on a projection and/or view matrix."];
  Node4 -> Node5 [dir="back",color="midnightblue",fontsize="10",style="solid",fontname="Helvetica"];
  Node5 [label="irr::scene::SViewFrustum\l::SViewFrustum",height=0.2,width=0.4,color="black", fillcolor="white", style="filled",URL="$structirr_1_1scene_1_1_s_view_frustum.html#acfcbb01f1e26f73ee1d9c7695302a508",tooltip="This constructor creates a view frustum based on a projection and/or view matrix."];
  Node3 -> Node6 [dir="back",color="midnightblue",fontsize="10",style="solid",fontname="Helvetica"];
  Node6 [label="irr::scene::SViewFrustum\l::transform",height=0.2,width=0.4,color="black", fillcolor="white", style="filled",URL="$structirr_1_1scene_1_1_s_view_frustum.html#aeabadaf532f08ba3cb98b897ff0619f2",tooltip="transforms the frustum by the matrix"];
  Node1 -> Node7 [dir="back",color="midnightblue",fontsize="10",style="solid",fontname="Helvetica"];
  Node7 [label="irr::scene::SViewFrustum\l::getFarLeftUp",height=0.2,width=0.4,color="black", fillcolor="white", style="filled",URL="$structirr_1_1scene_1_1_s_view_frustum.html#aa88c3024a6d2b5dc67e53014d2632df8",tooltip="returns the point which is on the far left upper corner inside the the view frustum."];
  Node7 -> Node3 [dir="back",color="midnightblue",fontsize="10",style="solid",fontname="Helvetica"];
  Node1 -> Node8 [dir="back",color="midnightblue",fontsize="10",style="solid",fontname="Helvetica"];
  Node8 [label="irr::scene::SViewFrustum\l::getFarRightDown",height=0.2,width=0.4,color="black", fillcolor="white", style="filled",URL="$structirr_1_1scene_1_1_s_view_frustum.html#ab1bf1b3cf323812ed4259268ce7ecf76",tooltip="returns the point which is on the far right bottom corner inside the the view frustum."];
  Node8 -> Node3 [dir="back",color="midnightblue",fontsize="10",style="solid",fontname="Helvetica"];
  Node1 -> Node9 [dir="back",color="midnightblue",fontsize="10",style="solid",fontname="Helvetica"];
  Node9 [label="irr::scene::SViewFrustum\l::getFarRightUp",height=0.2,width=0.4,color="black", fillcolor="white", style="filled",URL="$structirr_1_1scene_1_1_s_view_frustum.html#a2cce344ced4939aebfe3c9d9396cb4ec",tooltip="returns the point which is on the far right top corner inside the the view frustum."];
  Node9 -> Node3 [dir="back",color="midnightblue",fontsize="10",style="solid",fontname="Helvetica"];
  Node1 -> Node10 [dir="back",color="midnightblue",fontsize="10",style="solid",fontname="Helvetica"];
  Node10 [label="irr::scene::SViewFrustum\l::getNearLeftDown",height=0.2,width=0.4,color="black", fillcolor="white", style="filled",URL="$structirr_1_1scene_1_1_s_view_frustum.html#ae73eb80d9fe631b8795bb9f9afdf5eff",tooltip="returns the point which is on the near left bottom corner inside the the view frustum."];
  Node1 -> Node11 [dir="back",color="midnightblue",fontsize="10",style="solid",fontname="Helvetica"];
  Node11 [label="irr::scene::SViewFrustum\l::getNearLeftUp",height=0.2,width=0.4,color="black", fillcolor="white", style="filled",URL="$structirr_1_1scene_1_1_s_view_frustum.html#ae2fae0821834125e0d34bb2fab27c643",tooltip="returns the point which is on the near left upper corner inside the the view frustum."];
  Node1 -> Node12 [dir="back",color="midnightblue",fontsize="10",style="solid",fontname="Helvetica"];
  Node12 [label="irr::scene::SViewFrustum\l::getNearRightDown",height=0.2,width=0.4,color="black", fillcolor="white", style="filled",URL="$structirr_1_1scene_1_1_s_view_frustum.html#a6143916b2000537b33834cfb9aa898fa",tooltip="returns the point which is on the near right bottom corner inside the the view frustum."];
  Node1 -> Node13 [dir="back",color="midnightblue",fontsize="10",style="solid",fontname="Helvetica"];
  Node13 [label="irr::scene::SViewFrustum\l::getNearRightUp",height=0.2,width=0.4,color="black", fillcolor="white", style="filled",URL="$structirr_1_1scene_1_1_s_view_frustum.html#a498ea58e0ce6c52e655aa9d7fe387b84",tooltip="returns the point which is on the near right top corner inside the the view frustum."];
}
