digraph "irr::scene::ISceneNodeAnimatorCollisionResponse"
{
 // LATEX_PDF_SIZE
  edge [fontname="Helvetica",fontsize="10",labelfontname="Helvetica",labelfontsize="10"];
  node [fontname="Helvetica",fontsize="10",shape=record];
  Node1 [label="irr::scene::ISceneNodeAnimator\lCollisionResponse",height=0.2,width=0.4,color="black", fillcolor="grey75", style="filled", fontcolor="black",tooltip="Special scene node animator for doing automatic collision detection and response."];
  Node2 -> Node1 [dir="back",color="midnightblue",fontsize="10",style="solid",fontname="Helvetica"];
  Node2 [label="irr::scene::ISceneNodeAnimator",height=0.2,width=0.4,color="black", fillcolor="white", style="filled",URL="$classirr_1_1scene_1_1_i_scene_node_animator.html",tooltip="Animates a scene node. Can animate position, rotation, material, and so on."];
  Node3 -> Node2 [dir="back",color="midnightblue",fontsize="10",style="solid",fontname="Helvetica"];
  Node3 [label="irr::io::IAttributeExchanging\lObject",height=0.2,width=0.4,color="black", fillcolor="white", style="filled",URL="$classirr_1_1io_1_1_i_attribute_exchanging_object.html",tooltip="An object which is able to serialize and deserialize its attributes into an attributes object."];
  Node4 -> Node3 [dir="back",color="midnightblue",fontsize="10",style="solid",fontname="Helvetica"];
  Node4 [label="irr::IReferenceCounted",height=0.2,width=0.4,color="black", fillcolor="white", style="filled",URL="$classirr_1_1_i_reference_counted.html",tooltip="Base class of most objects of the Irrlicht Engine."];
  Node5 -> Node2 [dir="back",color="midnightblue",fontsize="10",style="solid",fontname="Helvetica"];
  Node5 [label="irr::IEventReceiver",height=0.2,width=0.4,color="black", fillcolor="white", style="filled",URL="$classirr_1_1_i_event_receiver.html",tooltip="Interface of an object which can receive events."];
}
