digraph "irr::core::CMatrix4::buildProjectionMatrixPerspectiveFovInfinityLH"
{
 // LATEX_PDF_SIZE
  edge [fontname="Helvetica",fontsize="10",labelfontname="Helvetica",labelfontsize="10"];
  node [fontname="Helvetica",fontsize="10",shape=record];
  rankdir="LR";
  Node1 [label="irr::core::CMatrix4\l::buildProjectionMatrixPerspective\lFovInfinityLH",height=0.2,width=0.4,color="black", fillcolor="grey75", style="filled", fontcolor="black",tooltip="Builds a left-handed perspective projection matrix based on a field of view, with far plane at infini..."];
  Node1 -> Node2 [color="midnightblue",fontsize="10",style="solid",fontname="Helvetica"];
  Node2 [label="irr::core::reciprocal",height=0.2,width=0.4,color="black", fillcolor="white", style="filled",URL="$namespaceirr_1_1core.html#aa01390f49052dfe07e16ee6c5233f4eb",tooltip=" "];
}
