digraph "irr::scene::IVertexBuffer::getData"
{
 // LATEX_PDF_SIZE
  edge [fontname="Helvetica",fontsize="10",labelfontname="Helvetica",labelfontsize="10"];
  node [fontname="Helvetica",fontsize="10",shape=record];
  rankdir="RL";
  Node1 [label="irr::scene::IVertexBuffer\l::getData",height=0.2,width=0.4,color="black", fillcolor="grey75", style="filled", fontcolor="black",tooltip=" "];
  Node1 -> Node2 [dir="back",color="midnightblue",fontsize="10",style="solid",fontname="Helvetica"];
  Node2 [label="irr::scene::IDynamicMesh\lBuffer::getVertices",height=0.2,width=0.4,color="black", fillcolor="white", style="filled",URL="$classirr_1_1scene_1_1_i_dynamic_mesh_buffer.html#a433e0e8ec301ce898dc373ca65e30e85",tooltip="Get access to vertex data. The data is an array of vertices."];
}
