digraph "sf::SoundBuffer"
{
 // LATEX_PDF_SIZE
  edge [fontname="Helvetica",fontsize="10",labelfontname="Helvetica",labelfontsize="10"];
  node [fontname="Helvetica",fontsize="10",shape=record];
  Node1 [label="sf::SoundBuffer",height=0.2,width=0.4,color="black", fillcolor="grey75", style="filled", fontcolor="black",tooltip="Storage for audio samples defining a sound."];
  Node2 -> Node1 [dir="back",color="firebrick4",fontsize="10",style="solid",fontname="Helvetica"];
  Node2 [label="sf::AlResource",height=0.2,width=0.4,color="black", fillcolor="white", style="filled",URL="$classsf_1_1_al_resource.html",tooltip="Base class for classes that require an OpenAL context."];
}
