digraph "irr::gui::IGUIButton"
{
 // LATEX_PDF_SIZE
  edge [fontname="Helvetica",fontsize="10",labelfontname="Helvetica",labelfontsize="10"];
  node [fontname="Helvetica",fontsize="10",shape=record];
  rankdir="LR";
  Node1 [label="irr::gui::IGUIButton",height=0.2,width=0.4,color="black", fillcolor="grey75", style="filled", fontcolor="black",tooltip="GUI Button interface."];
  Node2 -> Node1 [dir="back",color="midnightblue",fontsize="10",style="solid",fontname="Helvetica"];
  Node2 [label="irr::gui::IGUIElement",height=0.2,width=0.4,color="black", fillcolor="white", style="filled",URL="$classirr_1_1gui_1_1_i_g_u_i_element.html",tooltip="Base class of all GUI elements."];
  Node3 -> Node2 [dir="back",color="midnightblue",fontsize="10",style="solid",fontname="Helvetica"];
  Node3 [label="irr::io::IAttributeExchanging\lObject",height=0.2,width=0.4,color="black", fillcolor="white", style="filled",URL="$classirr_1_1io_1_1_i_attribute_exchanging_object.html",tooltip="An object which is able to serialize and deserialize its attributes into an attributes object."];
  Node4 -> Node3 [dir="back",color="midnightblue",fontsize="10",style="solid",fontname="Helvetica"];
  Node4 [label="irr::IReferenceCounted",height=0.2,width=0.4,color="black", fillcolor="white", style="filled",URL="$classirr_1_1_i_reference_counted.html",tooltip="Base class of most objects of the Irrlicht Engine."];
  Node5 -> Node2 [dir="back",color="midnightblue",fontsize="10",style="solid",fontname="Helvetica"];
  Node5 [label="irr::IEventReceiver",height=0.2,width=0.4,color="black", fillcolor="white", style="filled",URL="$classirr_1_1_i_event_receiver.html",tooltip="Interface of an object which can receive events."];
  Node2 -> Node2 [dir="back",color="darkorchid3",fontsize="10",style="dashed",label=" Parent" ,fontname="Helvetica"];
  Node6 -> Node2 [dir="back",color="darkorchid3",fontsize="10",style="dashed",label=" AbsoluteClippingRect\nLastParentRect\nRelativeRect\nDesiredRect\nAbsoluteRect" ,fontname="Helvetica"];
  Node6 [label="irr::core::rect\< s32 \>",height=0.2,width=0.4,color="black", fillcolor="white", style="filled",URL="$classirr_1_1core_1_1rect.html",tooltip=" "];
  Node7 -> Node2 [dir="back",color="darkorchid3",fontsize="10",style="dashed",label=" Environment" ,fontname="Helvetica"];
  Node7 [label="irr::gui::IGUIEnvironment",height=0.2,width=0.4,color="black", fillcolor="white", style="filled",URL="$classirr_1_1gui_1_1_i_g_u_i_environment.html",tooltip="GUI Environment. Used as factory and manager of all other GUI elements."];
  Node4 -> Node7 [dir="back",color="midnightblue",fontsize="10",style="solid",fontname="Helvetica"];
  Node8 -> Node2 [dir="back",color="darkorchid3",fontsize="10",style="dashed",label=" Children" ,fontname="Helvetica"];
  Node8 [label="irr::core::list\< irr\l::gui::IGUIElement * \>",height=0.2,width=0.4,color="black", fillcolor="white", style="filled",URL="$classirr_1_1core_1_1list.html",tooltip=" "];
  Node9 -> Node2 [dir="back",color="darkorchid3",fontsize="10",style="dashed",label=" ScaleRect" ,fontname="Helvetica"];
  Node9 [label="irr::core::rect\< f32 \>",height=0.2,width=0.4,color="black", fillcolor="white", style="filled",URL="$classirr_1_1core_1_1rect.html",tooltip=" "];
}
