digraph "indie::Graphical::EntityToSprite"
{
 // LATEX_PDF_SIZE
  edge [fontname="Helvetica",fontsize="10",labelfontname="Helvetica",labelfontsize="10"];
  node [fontname="Helvetica",fontsize="10",shape=record];
  rankdir="LR";
  Node1 [label="indie::Graphical::Entity\lToSprite",height=0.2,width=0.4,color="black", fillcolor="grey75", style="filled", fontcolor="black",tooltip=" "];
  Node1 -> Node2 [color="midnightblue",fontsize="10",style="solid",fontname="Helvetica"];
  Node2 [label="indie::TextureComponent\l::getPath",height=0.2,width=0.4,color="black", fillcolor="white", style="filled",URL="$classindie_1_1_texture_component.html#ac76e541ef3cc7f54d09d953764410dab",tooltip=" "];
}
