digraph "indie::Collision::setCollision"
{
 // LATEX_PDF_SIZE
  edge [fontname="Helvetica",fontsize="10",labelfontname="Helvetica",labelfontsize="10"];
  node [fontname="Helvetica",fontsize="10",shape=record];
  rankdir="RL";
  Node1 [label="indie::Collision::setCollision",height=0.2,width=0.4,color="black", fillcolor="grey75", style="filled", fontcolor="black",tooltip=" "];
  Node1 -> Node2 [dir="back",color="midnightblue",fontsize="10",style="solid",fontname="Helvetica"];
  Node2 [label="indie::Graphical::Entity\lToBlock",height=0.2,width=0.4,color="black", fillcolor="white", style="filled",URL="$classindie_1_1_graphical.html#a6a9083751a53c476544993433ee7db1b",tooltip=" "];
}
