digraph "irr::scene::CMeshBuffer::CMeshBuffer"
{
 // LATEX_PDF_SIZE
  edge [fontname="Helvetica",fontsize="10",labelfontname="Helvetica",labelfontsize="10"];
  node [fontname="Helvetica",fontsize="10",shape=record];
  rankdir="LR";
  Node1 [label="irr::scene::CMeshBuffer\l::CMeshBuffer",height=0.2,width=0.4,color="black", fillcolor="grey75", style="filled", fontcolor="black",tooltip="Default constructor for empty meshbuffer."];
  Node1 -> Node2 [color="midnightblue",fontsize="10",style="solid",fontname="Helvetica"];
  Node2 [label="irr::IReferenceCounted\l::setDebugName",height=0.2,width=0.4,color="black", fillcolor="white", style="filled",URL="$classirr_1_1_i_reference_counted.html#a704c5042d399fe8cd3bdd65a0559002a",tooltip="Sets the debug name of the object."];
}
