digraph "WaveBlur::onLoad"
{
 // LATEX_PDF_SIZE
  edge [fontname="Helvetica",fontsize="10",labelfontname="Helvetica",labelfontsize="10"];
  node [fontname="Helvetica",fontsize="10",shape=record];
  rankdir="LR";
  Node1 [label="WaveBlur::onLoad",height=0.2,width=0.4,color="black", fillcolor="grey75", style="filled", fontcolor="black",tooltip=" "];
  Node1 -> Node2 [color="midnightblue",fontsize="10",style="solid",fontname="Helvetica"];
  Node2 [label="Effect::getFont",height=0.2,width=0.4,color="black", fillcolor="white", style="filled",URL="$class_effect.html#a406376adb93215da98a51e7eeb4658e6",tooltip=" "];
  Node1 -> Node3 [color="midnightblue",fontsize="10",style="solid",fontname="Helvetica"];
  Node3 [label="sf::Shader::loadFromFile",height=0.2,width=0.4,color="black", fillcolor="white", style="filled",URL="$classsf_1_1_shader.html#a053a5632848ebaca2fcd8ba29abe9e6e",tooltip="Load the vertex, geometry or fragment shader from a file."];
  Node1 -> Node4 [color="midnightblue",fontsize="10",style="solid",fontname="Helvetica"];
  Node4 [label="sf::Text::setCharacterSize",height=0.2,width=0.4,color="black", fillcolor="white", style="filled",URL="$classsf_1_1_text.html#ae96f835fc1bff858f8a23c5b01eaaf7e",tooltip="Set the character size."];
  Node1 -> Node5 [color="midnightblue",fontsize="10",style="solid",fontname="Helvetica"];
  Node5 [label="sf::Text::setFont",height=0.2,width=0.4,color="black", fillcolor="white", style="filled",URL="$classsf_1_1_text.html#a2927805d1ae92d57f15034ea34756b81",tooltip="Set the text's font."];
  Node1 -> Node6 [color="midnightblue",fontsize="10",style="solid",fontname="Helvetica"];
  Node6 [label="sf::Transformable::\lsetPosition",height=0.2,width=0.4,color="black", fillcolor="white", style="filled",URL="$classsf_1_1_transformable.html#a4dbfb1a7c80688b0b4c477d706550208",tooltip="set the position of the object"];
  Node1 -> Node7 [color="midnightblue",fontsize="10",style="solid",fontname="Helvetica"];
  Node7 [label="sf::Text::setString",height=0.2,width=0.4,color="black", fillcolor="white", style="filled",URL="$classsf_1_1_text.html#a7d3b3359f286fd9503d1ced25b7b6c33",tooltip="Set the text's string."];
}
