digraph "irr::video::SColor::getLuminance"
{
 // LATEX_PDF_SIZE
  edge [fontname="Helvetica",fontsize="10",labelfontname="Helvetica",labelfontsize="10"];
  node [fontname="Helvetica",fontsize="10",shape=record];
  rankdir="RL";
  Node1 [label="irr::video::SColor\l::getLuminance",height=0.2,width=0.4,color="black", fillcolor="grey75", style="filled", fontcolor="black",tooltip="Get luminance of the color in the range [0,255]."];
  Node1 -> Node2 [dir="back",color="midnightblue",fontsize="10",style="solid",fontname="Helvetica"];
  Node2 [label="irr::scene::SVertexColor\lDesaturateToLuminanceManipulator\l::operator()",height=0.2,width=0.4,color="black", fillcolor="white", style="filled",URL="$classirr_1_1scene_1_1_s_vertex_color_desaturate_to_luminance_manipulator.html#a583589d3a02441f75c40e53e2541fc56",tooltip=" "];
}
