digraph "sf::RectangleShape"
{
 // LATEX_PDF_SIZE
  edge [fontname="Helvetica",fontsize="10",labelfontname="Helvetica",labelfontsize="10"];
  node [fontname="Helvetica",fontsize="10",shape=record];
  Node1 [label="sf::RectangleShape",height=0.2,width=0.4,color="black", fillcolor="grey75", style="filled", fontcolor="black",tooltip="Specialized shape representing a rectangle."];
  Node2 -> Node1 [dir="back",color="midnightblue",fontsize="10",style="solid",fontname="Helvetica"];
  Node2 [label="sf::Shape",height=0.2,width=0.4,color="black", fillcolor="white", style="filled",URL="$classsf_1_1_shape.html",tooltip="Base class for textured shapes with outline."];
  Node3 -> Node2 [dir="back",color="midnightblue",fontsize="10",style="solid",fontname="Helvetica"];
  Node3 [label="sf::Drawable",height=0.2,width=0.4,color="black", fillcolor="white", style="filled",URL="$classsf_1_1_drawable.html",tooltip="Abstract base class for objects that can be drawn to a render target."];
  Node4 -> Node2 [dir="back",color="midnightblue",fontsize="10",style="solid",fontname="Helvetica"];
  Node4 [label="sf::Transformable",height=0.2,width=0.4,color="black", fillcolor="white", style="filled",URL="$classsf_1_1_transformable.html",tooltip="Decomposed transform defined by a position, a rotation and a scale."];
}
