digraph "Edge"
{
 // LATEX_PDF_SIZE
  edge [fontname="Helvetica",fontsize="10",labelfontname="Helvetica",labelfontsize="10"];
  node [fontname="Helvetica",fontsize="10",shape=record];
  Node1 [label="Edge",height=0.2,width=0.4,color="black", fillcolor="grey75", style="filled", fontcolor="black",tooltip=" "];
  Node2 -> Node1 [dir="back",color="midnightblue",fontsize="10",style="solid",fontname="Helvetica"];
  Node2 [label="Effect",height=0.2,width=0.4,color="black", fillcolor="white", style="filled",URL="$class_effect.html",tooltip=" "];
  Node3 -> Node2 [dir="back",color="midnightblue",fontsize="10",style="solid",fontname="Helvetica"];
  Node3 [label="sf::Drawable",height=0.2,width=0.4,color="black", fillcolor="white", style="filled",URL="$classsf_1_1_drawable.html",tooltip="Abstract base class for objects that can be drawn to a render target."];
}
