digraph "indie::IndieError::what"
{
 // LATEX_PDF_SIZE
  edge [fontname="Helvetica",fontsize="10",labelfontname="Helvetica",labelfontsize="10"];
  node [fontname="Helvetica",fontsize="10",shape=record];
  rankdir="RL";
  Node1 [label="indie::IndieError::what",height=0.2,width=0.4,color="black", fillcolor="grey75", style="filled", fontcolor="black",tooltip=" "];
  Node1 -> Node2 [dir="back",color="midnightblue",fontsize="10",style="solid",fontname="Helvetica"];
  Node2 [label="main",height=0.2,width=0.4,color="black", fillcolor="white", style="filled",URL="$main_8cpp.html#a840291bc02cba5474a4cb46a9b9566fe",tooltip=" "];
  Node1 -> Node3 [dir="back",color="midnightblue",fontsize="10",style="solid",fontname="Helvetica"];
  Node3 [label="indie::Graphical::renderMap",height=0.2,width=0.4,color="black", fillcolor="white", style="filled",URL="$classindie_1_1_graphical.html#a0cca8ba278f3f9cedf258cb95433dd73",tooltip=" "];
}
