digraph "indie::Perso::Perso"
{
 // LATEX_PDF_SIZE
  edge [fontname="Helvetica",fontsize="10",labelfontname="Helvetica",labelfontsize="10"];
  node [fontname="Helvetica",fontsize="10",shape=record];
  rankdir="LR";
  Node1 [label="indie::Perso::Perso",height=0.2,width=0.4,color="black", fillcolor="grey75", style="filled", fontcolor="black",tooltip=" "];
  Node1 -> Node2 [color="midnightblue",fontsize="10",style="solid",fontname="Helvetica"];
  Node2 [label="indie::Perso::creatStatistics",height=0.2,width=0.4,color="black", fillcolor="white", style="filled",URL="$classindie_1_1_perso.html#a843c1ae372eff7211ef6e184be1f91f6",tooltip=" "];
}
