digraph "sf::Text::setCharacterSize"
{
 // LATEX_PDF_SIZE
  edge [fontname="Helvetica",fontsize="10",labelfontname="Helvetica",labelfontsize="10"];
  node [fontname="Helvetica",fontsize="10",shape=record];
  rankdir="RL";
  Node1 [label="sf::Text::setCharacterSize",height=0.2,width=0.4,color="black", fillcolor="grey75", style="filled", fontcolor="black",tooltip="Set the character size."];
  Node1 -> Node2 [dir="back",color="midnightblue",fontsize="10",style="solid",fontname="Helvetica"];
  Node2 [label="Effect::draw",height=0.2,width=0.4,color="black", fillcolor="white", style="filled",URL="$class_effect.html#a6a3a393e127581c7f84e1278b5be0438",tooltip="Draw the object to a render target."];
  Node1 -> Node3 [dir="back",color="midnightblue",fontsize="10",style="solid",fontname="Helvetica"];
  Node3 [label="main",height=0.2,width=0.4,color="black", fillcolor="white", style="filled",URL="$_island_8cpp.html#ae66f6b31b5ad750f1fe042a706a4e3d4",tooltip=" "];
  Node1 -> Node4 [dir="back",color="midnightblue",fontsize="10",style="solid",fontname="Helvetica"];
  Node4 [label="WaveBlur::onLoad",height=0.2,width=0.4,color="black", fillcolor="white", style="filled",URL="$class_wave_blur.html#a7fea002e212a7bb88126b25b6bd57396",tooltip=" "];
}
