digraph "irr::scene::IBoneSceneNode"
{
 // LATEX_PDF_SIZE
  edge [fontname="Helvetica",fontsize="10",labelfontname="Helvetica",labelfontsize="10"];
  node [fontname="Helvetica",fontsize="10",shape=record];
  rankdir="LR";
  Node1 [label="irr::scene::IBoneSceneNode",height=0.2,width=0.4,color="black", fillcolor="grey75", style="filled", fontcolor="black",tooltip="Interface for bones used for skeletal animation."];
  Node2 -> Node1 [dir="back",color="midnightblue",fontsize="10",style="solid",fontname="Helvetica"];
  Node2 [label="irr::scene::ISceneNode",height=0.2,width=0.4,color="black", fillcolor="white", style="filled",URL="$classirr_1_1scene_1_1_i_scene_node.html",tooltip="Scene node interface."];
  Node3 -> Node2 [dir="back",color="midnightblue",fontsize="10",style="solid",fontname="Helvetica"];
  Node3 [label="irr::io::IAttributeExchanging\lObject",height=0.2,width=0.4,color="black", fillcolor="white", style="filled",URL="$classirr_1_1io_1_1_i_attribute_exchanging_object.html",tooltip="An object which is able to serialize and deserialize its attributes into an attributes object."];
  Node4 -> Node3 [dir="back",color="midnightblue",fontsize="10",style="solid",fontname="Helvetica"];
  Node4 [label="irr::IReferenceCounted",height=0.2,width=0.4,color="black", fillcolor="white", style="filled",URL="$classirr_1_1_i_reference_counted.html",tooltip="Base class of most objects of the Irrlicht Engine."];
  Node5 -> Node2 [dir="back",color="darkorchid3",fontsize="10",style="dashed",label=" Animators" ,fontname="Helvetica"];
  Node5 [label="irr::core::list\< irr\l::scene::ISceneNodeAnimator * \>",height=0.2,width=0.4,color="black", fillcolor="white", style="filled",URL="$classirr_1_1core_1_1list.html",tooltip=" "];
  Node6 -> Node2 [dir="back",color="darkorchid3",fontsize="10",style="dashed",label=" TriangleSelector" ,fontname="Helvetica"];
  Node6 [label="irr::scene::ITriangleSelector",height=0.2,width=0.4,color="black", fillcolor="white", style="filled",URL="$classirr_1_1scene_1_1_i_triangle_selector.html",tooltip="Interface to return triangles with specific properties."];
  Node4 -> Node6 [dir="back",color="midnightblue",fontsize="10",style="solid",fontname="Helvetica"];
  Node7 -> Node2 [dir="back",color="darkorchid3",fontsize="10",style="dashed",label=" SceneManager" ,fontname="Helvetica"];
  Node7 [label="irr::scene::ISceneManager",height=0.2,width=0.4,color="black", fillcolor="white", style="filled",URL="$classirr_1_1scene_1_1_i_scene_manager.html",tooltip="The Scene Manager manages scene nodes, mesh recources, cameras and all the other stuff."];
  Node4 -> Node7 [dir="back",color="midnightblue",fontsize="10",style="solid",fontname="Helvetica"];
  Node8 -> Node2 [dir="back",color="darkorchid3",fontsize="10",style="dashed",label=" Children" ,fontname="Helvetica"];
  Node8 [label="irr::core::list\< irr\l::scene::ISceneNode * \>",height=0.2,width=0.4,color="black", fillcolor="white", style="filled",URL="$classirr_1_1core_1_1list.html",tooltip=" "];
  Node2 -> Node2 [dir="back",color="darkorchid3",fontsize="10",style="dashed",label=" Parent" ,fontname="Helvetica"];
}
