digraph "irr::scene::IMeshCache::getMeshByFilename"
{
 // LATEX_PDF_SIZE
  edge [fontname="Helvetica",fontsize="10",labelfontname="Helvetica",labelfontsize="10"];
  node [fontname="Helvetica",fontsize="10",shape=record];
  rankdir="LR";
  Node1 [label="irr::scene::IMeshCache\l::getMeshByFilename",height=0.2,width=0.4,color="black", fillcolor="grey75", style="filled", fontcolor="black",tooltip="Returns a mesh based on its name (often a filename)."];
  Node1 -> Node2 [color="midnightblue",fontsize="10",style="solid",fontname="Helvetica"];
  Node2 [label="irr::scene::IMeshCache\l::getMeshByName",height=0.2,width=0.4,color="black", fillcolor="white", style="filled",URL="$classirr_1_1scene_1_1_i_mesh_cache.html#a4c93e736bdca8c84d478afc82540d6bb",tooltip="Returns a mesh based on its name."];
}
