digraph "irr::core::triangle3d::isTotalInsideBox"
{
 // LATEX_PDF_SIZE
  edge [fontname="Helvetica",fontsize="10",labelfontname="Helvetica",labelfontsize="10"];
  node [fontname="Helvetica",fontsize="10",shape=record];
  rankdir="LR";
  Node1 [label="irr::core::triangle3d\l::isTotalInsideBox",height=0.2,width=0.4,color="black", fillcolor="grey75", style="filled", fontcolor="black",tooltip="Determines if the triangle is totally inside a bounding box."];
  Node1 -> Node2 [color="midnightblue",fontsize="10",style="solid",fontname="Helvetica"];
  Node2 [label="irr::core::aabbox3d\l::isPointInside",height=0.2,width=0.4,color="black", fillcolor="white", style="filled",URL="$classirr_1_1core_1_1aabbox3d.html#ae69d28e1e512f705a6cbf95c5829f6cd",tooltip="Determines if a point is within this box."];
}
