digraph "irr::scene::SVertexColorInterpolateLinearManipulator::operator()"
{
 // LATEX_PDF_SIZE
  edge [fontname="Helvetica",fontsize="10",labelfontname="Helvetica",labelfontsize="10"];
  node [fontname="Helvetica",fontsize="10",shape=record];
  rankdir="LR";
  Node1 [label="irr::scene::SVertexColor\lInterpolateLinearManipulator\l::operator()",height=0.2,width=0.4,color="black", fillcolor="grey75", style="filled", fontcolor="black",tooltip=" "];
  Node1 -> Node2 [color="midnightblue",fontsize="10",style="solid",fontname="Helvetica"];
  Node2 [label="irr::video::SColor\l::getInterpolated",height=0.2,width=0.4,color="black", fillcolor="white", style="filled",URL="$classirr_1_1video_1_1_s_color.html#a20bfa471b5cf672db83355c181a3cae6",tooltip="Interpolates the color with a f32 value to another color."];
  Node2 -> Node3 [color="midnightblue",fontsize="10",style="solid",fontname="Helvetica"];
  Node3 [label="irr::core::clamp",height=0.2,width=0.4,color="black", fillcolor="white", style="filled",URL="$namespaceirr_1_1core.html#a6162f685b68f629e77336081d3316969",tooltip="clamps a value between low and high"];
  Node3 -> Node4 [color="midnightblue",fontsize="10",style="solid",fontname="Helvetica"];
  Node4 [label="irr::core::max_",height=0.2,width=0.4,color="black", fillcolor="white", style="filled",URL="$namespaceirr_1_1core.html#afca1ce7ac54e0c31a9047947f4c7319b",tooltip="returns maximum of two values. Own implementation to get rid of the STL (VS6 problems)"];
  Node3 -> Node5 [color="midnightblue",fontsize="10",style="solid",fontname="Helvetica"];
  Node5 [label="irr::core::min_",height=0.2,width=0.4,color="black", fillcolor="white", style="filled",URL="$namespaceirr_1_1core.html#a9d34bfdbbe9c136b01ae04974572bc11",tooltip="returns minimum of two values. Own implementation to get rid of the STL (VS6 problems)"];
  Node2 -> Node6 [color="midnightblue",fontsize="10",style="solid",fontname="Helvetica"];
  Node6 [label="irr::video::SColor\l::getAlpha",height=0.2,width=0.4,color="black", fillcolor="white", style="filled",URL="$classirr_1_1video_1_1_s_color.html#a8b0bcff9036b06e3483978a84a924b91",tooltip="Returns the alpha component of the color."];
  Node2 -> Node7 [color="midnightblue",fontsize="10",style="solid",fontname="Helvetica"];
  Node7 [label="irr::video::SColor\l::getBlue",height=0.2,width=0.4,color="black", fillcolor="white", style="filled",URL="$classirr_1_1video_1_1_s_color.html#afb60ac456b2efc2f2a4f04a643293d26",tooltip="Returns the blue component of the color."];
  Node2 -> Node8 [color="midnightblue",fontsize="10",style="solid",fontname="Helvetica"];
  Node8 [label="irr::video::SColor\l::getGreen",height=0.2,width=0.4,color="black", fillcolor="white", style="filled",URL="$classirr_1_1video_1_1_s_color.html#a198773366f2a5436c1ca4adc9037bb8d",tooltip="Returns the green component of the color."];
  Node2 -> Node9 [color="midnightblue",fontsize="10",style="solid",fontname="Helvetica"];
  Node9 [label="irr::video::SColor\l::getRed",height=0.2,width=0.4,color="black", fillcolor="white", style="filled",URL="$classirr_1_1video_1_1_s_color.html#a70d11ec2247581c79ee11e0e1b511978",tooltip="Returns the red component of the color."];
  Node2 -> Node10 [color="midnightblue",fontsize="10",style="solid",fontname="Helvetica"];
  Node10 [label="irr::core::round32",height=0.2,width=0.4,color="black", fillcolor="white", style="filled",URL="$namespaceirr_1_1core.html#ae46f57f03e9033c57c180fbe83b04cf2",tooltip=" "];
  Node10 -> Node11 [color="midnightblue",fontsize="10",style="solid",fontname="Helvetica"];
  Node11 [label="irr::core::round_",height=0.2,width=0.4,color="black", fillcolor="white", style="filled",URL="$namespaceirr_1_1core.html#a894a901069c34298987761c5f3d74f1f",tooltip=" "];
  Node2 -> Node12 [color="midnightblue",fontsize="10",style="solid",fontname="Helvetica"];
  Node12 [label="irr::video::SColor\l::SColor",height=0.2,width=0.4,color="black", fillcolor="white", style="filled",URL="$classirr_1_1video_1_1_s_color.html#ab001c0c2515ff5f8a0b324d1345485f4",tooltip="Constructor of the Color. Does nothing."];
}
