digraph "Effect::load"
{
 // LATEX_PDF_SIZE
  edge [fontname="Helvetica",fontsize="10",labelfontname="Helvetica",labelfontsize="10"];
  node [fontname="Helvetica",fontsize="10",shape=record];
  rankdir="LR";
  Node1 [label="Effect::load",height=0.2,width=0.4,color="black", fillcolor="grey75", style="filled", fontcolor="black",tooltip=" "];
  Node1 -> Node2 [color="midnightblue",fontsize="10",style="solid",fontname="Helvetica"];
  Node2 [label="sf::Shader::isAvailable",height=0.2,width=0.4,color="black", fillcolor="white", style="filled",URL="$classsf_1_1_shader.html#ad22474690bafe4a305c1b9826b1bd86a",tooltip="Tell whether or not the system supports shaders."];
}
