digraph "sf::GlResource::TransientContextLock"
{
 // LATEX_PDF_SIZE
  edge [fontname="Helvetica",fontsize="10",labelfontname="Helvetica",labelfontsize="10"];
  node [fontname="Helvetica",fontsize="10",shape=record];
  Node1 [label="sf::GlResource::Transient\lContextLock",height=0.2,width=0.4,color="black", fillcolor="grey75", style="filled", fontcolor="black",tooltip="RAII helper class to temporarily lock an available context for use."];
  Node2 -> Node1 [dir="back",color="firebrick4",fontsize="10",style="solid",fontname="Helvetica"];
  Node2 [label="sf::NonCopyable",height=0.2,width=0.4,color="black", fillcolor="white", style="filled",URL="$classsf_1_1_non_copyable.html",tooltip="Utility class that makes any derived class non-copyable."];
}
