digraph "StormBlink::onDraw"
{
 // LATEX_PDF_SIZE
  edge [fontname="Helvetica",fontsize="10",labelfontname="Helvetica",labelfontsize="10"];
  node [fontname="Helvetica",fontsize="10",shape=record];
  rankdir="LR";
  Node1 [label="StormBlink::onDraw",height=0.2,width=0.4,color="black", fillcolor="grey75", style="filled", fontcolor="black",tooltip=" "];
  Node1 -> Node2 [color="midnightblue",fontsize="10",style="solid",fontname="Helvetica"];
  Node2 [label="sf::RenderTarget::draw",height=0.2,width=0.4,color="black", fillcolor="white", style="filled",URL="$classsf_1_1_render_target.html#a12417a3bcc245c41d957b29583556f39",tooltip="Draw a drawable object to the render target."];
}
