digraph "irr::IrrlichtDevice::getCursorControl"
{
 // LATEX_PDF_SIZE
  edge [fontname="Helvetica",fontsize="10",labelfontname="Helvetica",labelfontsize="10"];
  node [fontname="Helvetica",fontsize="10",shape=record];
  rankdir="RL";
  Node1 [label="irr::IrrlichtDevice\l::getCursorControl",height=0.2,width=0.4,color="black", fillcolor="grey75", style="filled", fontcolor="black",tooltip="Provides access to the cursor control."];
  Node1 -> Node2 [dir="back",color="midnightblue",fontsize="10",style="solid",fontname="Helvetica"];
  Node2 [label="indie::Render::Render",height=0.2,width=0.4,color="black", fillcolor="white", style="filled",URL="$classindie_1_1_render.html#ac5e8aa39eb1266cbe04e87986b1d005c",tooltip=" "];
}
