digraph "sf::TcpSocket::getRemoteAddress"
{
 // LATEX_PDF_SIZE
  edge [fontname="Helvetica",fontsize="10",labelfontname="Helvetica",labelfontsize="10"];
  node [fontname="Helvetica",fontsize="10",shape=record];
  rankdir="RL";
  Node1 [label="sf::TcpSocket::getRemote\lAddress",height=0.2,width=0.4,color="black", fillcolor="grey75", style="filled", fontcolor="black",tooltip="Get the address of the connected peer."];
  Node1 -> Node2 [dir="back",color="midnightblue",fontsize="10",style="solid",fontname="Helvetica"];
  Node2 [label="runTcpServer",height=0.2,width=0.4,color="black", fillcolor="white", style="filled",URL="$_t_c_p_8cpp.html#a918906a98ab06440251f6920f5fc4bbb",tooltip=" "];
  Node2 -> Node3 [dir="back",color="midnightblue",fontsize="10",style="solid",fontname="Helvetica"];
  Node3 [label="main",height=0.2,width=0.4,color="black", fillcolor="white", style="filled",URL="$_sockets_8cpp.html#ae66f6b31b5ad750f1fe042a706a4e3d4",tooltip=" "];
  Node1 -> Node4 [dir="back",color="midnightblue",fontsize="10",style="solid",fontname="Helvetica"];
  Node4 [label="NetworkAudioStream\l::start",height=0.2,width=0.4,color="black", fillcolor="white", style="filled",URL="$class_network_audio_stream.html#a5c698fc66d35fe30ae5e0148c03766e3",tooltip=" "];
  Node4 -> Node5 [dir="back",color="midnightblue",fontsize="10",style="solid",fontname="Helvetica"];
  Node5 [label="doServer",height=0.2,width=0.4,color="black", fillcolor="white", style="filled",URL="$_vo_i_p_8cpp.html#a0d60c59dae5c971031d008a6b81afff3",tooltip=" "];
  Node5 -> Node6 [dir="back",color="midnightblue",fontsize="10",style="solid",fontname="Helvetica"];
  Node6 [label="main",height=0.2,width=0.4,color="black", fillcolor="white", style="filled",URL="$_vo_i_p_8cpp.html#ae66f6b31b5ad750f1fe042a706a4e3d4",tooltip=" "];
}
