digraph "sf::RenderTexture::create"
{
 // LATEX_PDF_SIZE
  edge [fontname="Helvetica",fontsize="10",labelfontname="Helvetica",labelfontsize="10"];
  node [fontname="Helvetica",fontsize="10",shape=record];
  rankdir="RL";
  Node1 [label="sf::RenderTexture::\lcreate",height=0.2,width=0.4,color="black", fillcolor="grey75", style="filled", fontcolor="black",tooltip="Create the render-texture."];
  Node1 -> Node2 [dir="back",color="midnightblue",fontsize="10",style="solid",fontname="Helvetica"];
  Node2 [label="Edge::onLoad",height=0.2,width=0.4,color="black", fillcolor="white", style="filled",URL="$class_edge.html#a85a432189d48b34f17f154d59814a7ed",tooltip=" "];
}
