digraph "sf::RenderTexture::getTexture"
{
 // LATEX_PDF_SIZE
  edge [fontname="Helvetica",fontsize="10",labelfontname="Helvetica",labelfontsize="10"];
  node [fontname="Helvetica",fontsize="10",shape=record];
  rankdir="RL";
  Node1 [label="sf::RenderTexture::\lgetTexture",height=0.2,width=0.4,color="black", fillcolor="grey75", style="filled", fontcolor="black",tooltip="Get a read-only reference to the target texture."];
  Node1 -> Node2 [dir="back",color="midnightblue",fontsize="10",style="solid",fontname="Helvetica"];
  Node2 [label="Edge::onDraw",height=0.2,width=0.4,color="black", fillcolor="white", style="filled",URL="$class_edge.html#a865269e6bc1bd90d6160b5c38f15757f",tooltip=" "];
}
