digraph "indie::TextureComponent::getPath"
{
 // LATEX_PDF_SIZE
  edge [fontname="Helvetica",fontsize="10",labelfontname="Helvetica",labelfontsize="10"];
  node [fontname="Helvetica",fontsize="10",shape=record];
  rankdir="RL";
  Node1 [label="indie::TextureComponent\l::getPath",height=0.2,width=0.4,color="black", fillcolor="grey75", style="filled", fontcolor="black",tooltip=" "];
  Node1 -> Node2 [dir="back",color="midnightblue",fontsize="10",style="solid",fontname="Helvetica"];
  Node2 [label="indie::Graphical::Entity\lToSprite",height=0.2,width=0.4,color="black", fillcolor="white", style="filled",URL="$classindie_1_1_graphical.html#a91787dd4fabbe229f0f40e6d932b0918",tooltip=" "];
}
