digraph "irr::scene::IVertexBuffer::setDirty"
{
 // LATEX_PDF_SIZE
  edge [fontname="Helvetica",fontsize="10",labelfontname="Helvetica",labelfontsize="10"];
  node [fontname="Helvetica",fontsize="10",shape=record];
  rankdir="RL";
  Node1 [label="irr::scene::IVertexBuffer\l::setDirty",height=0.2,width=0.4,color="black", fillcolor="grey75", style="filled", fontcolor="black",tooltip="flags the meshbuffer as changed, reloads hardware buffers"];
  Node1 -> Node2 [dir="back",color="midnightblue",fontsize="10",style="solid",fontname="Helvetica"];
  Node2 [label="irr::scene::IDynamicMesh\lBuffer::setDirty",height=0.2,width=0.4,color="black", fillcolor="white", style="filled",URL="$classirr_1_1scene_1_1_i_dynamic_mesh_buffer.html#aed99e87534a2507c30362a20f4c43277",tooltip="flags the mesh as changed, reloads hardware buffers"];
}
