digraph "irr::scene::ISceneManager::addOctTreeSceneNode"
{
 // LATEX_PDF_SIZE
  edge [fontname="Helvetica",fontsize="10",labelfontname="Helvetica",labelfontsize="10"];
  node [fontname="Helvetica",fontsize="10",shape=record];
  rankdir="LR";
  Node1 [label="irr::scene::ISceneManager\l::addOctTreeSceneNode",height=0.2,width=0.4,color="black", fillcolor="grey75", style="filled", fontcolor="black",tooltip="Adds a scene node for rendering using a octree to the scene graph."];
  Node1 -> Node2 [color="midnightblue",fontsize="10",style="solid",fontname="Helvetica"];
  Node2 [label="irr::scene::ISceneManager\l::addOctreeSceneNode",height=0.2,width=0.4,color="black", fillcolor="white", style="filled",URL="$classirr_1_1scene_1_1_i_scene_manager.html#a503339385ca2b33d7e8035a61c4eca84",tooltip="Adds a scene node for rendering using a octree to the scene graph."];
}
