digraph "irr::io::IAttributes::getAttributeAsBool"
{
 // LATEX_PDF_SIZE
  edge [fontname="Helvetica",fontsize="10",labelfontname="Helvetica",labelfontsize="10"];
  node [fontname="Helvetica",fontsize="10",shape=record];
  rankdir="RL";
  Node1 [label="irr::io::IAttributes\l::getAttributeAsBool",height=0.2,width=0.4,color="black", fillcolor="grey75", style="filled", fontcolor="black",tooltip=" "];
  Node1 -> Node2 [dir="back",color="midnightblue",fontsize="10",style="solid",fontname="Helvetica"];
  Node2 [label="irr::scene::ICameraScene\lNode::deserializeAttributes",height=0.2,width=0.4,color="black", fillcolor="white", style="filled",URL="$classirr_1_1scene_1_1_i_camera_scene_node.html#a0df881cb5e2a55562399281061151ae8",tooltip="Reads attributes of the camera node."];
  Node1 -> Node3 [dir="back",color="midnightblue",fontsize="10",style="solid",fontname="Helvetica"];
  Node3 [label="irr::scene::ISceneNode\l::deserializeAttributes",height=0.2,width=0.4,color="black", fillcolor="white", style="filled",URL="$classirr_1_1scene_1_1_i_scene_node.html#a5fb609b08fc89a92f928c19ce3b181eb",tooltip="Reads attributes of the scene node."];
  Node3 -> Node2 [dir="back",color="midnightblue",fontsize="10",style="solid",fontname="Helvetica"];
  Node1 -> Node4 [dir="back",color="midnightblue",fontsize="10",style="solid",fontname="Helvetica"];
  Node4 [label="irr::gui::IGUIElement\l::deserializeAttributes",height=0.2,width=0.4,color="black", fillcolor="white", style="filled",URL="$classirr_1_1gui_1_1_i_g_u_i_element.html#af71b96163b8d95816cd9c80fbf413b4d",tooltip="Reads attributes of the scene node."];
}
