digraph "irr::video::ITexture"
{
 // LATEX_PDF_SIZE
  edge [fontname="Helvetica",fontsize="10",labelfontname="Helvetica",labelfontsize="10"];
  node [fontname="Helvetica",fontsize="10",shape=record];
  Node1 [label="irr::video::ITexture",height=0.2,width=0.4,color="black", fillcolor="grey75", style="filled", fontcolor="black",tooltip="Interface of a Video Driver dependent Texture."];
  Node2 -> Node1 [dir="back",color="midnightblue",fontsize="10",style="solid",fontname="Helvetica"];
  Node2 [label="irr::IReferenceCounted",height=0.2,width=0.4,color="black", fillcolor="white", style="filled",URL="$classirr_1_1_i_reference_counted.html",tooltip="Base class of most objects of the Irrlicht Engine."];
  Node3 -> Node1 [dir="back",color="darkorchid3",fontsize="10",style="dashed",label=" NamedPath" ,fontname="Helvetica"];
  Node3 [label="irr::io::SNamedPath",height=0.2,width=0.4,color="black", fillcolor="white", style="filled",URL="$structirr_1_1io_1_1_s_named_path.html",tooltip="Used in places where we identify objects by a filename, but don't actually work with the real filenam..."];
}
