digraph "irr::core::CMatrix4::setTranslation"
{
 // LATEX_PDF_SIZE
  edge [fontname="Helvetica",fontsize="10",labelfontname="Helvetica",labelfontsize="10"];
  node [fontname="Helvetica",fontsize="10",shape=record];
  rankdir="RL";
  Node1 [label="irr::core::CMatrix4\l::setTranslation",height=0.2,width=0.4,color="black", fillcolor="grey75", style="filled", fontcolor="black",tooltip="Set the translation of the current matrix. Will erase any previous values."];
  Node1 -> Node2 [dir="back",color="midnightblue",fontsize="10",style="solid",fontname="Helvetica"];
  Node2 [label="irr::scene::ISceneNode\l::getRelativeTransformation",height=0.2,width=0.4,color="black", fillcolor="white", style="filled",URL="$classirr_1_1scene_1_1_i_scene_node.html#ac7c47ec49174315af83cf5f5d24edb24",tooltip="Returns the relative transformation of the scene node."];
  Node2 -> Node3 [dir="back",color="midnightblue",fontsize="10",style="solid",fontname="Helvetica"];
  Node3 [label="irr::scene::ISceneNode\l::updateAbsolutePosition",height=0.2,width=0.4,color="black", fillcolor="white", style="filled",URL="$classirr_1_1scene_1_1_i_scene_node.html#aeb6e0dc034bb2101600ce87acbcf0f6e",tooltip="Updates the absolute position based on the relative and the parents position."];
  Node3 -> Node4 [dir="back",color="midnightblue",fontsize="10",style="solid",fontname="Helvetica"];
  Node4 [label="irr::scene::ISceneNode\l::deserializeAttributes",height=0.2,width=0.4,color="black", fillcolor="white", style="filled",URL="$classirr_1_1scene_1_1_i_scene_node.html#a5fb609b08fc89a92f928c19ce3b181eb",tooltip="Reads attributes of the scene node."];
  Node4 -> Node5 [dir="back",color="midnightblue",fontsize="10",style="solid",fontname="Helvetica"];
  Node5 [label="irr::scene::ICameraScene\lNode::deserializeAttributes",height=0.2,width=0.4,color="black", fillcolor="white", style="filled",URL="$classirr_1_1scene_1_1_i_camera_scene_node.html#a0df881cb5e2a55562399281061151ae8",tooltip="Reads attributes of the camera node."];
  Node3 -> Node6 [dir="back",color="midnightblue",fontsize="10",style="solid",fontname="Helvetica"];
  Node6 [label="irr::scene::ISceneNode\l::ISceneNode",height=0.2,width=0.4,color="black", fillcolor="white", style="filled",URL="$classirr_1_1scene_1_1_i_scene_node.html#a9894d951df2f720924f891e0a7b9fac2",tooltip="Constructor."];
  Node3 -> Node7 [dir="back",color="midnightblue",fontsize="10",style="solid",fontname="Helvetica"];
  Node7 [label="irr::scene::ISceneNode\l::OnAnimate",height=0.2,width=0.4,color="black", fillcolor="white", style="filled",URL="$classirr_1_1scene_1_1_i_scene_node.html#afc1dcb5cb19116d0c7aa3d4ebdf04cc5",tooltip="OnAnimate() is called just before rendering the whole scene."];
}
