digraph "irr::scene::CVertexBuffer::CVertexBuffer"
{
 // LATEX_PDF_SIZE
  edge [fontname="Helvetica",fontsize="10",labelfontname="Helvetica",labelfontsize="10"];
  node [fontname="Helvetica",fontsize="10",shape=record];
  rankdir="LR";
  Node1 [label="irr::scene::CVertexBuffer\l::CVertexBuffer",height=0.2,width=0.4,color="black", fillcolor="grey75", style="filled", fontcolor="black",tooltip=" "];
  Node1 -> Node2 [color="midnightblue",fontsize="10",style="solid",fontname="Helvetica"];
  Node2 [label="irr::scene::CVertexBuffer\l::setType",height=0.2,width=0.4,color="black", fillcolor="white", style="filled",URL="$classirr_1_1scene_1_1_c_vertex_buffer.html#ace3a49ffecc7c99884bd0faa87670c15",tooltip=" "];
}
