digraph "sources/Scenes" {
  compound=true
  node [ fontsize="10", fontname="Helvetica"];
  edge [ labelfontsize="10", labelfontname="Helvetica"];
  subgraph clusterdir_08d237fc27d4ecd563f71c5d52f2fecc {
    graph [ bgcolor="#ddddee", pencolor="black", label="sources" fontname="Helvetica", fontsize="10", URL="dir_08d237fc27d4ecd563f71c5d52f2fecc.html"]
  dir_74ea6ee1e939d9bd337072c0d440413e [shape=box, label="Scenes", style="filled", fillcolor="#eeeeff", pencolor="black", URL="dir_74ea6ee1e939d9bd337072c0d440413e.html"];
  }
  dir_09e761304027c904456130627fd4dcf5 [shape=box label="includes" fillcolor="white" style="filled" color="red" URL="dir_09e761304027c904456130627fd4dcf5.html"];
  dir_74ea6ee1e939d9bd337072c0d440413e->dir_09e761304027c904456130627fd4dcf5 [headlabel="6", labeldistance=1.5 headhref="dir_000060_000030.html"];
}
