digraph "includes" {
  compound=true
  node [ fontsize="10", fontname="Helvetica"];
  edge [ labelfontsize="10", labelfontname="Helvetica"];
  subgraph clusterdir_09e761304027c904456130627fd4dcf5 {
    graph [ bgcolor="#eeeeff", pencolor="black", label="" URL="dir_09e761304027c904456130627fd4dcf5.html"];
    dir_09e761304027c904456130627fd4dcf5 [shape=plaintext label="includes"];
    dir_d95ff262edc374cd48dcbc706abe3d44 [shape=box label="Core" color="black" fillcolor="white" style="filled" URL="dir_d95ff262edc374cd48dcbc706abe3d44.html"];
    dir_a1b616d2a70084f166e9f5362f8e3124 [shape=box label="Errors" color="black" fillcolor="white" style="filled" URL="dir_a1b616d2a70084f166e9f5362f8e3124.html"];
    dir_09cadccfa751faa0ad8ef93ef9b1c119 [shape=box label="Factories" color="red" fillcolor="white" style="filled" URL="dir_09cadccfa751faa0ad8ef93ef9b1c119.html"];
    dir_4122424aa3a58f882634205f8e45a684 [shape=box label="GameObjects" color="black" fillcolor="white" style="filled" URL="dir_4122424aa3a58f882634205f8e45a684.html"];
    dir_9f0d67675b149f4a3db4cb0473b4bcf0 [shape=box label="Graphical" color="black" fillcolor="white" style="filled" URL="dir_9f0d67675b149f4a3db4cb0473b4bcf0.html"];
    dir_412eeee237c6dfd0aa32dd2ab797116a [shape=box label="Interfaces" color="black" fillcolor="white" style="filled" URL="dir_412eeee237c6dfd0aa32dd2ab797116a.html"];
    dir_bfe94bc7ff981f918a75b15cbc1d9923 [shape=box label="JukeBox" color="black" fillcolor="white" style="filled" URL="dir_bfe94bc7ff981f918a75b15cbc1d9923.html"];
    dir_d5548d59b60788b29cfdc47203acf217 [shape=box label="Render" color="black" fillcolor="white" style="filled" URL="dir_d5548d59b60788b29cfdc47203acf217.html"];
    dir_f39208d2c06e4ba084d4e51c73ead911 [shape=box label="Scenes" color="black" fillcolor="white" style="filled" URL="dir_f39208d2c06e4ba084d4e51c73ead911.html"];
  }
  dir_a5bdbfbbaa7895161d62825676df7980 [shape=box label="cmake" fillcolor="white" style="filled" color="red" URL="dir_a5bdbfbbaa7895161d62825676df7980.html"];
  dir_412eeee237c6dfd0aa32dd2ab797116a->dir_09cadccfa751faa0ad8ef93ef9b1c119 [headlabel="1", labeldistance=1.5 headhref="dir_000043_000031.html"];
  dir_09cadccfa751faa0ad8ef93ef9b1c119->dir_412eeee237c6dfd0aa32dd2ab797116a [headlabel="1", labeldistance=1.5 headhref="dir_000031_000043.html"];
  dir_09cadccfa751faa0ad8ef93ef9b1c119->dir_4122424aa3a58f882634205f8e45a684 [headlabel="2", labeldistance=1.5 headhref="dir_000031_000041.html"];
  dir_09cadccfa751faa0ad8ef93ef9b1c119->dir_a5bdbfbbaa7895161d62825676df7980 [headlabel="6", labeldistance=1.5 headhref="dir_000031_000007.html"];
  dir_09cadccfa751faa0ad8ef93ef9b1c119->dir_a1b616d2a70084f166e9f5362f8e3124 [headlabel="2", labeldistance=1.5 headhref="dir_000031_000037.html"];
  dir_4122424aa3a58f882634205f8e45a684->dir_09cadccfa751faa0ad8ef93ef9b1c119 [headlabel="7", labeldistance=1.5 headhref="dir_000041_000031.html"];
  dir_4122424aa3a58f882634205f8e45a684->dir_a5bdbfbbaa7895161d62825676df7980 [headlabel="1", labeldistance=1.5 headhref="dir_000041_000007.html"];
  dir_d95ff262edc374cd48dcbc706abe3d44->dir_412eeee237c6dfd0aa32dd2ab797116a [headlabel="1", labeldistance=1.5 headhref="dir_000036_000043.html"];
  dir_d95ff262edc374cd48dcbc706abe3d44->dir_9f0d67675b149f4a3db4cb0473b4bcf0 [headlabel="1", labeldistance=1.5 headhref="dir_000036_000042.html"];
  dir_d95ff262edc374cd48dcbc706abe3d44->dir_f39208d2c06e4ba084d4e51c73ead911 [headlabel="6", labeldistance=1.5 headhref="dir_000036_000046.html"];
  dir_d95ff262edc374cd48dcbc706abe3d44->dir_bfe94bc7ff981f918a75b15cbc1d9923 [headlabel="1", labeldistance=1.5 headhref="dir_000036_000044.html"];
  dir_9f0d67675b149f4a3db4cb0473b4bcf0->dir_412eeee237c6dfd0aa32dd2ab797116a [headlabel="1", labeldistance=1.5 headhref="dir_000042_000043.html"];
  dir_9f0d67675b149f4a3db4cb0473b4bcf0->dir_09cadccfa751faa0ad8ef93ef9b1c119 [headlabel="9", labeldistance=1.5 headhref="dir_000042_000031.html"];
  dir_9f0d67675b149f4a3db4cb0473b4bcf0->dir_4122424aa3a58f882634205f8e45a684 [headlabel="2", labeldistance=1.5 headhref="dir_000042_000041.html"];
  dir_9f0d67675b149f4a3db4cb0473b4bcf0->dir_a5bdbfbbaa7895161d62825676df7980 [headlabel="2", labeldistance=1.5 headhref="dir_000042_000007.html"];
  dir_9f0d67675b149f4a3db4cb0473b4bcf0->dir_a1b616d2a70084f166e9f5362f8e3124 [headlabel="2", labeldistance=1.5 headhref="dir_000042_000037.html"];
  dir_f39208d2c06e4ba084d4e51c73ead911->dir_412eeee237c6dfd0aa32dd2ab797116a [headlabel="6", labeldistance=1.5 headhref="dir_000046_000043.html"];
  dir_f39208d2c06e4ba084d4e51c73ead911->dir_09cadccfa751faa0ad8ef93ef9b1c119 [headlabel="9", labeldistance=1.5 headhref="dir_000046_000031.html"];
  dir_f39208d2c06e4ba084d4e51c73ead911->dir_9f0d67675b149f4a3db4cb0473b4bcf0 [headlabel="6", labeldistance=1.5 headhref="dir_000046_000042.html"];
  dir_f39208d2c06e4ba084d4e51c73ead911->dir_bfe94bc7ff981f918a75b15cbc1d9923 [headlabel="6", labeldistance=1.5 headhref="dir_000046_000044.html"];
  dir_bfe94bc7ff981f918a75b15cbc1d9923->dir_412eeee237c6dfd0aa32dd2ab797116a [headlabel="1", labeldistance=1.5 headhref="dir_000044_000043.html"];
  dir_bfe94bc7ff981f918a75b15cbc1d9923->dir_a5bdbfbbaa7895161d62825676df7980 [headlabel="1", labeldistance=1.5 headhref="dir_000044_000007.html"];
  dir_d5548d59b60788b29cfdc47203acf217->dir_4122424aa3a58f882634205f8e45a684 [headlabel="1", labeldistance=1.5 headhref="dir_000045_000041.html"];
  dir_d5548d59b60788b29cfdc47203acf217->dir_a5bdbfbbaa7895161d62825676df7980 [headlabel="1", labeldistance=1.5 headhref="dir_000045_000007.html"];
}
