digraph "sources/Graphical/handleInput.cpp"
{
 // LATEX_PDF_SIZE
  edge [fontname="Helvetica",fontsize="10",labelfontname="Helvetica",labelfontsize="10"];
  node [fontname="Helvetica",fontsize="10",shape=record];
  Node1 [label="sources/Graphical/handle\lInput.cpp",height=0.2,width=0.4,color="black", fillcolor="grey75", style="filled", fontcolor="black",tooltip=" "];
  Node1 -> Node2 [color="midnightblue",fontsize="10",style="solid",fontname="Helvetica"];
  Node2 [label="handleInput.hpp",height=0.2,width=0.4,color="black", fillcolor="white", style="filled",URL="$handle_input_8hpp.html",tooltip=" "];
  Node2 -> Node3 [color="midnightblue",fontsize="10",style="solid",fontname="Helvetica"];
  Node3 [label="iostream",height=0.2,width=0.4,color="grey75", fillcolor="white", style="filled",tooltip=" "];
  Node2 -> Node4 [color="midnightblue",fontsize="10",style="solid",fontname="Helvetica"];
  Node4 [label="irrlicht.h",height=0.2,width=0.4,color="red", fillcolor="white", style="filled",URL="$irrlicht_8h.html",tooltip="Main header file of the irrlicht, the only file needed to include."];
  Node4 -> Node5 [color="midnightblue",fontsize="10",style="solid",fontname="Helvetica"];
  Node5 [label="IrrCompileConfig.h",height=0.2,width=0.4,color="red", fillcolor="white", style="filled",URL="$_irr_compile_config_8h.html",tooltip=" "];
  Node4 -> Node7 [color="midnightblue",fontsize="10",style="solid",fontname="Helvetica"];
  Node7 [label="aabbox3d.h",height=0.2,width=0.4,color="red", fillcolor="white", style="filled",URL="$aabbox3d_8h.html",tooltip=" "];
  Node4 -> Node18 [color="midnightblue",fontsize="10",style="solid",fontname="Helvetica"];
  Node18 [label="CDynamicMeshBuffer.h",height=0.2,width=0.4,color="black", fillcolor="white", style="filled",URL="$_c_dynamic_mesh_buffer_8h.html",tooltip=" "];
  Node18 -> Node19 [color="midnightblue",fontsize="10",style="solid",fontname="Helvetica"];
  Node19 [label="IDynamicMeshBuffer.h",height=0.2,width=0.4,color="red", fillcolor="white", style="filled",URL="$_i_dynamic_mesh_buffer_8h.html",tooltip=" "];
  Node18 -> Node45 [color="midnightblue",fontsize="10",style="solid",fontname="Helvetica"];
  Node45 [label="CVertexBuffer.h",height=0.2,width=0.4,color="red", fillcolor="white", style="filled",URL="$_c_vertex_buffer_8h.html",tooltip=" "];
  Node18 -> Node46 [color="midnightblue",fontsize="10",style="solid",fontname="Helvetica"];
  Node46 [label="CIndexBuffer.h",height=0.2,width=0.4,color="red", fillcolor="white", style="filled",URL="$_c_index_buffer_8h.html",tooltip=" "];
  Node4 -> Node46 [color="midnightblue",fontsize="10",style="solid",fontname="Helvetica"];
  Node4 -> Node47 [color="midnightblue",fontsize="10",style="solid",fontname="Helvetica"];
  Node47 [label="CMeshBuffer.h",height=0.2,width=0.4,color="red", fillcolor="white", style="filled",URL="$_c_mesh_buffer_8h.html",tooltip=" "];
  Node4 -> Node48 [color="midnightblue",fontsize="10",style="solid",fontname="Helvetica"];
  Node48 [label="coreutil.h",height=0.2,width=0.4,color="red", fillcolor="white", style="filled",URL="$coreutil_8h.html",tooltip="File containing useful basic utility functions."];
  Node4 -> Node45 [color="midnightblue",fontsize="10",style="solid",fontname="Helvetica"];
  Node4 -> Node26 [color="midnightblue",fontsize="10",style="solid",fontname="Helvetica"];
  Node26 [label="dimension2d.h",height=0.2,width=0.4,color="red", fillcolor="white", style="filled",URL="$dimension2d_8h.html",tooltip=" "];
  Node4 -> Node50 [color="midnightblue",fontsize="10",style="solid",fontname="Helvetica"];
  Node50 [label="ECullingTypes.h",height=0.2,width=0.4,color="red", fillcolor="white", style="filled",URL="$_e_culling_types_8h.html",tooltip=" "];
  Node4 -> Node51 [color="midnightblue",fontsize="10",style="solid",fontname="Helvetica"];
  Node51 [label="EDebugSceneTypes.h",height=0.2,width=0.4,color="black", fillcolor="white", style="filled",URL="$_e_debug_scene_types_8h.html",tooltip=" "];
  Node4 -> Node52 [color="midnightblue",fontsize="10",style="solid",fontname="Helvetica"];
  Node52 [label="EDriverFeatures.h",height=0.2,width=0.4,color="black", fillcolor="white", style="filled",URL="$_e_driver_features_8h.html",tooltip=" "];
  Node4 -> Node53 [color="midnightblue",fontsize="10",style="solid",fontname="Helvetica"];
  Node53 [label="EDriverTypes.h",height=0.2,width=0.4,color="black", fillcolor="white", style="filled",URL="$_e_driver_types_8h.html",tooltip=" "];
  Node4 -> Node54 [color="midnightblue",fontsize="10",style="solid",fontname="Helvetica"];
  Node54 [label="EGUIAlignment.h",height=0.2,width=0.4,color="black", fillcolor="white", style="filled",URL="$_e_g_u_i_alignment_8h.html",tooltip=" "];
  Node4 -> Node55 [color="midnightblue",fontsize="10",style="solid",fontname="Helvetica"];
  Node55 [label="EGUIElementTypes.h",height=0.2,width=0.4,color="red", fillcolor="white", style="filled",URL="$_e_g_u_i_element_types_8h.html",tooltip=" "];
  Node4 -> Node41 [color="midnightblue",fontsize="10",style="solid",fontname="Helvetica"];
  Node41 [label="EHardwareBufferFlags.h",height=0.2,width=0.4,color="black", fillcolor="white", style="filled",URL="$_e_hardware_buffer_flags_8h.html",tooltip=" "];
  Node4 -> Node37 [color="midnightblue",fontsize="10",style="solid",fontname="Helvetica"];
  Node37 [label="EMaterialFlags.h",height=0.2,width=0.4,color="black", fillcolor="white", style="filled",URL="$_e_material_flags_8h.html",tooltip=" "];
  Node4 -> Node36 [color="midnightblue",fontsize="10",style="solid",fontname="Helvetica"];
  Node36 [label="EMaterialTypes.h",height=0.2,width=0.4,color="black", fillcolor="white", style="filled",URL="$_e_material_types_8h.html",tooltip=" "];
  Node4 -> Node56 [color="midnightblue",fontsize="10",style="solid",fontname="Helvetica"];
  Node56 [label="EMeshWriterEnums.h",height=0.2,width=0.4,color="red", fillcolor="white", style="filled",URL="$_e_mesh_writer_enums_8h.html",tooltip=" "];
  Node4 -> Node57 [color="midnightblue",fontsize="10",style="solid",fontname="Helvetica"];
  Node57 [label="EMessageBoxFlags.h",height=0.2,width=0.4,color="black", fillcolor="white", style="filled",URL="$_e_message_box_flags_8h.html",tooltip=" "];
  Node4 -> Node58 [color="midnightblue",fontsize="10",style="solid",fontname="Helvetica"];
  Node58 [label="ESceneNodeAnimatorTypes.h",height=0.2,width=0.4,color="black", fillcolor="white", style="filled",URL="$_e_scene_node_animator_types_8h.html",tooltip=" "];
  Node4 -> Node59 [color="midnightblue",fontsize="10",style="solid",fontname="Helvetica"];
  Node59 [label="ESceneNodeTypes.h",height=0.2,width=0.4,color="red", fillcolor="white", style="filled",URL="$_e_scene_node_types_8h.html",tooltip=" "];
  Node4 -> Node60 [color="midnightblue",fontsize="10",style="solid",fontname="Helvetica"];
  Node60 [label="ETerrainElements.h",height=0.2,width=0.4,color="black", fillcolor="white", style="filled",URL="$_e_terrain_elements_8h.html",tooltip=" "];
  Node4 -> Node61 [color="midnightblue",fontsize="10",style="solid",fontname="Helvetica"];
  Node61 [label="fast_atof.h",height=0.2,width=0.4,color="red", fillcolor="white", style="filled",URL="$fast__atof_8h.html",tooltip=" "];
  Node4 -> Node35 [color="midnightblue",fontsize="10",style="solid",fontname="Helvetica"];
  Node35 [label="heapsort.h",height=0.2,width=0.4,color="red", fillcolor="white", style="filled",URL="$heapsort_8h.html",tooltip=" "];
  Node4 -> Node62 [color="midnightblue",fontsize="10",style="solid",fontname="Helvetica"];
  Node62 [label="IAnimatedMesh.h",height=0.2,width=0.4,color="red", fillcolor="white", style="filled",URL="$_i_animated_mesh_8h.html",tooltip=" "];
  Node62 -> Node7 [color="midnightblue",fontsize="10",style="solid",fontname="Helvetica"];
  Node4 -> Node64 [color="midnightblue",fontsize="10",style="solid",fontname="Helvetica"];
  Node64 [label="IAnimatedMeshMD2.h",height=0.2,width=0.4,color="black", fillcolor="white", style="filled",URL="$_i_animated_mesh_m_d2_8h.html",tooltip=" "];
  Node64 -> Node62 [color="midnightblue",fontsize="10",style="solid",fontname="Helvetica"];
  Node4 -> Node65 [color="midnightblue",fontsize="10",style="solid",fontname="Helvetica"];
  Node65 [label="IAnimatedMeshMD3.h",height=0.2,width=0.4,color="red", fillcolor="white", style="filled",URL="$_i_animated_mesh_m_d3_8h.html",tooltip=" "];
  Node65 -> Node62 [color="midnightblue",fontsize="10",style="solid",fontname="Helvetica"];
  Node4 -> Node81 [color="midnightblue",fontsize="10",style="solid",fontname="Helvetica"];
  Node81 [label="IAnimatedMeshSceneNode.h",height=0.2,width=0.4,color="red", fillcolor="white", style="filled",URL="$_i_animated_mesh_scene_node_8h.html",tooltip=" "];
  Node81 -> Node93 [color="midnightblue",fontsize="10",style="solid",fontname="Helvetica"];
  Node93 [label="IBoneSceneNode.h",height=0.2,width=0.4,color="red", fillcolor="white", style="filled",URL="$_i_bone_scene_node_8h.html",tooltip=" "];
  Node81 -> Node64 [color="midnightblue",fontsize="10",style="solid",fontname="Helvetica"];
  Node81 -> Node65 [color="midnightblue",fontsize="10",style="solid",fontname="Helvetica"];
  Node4 -> Node83 [color="midnightblue",fontsize="10",style="solid",fontname="Helvetica"];
  Node83 [label="IAttributeExchangingObject.h",height=0.2,width=0.4,color="red", fillcolor="white", style="filled",URL="$_i_attribute_exchanging_object_8h.html",tooltip=" "];
  Node4 -> Node90 [color="midnightblue",fontsize="10",style="solid",fontname="Helvetica"];
  Node90 [label="IAttributes.h",height=0.2,width=0.4,color="red", fillcolor="white", style="filled",URL="$_i_attributes_8h.html",tooltip=" "];
  Node90 -> Node26 [color="midnightblue",fontsize="10",style="solid",fontname="Helvetica"];
  Node4 -> Node94 [color="midnightblue",fontsize="10",style="solid",fontname="Helvetica"];
  Node94 [label="IBillboardSceneNode.h",height=0.2,width=0.4,color="red", fillcolor="white", style="filled",URL="$_i_billboard_scene_node_8h.html",tooltip=" "];
  Node4 -> Node95 [color="midnightblue",fontsize="10",style="solid",fontname="Helvetica"];
  Node95 [label="IBillboardTextSceneNode.h",height=0.2,width=0.4,color="black", fillcolor="white", style="filled",URL="$_i_billboard_text_scene_node_8h.html",tooltip=" "];
  Node95 -> Node94 [color="midnightblue",fontsize="10",style="solid",fontname="Helvetica"];
  Node4 -> Node93 [color="midnightblue",fontsize="10",style="solid",fontname="Helvetica"];
  Node4 -> Node96 [color="midnightblue",fontsize="10",style="solid",fontname="Helvetica"];
  Node96 [label="ICameraSceneNode.h",height=0.2,width=0.4,color="red", fillcolor="white", style="filled",URL="$_i_camera_scene_node_8h.html",tooltip=" "];
  Node96 -> Node85 [color="midnightblue",fontsize="10",style="solid",fontname="Helvetica"];
  Node85 [label="IEventReceiver.h",height=0.2,width=0.4,color="red", fillcolor="white", style="filled",URL="$_i_event_receiver_8h.html",tooltip=" "];
  Node4 -> Node97 [color="midnightblue",fontsize="10",style="solid",fontname="Helvetica"];
  Node97 [label="ICursorControl.h",height=0.2,width=0.4,color="red", fillcolor="white", style="filled",URL="$_i_cursor_control_8h.html",tooltip=" "];
  Node4 -> Node98 [color="midnightblue",fontsize="10",style="solid",fontname="Helvetica"];
  Node98 [label="IDummyTransformationScene\lNode.h",height=0.2,width=0.4,color="red", fillcolor="white", style="filled",URL="$_i_dummy_transformation_scene_node_8h.html",tooltip=" "];
  Node4 -> Node19 [color="midnightblue",fontsize="10",style="solid",fontname="Helvetica"];
  Node4 -> Node85 [color="midnightblue",fontsize="10",style="solid",fontname="Helvetica"];
  Node4 -> Node72 [color="midnightblue",fontsize="10",style="solid",fontname="Helvetica"];
  Node72 [label="IFileList.h",height=0.2,width=0.4,color="red", fillcolor="white", style="filled",URL="$_i_file_list_8h.html",tooltip=" "];
  Node4 -> Node67 [color="midnightblue",fontsize="10",style="solid",fontname="Helvetica"];
  Node67 [label="IFileSystem.h",height=0.2,width=0.4,color="red", fillcolor="white", style="filled",URL="$_i_file_system_8h.html",tooltip=" "];
  Node4 -> Node99 [color="midnightblue",fontsize="10",style="solid",fontname="Helvetica"];
  Node99 [label="IGeometryCreator.h",height=0.2,width=0.4,color="red", fillcolor="white", style="filled",URL="$_i_geometry_creator_8h.html",tooltip=" "];
  Node4 -> Node100 [color="midnightblue",fontsize="10",style="solid",fontname="Helvetica"];
  Node100 [label="IGPUProgrammingServices.h",height=0.2,width=0.4,color="red", fillcolor="white", style="filled",URL="$_i_g_p_u_programming_services_8h.html",tooltip=" "];
  Node100 -> Node36 [color="midnightblue",fontsize="10",style="solid",fontname="Helvetica"];
  Node4 -> Node102 [color="midnightblue",fontsize="10",style="solid",fontname="Helvetica"];
  Node102 [label="IGUIButton.h",height=0.2,width=0.4,color="red", fillcolor="white", style="filled",URL="$_i_g_u_i_button_8h.html",tooltip=" "];
  Node4 -> Node104 [color="midnightblue",fontsize="10",style="solid",fontname="Helvetica"];
  Node104 [label="IGUICheckBox.h",height=0.2,width=0.4,color="red", fillcolor="white", style="filled",URL="$_i_g_u_i_check_box_8h.html",tooltip=" "];
  Node4 -> Node105 [color="midnightblue",fontsize="10",style="solid",fontname="Helvetica"];
  Node105 [label="IGUIColorSelectDialog.h",height=0.2,width=0.4,color="red", fillcolor="white", style="filled",URL="$_i_g_u_i_color_select_dialog_8h.html",tooltip=" "];
  Node2 -> Node194 [color="midnightblue",fontsize="10",style="solid",fontname="Helvetica"];
  Node194 [label="map",height=0.2,width=0.4,color="grey75", fillcolor="white", style="filled",tooltip=" "];
}
