digraph "Graphical Class Hierarchy"
{
 // LATEX_PDF_SIZE
  edge [fontname="Helvetica",fontsize="10",labelfontname="Helvetica",labelfontsize="10"];
  node [fontname="Helvetica",fontsize="10",shape=record];
  rankdir="LR";
  Node0 [label="indie::Block",height=0.2,width=0.4,color="black", fillcolor="white", style="filled",URL="$classindie_1_1_block.html",tooltip=" "];
  Node0 -> Node1 [dir="back",color="midnightblue",fontsize="10",style="solid",fontname="Helvetica"];
  Node1 [label="indie::Bomb",height=0.2,width=0.4,color="black", fillcolor="white", style="filled",URL="$classindie_1_1_bomb.html",tooltip=" "];
  Node0 -> Node2 [dir="back",color="midnightblue",fontsize="10",style="solid",fontname="Helvetica"];
  Node2 [label="indie::Crate",height=0.2,width=0.4,color="black", fillcolor="white", style="filled",URL="$classindie_1_1_crate.html",tooltip=" "];
  Node0 -> Node3 [dir="back",color="midnightblue",fontsize="10",style="solid",fontname="Helvetica"];
  Node3 [label="indie::Wall",height=0.2,width=0.4,color="black", fillcolor="white", style="filled",URL="$classindie_1_1_wall.html",tooltip=" "];
}
