digraph "Graphical Class Hierarchy"
{
 // LATEX_PDF_SIZE
  edge [fontname="Helvetica",fontsize="10",labelfontname="Helvetica",labelfontsize="10"];
  node [fontname="Helvetica",fontsize="10",shape=record];
  rankdir="LR";
  Node0 [label="sf::SoundFileReader\l::Info",height=0.2,width=0.4,color="black", fillcolor="white", style="filled",URL="$structsf_1_1_sound_file_reader_1_1_info.html",tooltip="Structure holding the audio properties of a sound file."];
}
