digraph "Graphical Class Hierarchy"
{
 // LATEX_PDF_SIZE
  edge [fontname="Helvetica",fontsize="10",labelfontname="Helvetica",labelfontsize="10"];
  node [fontname="Helvetica",fontsize="10",shape=record];
  rankdir="LR";
  Node0 [label="irr::core::map\< KeyType,\l ValueType \>::AccessClass",height=0.2,width=0.4,color="black", fillcolor="white", style="filled",URL="$classirr_1_1core_1_1map_1_1_access_class.html",tooltip=" "];
}
