digraph "Graphical Class Hierarchy"
{
 // LATEX_PDF_SIZE
  edge [fontname="Helvetica",fontsize="10",labelfontname="Helvetica",labelfontsize="10"];
  node [fontname="Helvetica",fontsize="10",shape=record];
  rankdir="LR";
  Node0 [label="irr::SEvent::SJoystickEvent",height=0.2,width=0.4,color="black", fillcolor="white", style="filled",URL="$structirr_1_1_s_event_1_1_s_joystick_event.html",tooltip="A joystick event."];
}
