digraph "sources/main.cpp"
{
 // LATEX_PDF_SIZE
  edge [fontname="Helvetica",fontsize="10",labelfontname="Helvetica",labelfontsize="10"];
  node [fontname="Helvetica",fontsize="10",shape=record];
  Node1 [label="sources/main.cpp",height=0.2,width=0.4,color="black", fillcolor="grey75", style="filled", fontcolor="black",tooltip=" "];
  Node1 -> Node2 [color="midnightblue",fontsize="10",style="solid",fontname="Helvetica"];
  Node2 [label="iostream",height=0.2,width=0.4,color="grey75", fillcolor="white", style="filled",tooltip=" "];
  Node1 -> Node3 [color="midnightblue",fontsize="10",style="solid",fontname="Helvetica"];
  Node3 [label="Render.hpp",height=0.2,width=0.4,color="black", fillcolor="white", style="filled",URL="$_render_8hpp.html",tooltip=" "];
  Node3 -> Node4 [color="midnightblue",fontsize="10",style="solid",fontname="Helvetica"];
  Node4 [label="irrlicht.h",height=0.2,width=0.4,color="red", fillcolor="white", style="filled",URL="$irrlicht_8h.html",tooltip="Main header file of the irrlicht, the only file needed to include."];
  Node4 -> Node5 [color="midnightblue",fontsize="10",style="solid",fontname="Helvetica"];
  Node5 [label="IrrCompileConfig.h",height=0.2,width=0.4,color="red", fillcolor="white", style="filled",URL="$_irr_compile_config_8h.html",tooltip=" "];
  Node4 -> Node7 [color="midnightblue",fontsize="10",style="solid",fontname="Helvetica"];
  Node7 [label="aabbox3d.h",height=0.2,width=0.4,color="red", fillcolor="white", style="filled",URL="$aabbox3d_8h.html",tooltip=" "];
  Node4 -> Node18 [color="midnightblue",fontsize="10",style="solid",fontname="Helvetica"];
  Node18 [label="CDynamicMeshBuffer.h",height=0.2,width=0.4,color="red", fillcolor="white", style="filled",URL="$_c_dynamic_mesh_buffer_8h.html",tooltip=" "];
  Node18 -> Node46 [color="midnightblue",fontsize="10",style="solid",fontname="Helvetica"];
  Node46 [label="CIndexBuffer.h",height=0.2,width=0.4,color="red", fillcolor="white", style="filled",URL="$_c_index_buffer_8h.html",tooltip=" "];
  Node4 -> Node46 [color="midnightblue",fontsize="10",style="solid",fontname="Helvetica"];
  Node4 -> Node47 [color="midnightblue",fontsize="10",style="solid",fontname="Helvetica"];
  Node47 [label="CMeshBuffer.h",height=0.2,width=0.4,color="red", fillcolor="white", style="filled",URL="$_c_mesh_buffer_8h.html",tooltip=" "];
  Node3 -> Node194 [color="midnightblue",fontsize="10",style="solid",fontname="Helvetica"];
  Node194 [label="Map.hpp",height=0.2,width=0.4,color="black", fillcolor="white", style="filled",URL="$_map_8hpp.html",tooltip=" "];
  Node194 -> Node195 [color="midnightblue",fontsize="10",style="solid",fontname="Helvetica"];
  Node195 [label="Block.hpp",height=0.2,width=0.4,color="black", fillcolor="white", style="filled",URL="$_block_8hpp.html",tooltip=" "];
  Node195 -> Node196 [color="midnightblue",fontsize="10",style="solid",fontname="Helvetica"];
  Node196 [label="Entity.hpp",height=0.2,width=0.4,color="red", fillcolor="white", style="filled",URL="$_entity_8hpp.html",tooltip=" "];
  Node196 -> Node197 [color="midnightblue",fontsize="10",style="solid",fontname="Helvetica"];
  Node197 [label="vector",height=0.2,width=0.4,color="grey75", fillcolor="white", style="filled",tooltip=" "];
  Node196 -> Node199 [color="midnightblue",fontsize="10",style="solid",fontname="Helvetica"];
  Node199 [label="memory",height=0.2,width=0.4,color="grey75", fillcolor="white", style="filled",tooltip=" "];
  Node195 -> Node202 [color="midnightblue",fontsize="10",style="solid",fontname="Helvetica"];
  Node202 [label="PositionComponent.hpp",height=0.2,width=0.4,color="red", fillcolor="white", style="filled",URL="$_position_component_8hpp.html",tooltip=" "];
  Node195 -> Node203 [color="midnightblue",fontsize="10",style="solid",fontname="Helvetica"];
  Node203 [label="TextureComponent.hpp",height=0.2,width=0.4,color="red", fillcolor="white", style="filled",URL="$_texture_component_8hpp.html",tooltip=" "];
  Node203 -> Node4 [color="midnightblue",fontsize="10",style="solid",fontname="Helvetica"];
  Node203 -> Node2 [color="midnightblue",fontsize="10",style="solid",fontname="Helvetica"];
  Node203 -> Node204 [color="midnightblue",fontsize="10",style="solid",fontname="Helvetica"];
  Node204 [label="TextureError.hpp",height=0.2,width=0.4,color="black", fillcolor="white", style="filled",URL="$_texture_error_8hpp.html",tooltip=" "];
  Node204 -> Node205 [color="midnightblue",fontsize="10",style="solid",fontname="Helvetica"];
  Node205 [label="IndieError.hpp",height=0.2,width=0.4,color="black", fillcolor="white", style="filled",URL="$_indie_error_8hpp.html",tooltip=" "];
  Node205 -> Node206 [color="midnightblue",fontsize="10",style="solid",fontname="Helvetica"];
  Node206 [label="exception",height=0.2,width=0.4,color="grey75", fillcolor="white", style="filled",tooltip=" "];
  Node205 -> Node207 [color="midnightblue",fontsize="10",style="solid",fontname="Helvetica"];
  Node207 [label="string",height=0.2,width=0.4,color="grey75", fillcolor="white", style="filled",tooltip=" "];
  Node195 -> Node208 [color="midnightblue",fontsize="10",style="solid",fontname="Helvetica"];
  Node208 [label="ColliderComponent.hpp",height=0.2,width=0.4,color="red", fillcolor="white", style="filled",URL="$_collider_component_8hpp.html",tooltip=" "];
  Node195 -> Node209 [color="midnightblue",fontsize="10",style="solid",fontname="Helvetica"];
  Node209 [label="CubeComponent.hpp",height=0.2,width=0.4,color="red", fillcolor="white", style="filled",URL="$_cube_component_8hpp.html",tooltip=" "];
  Node209 -> Node4 [color="midnightblue",fontsize="10",style="solid",fontname="Helvetica"];
  Node209 -> Node2 [color="midnightblue",fontsize="10",style="solid",fontname="Helvetica"];
  Node209 -> Node196 [color="midnightblue",fontsize="10",style="solid",fontname="Helvetica"];
  Node194 -> Node210 [color="midnightblue",fontsize="10",style="solid",fontname="Helvetica"];
  Node210 [label="map_tools.hpp",height=0.2,width=0.4,color="red", fillcolor="white", style="filled",URL="$map__tools_8hpp.html",tooltip=" "];
  Node210 -> Node197 [color="midnightblue",fontsize="10",style="solid",fontname="Helvetica"];
  Node194 -> Node212 [color="midnightblue",fontsize="10",style="solid",fontname="Helvetica"];
  Node212 [label="algorithm",height=0.2,width=0.4,color="grey75", fillcolor="white", style="filled",tooltip=" "];
  Node1 -> Node213 [color="midnightblue",fontsize="10",style="solid",fontname="Helvetica"];
  Node213 [label="MapFactory.hpp",height=0.2,width=0.4,color="black", fillcolor="white", style="filled",URL="$_map_factory_8hpp.html",tooltip=" "];
  Node213 -> Node197 [color="midnightblue",fontsize="10",style="solid",fontname="Helvetica"];
  Node213 -> Node214 [color="midnightblue",fontsize="10",style="solid",fontname="Helvetica"];
  Node214 [label="ostream",height=0.2,width=0.4,color="grey75", fillcolor="white", style="filled",tooltip=" "];
  Node213 -> Node207 [color="midnightblue",fontsize="10",style="solid",fontname="Helvetica"];
  Node213 -> Node199 [color="midnightblue",fontsize="10",style="solid",fontname="Helvetica"];
  Node213 -> Node194 [color="midnightblue",fontsize="10",style="solid",fontname="Helvetica"];
  Node213 -> Node210 [color="midnightblue",fontsize="10",style="solid",fontname="Helvetica"];
  Node1 -> Node205 [color="midnightblue",fontsize="10",style="solid",fontname="Helvetica"];
  Node1 -> Node215 [color="midnightblue",fontsize="10",style="solid",fontname="Helvetica"];
  Node215 [label="Perso.hpp",height=0.2,width=0.4,color="black", fillcolor="white", style="filled",URL="$_perso_8hpp.html",tooltip=" "];
  Node215 -> Node197 [color="midnightblue",fontsize="10",style="solid",fontname="Helvetica"];
  Node215 -> Node212 [color="midnightblue",fontsize="10",style="solid",fontname="Helvetica"];
  Node215 -> Node208 [color="midnightblue",fontsize="10",style="solid",fontname="Helvetica"];
  Node215 -> Node216 [color="midnightblue",fontsize="10",style="solid",fontname="Helvetica"];
  Node216 [label="NameComponent.hpp",height=0.2,width=0.4,color="red", fillcolor="white", style="filled",URL="$_name_component_8hpp.html",tooltip=" "];
  Node216 -> Node207 [color="midnightblue",fontsize="10",style="solid",fontname="Helvetica"];
  Node215 -> Node202 [color="midnightblue",fontsize="10",style="solid",fontname="Helvetica"];
  Node215 -> Node217 [color="midnightblue",fontsize="10",style="solid",fontname="Helvetica"];
  Node217 [label="MeshComponent.hpp",height=0.2,width=0.4,color="red", fillcolor="white", style="filled",URL="$_mesh_component_8hpp.html",tooltip=" "];
  Node217 -> Node4 [color="midnightblue",fontsize="10",style="solid",fontname="Helvetica"];
  Node217 -> Node2 [color="midnightblue",fontsize="10",style="solid",fontname="Helvetica"];
  Node217 -> Node196 [color="midnightblue",fontsize="10",style="solid",fontname="Helvetica"];
  Node215 -> Node219 [color="midnightblue",fontsize="10",style="solid",fontname="Helvetica"];
  Node219 [label="ActionComponent.hpp",height=0.2,width=0.4,color="red", fillcolor="white", style="filled",URL="$_action_component_8hpp.html",tooltip=" "];
  Node219 -> Node4 [color="midnightblue",fontsize="10",style="solid",fontname="Helvetica"];
  Node215 -> Node196 [color="midnightblue",fontsize="10",style="solid",fontname="Helvetica"];
  Node215 -> Node221 [color="midnightblue",fontsize="10",style="solid",fontname="Helvetica"];
  Node221 [label="Bomb.hpp",height=0.2,width=0.4,color="black", fillcolor="white", style="filled",URL="$_bomb_8hpp.html",tooltip=" "];
  Node221 -> Node195 [color="midnightblue",fontsize="10",style="solid",fontname="Helvetica"];
  Node221 -> Node222 [color="midnightblue",fontsize="10",style="solid",fontname="Helvetica"];
  Node222 [label="chrono",height=0.2,width=0.4,color="grey75", fillcolor="white", style="filled",tooltip=" "];
  Node221 -> Node210 [color="midnightblue",fontsize="10",style="solid",fontname="Helvetica"];
  Node1 -> Node223 [color="midnightblue",fontsize="10",style="solid",fontname="Helvetica"];
  Node223 [label="Graphical.hpp",height=0.2,width=0.4,color="black", fillcolor="white", style="filled",URL="$_graphical_8hpp.html",tooltip=" "];
  Node223 -> Node2 [color="midnightblue",fontsize="10",style="solid",fontname="Helvetica"];
  Node223 -> Node4 [color="midnightblue",fontsize="10",style="solid",fontname="Helvetica"];
  Node223 -> Node207 [color="midnightblue",fontsize="10",style="solid",fontname="Helvetica"];
  Node223 -> Node222 [color="midnightblue",fontsize="10",style="solid",fontname="Helvetica"];
  Node223 -> Node224 [color="midnightblue",fontsize="10",style="solid",fontname="Helvetica"];
  Node224 [label="unordered_map",height=0.2,width=0.4,color="grey75", fillcolor="white", style="filled",tooltip=" "];
  Node223 -> Node225 [color="midnightblue",fontsize="10",style="solid",fontname="Helvetica"];
  Node225 [label="IGraphical.hpp",height=0.2,width=0.4,color="black", fillcolor="white", style="filled",URL="$_i_graphical_8hpp.html",tooltip=" "];
  Node225 -> Node196 [color="midnightblue",fontsize="10",style="solid",fontname="Helvetica"];
  Node223 -> Node226 [color="midnightblue",fontsize="10",style="solid",fontname="Helvetica"];
  Node226 [label="DeviceError.hpp",height=0.2,width=0.4,color="black", fillcolor="white", style="filled",URL="$_device_error_8hpp.html",tooltip=" "];
  Node226 -> Node205 [color="midnightblue",fontsize="10",style="solid",fontname="Helvetica"];
  Node223 -> Node204 [color="midnightblue",fontsize="10",style="solid",fontname="Helvetica"];
  Node223 -> Node227 [color="midnightblue",fontsize="10",style="solid",fontname="Helvetica"];
  Node227 [label="handleInput.hpp",height=0.2,width=0.4,color="red", fillcolor="white", style="filled",URL="$handle_input_8hpp.html",tooltip=" "];
  Node227 -> Node2 [color="midnightblue",fontsize="10",style="solid",fontname="Helvetica"];
  Node227 -> Node4 [color="midnightblue",fontsize="10",style="solid",fontname="Helvetica"];
  Node223 -> Node194 [color="midnightblue",fontsize="10",style="solid",fontname="Helvetica"];
  Node223 -> Node228 [color="midnightblue",fontsize="10",style="solid",fontname="Helvetica"];
  Node228 [label="Particuls.hpp",height=0.2,width=0.4,color="black", fillcolor="white", style="filled",URL="$_particuls_8hpp.html",tooltip=" "];
  Node228 -> Node4 [color="midnightblue",fontsize="10",style="solid",fontname="Helvetica"];
  Node223 -> Node229 [color="midnightblue",fontsize="10",style="solid",fontname="Helvetica"];
  Node229 [label="SizeComponent.hpp",height=0.2,width=0.4,color="red", fillcolor="white", style="filled",URL="$_size_component_8hpp.html",tooltip=" "];
  Node223 -> Node203 [color="midnightblue",fontsize="10",style="solid",fontname="Helvetica"];
  Node223 -> Node217 [color="midnightblue",fontsize="10",style="solid",fontname="Helvetica"];
  Node223 -> Node230 [color="midnightblue",fontsize="10",style="solid",fontname="Helvetica"];
  Node230 [label="StringComponent.hpp",height=0.2,width=0.4,color="red", fillcolor="white", style="filled",URL="$_string_component_8hpp.html",tooltip=" "];
  Node230 -> Node207 [color="midnightblue",fontsize="10",style="solid",fontname="Helvetica"];
  Node223 -> Node231 [color="midnightblue",fontsize="10",style="solid",fontname="Helvetica"];
  Node231 [label="ColorComponent.hpp",height=0.2,width=0.4,color="red", fillcolor="white", style="filled",URL="$_color_component_8hpp.html",tooltip=" "];
  Node223 -> Node202 [color="midnightblue",fontsize="10",style="solid",fontname="Helvetica"];
  Node223 -> Node208 [color="midnightblue",fontsize="10",style="solid",fontname="Helvetica"];
  Node223 -> Node219 [color="midnightblue",fontsize="10",style="solid",fontname="Helvetica"];
  Node223 -> Node209 [color="midnightblue",fontsize="10",style="solid",fontname="Helvetica"];
  Node1 -> Node194 [color="midnightblue",fontsize="10",style="solid",fontname="Helvetica"];
  Node1 -> Node232 [color="midnightblue",fontsize="10",style="solid",fontname="Helvetica"];
  Node232 [label="Core.hpp",height=0.2,width=0.4,color="black", fillcolor="white", style="filled",URL="$_core_8hpp.html",tooltip=" "];
  Node232 -> Node233 [color="midnightblue",fontsize="10",style="solid",fontname="Helvetica"];
  Node233 [label="IScene.hpp",height=0.2,width=0.4,color="black", fillcolor="white", style="filled",URL="$_i_scene_8hpp.html",tooltip=" "];
  Node232 -> Node234 [color="midnightblue",fontsize="10",style="solid",fontname="Helvetica"];
  Node234 [label="Title.hpp",height=0.2,width=0.4,color="red", fillcolor="white", style="filled",URL="$_title_8hpp.html",tooltip=" "];
  Node234 -> Node233 [color="midnightblue",fontsize="10",style="solid",fontname="Helvetica"];
  Node234 -> Node223 [color="midnightblue",fontsize="10",style="solid",fontname="Helvetica"];
  Node234 -> Node236 [color="midnightblue",fontsize="10",style="solid",fontname="Helvetica"];
  Node236 [label="JukeBox.hpp",height=0.2,width=0.4,color="red", fillcolor="white", style="filled",URL="$_juke_box_8hpp.html",tooltip=" "];
  Node236 -> Node233 [color="midnightblue",fontsize="10",style="solid",fontname="Helvetica"];
  Node232 -> Node285 [color="midnightblue",fontsize="10",style="solid",fontname="Helvetica"];
  Node285 [label="GameScene.hpp",height=0.2,width=0.4,color="black", fillcolor="white", style="filled",URL="$_game_scene_8hpp.html",tooltip=" "];
  Node285 -> Node199 [color="midnightblue",fontsize="10",style="solid",fontname="Helvetica"];
  Node285 -> Node233 [color="midnightblue",fontsize="10",style="solid",fontname="Helvetica"];
  Node285 -> Node223 [color="midnightblue",fontsize="10",style="solid",fontname="Helvetica"];
  Node285 -> Node215 [color="midnightblue",fontsize="10",style="solid",fontname="Helvetica"];
  Node285 -> Node213 [color="midnightblue",fontsize="10",style="solid",fontname="Helvetica"];
  Node285 -> Node196 [color="midnightblue",fontsize="10",style="solid",fontname="Helvetica"];
  Node285 -> Node209 [color="midnightblue",fontsize="10",style="solid",fontname="Helvetica"];
  Node285 -> Node236 [color="midnightblue",fontsize="10",style="solid",fontname="Helvetica"];
  Node232 -> Node286 [color="midnightblue",fontsize="10",style="solid",fontname="Helvetica"];
  Node286 [label="Menu.hpp",height=0.2,width=0.4,color="red", fillcolor="white", style="filled",URL="$_menu_8hpp.html",tooltip=" "];
  Node286 -> Node233 [color="midnightblue",fontsize="10",style="solid",fontname="Helvetica"];
  Node286 -> Node223 [color="midnightblue",fontsize="10",style="solid",fontname="Helvetica"];
  Node286 -> Node236 [color="midnightblue",fontsize="10",style="solid",fontname="Helvetica"];
  Node232 -> Node287 [color="midnightblue",fontsize="10",style="solid",fontname="Helvetica"];
  Node287 [label="Options.hpp",height=0.2,width=0.4,color="red", fillcolor="white", style="filled",URL="$_options_8hpp.html",tooltip=" "];
  Node287 -> Node233 [color="midnightblue",fontsize="10",style="solid",fontname="Helvetica"];
  Node287 -> Node223 [color="midnightblue",fontsize="10",style="solid",fontname="Helvetica"];
  Node287 -> Node236 [color="midnightblue",fontsize="10",style="solid",fontname="Helvetica"];
  Node232 -> Node288 [color="midnightblue",fontsize="10",style="solid",fontname="Helvetica"];
  Node288 [label="SelectSave.hpp",height=0.2,width=0.4,color="red", fillcolor="white", style="filled",URL="$_select_save_8hpp.html",tooltip=" "];
  Node288 -> Node233 [color="midnightblue",fontsize="10",style="solid",fontname="Helvetica"];
  Node288 -> Node223 [color="midnightblue",fontsize="10",style="solid",fontname="Helvetica"];
  Node288 -> Node236 [color="midnightblue",fontsize="10",style="solid",fontname="Helvetica"];
  Node232 -> Node289 [color="midnightblue",fontsize="10",style="solid",fontname="Helvetica"];
  Node289 [label="SelectPlayer.hpp",height=0.2,width=0.4,color="red", fillcolor="white", style="filled",URL="$_select_player_8hpp.html",tooltip=" "];
  Node289 -> Node233 [color="midnightblue",fontsize="10",style="solid",fontname="Helvetica"];
  Node289 -> Node223 [color="midnightblue",fontsize="10",style="solid",fontname="Helvetica"];
  Node289 -> Node236 [color="midnightblue",fontsize="10",style="solid",fontname="Helvetica"];
  Node232 -> Node223 [color="midnightblue",fontsize="10",style="solid",fontname="Helvetica"];
  Node232 -> Node236 [color="midnightblue",fontsize="10",style="solid",fontname="Helvetica"];
  Node232 -> Node199 [color="midnightblue",fontsize="10",style="solid",fontname="Helvetica"];
  Node232 -> Node197 [color="midnightblue",fontsize="10",style="solid",fontname="Helvetica"];
  Node232 -> Node212 [color="midnightblue",fontsize="10",style="solid",fontname="Helvetica"];
  Node232 -> Node222 [color="midnightblue",fontsize="10",style="solid",fontname="Helvetica"];
}
