digraph "irr::scene::quake3::getAsFloat"
{
 // LATEX_PDF_SIZE
  edge [fontname="Helvetica",fontsize="10",labelfontname="Helvetica",labelfontsize="10"];
  node [fontname="Helvetica",fontsize="10",shape=record];
  rankdir="LR";
  Node1 [label="irr::scene::quake3\l::getAsFloat",height=0.2,width=0.4,color="black", fillcolor="grey75", style="filled", fontcolor="black",tooltip=" "];
  Node1 -> Node2 [color="midnightblue",fontsize="10",style="solid",fontname="Helvetica"];
  Node2 [label="irr::core::fast_atof_move",height=0.2,width=0.4,color="black", fillcolor="white", style="filled",URL="$namespaceirr_1_1core.html#ae5806ec05e45a700461890ec5e6f602a",tooltip="Provides a fast function for converting a string into a float."];
  Node2 -> Node3 [color="midnightblue",fontsize="10",style="solid",fontname="Helvetica"];
  Node3 [label="irr::core::string::\lfindFirst",height=0.2,width=0.4,color="black", fillcolor="white", style="filled",URL="$classirr_1_1core_1_1string.html#a235faf897ce4357baf5ab1bc05c9236d",tooltip="finds first occurrence of character in string"];
  Node2 -> Node4 [color="midnightblue",fontsize="10",style="solid",fontname="Helvetica"];
  Node4 [label="irr::core::strtof10",height=0.2,width=0.4,color="black", fillcolor="white", style="filled",URL="$namespaceirr_1_1core.html#a032ec5ae63987749c7b30c18ea4ccd92",tooltip="Converts a sequence of digits into a whole positive floating point value."];
  Node2 -> Node5 [color="midnightblue",fontsize="10",style="solid",fontname="Helvetica"];
  Node5 [label="irr::core::strtol10",height=0.2,width=0.4,color="black", fillcolor="white", style="filled",URL="$namespaceirr_1_1core.html#a6ff97e442233218d18acd56add48766f",tooltip="Convert a simple string of base 10 digits into a signed 32 bit integer."];
  Node5 -> Node6 [color="midnightblue",fontsize="10",style="solid",fontname="Helvetica"];
  Node6 [label="irr::core::strtoul10",height=0.2,width=0.4,color="black", fillcolor="white", style="filled",URL="$namespaceirr_1_1core.html#ae7f759b603f4caaa8471cb9bc2e23648",tooltip="Convert a simple string of base 10 digits into an unsigned 32 bit integer."];
}
