digraph "irr::createDevice"
{
 // LATEX_PDF_SIZE
  edge [fontname="Helvetica",fontsize="10",labelfontname="Helvetica",labelfontsize="10"];
  node [fontname="Helvetica",fontsize="10",shape=record];
  rankdir="RL";
  Node1 [label="irr::createDevice",height=0.2,width=0.4,color="black", fillcolor="grey75", style="filled", fontcolor="black",tooltip="Creates an Irrlicht device. The Irrlicht device is the root object for using the engine."];
  Node1 -> Node2 [dir="back",color="midnightblue",fontsize="10",style="solid",fontname="Helvetica"];
  Node2 [label="indie::Graphical::initWindow",height=0.2,width=0.4,color="black", fillcolor="white", style="filled",URL="$classindie_1_1_graphical.html#a1ea6176b7c9ba7c49fcbe3e2d47f80f4",tooltip=" "];
  Node1 -> Node3 [dir="back",color="midnightblue",fontsize="10",style="solid",fontname="Helvetica"];
  Node3 [label="indie::Render::Render",height=0.2,width=0.4,color="black", fillcolor="white", style="filled",URL="$classindie_1_1_render.html#ac5e8aa39eb1266cbe04e87986b1d005c",tooltip=" "];
}
