digraph "irr::core::reciprocal"
{
 // LATEX_PDF_SIZE
  edge [fontname="Helvetica",fontsize="10",labelfontname="Helvetica",labelfontsize="10"];
  node [fontname="Helvetica",fontsize="10",shape=record];
  rankdir="RL";
  Node1 [label="irr::core::reciprocal",height=0.2,width=0.4,color="black", fillcolor="grey75", style="filled", fontcolor="black",tooltip=" "];
  Node1 -> Node2 [dir="back",color="midnightblue",fontsize="10",style="solid",fontname="Helvetica"];
  Node2 [label="irr::core::CMatrix4\l::buildProjectionMatrixPerspective\lFovInfinityLH",height=0.2,width=0.4,color="black", fillcolor="white", style="filled",URL="$classirr_1_1core_1_1_c_matrix4.html#a3e4c3f6c545dd522f9f09177259f2f18",tooltip="Builds a left-handed perspective projection matrix based on a field of view, with far plane at infini..."];
  Node1 -> Node3 [dir="back",color="midnightblue",fontsize="10",style="solid",fontname="Helvetica"];
  Node3 [label="irr::core::CMatrix4\l::buildProjectionMatrixPerspective\lFovLH",height=0.2,width=0.4,color="black", fillcolor="white", style="filled",URL="$classirr_1_1core_1_1_c_matrix4.html#a1895b967a8f8c9d7ad90fe5434f2499f",tooltip="Builds a left-handed perspective projection matrix based on a field of view."];
  Node1 -> Node4 [dir="back",color="midnightblue",fontsize="10",style="solid",fontname="Helvetica"];
  Node4 [label="irr::core::CMatrix4\l::buildProjectionMatrixPerspective\lFovRH",height=0.2,width=0.4,color="black", fillcolor="white", style="filled",URL="$classirr_1_1core_1_1_c_matrix4.html#a5bea6c6f5479720841cea61651e35879",tooltip="Builds a right-handed perspective projection matrix based on a field of view."];
  Node1 -> Node5 [dir="back",color="midnightblue",fontsize="10",style="solid",fontname="Helvetica"];
  Node5 [label="irr::core::CMatrix4\l::getInverse",height=0.2,width=0.4,color="black", fillcolor="white", style="filled",URL="$classirr_1_1core_1_1_c_matrix4.html#a323bfa0e327636c9cd4a5d2b781b3a60",tooltip="Gets the inversed matrix of this one."];
  Node5 -> Node6 [dir="back",color="midnightblue",fontsize="10",style="solid",fontname="Helvetica"];
  Node6 [label="irr::core::CMatrix4\l::CMatrix4",height=0.2,width=0.4,color="black", fillcolor="white", style="filled",URL="$classirr_1_1core_1_1_c_matrix4.html#acdb7afc2248d97a7e882cd1bdeed07b7",tooltip="Copy constructor."];
  Node1 -> Node7 [dir="back",color="midnightblue",fontsize="10",style="solid",fontname="Helvetica"];
  Node7 [label="irr::core::CMatrix4\l::getRotationDegrees",height=0.2,width=0.4,color="black", fillcolor="white", style="filled",URL="$classirr_1_1core_1_1_c_matrix4.html#ad334281fcd12eb5acda020981706b759",tooltip="Returns the rotation, as set by setRotation()."];
  Node1 -> Node8 [dir="back",color="midnightblue",fontsize="10",style="solid",fontname="Helvetica"];
  Node8 [label="irr::core::quaternion\l::slerp",height=0.2,width=0.4,color="black", fillcolor="white", style="filled",URL="$classirr_1_1core_1_1quaternion.html#a91335e9fdb50c3cfc2042aa9a4bfdf68",tooltip="Set this quaternion to the result of the spherical interpolation between two quaternions."];
  Node1 -> Node9 [dir="back",color="midnightblue",fontsize="10",style="solid",fontname="Helvetica"];
  Node9 [label="irr::core::quaternion\l::toAngleAxis",height=0.2,width=0.4,color="black", fillcolor="white", style="filled",URL="$classirr_1_1core_1_1quaternion.html#a8fc3d916f9220440bb49f8c8973429b8",tooltip="Fills an angle (radians) around an axis (unit vector)"];
}
