digraph "irr::core::round32"
{
 // LATEX_PDF_SIZE
  edge [fontname="Helvetica",fontsize="10",labelfontname="Helvetica",labelfontsize="10"];
  node [fontname="Helvetica",fontsize="10",shape=record];
  rankdir="RL";
  Node1 [label="irr::core::round32",height=0.2,width=0.4,color="black", fillcolor="grey75", style="filled", fontcolor="black",tooltip=" "];
  Node1 -> Node2 [dir="back",color="midnightblue",fontsize="10",style="solid",fontname="Helvetica"];
  Node2 [label="irr::video::SColor\l::getInterpolated",height=0.2,width=0.4,color="black", fillcolor="white", style="filled",URL="$classirr_1_1video_1_1_s_color.html#a20bfa471b5cf672db83355c181a3cae6",tooltip="Interpolates the color with a f32 value to another color."];
  Node2 -> Node3 [dir="back",color="midnightblue",fontsize="10",style="solid",fontname="Helvetica"];
  Node3 [label="irr::video::S3DVertex\l::getInterpolated",height=0.2,width=0.4,color="black", fillcolor="white", style="filled",URL="$structirr_1_1video_1_1_s3_d_vertex.html#aff56b2ace8f6c07acdd9b485d51e19b7",tooltip=" "];
  Node2 -> Node4 [dir="back",color="midnightblue",fontsize="10",style="solid",fontname="Helvetica"];
  Node4 [label="irr::video::S3DVertex2TCoords\l::getInterpolated",height=0.2,width=0.4,color="black", fillcolor="white", style="filled",URL="$structirr_1_1video_1_1_s3_d_vertex2_t_coords.html#a0d637a26b92358b85639a2d1079d1aa7",tooltip=" "];
  Node2 -> Node5 [dir="back",color="midnightblue",fontsize="10",style="solid",fontname="Helvetica"];
  Node5 [label="irr::video::S3DVertexTangents\l::getInterpolated",height=0.2,width=0.4,color="black", fillcolor="white", style="filled",URL="$structirr_1_1video_1_1_s3_d_vertex_tangents.html#ac2b549c2bb1a13939789100411a1d3e6",tooltip=" "];
  Node2 -> Node6 [dir="back",color="midnightblue",fontsize="10",style="solid",fontname="Helvetica"];
  Node6 [label="irr::scene::SVertexColor\lInterpolateLinearManipulator\l::operator()",height=0.2,width=0.4,color="black", fillcolor="white", style="filled",URL="$classirr_1_1scene_1_1_s_vertex_color_interpolate_linear_manipulator.html#a20f459ac91fef8ab949382261dbdb8bf",tooltip=" "];
  Node1 -> Node7 [dir="back",color="midnightblue",fontsize="10",style="solid",fontname="Helvetica"];
  Node7 [label="irr::core::vector3d\l\< f32 \>::getSphericalCoordinate\lAngles",height=0.2,width=0.4,color="black", fillcolor="white", style="filled",URL="$classirr_1_1core_1_1vector3d.html#a5c6d648a1d17754567a6617e145ead27",tooltip=" "];
  Node1 -> Node8 [dir="back",color="midnightblue",fontsize="10",style="solid",fontname="Helvetica"];
  Node8 [label="irr::scene::SVertexColor\lContrastManipulator::operator()",height=0.2,width=0.4,color="black", fillcolor="white", style="filled",URL="$classirr_1_1scene_1_1_s_vertex_color_contrast_manipulator.html#a7adeb77e264b6b9b3d9e5b15f4d7ab81",tooltip=" "];
  Node1 -> Node9 [dir="back",color="midnightblue",fontsize="10",style="solid",fontname="Helvetica"];
  Node9 [label="irr::scene::SVertexColor\lContrastBrightnessManipulator\l::operator()",height=0.2,width=0.4,color="black", fillcolor="white", style="filled",URL="$classirr_1_1scene_1_1_s_vertex_color_contrast_brightness_manipulator.html#a6cba6dba338abc6da855736085c76ba9",tooltip=" "];
  Node1 -> Node10 [dir="back",color="midnightblue",fontsize="10",style="solid",fontname="Helvetica"];
  Node10 [label="irr::scene::SVertexColor\lGammaManipulator::operator()",height=0.2,width=0.4,color="black", fillcolor="white", style="filled",URL="$classirr_1_1scene_1_1_s_vertex_color_gamma_manipulator.html#a49e984066700a72b9873c973e9ded15c",tooltip=" "];
  Node1 -> Node11 [dir="back",color="midnightblue",fontsize="10",style="solid",fontname="Helvetica"];
  Node11 [label="irr::scene::SVertexColor\lScaleManipulator::operator()",height=0.2,width=0.4,color="black", fillcolor="white", style="filled",URL="$classirr_1_1scene_1_1_s_vertex_color_scale_manipulator.html#af14234891a4df945f3433f21f9f54f7d",tooltip=" "];
  Node1 -> Node12 [dir="back",color="midnightblue",fontsize="10",style="solid",fontname="Helvetica"];
  Node12 [label="irr::scene::SVertexColor\lDesaturateToLightnessManipulator\l::operator()",height=0.2,width=0.4,color="black", fillcolor="white", style="filled",URL="$classirr_1_1scene_1_1_s_vertex_color_desaturate_to_lightness_manipulator.html#ad5b312bce8c7daec2b0340ee13893849",tooltip=" "];
  Node1 -> Node13 [dir="back",color="midnightblue",fontsize="10",style="solid",fontname="Helvetica"];
  Node13 [label="irr::scene::SVertexColor\lDesaturateToLuminanceManipulator\l::operator()",height=0.2,width=0.4,color="black", fillcolor="white", style="filled",URL="$classirr_1_1scene_1_1_s_vertex_color_desaturate_to_luminance_manipulator.html#a583589d3a02441f75c40e53e2541fc56",tooltip=" "];
  Node1 -> Node14 [dir="back",color="midnightblue",fontsize="10",style="solid",fontname="Helvetica"];
  Node14 [label="irr::gui::IGUIElement\l::recalculateAbsolutePosition",height=0.2,width=0.4,color="black", fillcolor="white", style="filled",URL="$classirr_1_1gui_1_1_i_g_u_i_element.html#a436d80ee161086389d7f3537ca062e4a",tooltip=" "];
  Node14 -> Node15 [dir="back",color="midnightblue",fontsize="10",style="solid",fontname="Helvetica"];
  Node15 [label="irr::gui::IGUIElement\l::IGUIElement",height=0.2,width=0.4,color="black", fillcolor="white", style="filled",URL="$classirr_1_1gui_1_1_i_g_u_i_element.html#a540fb9b2617696ef421d5510b4d96fea",tooltip="Constructor."];
  Node14 -> Node16 [dir="back",color="midnightblue",fontsize="10",style="solid",fontname="Helvetica"];
  Node16 [label="irr::gui::IGUIElement\l::updateAbsolutePosition",height=0.2,width=0.4,color="black", fillcolor="white", style="filled",URL="$classirr_1_1gui_1_1_i_g_u_i_element.html#ad58bbeba69a118873a5075d86b4c90f2",tooltip="Updates the absolute position."];
  Node16 -> Node17 [dir="back",color="midnightblue",fontsize="10",style="solid",fontname="Helvetica"];
  Node17 [label="irr::gui::IGUIElement\l::addChild",height=0.2,width=0.4,color="black", fillcolor="white", style="filled",URL="$classirr_1_1gui_1_1_i_g_u_i_element.html#a221c8505217aa9c23c621627a0435554",tooltip="Adds a GUI element as new child of this element."];
  Node16 -> Node18 [dir="back",color="midnightblue",fontsize="10",style="solid",fontname="Helvetica"];
  Node18 [label="irr::gui::IGUIElement\l::setMaxSize",height=0.2,width=0.4,color="black", fillcolor="white", style="filled",URL="$classirr_1_1gui_1_1_i_g_u_i_element.html#ae80ad7253fb9fb2ebbeda2a8148fff3e",tooltip="Sets the maximum size allowed for this element."];
  Node18 -> Node19 [dir="back",color="midnightblue",fontsize="10",style="solid",fontname="Helvetica"];
  Node19 [label="irr::gui::IGUIElement\l::deserializeAttributes",height=0.2,width=0.4,color="black", fillcolor="white", style="filled",URL="$classirr_1_1gui_1_1_i_g_u_i_element.html#af71b96163b8d95816cd9c80fbf413b4d",tooltip="Reads attributes of the scene node."];
  Node16 -> Node20 [dir="back",color="midnightblue",fontsize="10",style="solid",fontname="Helvetica"];
  Node20 [label="irr::gui::IGUIElement\l::setMinSize",height=0.2,width=0.4,color="black", fillcolor="white", style="filled",URL="$classirr_1_1gui_1_1_i_g_u_i_element.html#ae1ddcdd58af93fea900bd6295d4d8e61",tooltip="Sets the minimum size allowed for this element."];
  Node20 -> Node19 [dir="back",color="midnightblue",fontsize="10",style="solid",fontname="Helvetica"];
  Node16 -> Node21 [dir="back",color="midnightblue",fontsize="10",style="solid",fontname="Helvetica"];
  Node21 [label="irr::gui::IGUIElement\l::setNotClipped",height=0.2,width=0.4,color="black", fillcolor="white", style="filled",URL="$classirr_1_1gui_1_1_i_g_u_i_element.html#a814d322989acafa74c895e5c13908b86",tooltip="Sets whether the element will ignore its parent's clipping rectangle."];
  Node21 -> Node19 [dir="back",color="midnightblue",fontsize="10",style="solid",fontname="Helvetica"];
  Node16 -> Node22 [dir="back",color="midnightblue",fontsize="10",style="solid",fontname="Helvetica"];
  Node22 [label="irr::gui::IGUIElement\l::setRelativePosition",height=0.2,width=0.4,color="black", fillcolor="white", style="filled",URL="$classirr_1_1gui_1_1_i_g_u_i_element.html#a0e5bb2d0a2e88e30d3697652f8dd7034",tooltip="Sets the relative rectangle of this element."];
  Node22 -> Node19 [dir="back",color="midnightblue",fontsize="10",style="solid",fontname="Helvetica"];
  Node22 -> Node23 [dir="back",color="midnightblue",fontsize="10",style="solid",fontname="Helvetica"];
  Node23 [label="irr::gui::IGUIElement\l::move",height=0.2,width=0.4,color="black", fillcolor="white", style="filled",URL="$classirr_1_1gui_1_1_i_g_u_i_element.html#a842eeacfcb26865416b084593a774704",tooltip="Moves this element."];
  Node22 -> Node24 [dir="back",color="midnightblue",fontsize="10",style="solid",fontname="Helvetica"];
  Node24 [label="irr::gui::IGUIElement\l::setRelativePosition",height=0.2,width=0.4,color="black", fillcolor="white", style="filled",URL="$classirr_1_1gui_1_1_i_g_u_i_element.html#aba1cfc75daa28e53a021faa2d954b79b",tooltip="Sets the relative rectangle of this element, maintaining its current width and height."];
  Node16 -> Node25 [dir="back",color="midnightblue",fontsize="10",style="solid",fontname="Helvetica"];
  Node25 [label="irr::gui::IGUIElement\l::setRelativePositionProportional",height=0.2,width=0.4,color="black", fillcolor="white", style="filled",URL="$classirr_1_1gui_1_1_i_g_u_i_element.html#aa67e02ab54db1068e7c057721d2f24a5",tooltip="Sets the relative rectangle of this element as a proportion of its parent's area."];
  Node1 -> Node26 [dir="back",color="midnightblue",fontsize="10",style="solid",fontname="Helvetica"];
  Node26 [label="irr::video::SColorf\l::toSColor",height=0.2,width=0.4,color="black", fillcolor="white", style="filled",URL="$classirr_1_1video_1_1_s_colorf.html#ac2f8bda88252139531ce041819aabee6",tooltip="Converts this color to a SColor without floats."];
}
