digraph "irr::core::strtoul10"
{
 // LATEX_PDF_SIZE
  edge [fontname="Helvetica",fontsize="10",labelfontname="Helvetica",labelfontsize="10"];
  node [fontname="Helvetica",fontsize="10",shape=record];
  rankdir="RL";
  Node1 [label="irr::core::strtoul10",height=0.2,width=0.4,color="black", fillcolor="grey75", style="filled", fontcolor="black",tooltip="Convert a simple string of base 10 digits into an unsigned 32 bit integer."];
  Node1 -> Node2 [dir="back",color="midnightblue",fontsize="10",style="solid",fontname="Helvetica"];
  Node2 [label="irr::core::strtol10",height=0.2,width=0.4,color="black", fillcolor="white", style="filled",URL="$namespaceirr_1_1core.html#a6ff97e442233218d18acd56add48766f",tooltip="Convert a simple string of base 10 digits into a signed 32 bit integer."];
  Node2 -> Node3 [dir="back",color="midnightblue",fontsize="10",style="solid",fontname="Helvetica"];
  Node3 [label="irr::core::fast_atof_move",height=0.2,width=0.4,color="black", fillcolor="white", style="filled",URL="$namespaceirr_1_1core.html#ae5806ec05e45a700461890ec5e6f602a",tooltip="Provides a fast function for converting a string into a float."];
  Node3 -> Node4 [dir="back",color="midnightblue",fontsize="10",style="solid",fontname="Helvetica"];
  Node4 [label="irr::core::fast_atof",height=0.2,width=0.4,color="black", fillcolor="white", style="filled",URL="$namespaceirr_1_1core.html#af69b7d3604a1089438106fcce3cedb34",tooltip="Convert a string to a floating point number."];
  Node3 -> Node5 [dir="back",color="midnightblue",fontsize="10",style="solid",fontname="Helvetica"];
  Node5 [label="irr::scene::quake3\l::getAsFloat",height=0.2,width=0.4,color="black", fillcolor="white", style="filled",URL="$namespaceirr_1_1scene_1_1quake3.html#adca7fb6948f37384aca94a4c9ac73f14",tooltip=" "];
  Node5 -> Node6 [dir="back",color="midnightblue",fontsize="10",style="solid",fontname="Helvetica"];
  Node6 [label="irr::scene::quake3\l::getAsVector3df",height=0.2,width=0.4,color="black", fillcolor="white", style="filled",URL="$namespaceirr_1_1scene_1_1quake3.html#a6163d5a7fba9950a2f390a42fe354c3f",tooltip="get a quake3 vector translated to irrlicht position (x,-z,y )"];
  Node5 -> Node7 [dir="back",color="midnightblue",fontsize="10",style="solid",fontname="Helvetica"];
  Node7 [label="irr::scene::quake3\l::getModifierFunc",height=0.2,width=0.4,color="black", fillcolor="white", style="filled",URL="$namespaceirr_1_1scene_1_1quake3.html#ab59ba2d88dbbba77dbc5f98cc78848af",tooltip=" "];
  Node1 -> Node8 [dir="back",color="midnightblue",fontsize="10",style="solid",fontname="Helvetica"];
  Node8 [label="irr::core::strtoul\l_prefix",height=0.2,width=0.4,color="black", fillcolor="white", style="filled",URL="$namespaceirr_1_1core.html#ad67ad09c33fe26fa9a15aa10ded801b7",tooltip="Convert a C-style prefixed string (hex, oct, integer) into an unsigned 32 bit integer."];
}
