digraph "irr::core::strtoul_prefix"
{
 // LATEX_PDF_SIZE
  edge [fontname="Helvetica",fontsize="10",labelfontname="Helvetica",labelfontsize="10"];
  node [fontname="Helvetica",fontsize="10",shape=record];
  rankdir="LR";
  Node1 [label="irr::core::strtoul\l_prefix",height=0.2,width=0.4,color="black", fillcolor="grey75", style="filled", fontcolor="black",tooltip="Convert a C-style prefixed string (hex, oct, integer) into an unsigned 32 bit integer."];
  Node1 -> Node2 [color="midnightblue",fontsize="10",style="solid",fontname="Helvetica"];
  Node2 [label="irr::core::strtoul10",height=0.2,width=0.4,color="black", fillcolor="white", style="filled",URL="$namespaceirr_1_1core.html#ae7f759b603f4caaa8471cb9bc2e23648",tooltip="Convert a simple string of base 10 digits into an unsigned 32 bit integer."];
  Node1 -> Node3 [color="midnightblue",fontsize="10",style="solid",fontname="Helvetica"];
  Node3 [label="irr::core::strtoul16",height=0.2,width=0.4,color="black", fillcolor="white", style="filled",URL="$namespaceirr_1_1core.html#a96fa4fe7401b30c9057a0dbc7cd27c73",tooltip="Convert a simple string of base 16 digits into an unsigned 32 bit integer."];
  Node1 -> Node4 [color="midnightblue",fontsize="10",style="solid",fontname="Helvetica"];
  Node4 [label="irr::core::strtoul8",height=0.2,width=0.4,color="black", fillcolor="white", style="filled",URL="$namespaceirr_1_1core.html#a005590192e3f22d79759d98d42844b38",tooltip="Convert a simple string of base 8 digits into an unsigned 32 bit integer."];
}
