digraph "irr::scene::quake3::getDepthFunction"
{
 // LATEX_PDF_SIZE
  edge [fontname="Helvetica",fontsize="10",labelfontname="Helvetica",labelfontsize="10"];
  node [fontname="Helvetica",fontsize="10",shape=record];
  rankdir="LR";
  Node1 [label="irr::scene::quake3\l::getDepthFunction",height=0.2,width=0.4,color="black", fillcolor="grey75", style="filled", fontcolor="black",tooltip=" "];
  Node1 -> Node2 [color="midnightblue",fontsize="10",style="solid",fontname="Helvetica"];
  Node2 [label="irr::scene::quake3\l::isEqual",height=0.2,width=0.4,color="black", fillcolor="white", style="filled",URL="$namespaceirr_1_1scene_1_1quake3.html#a3d99d316c147cbd82f32311a1c9e9edb",tooltip=" "];
}
