digraph "irr::scene::ISkinnedMesh::SJoint"
{
 // LATEX_PDF_SIZE
  edge [fontname="Helvetica",fontsize="10",labelfontname="Helvetica",labelfontsize="10"];
  node [fontname="Helvetica",fontsize="10",shape=record];
  rankdir="LR";
  Node1 [label="irr::scene::ISkinnedMesh\l::SJoint",height=0.2,width=0.4,color="black", fillcolor="grey75", style="filled", fontcolor="black",tooltip="Joints."];
  Node2 -> Node1 [dir="back",color="darkorchid3",fontsize="10",style="dashed",label=" Animatedposition\nAnimatedscale" ,fontname="Helvetica"];
  Node2 [label="irr::core::vector3d\l\< f32 \>",height=0.2,width=0.4,color="black", fillcolor="white", style="filled",URL="$classirr_1_1core_1_1vector3d.html",tooltip=" "];
  Node3 -> Node1 [dir="back",color="darkorchid3",fontsize="10",style="dashed",label=" Weights" ,fontname="Helvetica"];
  Node3 [label="irr::core::array\< irr\l::scene::ISkinnedMesh\l::SWeight \>",height=0.2,width=0.4,color="black", fillcolor="white", style="filled",URL="$classirr_1_1core_1_1array.html",tooltip=" "];
  Node4 -> Node1 [dir="back",color="darkorchid3",fontsize="10",style="dashed",label=" ScaleKeys" ,fontname="Helvetica"];
  Node4 [label="irr::core::array\< irr\l::scene::ISkinnedMesh\l::SScaleKey \>",height=0.2,width=0.4,color="black", fillcolor="white", style="filled",URL="$classirr_1_1core_1_1array.html",tooltip=" "];
  Node5 -> Node1 [dir="back",color="darkorchid3",fontsize="10",style="dashed",label=" PositionKeys" ,fontname="Helvetica"];
  Node5 [label="irr::core::array\< irr\l::scene::ISkinnedMesh\l::SPositionKey \>",height=0.2,width=0.4,color="black", fillcolor="white", style="filled",URL="$classirr_1_1core_1_1array.html",tooltip=" "];
  Node6 -> Node1 [dir="back",color="darkorchid3",fontsize="10",style="dashed",label=" AttachedMeshes" ,fontname="Helvetica"];
  Node6 [label="irr::core::array\< u32 \>",height=0.2,width=0.4,color="black", fillcolor="white", style="filled",URL="$classirr_1_1core_1_1array.html",tooltip=" "];
  Node7 -> Node1 [dir="back",color="darkorchid3",fontsize="10",style="dashed",label=" Children" ,fontname="Helvetica"];
  Node7 [label="irr::core::array\< irr\l::scene::ISkinnedMesh\l::SJoint * \>",height=0.2,width=0.4,color="black", fillcolor="white", style="filled",URL="$classirr_1_1core_1_1array.html",tooltip=" "];
  Node8 -> Node1 [dir="back",color="darkorchid3",fontsize="10",style="dashed",label=" Animatedrotation" ,fontname="Helvetica"];
  Node8 [label="irr::core::quaternion",height=0.2,width=0.4,color="black", fillcolor="white", style="filled",URL="$classirr_1_1core_1_1quaternion.html",tooltip="Quaternion class for representing rotations."];
  Node9 -> Node1 [dir="back",color="darkorchid3",fontsize="10",style="dashed",label=" RotationKeys" ,fontname="Helvetica"];
  Node9 [label="irr::core::array\< irr\l::scene::ISkinnedMesh\l::SRotationKey \>",height=0.2,width=0.4,color="black", fillcolor="white", style="filled",URL="$classirr_1_1core_1_1array.html",tooltip=" "];
}
