digraph "irr::scene::SMD3QuaternionTag::setto"
{
 // LATEX_PDF_SIZE
  edge [fontname="Helvetica",fontsize="10",labelfontname="Helvetica",labelfontsize="10"];
  node [fontname="Helvetica",fontsize="10",shape=record];
  rankdir="LR";
  Node1 [label="irr::scene::SMD3Quaternion\lTag::setto",height=0.2,width=0.4,color="black", fillcolor="grey75", style="filled", fontcolor="black",tooltip=" "];
  Node1 -> Node2 [color="midnightblue",fontsize="10",style="solid",fontname="Helvetica"];
  Node2 [label="irr::core::quaternion\l::getMatrix",height=0.2,width=0.4,color="black", fillcolor="white", style="filled",URL="$classirr_1_1core_1_1quaternion.html#a23c2056aa77d1d53b2cebce7cf05ea47",tooltip="Creates a matrix from this quaternion."];
}
