digraph "irr::io::SNamedPath::PathToName"
{
 // LATEX_PDF_SIZE
  edge [fontname="Helvetica",fontsize="10",labelfontname="Helvetica",labelfontsize="10"];
  node [fontname="Helvetica",fontsize="10",shape=record];
  rankdir="RL";
  Node1 [label="irr::io::SNamedPath\l::PathToName",height=0.2,width=0.4,color="black", fillcolor="grey75", style="filled", fontcolor="black",tooltip=" "];
  Node1 -> Node2 [dir="back",color="midnightblue",fontsize="10",style="solid",fontname="Helvetica"];
  Node2 [label="irr::io::SNamedPath\l::setPath",height=0.2,width=0.4,color="black", fillcolor="white", style="filled",URL="$structirr_1_1io_1_1_s_named_path.html#a2c802b7579938e06bd858d5edade3d72",tooltip="Set the path."];
}
