digraph "sf::Joystick::Identification"
{
 // LATEX_PDF_SIZE
  edge [fontname="Helvetica",fontsize="10",labelfontname="Helvetica",labelfontsize="10"];
  node [fontname="Helvetica",fontsize="10",shape=record];
  Node1 [label="sf::Joystick::Identification",height=0.2,width=0.4,color="black", fillcolor="grey75", style="filled", fontcolor="black",tooltip="Structure holding a joystick's identification."];
  Node2 -> Node1 [dir="back",color="darkorchid3",fontsize="10",style="dashed",label=" name" ,fontname="Helvetica"];
  Node2 [label="sf::String",height=0.2,width=0.4,color="black", fillcolor="white", style="filled",URL="$classsf_1_1_string.html",tooltip="Utility string class that automatically handles conversions between types and encodings."];
}
