digraph "priv::ThreadFunctorWithArg&lt; F, A &gt;"
{
 // LATEX_PDF_SIZE
  edge [fontname="Helvetica",fontsize="10",labelfontname="Helvetica",labelfontsize="10"];
  node [fontname="Helvetica",fontsize="10",shape=record];
  Node1 [label="priv::ThreadFunctorWithArg\l\< F, A \>",height=0.2,width=0.4,color="black", fillcolor="grey75", style="filled", fontcolor="black",tooltip=" "];
  Node2 -> Node1 [dir="back",color="midnightblue",fontsize="10",style="solid",fontname="Helvetica"];
  Node2 [label="priv::ThreadFunc",height=0.2,width=0.4,color="black", fillcolor="white", style="filled",URL="$structpriv_1_1_thread_func.html",tooltip=" "];
}
