digraph "irr::core::FloatIntUnion32::sign"
{
 // LATEX_PDF_SIZE
  edge [fontname="Helvetica",fontsize="10",labelfontname="Helvetica",labelfontsize="10"];
  node [fontname="Helvetica",fontsize="10",shape=record];
  rankdir="RL";
  Node1 [label="irr::core::FloatIntUnion32\l::sign",height=0.2,width=0.4,color="black", fillcolor="grey75", style="filled", fontcolor="black",tooltip=" "];
  Node1 -> Node2 [dir="back",color="midnightblue",fontsize="10",style="solid",fontname="Helvetica"];
  Node2 [label="irr::core::equalsByUlp",height=0.2,width=0.4,color="black", fillcolor="white", style="filled",URL="$namespaceirr_1_1core.html#a730a85283e04b33debcf3b755e5b7603",tooltip="We compare the difference in ULP's (spacing between floating-point numbers, aka ULP=1 means there exi..."];
}
